[
  ["x1","x2","x3","x4","x5","x6","x7","x8","x9","x10","x11","x12","x13","x14","x15","x16","x17","x18"],
  [
    [[[2,0,1,0,0,0,0,0,0,0,0,0,0,0,0,0,0,0,0],1],[[2,1,0,0,0,0,0,0,0,0,0,0,0,0,0,0,0,0,0],-1],[[3,0,0,0,0,0,0,1,0,0,0,0,0,0,0,0,0,0,0],1]],
    [[[1,0,1,0,0,0,0,0,0,0,0,0,0,0,0,0,0,0,0],-1],[[2,0,0,0,0,0,0,0,1,0,0,0,0,0,0,0,0,0,0],1],[[2,0,1,0,0,0,0,0,0,0,0,0,0,0,0,0,0,0,0],-1]],
    [[[2,0,0,0,0,0,1,0,0,0,0,0,0,0,0,0,0,0,0],1],[[3,0,0,0,0,0,0,0,0,0,1,0,0,0,0,0,0,0,0],1],[[3,0,0,1,0,0,0,0,0,0,0,0,0,0,0,0,0,0,0],-1]],
    [[[1,0,0,0,1,0,0,0,0,0,0,0,0,0,0,0,0,0,0],-1],[[2,0,0,0,1,0,0,0,0,0,0,0,0,0,0,0,0,0,0],-1],[[3,0,0,0,0,0,0,0,0,0,0,1,0,0,0,0,0,0,0],1]],
    [[[2,0,0,0,0,1,0,0,0,0,0,0,0,0,0,0,0,0,0],-1],[[2,0,0,0,1,0,0,0,0,0,0,0,0,0,0,0,0,0,0],1],[[3,0,0,0,0,0,0,0,0,1,0,0,0,0,0,0,0,0,0],1]],
    [[[2,0,0,0,0,0,0,0,0,0,0,0,1,0,0,0,0,0,0],1],[[2,0,0,0,0,0,1,0,0,0,0,0,0,0,0,0,0,0,0],-1]],
    [[[-27,0,0,0,0,0,0,1,0,0,0,0,0,0,0,0,0,0,0],-1],[[-26,0,0,0,0,0,0,0,0,0,0,0,0,0,0,0,0,1,0],1],[[-26,0,0,0,0,0,0,1,0,0,0,0,0,0,0,0,0,0,0],1],[[-24,0,0,0,0,0,0,1,1,0,0,0,0,0,0,0,0,0,0],-1],[[-23,0,0,0,0,0,0,0,1,0,0,0,0,0,0,0,0,0,0],1],[[-23,0,0,0,0,0,0,0,1,0,0,0,0,0,0,0,0,1,0],1],[[-23,0,0,0,0,0,0,1,0,0,0,0,0,0,0,0,0,0,0],-1],[[-23,0,0,0,0,0,0,1,1,0,0,0,0,0,0,0,0,0,0],1],[[-23,0,0,0,0,0,0,2,0,0,0,0,0,0,0,0,0,0,0],-1],[[-23,1,0,0,0,0,0,0,0,0,0,0,0,0,0,0,0,0,0],1],[[-22,0,0,0,0,0,0,1,0,0,0,0,0,0,0,0,0,0,0],-1],[[-22,0,0,0,0,0,0,1,0,0,0,0,0,0,0,0,0,1,0],1],[[-22,0,0,0,0,0,0,2,0,0,0,0,0,0,0,0,0,0,0],1],[[-21,0,0,0,0,0,0,0,1,0,0,0,0,0,0,0,0,0,0],1],[[-20,0,0,0,0,0,0,0,2,0,0,0,0,0,0,0,0,0,0],1],[[-20,0,0,0,0,0,0,2,1,0,0,0,0,0,0,0,0,0,0],-1],[[-20,1,0,0,0,0,0,0,1,0,0,0,0,0,0,0,0,0,0],1],[[-19,0,0,0,0,0,0,1,1,0,0,0,0,0,0,0,0,0,0],0],[[-19,0,0,0,0,0,0,1,1,0,0,0,0,0,0,0,0,1,0],1],[[-19,0,0,0,0,0,0,2,0,0,0,0,0,0,0,0,0,0,0],-1],[[-19,0,0,0,0,0,0,2,1,0,0,0,0,0,0,0,0,0,0],1],[[-19,0,0,0,0,0,0,3,0,0,0,0,0,0,0,0,0,0,0],-1],[[-19,1,0,0,0,0,0,1,0,0,0,0,0,0,0,0,0,0,0],1],[[-18,0,0,0,0,0,0,0,2,0,0,0,0,0,0,0,0,0,0],1],[[-18,0,0,0,0,0,0,2,0,0,0,0,0,0,0,0,0,0,0],-1],[[-18,0,0,0,0,0,0,2,0,0,0,0,0,0,0,0,0,1,0],1],[[-18,0,0,0,0,0,0,3,0,0,0,0,0,0,0,0,0,0,0],0],[[-17,0,0,0,0,0,0,1,1,0,0,0,0,0,0,0,0,0,0],1],[[-17,0,0,0,0,0,0,2,0,0,0,0,0,0,0,0,0,1,0],1],[[-17,0,0,0,0,0,0,3,0,0,0,0,0,0,0,0,0,0,0],1],[[-16,0,0,0,0,0,0,1,2,0,0,0,0,0,0,0,0,0,0],1],[[-16,1,0,0,0,0,0,1,1,0,0,0,0,0,0,0,0,0,0],1],[[-15,0,0,0,0,0,0,2,1,0,0,0,0,0,0,0,0,0,0],0],[[-15,0,0,0,0,0,0,3,1,0,0,0,0,0,0,0,0,0,0],-1],[[-15,1,0,0,0,0,0,2,0,0,0,0,0,0,0,0,0,0,0],1],[[-14,0,0,0,0,0,0,1,2,0,0,0,0,0,0,0,0,0,0],1],[[-14,0,0,0,0,0,0,2,1,0,0,0,0,0,0,0,0,0,0],1],[[-14,0,0,0,0,0,0,2,1,0,0,0,0,0,0,0,0,1,0],1],[[-14,0,0,0,0,0,0,3,0,0,0,0,0,0,0,0,0,0,0],-1],[[-14,0,0,0,0,0,0,3,1,0,0,0,0,0,0,0,0,0,0],1],[[-14,0,0,0,0,0,0,4,0,0,0,0,0,0,0,0,0,0,0],-1],[[-14,1,0,0,0,0,0,2,0,0,0,0,0,0,0,0,0,0,0],1],[[-13,0,0,0,0,0,0,2,1,0,0,0,0,0,0,0,0,0,0],1],[[-13,0,0,0,0,0,0,3,0,0,0,0,0,0,0,0,0,0,0],-1],[[-13,0,0,0,0,0,0,3,0,0,0,0,0,0,0,0,0,1,0],1],[[-13,0,0,0,0,0,0,4,0,0,0,0,0,0,0,0,0,0,0],1],[[-12,0,0,0,0,0,0,2,1,0,0,0,0,0,0,0,0,0,0],1],[[-11,0,0,0,0,0,0,2,2,0,0,0,0,0,0,0,0,0,0],1],[[-11,1,0,0,0,0,0,2,1,0,0,0,0,0,0,0,0,0,0],1],[[-10,0,0,0,0,0,0,3,1,0,0,0,0,0,0,0,0,0,0],0],[[-10,1,0,0,0,0,0,3,0,0,0,0,0,0,0,0,0,0,0],1],[[-9,0,0,0,0,0,0,2,2,0,0,0,0,0,0,0,0,0,0],1],[[-9,0,0,0,0,0,0,4,0,0,0,0,0,0,0,0,0,0,0],-1],[[-8,0,0,0,0,0,0,3,1,0,0,0,0,0,0,0,0,0,0],1]],
    [[[-27,0,0,0,0,0,0,0,1,0,0,0,0,0,0,0,0,0,0],-1],[[-26,0,0,0,0,0,0,0,0,0,0,0,0,0,0,0,0,0,1],1],[[-26,0,0,0,0,0,0,0,1,0,0,0,0,0,0,0,0,0,0],1],[[-24,0,0,0,0,0,0,0,1,0,0,0,0,0,0,0,0,0,0],-1],[[-24,0,0,0,0,0,0,0,2,0,0,0,0,0,0,0,0,0,0],-1],[[-24,0,1,0,0,0,0,0,0,0,0,0,0,0,0,0,0,0,0],1],[[-23,0,0,0,0,0,0,0,1,0,0,0,0,0,0,0,0,0,0],-1],[[-23,0,0,0,0,0,0,0,1,0,0,0,0,0,0,0,0,0,1],1],[[-23,0,0,0,0,0,0,0,2,0,0,0,0,0,0,0,0,0,0],1],[[-23,0,0,0,0,0,0,1,1,0,0,0,0,0,0,0,0,0,0],-1],[[-22,0,0,0,0,0,0,1,0,0,0,0,0,0,0,0,0,0,0],1],[[-22,0,0,0,0,0,0,1,0,0,0,0,0,0,0,0,0,0,1],1],[[-22,0,0,0,0,0,0,1,1,0,0,0,0,0,0,0,0,0,0],1],[[-21,0,0,0,0,0,0,0,1,0,0,0,0,0,0,0,0,0,0],-1],[[-21,0,1,0,0,0,0,0,1,0,0,0,0,0,0,0,0,0,0],1],[[-20,0,0,0,0,0,0,0,2,0,0,0,0,0,0,0,0,0,0],-1],[[-20,0,0,0,0,0,0,1,1,0,0,0,0,0,0,0,0,0,0],-1],[[-20,0,0,0,0,0,0,1,2,0,0,0,0,0,0,0,0,0,0],-1],[[-20,0,1,0,0,0,0,1,0,0,0,0,0,0,0,0,0,0,0],1],[[-19,0,0,0,0,0,0,1,1,0,0,0,0,0,0,0,0,0,0],0],[[-19,0,0,0,0,0,0,1,1,0,0,0,0,0,0,0,0,0,1],1],[[-19,0,0,0,0,0,0,1,2,0,0,0,0,0,0,0,0,0,0],1],[[-19,0,0,0,0,0,0,2,1,0,0,0,0,0,0,0,0,0,0],-1],[[-18,0,0,0,0,0,0,0,2,0,0,0,0,0,0,0,0,0,0],-1],[[-18,0,0,0,0,0,0,2,0,0,0,0,0,0,0,0,0,0,0],1],[[-18,0,0,0,0,0,0,2,0,0,0,0,0,0,0,0,0,0,1],1],[[-18,0,0,0,0,0,0,2,1,0,0,0,0,0,0,0,0,0,0],0],[[-17,0,0,0,0,0,0,1,1,0,0,0,0,0,0,0,0,0,0],-1],[[-17,0,0,0,0,0,0,2,0,0,0,0,0,0,0,0,0,0,1],1],[[-17,0,0,0,0,0,0,2,1,0,0,0,0,0,0,0,0,0,0],1],[[-17,0,1,0,0,0,0,1,1,0,0,0,0,0,0,0,0,0,0],1],[[-16,0,0,0,0,0,0,1,2,0,0,0,0,0,0,0,0,0,0],-1],[[-16,0,1,0,0,0,0,2,0,0,0,0,0,0,0,0,0,0,0],1],[[-15,0,0,0,0,0,0,2,1,0,0,0,0,0,0,0,0,0,0],-1],[[-15,0,0,0,0,0,0,2,2,0,0,0,0,0,0,0,0,0,0],-1],[[-15,0,1,0,0,0,0,2,0,0,0,0,0,0,0,0,0,0,0],1],[[-14,0,0,0,0,0,0,1,2,0,0,0,0,0,0,0,0,0,0],-1],[[-14,0,0,0,0,0,0,2,1,0,0,0,0,0,0,0,0,0,0],-1],[[-14,0,0,0,0,0,0,2,1,0,0,0,0,0,0,0,0,0,1],1],[[-14,0,0,0,0,0,0,2,2,0,0,0,0,0,0,0,0,0,0],1],[[-14,0,0,0,0,0,0,3,1,0,0,0,0,0,0,0,0,0,0],-1],[[-13,0,0,0,0,0,0,2,1,0,0,0,0,0,0,0,0,0,0],-1],[[-13,0,0,0,0,0,0,3,0,0,0,0,0,0,0,0,0,0,1],1],[[-13,0,0,0,0,0,0,3,1,0,0,0,0,0,0,0,0,0,0],1],[[-12,0,0,0,0,0,0,2,1,0,0,0,0,0,0,0,0,0,0],-1],[[-12,0,1,0,0,0,0,2,1,0,0,0,0,0,0,0,0,0,0],1],[[-11,0,0,0,0,0,0,2,2,0,0,0,0,0,0,0,0,0,0],-1],[[-11,0,1,0,0,0,0,3,0,0,0,0,0,0,0,0,0,0,0],1],[[-10,0,0,0,0,0,0,3,1,0,0,0,0,0,0,0,0,0,0],-1],[[-9,0,0,0,0,0,0,2,2,0,0,0,0,0,0,0,0,0,0],-1],[[-8,0,0,0,0,0,0,3,1,0,0,0,0,0,0,0,0,0,0],-1]],
    [[[-18,0,0,0,0,0,0,0,0,1,0,0,0,0,0,0,0,0,0],-1],[[-17,0,0,0,0,0,0,0,0,0,0,0,0,1,0,0,0,0,0],1],[[-17,0,0,0,0,0,0,0,0,1,0,0,0,0,0,0,0,0,0],1],[[-15,0,0,0,0,0,0,0,1,1,0,0,0,0,0,0,0,0,0],-1],[[-14,0,0,0,0,0,0,0,0,0,0,1,0,0,0,0,0,0,0],1],[[-14,0,0,0,0,0,0,0,1,0,0,0,0,1,0,0,0,0,0],1],[[-14,0,0,0,0,0,0,0,1,1,0,0,0,0,0,0,0,0,0],1],[[-14,0,0,0,0,0,0,1,0,1,0,0,0,0,0,0,0,0,0],-1],[[-14,0,0,0,0,1,0,0,0,0,0,0,0,0,0,0,0,0,0],1],[[-13,0,0,0,0,0,0,0,0,1,0,0,0,0,0,0,0,0,0],-1],[[-13,0,0,0,0,0,0,1,0,0,0,0,0,0,0,0,0,0,0],1],[[-13,0,0,0,0,0,0,1,0,0,0,0,0,1,0,0,0,0,0],1],[[-13,0,0,0,0,0,0,1,0,1,0,0,0,0,0,0,0,0,0],1],[[-12,0,0,0,0,0,0,0,0,0,0,1,0,0,0,0,0,0,0],1],[[-11,0,0,0,0,0,0,0,1,0,0,1,0,0,0,0,0,0,0],1],[[-11,0,0,0,0,1,0,0,1,0,0,0,0,0,0,0,0,0,0],1],[[-10,0,0,0,0,0,0,0,1,1,0,0,0,0,0,0,0,0,0],-1],[[-10,0,0,0,0,0,0,1,0,0,0,1,0,0,0,0,0,0,0],1],[[-10,0,0,0,0,1,0,1,0,0,0,0,0,0,0,0,0,0,0],1],[[-9,0,0,0,0,0,0,0,1,0,0,1,0,0,0,0,0,0,0],1],[[-9,0,0,0,0,0,0,1,0,1,0,0,0,0,0,0,0,0,0],-1],[[-8,0,0,0,0,0,0,1,0,0,0,1,0,0,0,0,0,0,0],1]],
    [[[-18,0,0,0,0,0,0,0,0,0,1,0,0,0,0,0,0,0,0],-1],[[-17,0,0,0,0,0,0,0,0,0,0,0,0,0,1,0,0,0,0],1],[[-17,0,0,0,0,0,0,0,0,0,1,0,0,0,0,0,0,0,0],1],[[-15,0,0,0,0,0,0,0,1,0,1,0,0,0,0,0,0,0,0],-1],[[-14,0,0,0,0,0,0,0,0,0,0,0,1,0,0,0,0,0,0],1],[[-14,0,0,0,0,0,0,0,1,0,0,0,0,0,1,0,0,0,0],1],[[-14,0,0,0,0,0,0,0,1,0,1,0,0,0,0,0,0,0,0],1],[[-14,0,0,0,0,0,0,1,0,0,0,0,0,0,0,0,0,0,0],1],[[-14,0,0,0,0,0,0,1,0,0,1,0,0,0,0,0,0,0,0],-1],[[-13,0,0,0,0,0,0,0,0,0,1,0,0,0,0,0,0,0,0],-1],[[-13,0,0,0,0,0,0,1,0,0,0,0,0,0,1,0,0,0,0],1],[[-13,0,0,0,0,0,0,1,0,0,1,0,0,0,0,0,0,0,0],1],[[-13,0,0,1,0,0,0,0,0,0,0,0,0,0,0,0,0,0,0],1],[[-12,0,0,0,0,0,0,0,0,0,0,0,1,0,0,0,0,0,0],1],[[-11,0,0,0,0,0,0,0,1,0,0,0,1,0,0,0,0,0,0],1],[[-10,0,0,0,0,0,0,0,1,0,1,0,0,0,0,0,0,0,0],-1],[[-10,0,0,0,0,0,0,1,0,0,0,0,1,0,0,0,0,0,0],1],[[-10,0,0,1,0,0,0,0,1,0,0,0,0,0,0,0,0,0,0],1],[[-9,0,0,0,0,0,0,0,1,0,0,0,1,0,0,0,0,0,0],1],[[-9,0,0,0,0,0,0,1,0,0,1,0,0,0,0,0,0,0,0],-1],[[-9,0,0,1,0,0,0,1,0,0,0,0,0,0,0,0,0,0,0],1],[[-8,0,0,0,0,0,0,1,0,0,0,0,1,0,0,0,0,0,0],1]],
    [[[-18,0,0,0,0,0,0,0,0,0,0,1,0,0,0,0,0,0,0],-1],[[-17,0,0,0,0,0,0,0,0,0,0,0,0,0,0,1,0,0,0],1],[[-17,0,0,0,0,0,0,0,0,0,0,1,0,0,0,0,0,0,0],1],[[-15,0,0,0,0,0,0,0,1,0,0,1,0,0,0,0,0,0,0],-1],[[-15,0,0,0,1,0,0,0,0,0,0,0,0,0,0,0,0,0,0],1],[[-14,0,0,0,0,0,0,0,0,0,0,1,0,0,0,0,0,0,0],-1],[[-14,0,0,0,0,0,0,0,1,0,0,0,0,0,0,0,0,0,0],1],[[-14,0,0,0,0,0,0,0,1,0,0,0,0,0,0,1,0,0,0],1],[[-14,0,0,0,0,0,0,0,1,0,0,1,0,0,0,0,0,0,0],1],[[-14,0,0,0,0,0,0,1,0,0,0,1,0,0,0,0,0,0,0],-1],[[-13,0,0,0,0,0,0,0,0,0,0,1,0,0,0,0,0,0,0],-1],[[-13,0,0,0,0,0,0,1,0,0,0,0,0,0,0,1,0,0,0],1],[[-13,0,0,0,0,0,0,1,0,0,0,1,0,0,0,0,0,0,0],1],[[-12,0,0,0,0,0,0,0,0,0,0,1,0,0,0,0,0,0,0],-1],[[-12,0,0,0,1,0,0,0,1,0,0,0,0,0,0,0,0,0,0],1],[[-11,0,0,0,0,0,0,0,1,0,0,1,0,0,0,0,0,0,0],-1],[[-11,0,0,0,1,0,0,1,0,0,0,0,0,0,0,0,0,0,0],1],[[-10,0,0,0,0,0,0,0,1,0,0,1,0,0,0,0,0,0,0],-1],[[-10,0,0,0,0,0,0,1,0,0,0,1,0,0,0,0,0,0,0],-1],[[-9,0,0,0,0,0,0,0,1,0,0,1,0,0,0,0,0,0,0],-1],[[-9,0,0,0,0,0,0,1,0,0,0,1,0,0,0,0,0,0,0],-1],[[-8,0,0,0,0,0,0,1,0,0,0,1,0,0,0,0,0,0,0],-1]],
    [[[-18,0,0,0,0,0,0,0,0,0,0,0,1,0,0,0,0,0,0],-1],[[-17,0,0,0,0,0,0,0,0,0,0,0,0,0,0,0,1,0,0],1],[[-17,0,0,0,0,0,0,0,0,0,0,0,1,0,0,0,0,0,0],1],[[-15,0,0,0,0,0,0,0,1,0,0,0,0,0,0,0,0,0,0],1],[[-15,0,0,0,0,0,0,0,1,0,0,0,1,0,0,0,0,0,0],-1],[[-14,0,0,0,0,0,0,0,0,0,0,0,1,0,0,0,0,0,0],-1],[[-14,0,0,0,0,0,0,0,1,0,0,0,0,0,0,0,1,0,0],1],[[-14,0,0,0,0,0,0,0,1,0,0,0,1,0,0,0,0,0,0],1],[[-14,0,0,0,0,0,0,1,0,0,0,0,1,0,0,0,0,0,0],-1],[[-14,0,0,0,0,0,1,0,0,0,0,0,0,0,0,0,0,0,0],1],[[-13,0,0,0,0,0,0,1,0,0,0,0,0,0,0,0,1,0,0],1],[[-13,0,0,0,0,0,0,1,0,0,0,0,1,0,0,0,0,0,0],1],[[-12,0,0,0,0,0,0,0,0,0,0,0,1,0,0,0,0,0,0],-1],[[-11,0,0,0,0,0,0,0,1,0,0,0,1,0,0,0,0,0,0],-1],[[-11,0,0,0,0,0,1,0,1,0,0,0,0,0,0,0,0,0,0],1],[[-10,0,0,0,0,0,0,1,0,0,0,0,1,0,0,0,0,0,0],-1],[[-10,0,0,0,0,0,1,1,0,0,0,0,0,0,0,0,0,0,0],1],[[-9,0,0,0,0,0,0,0,1,0,0,0,1,0,0,0,0,0,0],-1],[[-8,0,0,0,0,0,0,1,0,0,0,0,1,0,0,0,0,0,0],-1]],
    [[[-4,0,0,0,0,0,0,0,0,1,0,0,0,0,0,0,0,0,0],1],[[-3,0,0,0,0,0,0,0,0,0,0,0,0,1,0,0,0,0,0],-1],[[-3,0,0,0,0,0,0,0,0,1,0,0,0,0,0,0,0,0,0],-1]],
    [[[-4,0,0,0,0,0,0,0,0,0,1,0,0,0,0,0,0,0,0],1],[[-3,0,0,0,0,0,0,0,0,0,0,0,0,0,1,0,0,0,0],-1],[[-3,0,0,0,0,0,0,0,0,0,1,0,0,0,0,0,0,0,0],-1]],
    [[[-4,0,0,0,0,0,0,0,0,0,0,1,0,0,0,0,0,0,0],1],[[-3,0,0,0,0,0,0,0,0,0,0,0,0,0,0,1,0,0,0],-1],[[-3,0,0,0,0,0,0,0,0,0,0,1,0,0,0,0,0,0,0],-1]],
    [[[-4,0,0,0,0,0,0,0,0,0,0,0,1,0,0,0,0,0,0],1],[[-3,0,0,0,0,0,0,0,0,0,0,0,0,0,0,0,1,0,0],-1],[[-3,0,0,0,0,0,0,0,0,0,0,0,1,0,0,0,0,0,0],-1]],
    [[[-4,0,0,0,0,0,0,1,0,0,0,0,0,0,0,0,0,0,0],1],[[-3,0,0,0,0,0,0,0,0,0,0,0,0,0,0,0,0,1,0],-1],[[-3,0,0,0,0,0,0,1,0,0,0,0,0,0,0,0,0,0,0],-1]],
    [[[-4,0,0,0,0,0,0,0,1,0,0,0,0,0,0,0,0,0,0],1],[[-3,0,0,0,0,0,0,0,0,0,0,0,0,0,0,0,0,0,1],-1],[[-3,0,0,0,0,0,0,0,1,0,0,0,0,0,0,0,0,0,0],-1]],
    [[[-4,0,0,0,0,0,0,0,0,0,0,0,0,0,0,0,0,0,0],-1],[[0,0,0,0,0,0,1,0,0,0,0,0,0,0,0,0,0,0,0],1],[[0,0,0,0,0,1,0,0,0,0,0,0,0,0,0,0,0,0,0],1],[[0,0,0,0,1,0,0,0,0,0,0,0,0,0,0,0,0,0,0],1],[[0,0,0,1,0,0,0,0,0,0,0,0,0,0,0,0,0,0,0],1],[[0,0,1,0,0,0,0,0,0,0,0,0,0,0,0,0,0,0,0],1],[[0,1,0,0,0,0,0,0,0,0,0,0,0,0,0,0,0,0,0],1],[[2,0,0,0,0,0,0,0,0,0,0,0,0,0,0,0,0,0,1],1],[[2,0,0,0,0,0,0,0,0,0,0,0,0,0,0,0,0,1,0],1],[[2,0,0,0,0,0,0,0,0,0,0,0,0,0,0,0,1,0,0],1],[[2,0,0,0,0,0,0,0,0,0,0,0,0,0,0,1,0,0,0],1],[[2,0,0,0,0,0,0,0,0,0,0,0,0,0,1,0,0,0,0],1],[[2,0,0,0,0,0,0,0,0,0,0,0,0,1,0,0,0,0,0],1],[[2,0,0,0,0,0,0,0,0,0,0,0,1,0,0,0,0,0,0],1],[[2,0,0,0,0,0,0,0,0,0,0,1,0,0,0,0,0,0,0],1],[[2,0,0,0,0,0,0,0,0,0,1,0,0,0,0,0,0,0,0],1],[[2,0,0,0,0,0,0,0,0,1,0,0,0,0,0,0,0,0,0],1],[[2,0,0,0,0,0,0,0,1,0,0,0,0,0,0,0,0,0,0],1],[[2,0,0,0,0,0,0,1,0,0,0,0,0,0,0,0,0,0,0],1]]
  ]
]
