[
  ["#0",
    [[0,0,0,0],
     [0,0,0,1],
     [0,0,0,0],
     [0,1,0,0]], [
    [[[0,1,0,0,0,0,0,0,0,0,0,0,0,0,0,0,0,0,0,0]], [[0,0,0,0,0,0,0,0,0,0,0,0,0,0,0,0,0,0,0,1]], 0],
    [[[0,1,0,0,0,0,0,0,0,0,0,0,0,0,0,0,0,0,0,2]], [[0,1,0,0,0,0,0,0,0,0,0,0,0,0,0,0,0,0,0,0]], 1],
    [[[0,0,0,0,0,0,0,0,0,0,0,0,0,0,0,0,0,0,0,1]], [[0,-1,0,0,0,0,0,0,0,0,0,0,0,0,0,0,0,0,0,0],[2,1,0,0,0,0,0,0,0,0,0,0,0,0,0,0,0,0,0,0]], 2],
    [[[2,1,0,0,0,0,0,0,0,0,0,0,0,0,0,0,0,0,0,0]], [[0,0,0,0,0,0,0,0,0,0,0,0,0,0,0,0,0,0,0,1]], 3]
  ]],
  ["#1",
    [[0,0,0,1,1,1,1,1,1,1],
     [0,0,0,1,1,1,1,1,1,1],
     [0,0,0,1,1,1,0,1,1,1],
     [1,1,1,0,0,1,1,1,1,1],
     [1,1,1,0,0,1,1,1,1,1],
     [1,1,1,1,1,0,0,0,1,1],
     [1,1,0,1,1,0,0,0,1,1],
     [1,1,1,1,1,0,0,0,1,1],
     [1,1,1,1,1,1,1,1,0,0],
     [1,1,1,1,1,1,1,1,0,0]], [
    [[[0,0,1,0,-1,0,0,0,0,0,0,0,0,0,0,0,0,0,0,0]], [[1,0,0,-1,0,0,0,0,0,0,0,0,0,0,0,0,0,0,0,0],[1,0,-1,0,0,0,0,0,0,0,0,0,0,0,0,0,0,0,0,0],[0,1,-1,0,0,0,0,0,0,0,0,0,0,0,0,0,0,0,0,0],[0,0,1,0,0,0,0,0,0,0,0,0,0,0,0,0,0,0,0,0]], 0],
    [[[0,1,-1,0,0,0,0,0,0,0,0,0,0,0,0,0,0,0,0,0]], [[0,1,0,0,0,0,0,0,0,0,0,0,0,0,0,0,0,0,0,0],[1,-1,0,0,0,0,0,0,0,0,0,0,0,0,0,0,0,0,0,0],[0,-1,0,0,1,0,0,0,0,0,0,0,0,0,0,0,0,0,0,0],[1,0,0,-1,0,0,0,0,0,0,0,0,0,0,0,0,0,0,0,0]], 5],
    [[[-1,0,1,0,0,0,0,0,0,0,0,0,0,0,0,0,0,0,0,0]], [[-1,1,0,0,0,0,0,0,0,0,0,0,0,0,0,0,0,0,0,0],[-1,0,0,0,1,0,0,0,0,0,0,0,0,0,0,0,0,0,0,0],[1,0,0,-1,0,0,0,0,0,0,0,0,0,0,0,0,0,0,0,0]], 8],
    [[[0,0,1,0,-1,0,0,0,0,0,0,0,0,0,0,0,0,0,0,0]], [[0,1,-1,0,0,0,0,0,0,0,0,0,0,0,0,0,0,0,0,0],[0,0,-1,0,0,0,0,0,0,0,0,0,0,0,0,0,0,0,0,0],[1,0,0,-1,0,0,0,0,0,0,0,0,0,0,0,0,0,0,0,0]], 12],
    [[[0,1,-1,0,0,0,0,0,0,0,0,0,0,0,0,0,0,0,0,0]], [[1,0,0,-1,0,0,0,0,0,0,0,0,0,0,0,0,0,0,0,0],[0,-1,0,0,1,0,0,0,0,0,0,0,0,0,0,0,0,0,0,0],[0,-1,0,0,0,0,0,0,0,0,0,0,0,0,0,0,0,0,0,0]], 16],
    [[[0,0,1,0,-1,0,0,0,0,0,0,0,0,0,0,0,0,0,0,0]], [[0,0,-1,1,0,0,0,0,0,0,0,0,0,0,0,0,0,0,0,0],[-1,0,0,1,0,0,0,0,0,0,0,0,0,0,0,0,0,0,0,0],[0,0,1,0,0,0,0,0,0,0,0,0,0,0,0,0,0,0,0,0],[0,1,-1,0,0,0,0,0,0,0,0,0,0,0,0,0,0,0,0,0]], 25],
    [[[0,0,1,-1,0,0,0,0,0,0,0,0,0,0,0,0,0,0,0,0]], [[0,0,-1,0,1,0,0,0,0,0,0,0,0,0,0,0,0,0,0,0],[0,1,-1,0,0,0,0,0,0,0,0,0,0,0,0,0,0,0,0,0],[-1,0,1,0,0,0,0,0,0,0,0,0,0,0,0,0,0,0,0,0]], 27],
    [[[0,1,-1,0,0,0,0,0,0,0,0,0,0,0,0,0,0,0,0,0]], [[0,-1,0,0,1,0,0,0,0,0,0,0,0,0,0,0,0,0,0,0],[0,-1,0,1,0,0,0,0,0,0,0,0,0,0,0,0,0,0,0,0],[0,1,0,0,0,0,0,0,0,0,0,0,0,0,0,0,0,0,0,0],[-1,0,0,1,0,0,0,0,0,0,0,0,0,0,0,0,0,0,0,0]], 29],
    [[[0,0,1,0,-1,0,0,0,0,0,0,0,0,0,0,0,0,0,0,0]], [[0,0,-1,0,0,0,0,0,0,0,0,0,0,0,0,0,0,0,0,0],[0,1,-1,0,0,0,0,0,0,0,0,0,0,0,0,0,0,0,0,0],[-1,0,0,1,0,0,0,0,0,0,0,0,0,0,0,0,0,0,0,0]], 31],
    [[[0,1,-1,0,0,0,0,0,0,0,0,0,0,0,0,0,0,0,0,0]], [[-1,0,0,1,0,0,0,0,0,0,0,0,0,0,0,0,0,0,0,0],[0,-1,0,0,1,0,0,0,0,0,0,0,0,0,0,0,0,0,0,0],[0,-1,0,0,0,0,0,0,0,0,0,0,0,0,0,0,0,0,0,0]], 33]
  ]],
  ["#2",
    [[0,0,0,1],
     [0,0,0,1],
     [0,0,0,1],
     [1,1,1,0]], [
    [[[0,0,1,0,0,0,0,0,0,0,0,0,0,0,0,0,0,0,0,0]], [[1,0,0,-1,0,0,0,0,0,0,0,0,0,0,0,0,0,0,0,0],[2,0,0,1,0,0,0,0,0,0,0,0,0,0,0,0,0,0,0,0]], 0],
    [[[-1,0,0,1,0,0,0,0,0,0,0,0,0,0,0,0,0,0,0,0]], [[0,0,-1,0,0,0,0,0,0,0,0,0,0,0,0,0,0,0,0,0]], 4],
    [[[2,0,0,1,0,0,0,0,0,0,0,0,0,0,0,0,0,0,0,0]], [[0,0,-1,0,0,0,0,0,0,0,0,0,0,0,0,0,0,0,0,0]], 7],
    [[[1,0,1,-1,0,0,0,0,0,0,0,0,0,0,0,0,0,0,0,0]], [[0,0,1,0,0,0,0,0,0,0,0,0,0,0,0,0,0,0,0,0]], 9]
  ]],
  ["#3",
    [[0,0,0,0,1,1,1,1,1,1,1,1,1,1,1,1,1,1],
     [0,0,0,0,0,0,1,1,1,1,1,1,1,1,1,1,1,1],
     [0,0,0,0,1,1,1,1,1,1,0,0,1,1,1,1,1,1],
     [0,0,0,0,1,1,1,1,1,1,1,1,0,0,1,1,1,1],
     [1,0,1,1,0,0,1,1,1,1,1,1,1,1,1,1,1,1],
     [1,0,1,1,0,0,1,1,1,1,1,1,1,1,1,1,1,1],
     [1,1,1,1,1,1,0,0,0,1,1,1,1,1,1,1,1,1],
     [1,1,1,1,1,1,0,0,1,0,1,1,1,1,1,1,1,1],
     [1,1,1,1,1,1,0,1,0,0,1,1,1,1,1,1,1,1],
     [1,1,1,1,1,1,1,0,0,0,1,1,1,1,1,1,1,1],
     [1,1,0,1,1,1,1,1,1,1,0,0,0,1,1,1,1,1],
     [1,1,0,1,1,1,1,1,1,1,0,0,1,0,1,1,1,1],
     [1,1,1,0,1,1,1,1,1,1,0,1,0,0,1,1,1,1],
     [1,1,1,0,1,1,1,1,1,1,1,0,0,0,1,1,1,1],
     [1,1,1,1,1,1,1,1,1,1,1,1,1,1,0,0,0,1],
     [1,1,1,1,1,1,1,1,1,1,1,1,1,1,0,0,1,0],
     [1,1,1,1,1,1,1,1,1,1,1,1,1,1,0,1,0,0],
     [1,1,1,1,1,1,1,1,1,1,1,1,1,1,1,0,0,0]], [
    [[[0,0,0,0,1,0,0,0,0,0,0,0,0,0,0,0,0,0,0,0]], [[0,0,1,0,0,0,0,0,0,0,0,0,0,0,0,0,0,0,0,0],[1,0,0,0,0,0,0,0,0,0,0,0,0,0,0,0,1,0,0,0],[1,0,0,0,0,0,0,0,0,0,0,0,0,0,-1,0,0,0,0,0],[0,0,0,0,0,0,0,0,0,0,0,0,0,1,0,0,0,0,0,0]], 0],
    [[[0,0,0,0,1,0,0,0,0,0,0,0,0,1,0,0,0,0,0,0]], [[0,0,1,0,0,0,0,0,0,0,0,0,0,0,0,0,0,0,0,0],[1,0,0,0,0,0,0,0,0,0,0,0,0,0,0,0,1,0,0,0],[1,0,0,0,0,0,0,0,0,0,0,0,0,0,-1,0,0,0,0,0],[0,0,0,0,1,0,0,0,0,0,0,0,0,0,0,0,0,0,0,0]], 1],
    [[[1,0,0,0,1,0,0,0,0,0,0,0,0,0,-1,0,0,0,0,0]], [[1,0,0,0,-1,0,0,0,0,0,0,0,0,0,0,0,1,0,0,0],[0,0,1,0,-1,0,0,0,0,0,0,0,0,0,0,0,0,0,0,0],[0,0,0,0,1,0,0,0,0,0,0,0,0,0,0,0,0,0,0,0],[0,0,0,0,0,0,0,0,0,0,0,0,0,1,0,0,0,0,0,0]], 4],
    [[[1,0,0,0,1,0,0,0,0,0,0,0,0,1,-1,0,0,0,0,0]], [[1,0,0,0,-1,0,0,0,0,0,0,0,0,-1,0,0,1,0,0,0],[0,0,1,0,-1,0,0,0,0,0,0,0,0,-1,0,0,0,0,0,0],[0,0,0,0,0,0,0,0,0,0,0,0,0,-1,0,0,0,0,0,0],[0,0,0,0,1,0,0,0,0,0,0,0,0,1,0,0,0,0,0,0]], 5],
    [[[0,0,1,0,-1,0,0,0,0,0,0,0,0,-1,0,0,0,0,0,0]], [[0,0,0,0,1,0,0,0,0,0,0,0,0,0,0,0,0,0,0,0],[0,0,-1,0,0,0,0,0,0,0,0,0,0,0,0,0,0,0,0,0],[1,0,-1,0,0,0,0,0,0,0,0,0,0,0,0,0,1,0,0,0],[1,0,0,0,0,0,0,0,0,0,0,0,0,0,-1,0,0,0,0,0]], 23],
    [[[-1,0,0,0,1,0,0,0,0,0,0,0,0,1,0,0,-1,0,0,0]], [[1,0,0,0,0,0,0,0,0,0,0,0,0,0,-1,0,0,0,0,0],[0,0,0,0,-1,0,0,0,0,0,0,0,0,-1,0,0,0,0,0,0],[0,0,1,0,-1,0,0,0,0,0,0,0,0,-1,0,0,0,0,0,0],[0,0,0,0,1,0,0,0,0,0,0,0,0,0,0,0,0,0,0,0]], 25],
    [[[0,0,1,0,-1,0,0,0,0,0,0,0,0,0,0,0,0,0,0,0]], [[0,0,0,0,0,0,0,0,0,0,0,0,0,1,0,0,0,0,0,0],[1,0,0,0,0,0,0,0,0,0,0,0,0,0,-1,0,0,0,0,0],[1,0,-1,0,0,0,0,0,0,0,0,0,0,0,0,0,1,0,0,0],[0,0,-1,0,0,0,0,0,0,0,0,0,0,0,0,0,0,0,0,0]], 32],
    [[[-1,0,0,0,1,0,0,0,0,0,0,0,0,0,0,0,-1,0,0,0]], [[0,0,1,0,-1,0,0,0,0,0,0,0,0,0,0,0,0,0,0,0],[0,0,0,0,-1,0,0,0,0,0,0,0,0,0,0,0,0,0,0,0],[0,0,0,0,0,0,0,0,0,0,0,0,0,1,0,0,0,0,0,0],[1,0,0,0,0,0,0,0,0,0,0,0,0,0,-1,0,0,0,0,0]], 34],
    [[[0,0,1,0,-1,0,0,0,0,0,0,0,0,-1,0,0,0,0,0,0]], [[1,0,0,0,0,0,0,0,0,0,0,0,0,0,-1,0,0,0,0,0],[0,0,-1,0,1,0,0,0,0,0,0,0,0,0,0,0,0,0,0,0],[0,0,0,0,-1,0,0,0,0,0,0,0,0,0,0,0,0,0,0,0],[1,0,-1,0,0,0,0,0,0,0,0,0,0,0,0,0,1,0,0,0]], 40],
    [[[-1,0,0,0,1,0,0,0,0,0,0,0,0,1,0,0,-1,0,0,0]], [[0,0,1,0,-1,0,0,0,0,0,0,0,0,-1,0,0,0,0,0,0],[0,0,0,0,-1,0,0,0,0,0,0,0,0,0,0,0,0,0,0,0],[0,0,0,0,0,0,0,0,0,0,0,0,0,-1,0,0,0,0,0,0],[1,0,0,0,0,0,0,0,0,0,0,0,0,0,-1,0,0,0,0,0]], 42],
    [[[0,0,1,0,-1,0,0,0,0,0,0,0,0,0,0,0,0,0,0,0]], [[1,0,-1,0,0,0,0,0,0,0,0,0,0,0,0,0,1,0,0,0],[-1,0,-1,0,0,0,0,0,0,0,0,0,0,0,1,0,0,0,0,0],[0,0,1,0,0,0,0,0,0,0,0,0,0,0,0,0,0,0,0,0],[0,0,0,0,0,0,0,0,0,0,0,0,0,1,0,0,0,0,0,0]], 60],
    [[[-1,0,0,0,1,0,0,0,0,0,0,0,0,0,0,0,-1,0,0,0]], [[-1,0,0,0,-1,0,0,0,0,0,0,0,0,0,1,0,0,0,0,0],[0,0,1,0,-1,0,0,0,0,0,0,0,0,0,0,0,0,0,0,0],[0,0,0,0,1,0,0,0,0,0,0,0,0,0,0,0,0,0,0,0],[0,0,0,0,0,0,0,0,0,0,0,0,0,1,0,0,0,0,0,0]], 62],
    [[[0,0,1,0,-1,0,0,0,0,0,0,0,0,-1,0,0,0,0,0,0]], [[1,0,-1,0,0,0,0,0,0,0,0,0,0,0,0,0,1,0,0,0],[-1,0,-1,0,0,0,0,0,0,0,0,0,0,0,1,0,0,0,0,0],[0,0,0,0,1,0,0,0,0,0,0,0,0,0,0,0,0,0,0,0],[0,0,-1,0,1,0,0,0,0,0,0,0,0,0,0,0,0,0,0,0],[-1,0,0,0,0,0,0,0,0,0,0,0,0,0,1,0,0,0,0,0]], 67],
    [[[-1,0,0,0,1,0,0,0,0,0,0,0,0,1,0,0,-1,0,0,0]], [[-1,0,0,0,-1,0,0,0,0,0,0,0,0,-1,1,0,0,0,0,0],[-1,0,0,0,0,0,0,0,0,0,0,0,0,0,1,0,0,0,0,0],[0,0,0,0,0,0,0,0,0,0,0,0,0,-1,0,0,0,0,0,0],[0,0,1,0,-1,0,0,0,0,0,0,0,0,-1,0,0,0,0,0,0],[0,0,0,0,1,0,0,0,0,0,0,0,0,0,0,0,0,0,0,0]], 69],
    [[[0,0,1,0,-1,0,0,0,0,0,0,0,0,0,0,0,0,0,0,0]], [[0,0,0,0,0,0,0,0,0,0,0,0,0,1,0,0,0,0,0,0],[-1,0,0,0,0,0,0,0,0,0,0,0,0,0,1,0,0,0,0,0],[0,0,-1,0,0,0,0,0,0,0,0,0,0,0,0,0,0,0,0,0],[1,0,-1,0,0,0,0,0,0,0,0,0,0,0,0,0,1,0,0,0]], 72],
    [[[-1,0,0,0,1,0,0,0,0,0,0,0,0,0,0,0,-1,0,0,0]], [[0,0,0,0,-1,0,0,0,0,0,0,0,0,0,0,0,0,0,0,0],[0,0,1,0,-1,0,0,0,0,0,0,0,0,0,0,0,0,0,0,0],[0,0,0,0,0,0,0,0,0,0,0,0,0,1,0,0,0,0,0,0],[-1,0,0,0,0,0,0,0,0,0,0,0,0,0,1,0,0,0,0,0]], 74],
    [[[0,0,1,0,-1,0,0,0,0,0,0,0,0,-1,0,0,0,0,0,0]], [[-1,0,0,0,0,0,0,0,0,0,0,0,0,0,1,0,0,0,0,0],[0,0,-1,0,1,0,0,0,0,0,0,0,0,0,0,0,0,0,0,0],[0,0,0,0,-1,0,0,0,0,0,0,0,0,0,0,0,0,0,0,0],[1,0,-1,0,0,0,0,0,0,0,0,0,0,0,0,0,1,0,0,0]], 76],
    [[[-1,0,0,0,1,0,0,0,0,0,0,0,0,1,0,0,-1,0,0,0]], [[0,0,0,0,-1,0,0,0,0,0,0,0,0,0,0,0,0,0,0,0],[0,0,1,0,-1,0,0,0,0,0,0,0,0,-1,0,0,0,0,0,0],[0,0,0,0,0,0,0,0,0,0,0,0,0,-1,0,0,0,0,0,0],[-1,0,0,0,0,0,0,0,0,0,0,0,0,0,1,0,0,0,0,0]], 78]
  ]],
  ["#4",
    [[0,0,0,1,0,0,0,1,1,1,1,1,1,1,1,1,1,1,1,1,1,1,1,1],
     [0,0,1,0,1,1,1,1,1,0,1,1,1,1,1,1,1,1,1,1,1,1,1,1],
     [0,1,0,0,0,0,0,1,1,1,1,1,1,1,1,1,1,1,1,1,1,1,1,1],
     [1,0,0,0,1,1,1,1,1,0,1,1,1,1,1,1,1,1,1,1,1,1,1,1],
     [0,1,0,1,0,0,0,0,0,1,1,1,1,1,1,1,1,1,1,1,1,1,1,1],
     [0,1,0,1,0,0,0,1,1,1,0,0,1,1,1,1,1,1,1,1,1,1,1,1],
     [0,1,0,1,0,0,0,1,1,0,1,1,1,1,0,0,1,1,1,1,1,1,1,1],
     [1,1,1,1,0,1,1,0,0,1,0,1,1,1,1,1,1,1,1,1,1,1,1,1],
     [1,1,1,1,0,1,1,0,0,1,1,0,1,1,1,1,1,1,1,1,1,1,1,1],
     [1,0,1,0,1,1,0,1,1,0,1,1,1,1,0,0,1,1,1,1,1,1,1,1],
     [1,1,1,1,1,0,1,0,1,1,0,0,1,1,1,1,1,1,1,1,1,1,1,1],
     [1,1,1,1,1,0,1,1,0,1,0,0,1,1,1,1,1,1,1,1,1,1,1,1],
     [1,1,1,1,1,1,1,1,1,1,1,1,0,0,0,1,0,1,0,0,1,1,1,1],
     [1,1,1,1,1,1,1,1,1,1,1,1,0,0,1,0,1,0,1,1,1,1,1,1],
     [1,1,1,1,1,1,0,1,1,0,1,1,0,1,0,0,0,1,0,0,1,1,1,1],
     [1,1,1,1,1,1,0,1,1,0,1,1,1,0,0,0,1,0,1,1,1,1,1,1],
     [1,1,1,1,1,1,1,1,1,1,1,1,0,1,0,1,0,0,0,0,1,1,1,1],
     [1,1,1,1,1,1,1,1,1,1,1,1,1,0,1,0,0,0,1,1,1,1,1,1],
     [1,1,1,1,1,1,1,1,1,1,1,1,0,1,0,1,0,1,0,0,0,0,1,1],
     [1,1,1,1,1,1,1,1,1,1,1,1,0,1,0,1,0,1,0,0,1,1,0,0],
     [1,1,1,1,1,1,1,1,1,1,1,1,1,1,1,1,1,1,0,1,0,0,0,1],
     [1,1,1,1,1,1,1,1,1,1,1,1,1,1,1,1,1,1,0,1,0,0,1,0],
     [1,1,1,1,1,1,1,1,1,1,1,1,1,1,1,1,1,1,1,0,0,1,0,0],
     [1,1,1,1,1,1,1,1,1,1,1,1,1,1,1,1,1,1,1,0,1,0,0,0]], [
    [[[0,0,0,0,0,1,0,0,0,0,0,-1,0,0,0,0,0,0,0,0]], [[1,0,0,0,0,0,0,-1,0,0,0,0,0,0,0,0,0,0,0,0],[1,0,0,0,0,-1,0,0,0,0,0,0,0,0,0,0,0,0,0,0],[0,0,0,0,0,0,0,0,0,1,0,0,0,0,0,0,0,0,0,0],[0,0,0,0,0,1,0,0,0,0,0,0,0,0,0,0,0,0,0,0],[0,0,0,0,0,-1,1,0,0,0,0,0,0,0,0,0,0,0,0,0]], 0],
    [[[0,0,0,0,0,1,0,0,0,1,0,-1,0,0,0,0,0,0,0,0]], [[1,0,0,0,0,0,0,-1,0,0,0,0,0,0,0,0,0,0,0,0],[1,0,0,0,0,-1,0,0,0,-1,0,0,0,0,0,0,0,0,0,0],[0,0,0,0,0,0,0,0,0,-1,0,0,0,0,0,0,0,0,0,0],[0,0,0,0,0,-1,1,0,0,-1,0,0,0,0,0,0,0,0,0,0],[0,0,0,0,0,1,0,0,0,0,0,0,0,0,0,0,0,0,0,0]], 1],
    [[[0,0,0,0,0,1,-1,0,0,0,0,0,0,0,0,0,0,0,0,0]], [[0,0,0,0,0,1,0,0,0,0,0,0,0,0,0,0,0,0,0,0],[1,0,0,0,0,-1,0,0,0,0,0,0,0,0,0,0,0,0,0,0],[0,0,0,0,0,-1,0,0,0,0,0,1,0,0,0,0,0,0,0,0],[1,0,0,0,0,0,0,-1,0,0,0,0,0,0,0,0,0,0,0,0],[0,0,0,0,0,0,0,0,0,1,0,0,0,0,0,0,0,0,0,0]], 6],
    [[[0,0,0,0,0,1,-1,0,0,1,0,0,0,0,0,0,0,0,0,0]], [[0,0,0,0,0,1,-1,0,0,0,0,0,0,0,0,0,0,0,0,0],[1,0,0,0,0,0,-1,0,0,0,0,0,0,0,0,0,0,0,0,0],[0,0,0,0,0,0,-1,0,0,0,0,1,0,0,0,0,0,0,0,0],[1,0,0,0,0,0,0,-1,0,0,0,0,0,0,0,0,0,0,0,0],[0,0,0,0,0,1,0,0,0,0,0,0,0,0,0,0,0,0,0,0]], 7],
    [[[0,0,0,0,0,0,0,0,0,0,0,1,0,0,0,0,0,0,0,0]], [[0,0,0,0,0,1,0,0,0,1,0,0,0,0,0,0,0,0,0,0],[2,0,0,0,0,1,0,0,0,0,0,0,0,0,0,0,0,0,0,0],[0,0,0,0,0,-1,0,0,0,0,0,0,0,0,0,0,0,0,0,0],[0,0,0,0,0,0,1,0,0,0,0,0,0,0,0,0,0,0,0,0],[1,0,0,0,0,0,0,-1,0,0,0,0,0,0,0,0,0,0,0,0]], 12],
    [[[0,0,0,0,0,0,1,0,0,0,0,0,0,0,0,0,0,0,0,0]], [[0,0,0,0,0,1,0,0,0,1,0,0,0,0,0,0,0,0,0,0],[2,0,0,0,0,1,0,0,0,0,0,0,0,0,0,0,0,0,0,0],[0,0,0,0,0,0,0,0,0,0,0,1,0,0,0,0,0,0,0,0],[1,0,0,0,0,0,0,-1,0,0,0,0,0,0,0,0,0,0,0,0],[0,0,0,0,0,-1,0,0,0,0,0,0,0,0,0,0,0,0,0,0]], 13],
    [[[-1,0,0,0,0,1,0,0,0,0,0,0,0,0,0,0,0,0,0,0]], [[0,0,0,0,0,0,0,0,0,1,0,0,0,0,0,0,0,0,0,0],[-1,0,0,0,0,0,0,0,0,0,0,1,0,0,0,0,0,0,0,0],[-1,0,0,0,0,0,1,0,0,0,0,0,0,0,0,0,0,0,0,0],[1,0,0,0,0,0,0,-1,0,0,0,0,0,0,0,0,0,0,0,0]], 15],
    [[[0,0,0,0,0,1,0,0,0,1,0,-1,0,0,0,0,0,0,0,0]], [[2,0,0,0,0,0,0,0,0,-1,0,0,0,0,0,0,0,0,0,0],[0,0,0,0,0,-1,1,0,0,-1,0,0,0,0,0,0,0,0,0,0],[0,0,0,0,0,-1,0,0,0,0,0,0,0,0,0,0,0,0,0,0],[1,0,0,0,0,0,0,-1,0,0,0,0,0,0,0,0,0,0,0,0],[0,0,0,0,0,-1,0,0,0,-1,0,0,0,0,0,0,0,0,0,0]], 20],
    [[[2,0,0,0,0,1,0,0,0,0,0,-1,0,0,0,0,0,0,0,0]], [[-2,0,0,0,0,0,0,0,0,1,0,0,0,0,0,0,0,0,0,0],[-2,0,0,0,0,-1,1,0,0,0,0,0,0,0,0,0,0,0,0,0],[-2,0,0,0,0,-1,0,0,0,0,0,0,0,0,0,0,0,0,0,0],[1,0,0,0,0,0,0,-1,0,0,0,0,0,0,0,0,0,0,0,0]], 24],
    [[[-1,0,0,0,0,1,0,0,0,1,0,0,0,0,0,0,0,0,0,0]], [[-1,0,0,0,0,0,0,0,0,0,0,1,0,0,0,0,0,0,0,0],[-1,0,0,0,0,1,0,0,0,0,0,0,0,0,0,0,0,0,0,0],[-1,0,0,0,0,0,1,0,0,0,0,0,0,0,0,0,0,0,0,0],[1,0,0,0,0,0,0,-1,0,0,0,0,0,0,0,0,0,0,0,0]], 28],
    [[[0,0,0,0,0,1,-1,0,0,1,0,0,0,0,0,0,0,0,0,0]], [[2,0,0,0,0,1,-1,0,0,0,0,0,0,0,0,0,0,0,0,0],[1,0,0,0,0,0,0,-1,0,0,0,0,0,0,0,0,0,0,0,0],[0,0,0,0,0,0,-1,0,0,0,0,1,0,0,0,0,0,0,0,0],[0,0,0,0,0,-1,0,0,0,0,0,0,0,0,0,0,0,0,0,0],[0,0,0,0,0,0,-1,0,0,0,0,0,0,0,0,0,0,0,0,0]], 32],
    [[[2,0,0,0,0,1,-1,0,0,0,0,0,0,0,0,0,0,0,0,0]], [[-2,0,0,0,0,0,0,0,0,1,0,0,0,0,0,0,0,0,0,0],[1,0,0,0,0,0,0,-1,0,0,0,0,0,0,0,0,0,0,0,0],[-2,0,0,0,0,-1,0,0,0,0,0,1,0,0,0,0,0,0,0,0],[-2,0,0,0,0,-1,0,0,0,0,0,0,0,0,0,0,0,0,0,0]], 36],
    [[[0,0,0,0,0,1,0,0,0,0,0,-1,0,0,0,0,0,0,0,0]], [[0,0,0,0,0,-1,0,1,0,0,0,0,0,0,0,0,0,0,0,0],[-1,0,0,0,0,0,0,1,0,0,0,0,0,0,0,0,0,0,0,0],[0,0,0,0,0,-1,1,0,0,0,0,0,0,0,0,0,0,0,0,0],[0,0,0,0,0,1,0,0,0,0,0,0,0,0,0,0,0,0,0,0],[0,0,0,0,0,0,0,0,0,1,0,0,0,0,0,0,0,0,0,0]], 42],
    [[[0,0,0,0,0,1,0,0,0,1,0,-1,0,0,0,0,0,0,0,0]], [[0,0,0,0,0,-1,0,1,0,-1,0,0,0,0,0,0,0,0,0,0],[-1,0,0,0,0,0,0,1,0,0,0,0,0,0,0,0,0,0,0,0],[0,0,0,0,0,-1,1,0,0,-1,0,0,0,0,0,0,0,0,0,0],[0,0,0,0,0,0,0,0,0,-1,0,0,0,0,0,0,0,0,0,0],[0,0,0,0,0,1,0,0,0,0,0,0,0,0,0,0,0,0,0,0]], 43],
    [[[0,0,0,0,0,1,0,-1,0,0,0,0,0,0,0,0,0,0,0,0]], [[0,0,0,0,0,-1,0,0,0,0,0,1,0,0,0,0,0,0,0,0],[-1,0,0,0,0,1,0,0,0,0,0,0,0,0,0,0,0,0,0,0],[0,0,0,0,0,-1,1,0,0,0,0,0,0,0,0,0,0,0,0,0],[0,0,0,0,0,0,0,0,0,1,0,0,0,0,0,0,0,0,0,0]], 45],
    [[[0,0,0,0,0,1,0,-1,0,1,0,0,0,0,0,0,0,0,0,0]], [[0,0,0,0,0,0,0,-1,0,0,0,1,0,0,0,0,0,0,0,0],[-1,0,0,0,0,0,0,1,0,0,0,0,0,0,0,0,0,0,0,0],[0,0,0,0,0,0,1,-1,0,0,0,0,0,0,0,0,0,0,0,0],[0,0,0,0,0,1,0,-1,0,0,0,0,0,0,0,0,0,0,0,0]], 46],
    [[[0,0,0,0,0,1,-1,0,0,0,0,0,0,0,0,0,0,0,0,0]], [[0,0,0,0,0,-1,0,0,0,0,0,1,0,0,0,0,0,0,0,0],[0,0,0,0,0,-1,0,1,0,0,0,0,0,0,0,0,0,0,0,0],[0,0,0,0,0,1,0,0,0,0,0,0,0,0,0,0,0,0,0,0],[-1,0,0,0,0,0,0,1,0,0,0,0,0,0,0,0,0,0,0,0],[0,0,0,0,0,0,0,0,0,1,0,0,0,0,0,0,0,0,0,0]], 47],
    [[[0,0,0,0,0,1,-1,0,0,1,0,0,0,0,0,0,0,0,0,0]], [[0,0,0,0,0,0,-1,0,0,0,0,1,0,0,0,0,0,0,0,0],[0,0,0,0,0,0,-1,1,0,0,0,0,0,0,0,0,0,0,0,0],[0,0,0,0,0,1,0,0,0,0,0,0,0,0,0,0,0,0,0,0],[-1,0,0,0,0,0,0,1,0,0,0,0,0,0,0,0,0,0,0,0],[0,0,0,0,0,1,-1,0,0,0,0,0,0,0,0,0,0,0,0,0]], 48],
    [[[0,0,0,0,0,0,0,0,0,0,0,1,0,0,0,0,0,0,0,0]], [[0,0,0,0,0,-1,0,0,0,0,0,0,0,0,0,0,0,0,0,0],[0,0,0,0,0,1,0,0,0,1,0,0,0,0,0,0,0,0,0,0],[2,0,0,0,0,1,0,0,0,0,0,0,0,0,0,0,0,0,0,0],[0,0,0,0,0,0,1,0,0,0,0,0,0,0,0,0,0,0,0,0],[-1,0,0,0,0,0,0,1,0,0,0,0,0,0,0,0,0,0,0,0]], 50],
    [[[0,0,0,0,0,0,1,0,0,0,0,0,0,0,0,0,0,0,0,0]], [[0,0,0,0,0,1,0,0,0,1,0,0,0,0,0,0,0,0,0,0],[2,0,0,0,0,1,0,0,0,0,0,0,0,0,0,0,0,0,0,0],[-1,0,0,0,0,0,0,1,0,0,0,0,0,0,0,0,0,0,0,0],[0,0,0,0,0,-1,0,0,0,0,0,0,0,0,0,0,0,0,0,0],[0,0,0,0,0,0,0,0,0,0,0,1,0,0,0,0,0,0,0,0]], 51],
    [[[0,0,0,0,0,1,0,0,0,1,0,-1,0,0,0,0,0,0,0,0]], [[0,0,0,0,0,-1,0,0,0,0,0,0,0,0,0,0,0,0,0,0],[2,0,0,0,0,0,0,0,0,-1,0,0,0,0,0,0,0,0,0,0],[0,0,0,0,0,-1,1,0,0,-1,0,0,0,0,0,0,0,0,0,0],[-1,0,0,0,0,0,0,1,0,0,0,0,0,0,0,0,0,0,0,0],[0,0,0,0,0,-1,0,0,0,-1,0,0,0,0,0,0,0,0,0,0]], 53],
    [[[2,0,0,0,0,1,0,0,0,0,0,-1,0,0,0,0,0,0,0,0]], [[-2,0,0,0,0,0,0,0,0,1,0,0,0,0,0,0,0,0,0,0],[-2,0,0,0,0,-1,1,0,0,0,0,0,0,0,0,0,0,0,0,0],[-1,0,0,0,0,0,0,1,0,0,0,0,0,0,0,0,0,0,0,0],[-2,0,0,0,0,-1,0,0,0,0,0,0,0,0,0,0,0,0,0,0]], 55],
    [[[0,0,0,0,0,1,-1,0,0,1,0,0,0,0,0,0,0,0,0,0]], [[2,0,0,0,0,1,-1,0,0,0,0,0,0,0,0,0,0,0,0,0],[-1,0,0,0,0,0,0,1,0,0,0,0,0,0,0,0,0,0,0,0],[0,0,0,0,0,-1,0,0,0,0,0,0,0,0,0,0,0,0,0,0],[0,0,0,0,0,0,-1,0,0,0,0,1,0,0,0,0,0,0,0,0],[0,0,0,0,0,0,-1,0,0,0,0,0,0,0,0,0,0,0,0,0]], 57],
    [[[2,0,0,0,0,1,-1,0,0,0,0,0,0,0,0,0,0,0,0,0]], [[-2,0,0,0,0,0,0,0,0,1,0,0,0,0,0,0,0,0,0,0],[-1,0,0,0,0,0,0,1,0,0,0,0,0,0,0,0,0,0,0,0],[-2,0,0,0,0,-1,0,0,0,0,0,1,0,0,0,0,0,0,0,0],[-2,0,0,0,0,-1,0,0,0,0,0,0,0,0,0,0,0,0,0,0]], 59]
  ]],
  ["#5",
    [[0,0,0,1],
     [0,0,0,0],
     [0,0,0,0],
     [1,0,0,0]], [
    [[[0,0,0,0,2,0,-1,0,0,0,0,0,0,0,0,0,0,0,0,0]], [[0,0,0,0,1,0,0,0,0,0,0,0,0,0,0,0,0,0,0,0]], 0],
    [[[0,0,0,0,1,0,0,0,0,0,0,0,0,0,0,0,0,0,0,0]], [[0,0,0,0,0,0,-1,0,0,0,0,0,0,0,0,0,0,0,0,0],[2,0,0,0,0,0,1,0,0,0,0,0,0,0,0,0,0,0,0,0]], 1],
    [[[0,0,0,0,0,0,1,0,0,0,0,0,0,0,0,0,0,0,0,0]], [[0,0,0,0,-1,0,0,0,0,0,0,0,0,0,0,0,0,0,0,0]], 2],
    [[[2,0,0,0,0,0,1,0,0,0,0,0,0,0,0,0,0,0,0,0]], [[0,0,0,0,-1,0,0,0,0,0,0,0,0,0,0,0,0,0,0,0]], 4]
  ]],
  ["#6",
    [[0,0,0,1],
     [0,0,0,1],
     [0,0,0,1],
     [1,1,1,0]], [
    [[[0,0,0,0,0,1,0,0,0,0,0,0,0,0,0,0,0,0,0,0]], [[1,0,0,0,0,0,0,-1,0,0,0,0,0,0,0,0,0,0,0,0],[2,0,0,0,0,0,0,1,0,0,0,0,0,0,0,0,0,0,0,0]], 0],
    [[[-1,0,0,0,0,0,0,1,0,0,0,0,0,0,0,0,0,0,0,0]], [[0,0,0,0,0,-1,0,0,0,0,0,0,0,0,0,0,0,0,0,0]], 4],
    [[[2,0,0,0,0,0,0,1,0,0,0,0,0,0,0,0,0,0,0,0]], [[0,0,0,0,0,-1,0,0,0,0,0,0,0,0,0,0,0,0,0,0]], 7],
    [[[1,0,0,0,0,1,0,-1,0,0,0,0,0,0,0,0,0,0,0,0]], [[0,0,0,0,0,1,0,0,0,0,0,0,0,0,0,0,0,0,0,0]], 9]
  ]],
  ["#7",
    [[0,0,0,0],
     [0,0,0,1],
     [0,0,0,0],
     [0,1,0,0]], [
    [[[0,0,0,0,1,0,0,0,0,0,0,0,0,0,0,0,0,0,0,0]], [[1,0,0,0,0,0,0,0,-1,0,0,0,0,0,0,0,0,0,0,0],[2,0,0,0,0,0,0,0,1,0,0,0,0,0,0,0,0,0,0,0]], 0],
    [[[1,0,0,0,2,0,0,0,-1,0,0,0,0,0,0,0,0,0,0,0]], [[0,0,0,0,1,0,0,0,0,0,0,0,0,0,0,0,0,0,0,0]], 1],
    [[[-1,0,0,0,0,0,0,0,1,0,0,0,0,0,0,0,0,0,0,0]], [[0,0,0,0,-1,0,0,0,0,0,0,0,0,0,0,0,0,0,0,0]], 2],
    [[[2,0,0,0,0,0,0,0,1,0,0,0,0,0,0,0,0,0,0,0]], [[0,0,0,0,-1,0,0,0,0,0,0,0,0,0,0,0,0,0,0,0]], 4]
  ]],
  ["#8",
    [[0,0,0,0,0,0,0,0,1,1,1,1,1,1,1,1,1,1,1,1,1,1,1,1],
     [0,0,0,0,0,1,1,1,0,1,1,1,1,1,1,1,1,1,1,1,1,1,1,1],
     [0,0,0,0,0,1,1,1,1,1,1,1,1,0,0,1,1,1,1,1,1,1,1,1],
     [0,0,0,0,0,1,1,1,1,1,1,1,1,1,1,0,1,1,1,1,1,1,1,1],
     [0,0,0,0,0,1,1,1,1,1,1,1,1,1,1,1,0,0,1,1,1,1,1,1],
     [0,1,1,1,1,0,0,0,1,0,0,0,0,1,1,1,1,1,1,1,1,1,1,1],
     [0,1,1,1,1,0,0,0,0,1,1,1,1,1,1,0,1,1,1,1,1,1,1,1],
     [0,1,1,1,1,0,0,0,1,1,1,1,1,1,1,1,1,1,0,1,1,0,1,1],
     [1,0,1,1,1,1,0,1,0,1,1,1,1,1,1,0,1,1,1,1,1,1,1,1],
     [1,1,1,1,1,0,1,1,1,0,0,0,0,1,1,1,1,1,0,1,1,1,1,1],
     [1,1,1,1,1,0,1,1,1,0,0,0,0,1,1,1,1,1,1,0,0,1,1,1],
     [1,1,1,1,1,0,1,1,1,0,0,0,0,1,1,1,1,1,1,1,1,0,1,1],
     [1,1,1,1,1,0,1,1,1,0,0,0,0,1,1,1,1,1,1,1,1,1,0,0],
     [1,1,0,1,1,1,1,1,1,1,1,1,1,0,0,1,0,1,1,1,1,1,1,1],
     [1,1,0,1,1,1,1,1,1,1,1,1,1,0,0,1,1,0,1,1,1,1,1,1],
     [1,1,1,0,1,1,0,1,0,1,1,1,1,1,1,0,1,1,1,1,1,1,1,1],
     [1,1,1,1,0,1,1,1,1,1,1,1,1,0,1,1,0,0,1,1,1,1,1,1],
     [1,1,1,1,0,1,1,1,1,1,1,1,1,1,0,1,0,0,1,1,1,1,1,1],
     [1,1,1,1,1,1,1,0,1,0,1,1,1,1,1,1,1,1,0,1,1,0,1,1],
     [1,1,1,1,1,1,1,1,1,1,0,1,1,1,1,1,1,1,1,0,0,1,0,1],
     [1,1,1,1,1,1,1,1,1,1,0,1,1,1,1,1,1,1,1,0,0,1,1,0],
     [1,1,1,1,1,1,1,0,1,1,1,0,1,1,1,1,1,1,0,1,1,0,1,1],
     [1,1,1,1,1,1,1,1,1,1,1,1,0,1,1,1,1,1,1,0,1,1,0,0],
     [1,1,1,1,1,1,1,1,1,1,1,1,0,1,1,1,1,1,1,1,0,1,0,0]], [
    [[[-1,0,0,0,0,0,0,0,0,1,0,0,0,0,0,0,0,0,0,0]], [[1,0,0,0,0,1,0,0,0,0,0,0,0,0,0,0,0,0,0,0],[0,0,0,0,0,0,0,0,0,0,0,1,0,0,0,0,0,0,0,0],[1,0,0,0,0,0,0,0,0,0,-1,0,0,0,0,0,0,0,0,0],[0,0,0,0,0,0,0,0,1,0,0,0,0,0,0,0,0,0,0,0]], 0],
    [[[-1,0,0,0,0,0,0,0,0,1,0,-1,0,0,0,0,0,0,0,0]], [[1,0,0,0,0,0,0,0,0,0,-1,0,0,0,0,0,0,0,0,0],[1,0,0,0,0,0,0,0,0,-1,0,0,0,0,0,0,0,0,0,0],[1,0,0,0,0,1,0,0,0,0,0,0,0,0,0,0,0,0,0,0],[1,0,0,0,0,0,0,0,1,-1,0,0,0,0,0,0,0,0,0,0],[0,0,0,0,0,0,0,0,0,1,0,0,0,0,0,0,0,0,0,0]], 1],
    [[[1,0,0,0,0,0,0,0,0,0,0,1,0,0,0,0,0,0,0,0]], [[1,0,0,0,0,1,0,0,0,1,0,0,0,0,0,0,0,0,0,0],[1,0,0,0,0,0,0,0,1,0,0,0,0,0,0,0,0,0,0,0],[0,0,0,0,0,0,0,0,0,-1,0,0,0,0,0,0,0,0,0,0],[1,0,0,0,0,0,0,0,0,0,-1,0,0,0,0,0,0,0,0,0],[3,0,0,0,0,0,0,0,0,1,0,0,0,0,0,0,0,0,0,0]], 2],
    [[[1,0,0,0,0,0,0,0,1,-1,0,0,0,0,0,0,0,0,0,0]], [[1,0,0,0,0,1,0,0,0,0,0,0,0,0,0,0,0,0,0,0],[0,0,0,0,0,0,0,0,-1,0,0,0,0,0,0,0,0,0,0,0],[0,0,0,0,0,0,0,0,-1,0,0,1,0,0,0,0,0,0,0,0],[1,0,0,0,0,0,0,0,0,0,-1,0,0,0,0,0,0,0,0,0],[1,0,0,0,0,0,0,0,1,0,0,0,0,0,0,0,0,0,0,0]], 3],
    [[[1,0,0,0,0,0,0,0,1,0,0,0,0,0,0,0,0,0,0,0]], [[1,0,0,0,0,1,0,0,0,1,0,0,0,0,0,0,0,0,0,0],[0,0,0,0,0,0,0,0,0,-1,0,0,0,0,0,0,0,0,0,0],[3,0,0,0,0,0,0,0,0,1,0,0,0,0,0,0,0,0,0,0],[1,0,0,0,0,0,0,0,0,0,-1,0,0,0,0,0,0,0,0,0],[1,0,0,0,0,0,0,0,0,0,0,1,0,0,0,0,0,0,0,0]], 4],
    [[[0,0,0,0,0,0,0,0,0,1,-1,0,0,0,0,0,0,0,0,0]], [[1,0,0,0,0,0,0,0,0,-1,0,1,0,0,0,0,0,0,0,0],[1,0,0,0,0,1,0,0,0,0,0,0,0,0,0,0,0,0,0,0],[-1,0,0,0,0,0,0,0,0,1,0,0,0,0,0,0,0,0,0,0],[1,0,0,0,0,0,0,0,1,-1,0,0,0,0,0,0,0,0,0,0]], 9],
    [[[0,0,0,0,0,1,0,0,0,1,0,0,0,0,0,0,0,0,0,0]], [[1,0,0,0,0,0,0,0,0,0,-1,0,0,0,0,0,0,0,0,0],[0,0,0,0,0,0,0,0,0,0,0,1,0,0,0,0,0,0,0,0],[0,0,0,0,0,0,0,0,1,0,0,0,0,0,0,0,0,0,0,0],[-1,0,0,0,0,-1,0,0,0,0,0,0,0,0,0,0,0,0,0,0]], 10],
    [[[1,0,0,0,0,1,0,0,0,1,-1,0,0,0,0,0,0,0,0,0]], [[0,0,0,0,0,-1,0,0,0,-1,0,1,0,0,0,0,0,0,0,0],[0,0,0,0,0,1,0,0,0,1,0,0,0,0,0,0,0,0,0,0],[-1,0,0,0,0,-1,0,0,0,0,0,0,0,0,0,0,0,0,0,0],[0,0,0,0,0,-1,0,0,1,-1,0,0,0,0,0,0,0,0,0,0]], 11],
    [[[0,0,0,0,0,1,0,0,0,1,0,-1,0,0,0,0,0,0,0,0]], [[1,0,0,0,0,0,0,0,0,0,-1,0,0,0,0,0,0,0,0,0],[0,0,0,0,0,-1,0,0,0,-1,0,0,0,0,0,0,0,0,0,0],[0,0,0,0,0,-1,0,0,1,-1,0,0,0,0,0,0,0,0,0,0],[0,0,0,0,0,0,0,0,0,1,0,0,0,0,0,0,0,0,0,0],[-1,0,0,0,0,-1,0,0,0,0,0,0,0,0,0,0,0,0,0,0]], 13],
    [[[-1,0,0,0,0,0,0,0,0,1,0,-1,0,0,0,0,0,0,0,0]], [[0,0,0,0,0,0,0,0,0,-1,1,0,0,0,0,0,0,0,0,0],[-1,0,0,0,0,0,0,0,0,0,1,0,0,0,0,0,0,0,0,0],[0,0,0,0,0,0,0,0,0,1,0,0,0,0,0,0,0,0,0,0],[1,0,0,0,0,0,0,0,1,-1,0,0,0,0,0,0,0,0,0,0],[1,0,0,0,0,1,0,0,0,0,0,0,0,0,0,0,0,0,0,0]], 20],
    [[[1,0,0,0,0,0,0,0,0,0,0,1,0,0,0,0,0,0,0,0]], [[0,0,0,0,0,0,0,0,0,-1,0,0,0,0,0,0,0,0,0,0],[1,0,0,0,0,1,0,0,0,1,0,0,0,0,0,0,0,0,0,0],[1,0,0,0,0,0,0,0,1,0,0,0,0,0,0,0,0,0,0,0],[3,0,0,0,0,0,0,0,0,1,0,0,0,0,0,0,0,0,0,0],[-1,0,0,0,0,0,0,0,0,0,1,0,0,0,0,0,0,0,0,0]], 21],
    [[[1,0,0,0,0,0,0,0,1,-1,0,0,0,0,0,0,0,0,0,0]], [[0,0,0,0,0,0,0,0,-1,0,0,1,0,0,0,0,0,0,0,0],[-1,0,0,0,0,0,0,0,-1,0,1,0,0,0,0,0,0,0,0,0],[1,0,0,0,0,1,0,0,0,0,0,0,0,0,0,0,0,0,0,0],[1,0,0,0,0,0,0,0,1,0,0,0,0,0,0,0,0,0,0,0],[-1,0,0,0,0,0,0,0,0,0,1,0,0,0,0,0,0,0,0,0]], 22],
    [[[1,0,0,0,0,0,0,0,1,0,0,0,0,0,0,0,0,0,0,0]], [[1,0,0,0,0,1,0,0,0,1,0,0,0,0,0,0,0,0,0,0],[0,0,0,0,0,0,0,0,0,-1,0,0,0,0,0,0,0,0,0,0],[3,0,0,0,0,0,0,0,0,1,0,0,0,0,0,0,0,0,0,0],[-1,0,0,0,0,0,0,0,0,0,1,0,0,0,0,0,0,0,0,0],[1,0,0,0,0,0,0,0,0,0,0,1,0,0,0,0,0,0,0,0]], 23],
    [[[0,0,0,0,0,1,0,0,0,1,0,-1,0,0,0,0,0,0,0,0]], [[0,0,0,0,0,-1,0,0,1,-1,0,0,0,0,0,0,0,0,0,0],[-1,0,0,0,0,-1,0,0,0,-1,0,0,0,0,0,0,0,0,0,0],[0,0,0,0,0,0,0,0,0,-1,0,0,0,0,0,0,0,0,0,0],[2,0,0,0,0,-1,0,0,0,0,0,0,0,0,0,0,0,0,0,0],[1,0,0,0,0,0,0,0,0,0,-1,0,0,0,0,0,0,0,0,0]], 25],
    [[[2,0,0,0,0,0,0,0,0,1,0,-1,0,0,0,0,0,0,0,0]], [[-2,0,0,0,0,1,0,0,0,0,0,0,0,0,0,0,0,0,0,0],[-2,0,0,0,0,0,0,0,1,-1,0,0,0,0,0,0,0,0,0,0],[-3,0,0,0,0,0,0,0,0,-1,0,0,0,0,0,0,0,0,0,0],[1,0,0,0,0,0,0,0,0,0,-1,0,0,0,0,0,0,0,0,0]], 28],
    [[[0,0,0,0,0,1,0,0,-1,1,0,0,0,0,0,0,0,0,0,0]], [[-1,0,0,0,0,-1,0,0,0,0,0,0,0,0,0,0,0,0,0,0],[0,0,0,0,0,0,0,0,-1,0,0,0,0,0,0,0,0,0,0,0],[0,0,0,0,0,0,0,0,-1,0,0,1,0,0,0,0,0,0,0,0],[0,0,0,0,0,-1,0,0,1,0,0,0,0,0,0,0,0,0,0,0],[1,0,0,0,0,0,0,0,0,0,-1,0,0,0,0,0,0,0,0,0]], 30],
    [[[0,0,0,0,0,1,0,0,-1,1,0,0,0,0,0,0,0,0,0,0]], [[1,0,0,0,0,0,0,0,0,0,-1,0,0,0,0,0,0,0,0,0],[0,0,0,0,0,1,0,0,-1,0,0,0,0,0,0,0,0,0,0,0],[2,0,0,0,0,-1,0,0,0,0,0,0,0,0,0,0,0,0,0,0],[0,0,0,0,0,0,0,0,-1,0,0,1,0,0,0,0,0,0,0,0],[-1,0,0,0,0,0,0,0,-1,0,0,0,0,0,0,0,0,0,0,0]], 35],
    [[[-2,0,0,0,0,0,0,0,1,-1,0,0,0,0,0,0,0,0,0,0]], [[-2,0,0,0,0,1,0,0,0,0,0,0,0,0,0,0,0,0,0,0],[1,0,0,0,0,0,0,0,0,0,-1,0,0,0,0,0,0,0,0,0],[0,0,0,0,0,0,0,0,-1,0,0,1,0,0,0,0,0,0,0,0],[-1,0,0,0,0,0,0,0,-1,0,0,0,0,0,0,0,0,0,0,0]], 38],
    [[[0,0,0,0,0,1,0,0,0,1,0,-1,0,0,0,0,0,0,0,0]], [[-1,0,0,0,0,-1,0,0,0,-1,1,0,0,0,0,0,0,0,0,0],[-1,0,0,0,0,0,0,0,0,0,1,0,0,0,0,0,0,0,0,0],[-1,0,0,0,0,-1,0,0,0,0,0,0,0,0,0,0,0,0,0,0],[0,0,0,0,0,0,0,0,0,1,0,0,0,0,0,0,0,0,0,0],[0,0,0,0,0,-1,0,0,1,-1,0,0,0,0,0,0,0,0,0,0]], 48],
    [[[0,0,0,0,0,1,0,0,0,1,0,-1,0,0,0,0,0,0,0,0]], [[0,0,0,0,0,0,0,0,0,-1,0,0,0,0,0,0,0,0,0,0],[0,0,0,0,0,-1,0,0,1,-1,0,0,0,0,0,0,0,0,0,0],[2,0,0,0,0,-1,0,0,0,0,0,0,0,0,0,0,0,0,0,0],[-1,0,0,0,0,-1,0,0,0,-1,0,0,0,0,0,0,0,0,0,0],[-1,0,0,0,0,0,0,0,0,0,1,0,0,0,0,0,0,0,0,0]], 51],
    [[[2,0,0,0,0,0,0,0,0,1,0,-1,0,0,0,0,0,0,0,0]], [[-2,0,0,0,0,1,0,0,0,0,0,0,0,0,0,0,0,0,0,0],[-2,0,0,0,0,0,0,0,1,-1,0,0,0,0,0,0,0,0,0,0],[-1,0,0,0,0,0,0,0,0,0,1,0,0,0,0,0,0,0,0,0],[-3,0,0,0,0,0,0,0,0,-1,0,0,0,0,0,0,0,0,0,0]], 53],
    [[[0,0,0,0,0,1,0,0,-1,1,0,0,0,0,0,0,0,0,0,0]], [[0,0,0,0,0,0,0,0,-1,0,0,1,0,0,0,0,0,0,0,0],[-1,0,0,0,0,0,0,0,-1,0,1,0,0,0,0,0,0,0,0,0],[-1,0,0,0,0,-1,0,0,0,0,0,0,0,0,0,0,0,0,0,0],[0,0,0,0,0,-1,0,0,1,0,0,0,0,0,0,0,0,0,0,0],[-1,0,0,0,0,0,0,0,0,0,1,0,0,0,0,0,0,0,0,0]], 54],
    [[[0,0,0,0,0,1,0,0,-1,1,0,0,0,0,0,0,0,0,0,0]], [[-1,0,0,0,0,0,0,0,0,0,1,0,0,0,0,0,0,0,0,0],[0,0,0,0,0,1,0,0,-1,0,0,0,0,0,0,0,0,0,0,0],[-1,0,0,0,0,0,0,0,-1,0,0,0,0,0,0,0,0,0,0,0],[2,0,0,0,0,-1,0,0,0,0,0,0,0,0,0,0,0,0,0,0],[0,0,0,0,0,0,0,0,-1,0,0,1,0,0,0,0,0,0,0,0]], 57],
    [[[-2,0,0,0,0,0,0,0,1,-1,0,0,0,0,0,0,0,0,0,0]], [[-2,0,0,0,0,1,0,0,0,0,0,0,0,0,0,0,0,0,0,0],[-1,0,0,0,0,0,0,0,0,0,1,0,0,0,0,0,0,0,0,0],[-1,0,0,0,0,0,0,0,-1,0,0,0,0,0,0,0,0,0,0,0],[0,0,0,0,0,0,0,0,-1,0,0,1,0,0,0,0,0,0,0,0]], 59]
  ]],
  ["#9",
    [[0,0,0,1],
     [0,0,0,1],
     [0,0,0,1],
     [1,1,1,0]], [
    [[[0,0,0,0,0,0,0,0,0,1,0,0,0,0,0,0,0,0,0,0]], [[1,0,0,0,0,0,0,0,0,0,-1,0,0,0,0,0,0,0,0,0],[3,0,0,0,0,0,0,0,0,0,1,0,0,0,0,0,0,0,0,0]], 0],
    [[[-1,0,0,0,0,0,0,0,0,0,1,0,0,0,0,0,0,0,0,0]], [[0,0,0,0,0,0,0,0,0,-1,0,0,0,0,0,0,0,0,0,0]], 4],
    [[[3,0,0,0,0,0,0,0,0,0,1,0,0,0,0,0,0,0,0,0]], [[0,0,0,0,0,0,0,0,0,-1,0,0,0,0,0,0,0,0,0,0]], 7],
    [[[1,0,0,0,0,0,0,0,0,1,-1,0,0,0,0,0,0,0,0,0]], [[0,0,0,0,0,0,0,0,0,1,0,0,0,0,0,0,0,0,0,0]], 9]
  ]],
  ["#10",
    [[0,0,0,1,1,1,1,1,1,1],
     [0,0,0,1,1,1,1,1,1,1],
     [0,0,0,1,1,1,0,1,1,1],
     [1,1,1,0,0,1,1,1,1,1],
     [1,1,1,0,0,1,1,1,1,1],
     [1,1,1,1,1,0,0,0,1,1],
     [1,1,0,1,1,0,0,0,1,1],
     [1,1,1,1,1,0,0,0,1,1],
     [1,1,1,1,1,1,1,1,0,0],
     [1,1,1,1,1,1,1,1,0,0]], [
    [[[0,0,0,0,0,0,0,0,0,0,0,1,0,-1,0,0,0,0,0,0]], [[1,0,0,0,0,0,0,0,0,0,0,0,-1,0,0,0,0,0,0,0],[1,0,0,0,0,0,0,0,0,0,0,-1,0,0,0,0,0,0,0,0],[0,0,0,0,0,1,0,0,0,1,0,-1,0,0,0,0,0,0,0,0],[0,0,0,0,0,0,0,0,0,0,0,1,0,0,0,0,0,0,0,0]], 0],
    [[[0,0,0,0,0,1,0,0,0,1,0,-1,0,0,0,0,0,0,0,0]], [[0,0,0,0,0,1,0,0,0,1,0,0,0,0,0,0,0,0,0,0],[1,0,0,0,0,-1,0,0,0,-1,0,0,0,0,0,0,0,0,0,0],[0,0,0,0,0,-1,0,0,0,-1,0,0,0,1,0,0,0,0,0,0],[1,0,0,0,0,0,0,0,0,0,0,0,-1,0,0,0,0,0,0,0]], 5],
    [[[-1,0,0,0,0,0,0,0,0,0,0,1,0,0,0,0,0,0,0,0]], [[-1,0,0,0,0,1,0,0,0,1,0,0,0,0,0,0,0,0,0,0],[-1,0,0,0,0,0,0,0,0,0,0,0,0,1,0,0,0,0,0,0],[1,0,0,0,0,0,0,0,0,0,0,0,-1,0,0,0,0,0,0,0]], 8],
    [[[0,0,0,0,0,0,0,0,0,0,0,1,0,-1,0,0,0,0,0,0]], [[0,0,0,0,0,1,0,0,0,1,0,-1,0,0,0,0,0,0,0,0],[0,0,0,0,0,0,0,0,0,0,0,-1,0,0,0,0,0,0,0,0],[1,0,0,0,0,0,0,0,0,0,0,0,-1,0,0,0,0,0,0,0]], 12],
    [[[0,0,0,0,0,1,0,0,0,1,0,-1,0,0,0,0,0,0,0,0]], [[1,0,0,0,0,0,0,0,0,0,0,0,-1,0,0,0,0,0,0,0],[0,0,0,0,0,-1,0,0,0,-1,0,0,0,1,0,0,0,0,0,0],[0,0,0,0,0,-1,0,0,0,-1,0,0,0,0,0,0,0,0,0,0]], 16],
    [[[0,0,0,0,0,0,0,0,0,0,0,1,0,-1,0,0,0,0,0,0]], [[0,0,0,0,0,0,0,0,0,0,0,-1,1,0,0,0,0,0,0,0],[-1,0,0,0,0,0,0,0,0,0,0,0,1,0,0,0,0,0,0,0],[0,0,0,0,0,0,0,0,0,0,0,1,0,0,0,0,0,0,0,0],[0,0,0,0,0,1,0,0,0,1,0,-1,0,0,0,0,0,0,0,0]], 25],
    [[[0,0,0,0,0,0,0,0,0,0,0,1,-1,0,0,0,0,0,0,0]], [[0,0,0,0,0,0,0,0,0,0,0,-1,0,1,0,0,0,0,0,0],[0,0,0,0,0,1,0,0,0,1,0,-1,0,0,0,0,0,0,0,0],[-1,0,0,0,0,0,0,0,0,0,0,1,0,0,0,0,0,0,0,0]], 27],
    [[[0,0,0,0,0,1,0,0,0,1,0,-1,0,0,0,0,0,0,0,0]], [[0,0,0,0,0,-1,0,0,0,-1,0,0,0,1,0,0,0,0,0,0],[0,0,0,0,0,-1,0,0,0,-1,0,0,1,0,0,0,0,0,0,0],[0,0,0,0,0,1,0,0,0,1,0,0,0,0,0,0,0,0,0,0],[-1,0,0,0,0,0,0,0,0,0,0,0,1,0,0,0,0,0,0,0]], 29],
    [[[0,0,0,0,0,0,0,0,0,0,0,1,0,-1,0,0,0,0,0,0]], [[0,0,0,0,0,0,0,0,0,0,0,-1,0,0,0,0,0,0,0,0],[0,0,0,0,0,1,0,0,0,1,0,-1,0,0,0,0,0,0,0,0],[-1,0,0,0,0,0,0,0,0,0,0,0,1,0,0,0,0,0,0,0]], 31],
    [[[0,0,0,0,0,1,0,0,0,1,0,-1,0,0,0,0,0,0,0,0]], [[-1,0,0,0,0,0,0,0,0,0,0,0,1,0,0,0,0,0,0,0],[0,0,0,0,0,-1,0,0,0,-1,0,0,0,1,0,0,0,0,0,0],[0,0,0,0,0,-1,0,0,0,-1,0,0,0,0,0,0,0,0,0,0]], 33]
  ]],
  ["#11",
    [[0,0,0,1],
     [0,0,0,1],
     [0,0,0,1],
     [1,1,1,0]], [
    [[[0,0,0,0,0,0,0,0,0,0,0,1,0,0,0,0,0,0,0,0]], [[1,0,0,0,0,0,0,0,0,0,0,0,-1,0,0,0,0,0,0,0],[2,0,0,0,0,0,0,0,0,0,0,0,1,0,0,0,0,0,0,0]], 0],
    [[[-1,0,0,0,0,0,0,0,0,0,0,0,1,0,0,0,0,0,0,0]], [[0,0,0,0,0,0,0,0,0,0,0,-1,0,0,0,0,0,0,0,0]], 4],
    [[[2,0,0,0,0,0,0,0,0,0,0,0,1,0,0,0,0,0,0,0]], [[0,0,0,0,0,0,0,0,0,0,0,-1,0,0,0,0,0,0,0,0]], 7],
    [[[1,0,0,0,0,0,0,0,0,0,0,1,-1,0,0,0,0,0,0,0]], [[0,0,0,0,0,0,0,0,0,0,0,1,0,0,0,0,0,0,0,0]], 9]
  ]],
  ["#12",
    [[0,0,0,1,1,0,1,1,1,1,1,1,1,1,1,1,1,1,1,1],
     [0,0,0,1,1,1,1,0,1,1,0,0,1,1,1,1,1,1,1,1],
     [0,0,0,1,1,1,1,1,0,1,1,1,1,1,1,1,1,1,1,1],
     [1,1,1,0,0,1,0,1,1,1,1,1,1,1,1,1,1,1,1,1],
     [1,1,1,0,0,1,1,1,1,0,1,1,1,1,1,1,1,1,1,1],
     [0,1,1,1,1,0,1,0,0,1,1,1,1,1,1,1,1,1,1,1],
     [1,1,1,0,1,1,0,1,1,0,1,1,1,1,1,1,1,1,1,1],
     [1,0,1,1,1,0,1,0,0,1,0,0,1,1,1,1,1,1,1,1],
     [1,1,0,1,1,0,1,0,0,1,1,1,1,1,1,1,1,1,1,1],
     [1,1,1,1,0,1,0,1,1,0,1,1,1,1,1,1,1,1,1,1],
     [1,0,1,1,1,1,1,0,1,1,0,0,0,0,1,1,1,1,1,1],
     [1,0,1,1,1,1,1,0,1,1,0,0,1,1,1,1,0,1,0,1],
     [1,1,1,1,1,1,1,1,1,1,0,1,0,0,1,1,0,1,1,1],
     [1,1,1,1,1,1,1,1,1,1,0,1,0,0,1,1,1,1,0,1],
     [1,1,1,1,1,1,1,1,1,1,1,1,1,1,0,0,1,0,1,1],
     [1,1,1,1,1,1,1,1,1,1,1,1,1,1,0,0,1,1,1,0],
     [1,1,1,1,1,1,1,1,1,1,1,0,0,1,1,1,0,1,0,1],
     [1,1,1,1,1,1,1,1,1,1,1,1,1,1,0,1,1,0,1,0],
     [1,1,1,1,1,1,1,1,1,1,1,0,1,0,1,1,0,1,0,1],
     [1,1,1,1,1,1,1,1,1,1,1,1,1,1,1,0,1,0,1,0]], [
    [[[0,0,0,0,0,0,0,0,0,0,0,1,0,-1,0,0,0,0,0,0]], [[0,0,0,0,1,0,0,0,0,0,0,0,0,0,0,0,0,0,0,0],[1,0,0,0,0,0,0,0,0,0,0,-1,0,0,0,0,0,0,0,0],[1,0,0,0,0,0,0,0,0,0,0,-1,0,0,0,0,1,0,0,0],[1,0,0,0,0,0,0,0,0,0,0,0,0,0,0,-1,0,0,0,0],[0,0,0,0,0,0,0,0,0,0,0,1,0,0,0,0,0,0,0,0]], 0],
    [[[-1,0,0,0,0,0,0,0,0,0,0,0,0,1,0,0,0,0,0,0]], [[0,0,0,0,1,0,0,0,0,0,0,0,0,0,0,0,0,0,0,0],[0,0,0,0,0,0,0,0,0,0,0,0,0,0,0,0,1,0,0,0],[1,0,0,0,0,0,0,0,0,0,0,0,0,0,0,-1,0,0,0,0],[-1,0,0,0,0,0,0,0,0,0,0,1,0,0,0,0,0,0,0,0]], 2],
    [[[-1,0,0,0,0,0,0,0,0,0,0,0,0,1,0,0,-1,0,0,0]], [[1,0,0,0,0,0,0,0,0,0,0,0,0,0,0,-1,0,0,0,0],[1,0,0,0,0,0,0,0,0,0,0,0,0,-1,0,0,0,0,0,0],[0,0,0,0,1,0,0,0,0,0,0,0,0,0,0,0,0,0,0,0],[0,0,0,0,0,0,0,0,0,0,0,1,0,-1,0,0,0,0,0,0],[0,0,0,0,0,0,0,0,0,0,0,0,0,1,0,0,0,0,0,0]], 3],
    [[[0,0,0,0,0,0,0,0,0,0,0,1,0,-1,0,0,0,0,0,0]], [[0,0,0,0,1,0,0,0,0,0,0,0,0,0,0,0,0,0,0,0],[1,0,0,0,0,0,0,0,0,0,0,0,0,0,0,-1,0,0,0,0],[1,0,0,0,0,0,0,0,0,0,0,-1,0,0,0,0,1,0,0,0],[0,0,0,0,0,0,0,0,0,0,0,-1,0,0,0,0,0,0,0,0]], 10],
    [[[-1,0,0,0,0,0,0,0,0,0,0,0,0,1,0,0,-1,0,0,0]], [[0,0,0,0,1,0,0,0,0,0,0,0,0,0,0,0,0,0,0,0],[0,0,0,0,0,0,0,0,0,0,0,1,0,-1,0,0,0,0,0,0],[0,0,0,0,0,0,0,0,0,0,0,0,0,-1,0,0,0,0,0,0],[1,0,0,0,0,0,0,0,0,0,0,0,0,0,0,-1,0,0,0,0]], 12],
    [[[0,0,0,0,1,0,0,0,0,0,0,-1,0,1,0,0,0,0,0,0]], [[0,0,0,0,-1,0,0,0,0,0,0,0,0,0,0,0,0,0,0,0],[1,0,0,0,0,0,0,0,0,0,0,-1,0,0,0,0,0,0,0,0],[1,0,0,0,0,0,0,0,0,0,0,-1,0,0,0,0,1,0,0,0],[0,0,0,0,-1,0,0,0,0,0,0,1,0,0,0,0,0,0,0,0],[1,0,0,0,0,0,0,0,0,0,0,0,0,0,0,-1,0,0,0,0]], 17],
    [[[0,0,0,0,1,0,0,0,0,0,0,-1,0,1,0,0,0,0,0,0]], [[1,0,0,0,0,0,0,0,0,0,0,0,0,0,0,-1,0,0,0,0],[0,0,0,0,1,0,0,0,0,0,0,-1,0,0,0,0,0,0,0,0],[0,0,0,0,-1,0,0,0,0,0,0,0,0,0,0,0,0,0,0,0],[1,0,0,0,0,0,0,0,0,0,0,-1,0,0,0,0,1,0,0,0]], 24],
    [[[-1,0,0,0,1,0,0,0,0,0,0,0,0,1,0,0,0,0,0,0]], [[0,0,0,0,0,0,0,0,0,0,0,0,0,0,0,0,1,0,0,0],[1,0,0,0,0,0,0,0,0,0,0,0,0,0,0,-1,0,0,0,0],[-1,0,0,0,0,0,0,0,0,0,0,1,0,0,0,0,0,0,0,0],[0,0,0,0,-1,0,0,0,0,0,0,0,0,0,0,0,0,0,0,0]], 29],
    [[[-1,0,0,0,1,0,0,0,0,0,0,0,0,1,0,0,-1,0,0,0]], [[1,0,0,0,0,0,0,0,0,0,0,0,0,0,0,-1,0,0,0,0],[1,0,0,0,-1,0,0,0,0,0,0,0,0,-1,0,0,0,0,0,0],[0,0,0,0,-1,0,0,0,0,0,0,1,0,-1,0,0,0,0,0,0],[0,0,0,0,0,0,0,0,0,0,0,0,0,1,0,0,0,0,0,0],[0,0,0,0,-1,0,0,0,0,0,0,0,0,0,0,0,0,0,0,0]], 30],
    [[[-1,0,0,0,1,0,0,0,0,0,0,0,0,1,0,0,-1,0,0,0]], [[0,0,0,0,-1,0,0,0,0,0,0,1,0,-1,0,0,0,0,0,0],[0,0,0,0,0,0,0,0,0,0,0,0,0,-1,0,0,0,0,0,0],[0,0,0,0,-1,0,0,0,0,0,0,0,0,0,0,0,0,0,0,0],[1,0,0,0,0,0,0,0,0,0,0,0,0,0,0,-1,0,0,0,0]], 37],
    [[[0,0,0,0,0,0,0,0,0,0,0,0,0,1,0,-1,0,0,0,0]], [[1,0,0,0,0,0,0,0,0,0,0,0,0,-1,0,0,1,0,0,0],[0,0,0,0,1,0,0,0,0,0,0,0,0,0,0,0,0,0,0,0],[-1,0,0,0,0,0,0,0,0,0,0,0,0,1,0,0,0,0,0,0],[0,0,0,0,0,0,0,0,0,0,0,1,0,-1,0,0,0,0,0,0]], 42],
    [[[0,0,0,0,1,0,0,0,0,0,0,0,0,1,0,-1,0,0,0,0]], [[1,0,0,0,-1,0,0,0,0,0,0,0,0,-1,0,0,1,0,0,0],[-1,0,0,0,1,0,0,0,0,0,0,0,0,1,0,0,0,0,0,0],[0,0,0,0,-1,0,0,0,0,0,0,0,0,0,0,0,0,0,0,0],[0,0,0,0,-1,0,0,0,0,0,0,1,0,-1,0,0,0,0,0,0]], 43],
    [[[0,0,0,0,0,0,0,0,0,0,0,1,0,-1,0,0,0,0,0,0]], [[1,0,0,0,0,0,0,0,0,0,0,-1,0,0,0,0,1,0,0,0],[0,0,0,0,0,0,0,0,0,0,0,-1,0,0,0,1,0,0,0,0],[0,0,0,0,1,0,0,0,0,0,0,0,0,0,0,0,0,0,0,0],[0,0,0,0,0,0,0,0,0,0,0,1,0,0,0,0,0,0,0,0],[-1,0,0,0,0,0,0,0,0,0,0,0,0,0,0,1,0,0,0,0]], 49],
    [[[-1,0,0,0,0,0,0,0,0,0,0,0,0,1,0,0,-1,0,0,0]], [[0,0,0,0,0,0,0,0,0,0,0,0,0,-1,0,1,0,0,0,0],[-1,0,0,0,0,0,0,0,0,0,0,0,0,0,0,1,0,0,0,0],[0,0,0,0,0,0,0,0,0,0,0,0,0,1,0,0,0,0,0,0],[0,0,0,0,0,0,0,0,0,0,0,1,0,-1,0,0,0,0,0,0],[0,0,0,0,1,0,0,0,0,0,0,0,0,0,0,0,0,0,0,0]], 51],
    [[[0,0,0,0,0,0,0,0,0,0,0,1,0,-1,0,0,0,0,0,0]], [[0,0,0,0,1,0,0,0,0,0,0,0,0,0,0,0,0,0,0,0],[-1,0,0,0,0,0,0,0,0,0,0,0,0,0,0,1,0,0,0,0],[0,0,0,0,0,0,0,0,0,0,0,-1,0,0,0,0,0,0,0,0],[1,0,0,0,0,0,0,0,0,0,0,-1,0,0,0,0,1,0,0,0]], 57],
    [[[-1,0,0,0,0,0,0,0,0,0,0,0,0,1,0,0,-1,0,0,0]], [[0,0,0,0,0,0,0,0,0,0,0,0,0,-1,0,0,0,0,0,0],[0,0,0,0,1,0,0,0,0,0,0,0,0,0,0,0,0,0,0,0],[0,0,0,0,0,0,0,0,0,0,0,1,0,-1,0,0,0,0,0,0],[-1,0,0,0,0,0,0,0,0,0,0,0,0,0,0,1,0,0,0,0]], 59],
    [[[0,0,0,0,1,0,0,0,0,0,0,-1,0,1,0,0,0,0,0,0]], [[1,0,0,0,0,0,0,0,0,0,0,-1,0,0,0,0,1,0,0,0],[0,0,0,0,0,0,0,0,0,0,0,-1,0,0,0,1,0,0,0,0],[0,0,0,0,-1,0,0,0,0,0,0,0,0,0,0,0,0,0,0,0],[0,0,0,0,-1,0,0,0,0,0,0,1,0,0,0,0,0,0,0,0],[-1,0,0,0,0,0,0,0,0,0,0,0,0,0,0,1,0,0,0,0]], 60],
    [[[0,0,0,0,1,0,0,0,0,0,0,-1,0,1,0,0,0,0,0,0]], [[-1,0,0,0,0,0,0,0,0,0,0,0,0,0,0,1,0,0,0,0],[0,0,0,0,1,0,0,0,0,0,0,-1,0,0,0,0,0,0,0,0],[0,0,0,0,-1,0,0,0,0,0,0,0,0,0,0,0,0,0,0,0],[1,0,0,0,0,0,0,0,0,0,0,-1,0,0,0,0,1,0,0,0]], 63],
    [[[-1,0,0,0,1,0,0,0,0,0,0,0,0,1,0,0,-1,0,0,0]], [[0,0,0,0,-1,0,0,0,0,0,0,0,0,-1,0,1,0,0,0,0],[-1,0,0,0,0,0,0,0,0,0,0,0,0,0,0,1,0,0,0,0],[0,0,0,0,-1,0,0,0,0,0,0,0,0,0,0,0,0,0,0,0],[0,0,0,0,0,0,0,0,0,0,0,0,0,1,0,0,0,0,0,0],[0,0,0,0,-1,0,0,0,0,0,0,1,0,-1,0,0,0,0,0,0]], 64],
    [[[-1,0,0,0,1,0,0,0,0,0,0,0,0,1,0,0,-1,0,0,0]], [[0,0,0,0,0,0,0,0,0,0,0,0,0,-1,0,0,0,0,0,0],[0,0,0,0,-1,0,0,0,0,0,0,1,0,-1,0,0,0,0,0,0],[0,0,0,0,-1,0,0,0,0,0,0,0,0,0,0,0,0,0,0,0],[-1,0,0,0,0,0,0,0,0,0,0,0,0,0,0,1,0,0,0,0]], 67]
  ]],
  ["#13",
    [[0,0,0,1],
     [0,0,0,1],
     [0,0,0,1],
     [1,1,1,0]], [
    [[[0,0,0,0,1,0,0,0,0,0,0,0,0,0,0,0,0,0,0,0]], [[1,0,0,0,0,0,0,0,0,0,0,0,0,0,-1,0,0,0,0,0],[2,0,0,0,0,0,0,0,0,0,0,0,0,0,1,0,0,0,0,0]], 0],
    [[[-1,0,0,0,0,0,0,0,0,0,0,0,0,0,1,0,0,0,0,0]], [[0,0,0,0,-1,0,0,0,0,0,0,0,0,0,0,0,0,0,0,0]], 4],
    [[[2,0,0,0,0,0,0,0,0,0,0,0,0,0,1,0,0,0,0,0]], [[0,0,0,0,-1,0,0,0,0,0,0,0,0,0,0,0,0,0,0,0]], 7],
    [[[1,0,0,0,1,0,0,0,0,0,0,0,0,0,-1,0,0,0,0,0]], [[0,0,0,0,1,0,0,0,0,0,0,0,0,0,0,0,0,0,0,0]], 9]
  ]],
  ["#14",
    [[0,0,0,1],
     [0,0,0,1],
     [0,0,0,1],
     [1,1,1,0]], [
    [[[0,0,0,0,0,0,0,0,0,0,0,0,0,1,0,0,0,0,0,0]], [[1,0,0,0,0,0,0,0,0,0,0,0,0,0,0,-1,0,0,0,0],[2,0,0,0,0,0,0,0,0,0,0,0,0,0,0,1,0,0,0,0]], 0],
    [[[-1,0,0,0,0,0,0,0,0,0,0,0,0,0,0,1,0,0,0,0]], [[0,0,0,0,0,0,0,0,0,0,0,0,0,-1,0,0,0,0,0,0]], 4],
    [[[2,0,0,0,0,0,0,0,0,0,0,0,0,0,0,1,0,0,0,0]], [[0,0,0,0,0,0,0,0,0,0,0,0,0,-1,0,0,0,0,0,0]], 7],
    [[[1,0,0,0,0,0,0,0,0,0,0,0,0,1,0,-1,0,0,0,0]], [[0,0,0,0,0,0,0,0,0,0,0,0,0,1,0,0,0,0,0,0]], 9]
  ]],
  ["#15",
    [[0,0,0],
     [0,0,1],
     [0,1,0]], [
    [[[0,0,0,0,1,0,0,0,0,0,0,0,0,1,0,0,0,0,0,0]], [[1,0,0,0,0,0,0,0,0,0,0,0,0,0,0,0,-1,0,0,0],[1,0,0,0,0,0,0,0,0,0,0,0,0,0,0,0,1,0,0,0]], 0],
    [[[1,0,0,0,1,0,0,0,0,0,0,0,0,1,0,0,-1,0,0,0]], [[0,0,0,0,1,0,0,0,0,0,0,0,0,1,0,0,0,0,0,0]], 1],
    [[[-1,0,0,0,1,0,0,0,0,0,0,0,0,1,0,0,-1,0,0,0]], [[0,0,0,0,-1,0,0,0,0,0,0,0,0,-1,0,0,0,0,0,0]], 2]
  ]],
  ["#16",
    [[0,0,0,1],
     [0,0,0,0],
     [0,0,0,0],
     [1,0,0,0]], [
    [[[0,0,0,0,2,0,0,0,0,0,0,0,0,0,0,0,0,-1,0,0]], [[0,0,0,0,1,0,0,0,0,0,0,0,0,0,0,0,0,0,0,0]], 0],
    [[[0,0,0,0,1,0,0,0,0,0,0,0,0,0,0,0,0,0,0,0]], [[0,0,0,0,0,0,0,0,0,0,0,0,0,0,0,0,0,-1,0,0],[2,0,0,0,0,0,0,0,0,0,0,0,0,0,0,0,0,1,0,0]], 1],
    [[[0,0,0,0,0,0,0,0,0,0,0,0,0,0,0,0,0,1,0,0]], [[0,0,0,0,-1,0,0,0,0,0,0,0,0,0,0,0,0,0,0,0]], 2],
    [[[2,0,0,0,0,0,0,0,0,0,0,0,0,0,0,0,0,1,0,0]], [[0,0,0,0,-1,0,0,0,0,0,0,0,0,0,0,0,0,0,0,0]], 4]
  ]],
  ["#17",
    [[0,0,0,0,0,1],
     [0,0,0,0,1,0],
     [0,0,0,0,1,1],
     [0,0,0,0,1,1],
     [0,1,1,1,0,0],
     [1,0,1,1,0,0]], [
    [[[1,0,0,0,0,0,0,0,0,0,0,0,0,0,0,0,0,0,0,1]], [[1,0,0,0,0,0,0,0,0,0,0,0,0,0,0,0,0,0,-1,0],[1,0,0,0,0,0,0,0,0,0,0,0,0,0,0,0,0,1,0,0],[1,0,0,0,0,0,0,0,0,0,0,0,0,0,0,0,0,0,1,0]], 0],
    [[[1,0,0,0,0,0,0,0,0,0,0,0,0,0,0,0,0,1,0,0]], [[1,0,0,0,0,0,0,0,0,0,0,0,0,0,0,0,0,0,-1,0],[1,0,0,0,0,0,0,0,0,0,0,0,0,0,0,0,0,0,1,0],[1,0,0,0,0,0,0,0,0,0,0,0,0,0,0,0,0,0,0,1]], 1],
    [[[-2,0,0,0,0,0,0,0,0,0,0,0,0,0,0,0,0,0,1,-1]], [[-1,0,0,0,0,0,0,0,0,0,0,0,0,0,0,0,0,0,1,0],[2,0,0,0,0,0,0,0,0,0,0,0,0,0,0,0,0,1,-1,0]], 2],
    [[[2,0,0,0,0,0,0,0,0,0,0,0,0,0,0,0,0,1,-1,0]], [[0,0,0,0,0,0,0,0,0,0,0,0,0,0,0,0,0,-1,0,1],[1,0,0,0,0,0,0,0,0,0,0,0,0,0,0,0,0,1,0,0]], 3],
    [[[0,0,0,0,0,0,0,0,0,0,0,0,0,0,0,0,0,0,1,-1]], [[0,0,0,0,0,0,0,0,0,0,0,0,0,0,0,0,0,1,-1,0],[-1,0,0,0,0,0,0,0,0,0,0,0,0,0,0,0,0,0,-1,0]], 4],
    [[[0,0,0,0,0,0,0,0,0,0,0,0,0,0,0,0,0,1,-1,0]], [[-1,0,0,0,0,0,0,0,0,0,0,0,0,0,0,0,0,-1,0,0],[0,0,0,0,0,0,0,0,0,0,0,0,0,0,0,0,0,-1,0,1]], 5]
  ]],
  ["#18",
    [[0,0,0],
     [0,0,1],
     [0,1,0]], [
    [[[0,0,0,0,0,0,0,0,0,0,0,0,0,0,0,0,0,0,1,0]], [[1,0,0,0,0,0,0,0,0,0,0,0,0,0,0,0,0,0,0,-1],[0,0,0,0,0,0,0,0,0,0,0,0,0,0,0,0,0,0,0,1]], 0],
    [[[1,0,0,0,0,0,0,0,0,0,0,0,0,0,0,0,0,0,1,-1]], [[0,0,0,0,0,0,0,0,0,0,0,0,0,0,0,0,0,0,1,0]], 1],
    [[[0,0,0,0,0,0,0,0,0,0,0,0,0,0,0,0,0,0,1,-1]], [[0,0,0,0,0,0,0,0,0,0,0,0,0,0,0,0,0,0,-1,0]], 2]
  ]]
]
