
----------------------------------------------------------------------
This is SMTcut v4.6.4 by Christoph Lueders -- http://wrogn.com
Python 3.7.6 (default, Jan  8 2020, 19:59:22) 
[GCC 7.3.0] x86_64
pysmt 0.9.0, gmpy2 2.0.8
Datetime: 2020-06-23T20:11:21+02:00
Command line: BIOMD0000000315 --yices
Flags: no-ppone no-ppsmt no-pp2x2 dump justone solver=yices


Model: BIOMD0000000315
Logfile: db/BIOMD0000000315/ep11-yices-Linux-smtlog.txt
Loading polyhedra...  done.
Possible combinations: 10^15.9 in 22 bags
Bag sizes: 6 45 9 3 9 2 4 4 3 20 4 2 4 4 3 24 4 2 6 5 5 6

Minimizing (0,0)... (0,0)


Running SMT solver (1)... 0.024 sec
Found point (-2,3,3,3,3,3,-1,4,4,3,3,3,-2,4,4,3/2,-3/2,3,-1/2)
Checking... Minimizing (16,61)... (15,9), 0.023 sec
Inserting... 

MAXIMIZE
Subject To
  eq0: +1 x16 -1 x19 = 2
  eq1: -1 x4 +1 x6 = 0
  eq2: -1 x13 = 2
  eq3: -1 x1 -1 x16 +1 x19 = 0
  eq4: -1 x4 +1 x5 = 0
  eq5: -1 x1 -1 x2 +1 x5 = 2
  eq6: -1 x2 -1 x7 +1 x8 = 2
  eq7: +1 x9 -1 x12 = 1
  eq8: +1 x9 -1 x10 = 1
  eq9: +1 x9 -1 x11 = 1
  eq10: -1 x3 +1 x4 = 0
  eq11: +1 x15 -1 x18 = 1
  eq12: +1 x13 +1 x16 -1 x17 = 1
  eq13: -1 x10 -1 x13 +1 x14 = 3
  eq14: -1 x7 = 1
  ie0: -1 x2 -1 x7 +1 x11 >= 1
  ie1: +1 x17 >= -2
  ie2: +1 x10 -1 x15 +1 x17 >= -3
  ie3: -1 x1 +1 x3 -1 x16 >= 3
  ie4: +1 x3 >= -2
  ie5: -1 x13 +1 x15 -1 x16 >= 2
  ie6: -1 x9 +1 x15 >= -1
  ie7: +1 x14 -1 x15 >= 0
  ie8: +1 x8 -1 x9 >= 0
END

0.000 sec
[1 ph, smt 0.024, isect 0.023, ins 0.000, tot 0.104]

Running SMT solver (2)... 0.002 sec
Found point (-2,5/3,5/3,5/3,5/3,5/3,-1,8/3,8/3,5/3,5/3,5/3,-2,8/3,7/3,1,-2,4/3,-1)
Checking... Minimizing (16,60)... (15,12), 0.015 sec
Inserting... 

MAXIMIZE
Subject To
  eq0: +1 x16 -1 x19 = 2
  eq1: -1 x4 +1 x6 = 0
  eq2: -1 x17 = 2
  eq3: -1 x1 -1 x16 +1 x19 = 0
  eq4: -1 x4 +1 x5 = 0
  eq5: -1 x1 -1 x2 +1 x5 = 2
  eq6: -1 x2 -1 x7 +1 x8 = 2
  eq7: +1 x9 -1 x12 = 1
  eq8: +1 x9 -1 x10 = 1
  eq9: +1 x9 -1 x11 = 1
  eq10: -1 x3 +1 x4 = 0
  eq11: +1 x15 -1 x18 = 1
  eq12: +1 x13 +1 x16 -1 x17 = 1
  eq13: -1 x10 -1 x13 +1 x14 = 3
  eq14: -1 x7 = 1
  ie0: -1 x2 -1 x7 +1 x11 >= 1
  ie1: +1 x10 -1 x15 +1 x17 >= -3
  ie2: -1 x2 +1 x16 >= -1
  ie3: -1 x1 +1 x19 >= -3
  ie4: +1 x2 >= -1
  ie5: +1 x13 >= -2
  ie6: +1 x3 >= -2
  ie7: -1 x13 +1 x15 -1 x16 >= 2
  ie8: +1 x10 >= 1
  ie9: -1 x9 +1 x15 >= -1
  ie10: +1 x8 -1 x9 >= 0
  ie11: +1 x15 -1 x16 >= 1
END

0.000 sec
[2 ph, smt 0.026, isect 0.038, ins 0.000, tot 0.124]

Running SMT solver (3)... 0.001 sec
Found point (-2,4,4,4,4,4,-1,5,5,2,3,4,-2,3,2,1,-2,1,-1)
Checking... Minimizing (16,62)... (16,11), 0.016 sec
Inserting... 

MAXIMIZE
Subject To
  eq0: -1 x1 -1 x16 +1 x19 = 0
  eq1: -1 x4 +1 x5 = 0
  eq2: +1 x15 -1 x18 = 1
  eq3: -1 x2 -1 x7 +1 x8 = 2
  eq4: +1 x9 -1 x12 = 1
  eq5: +1 x15 -1 x16 = 1
  eq6: -1 x3 +1 x4 = 0
  eq7: +1 x13 +1 x16 -1 x17 = 1
  eq8: -1 x1 = 2
  eq9: -1 x7 -1 x10 +1 x11 = 2
  eq10: -1 x7 = 1
  eq11: -1 x4 +1 x6 = 0
  eq12: -1 x1 -1 x2 +1 x5 = 2
  eq13: -1 x10 +1 x15 = 0
  eq14: -1 x10 -1 x13 +1 x14 = 3
  eq15: -1 x17 = 2
  ie0: -1 x10 +1 x14 >= 0
  ie1: -1 x1 -1 x2 +1 x9 >= 2
  ie2: -1 x1 +1 x3 -1 x16 >= 3
  ie3: +1 x8 -1 x9 +1 x10 >= -3
  ie4: -1 x1 +1 x19 >= -3
  ie5: +1 x13 >= -2
  ie6: +1 x3 >= -2
  ie7: -1 x13 +1 x15 -1 x16 >= 2
  ie8: +1 x8 -1 x9 >= 0
  ie9: +1 x2 -1 x10 >= 1
  ie10: -1 x7 +1 x9 -1 x10 >= 3
END

0.000 sec
[3 ph, smt 0.027, isect 0.054, ins 0.000, tot 0.145]

Running SMT solver (4)... 0.001 sec
Found point (-2,3,3,3,3,3,-1,4,4,7/3,3,3,-2,10/3,7/3,4/3,-5/3,4/3,-2/3)
Checking... Minimizing (16,62)... (16,8), 0.015 sec
Inserting... 

MAXIMIZE
Subject To
  eq0: -1 x1 -1 x16 +1 x19 = 0
  eq1: -1 x4 +1 x5 = 0
  eq2: -1 x2 -1 x7 +1 x8 = 2
  eq3: +1 x9 -1 x11 = 1
  eq4: +1 x9 -1 x12 = 1
  eq5: +1 x15 -1 x18 = 1
  eq6: -1 x3 +1 x4 = 0
  eq7: +1 x15 -1 x16 = 1
  eq8: +1 x13 +1 x16 -1 x17 = 1
  eq9: -1 x7 = 1
  eq10: -1 x1 = 2
  eq11: -1 x4 +1 x6 = 0
  eq12: -1 x13 = 2
  eq13: -1 x10 +1 x15 = 0
  eq14: -1 x1 -1 x2 +1 x5 = 2
  eq15: -1 x10 -1 x13 +1 x14 = 3
  ie0: -1 x2 -1 x7 +1 x11 >= 1
  ie1: +1 x17 >= -2
  ie2: -1 x1 +1 x3 -1 x16 >= 3
  ie3: -1 x2 +1 x10 >= -1
  ie4: -1 x10 +1 x11 >= 0
  ie5: +1 x3 >= -2
  ie6: +1 x7 -1 x9 +1 x10 >= -3
  ie7: +1 x8 -1 x9 >= 0
END

0.000 sec
[4 ph, smt 0.028, isect 0.068, ins 0.000, tot 0.164]

Running SMT solver (5)... 0.001 sec
Found point (-2,10/3,10/3,10/3,10/3,10/3,-1,13/3,13/3,8/3,10/3,10/3,-2,11/3,8/3,4/3,-5/3,5/3,-2/3)
Checking... Minimizing (16,61)... (15,10), 0.015 sec
Inserting... 

MAXIMIZE
Subject To
  eq0: +1 x16 -1 x19 = 2
  eq1: -1 x4 +1 x6 = 0
  eq2: -1 x13 = 2
  eq3: -1 x1 -1 x16 +1 x19 = 0
  eq4: -1 x4 +1 x5 = 0
  eq5: -1 x1 -1 x2 +1 x5 = 2
  eq6: -1 x2 -1 x7 +1 x8 = 2
  eq7: +1 x9 -1 x12 = 1
  eq8: +1 x9 -1 x11 = 1
  eq9: +1 x15 -1 x18 = 1
  eq10: -1 x3 +1 x4 = 0
  eq11: -1 x10 +1 x15 = 0
  eq12: +1 x13 +1 x16 -1 x17 = 1
  eq13: -1 x10 -1 x13 +1 x14 = 3
  eq14: -1 x7 = 1
  ie0: -1 x2 -1 x7 +1 x11 >= 1
  ie1: +1 x17 >= -2
  ie2: -1 x1 +1 x3 -1 x16 >= 3
  ie3: -1 x2 +1 x10 >= -1
  ie4: -1 x10 +1 x11 >= 0
  ie5: +1 x3 >= -2
  ie6: -1 x13 +1 x15 -1 x16 >= 2
  ie7: +1 x7 -1 x9 +1 x10 >= -3
  ie8: +1 x8 -1 x9 >= 0
  ie9: +1 x15 -1 x16 >= 1
END

0.002 sec
[4 ph, smt 0.029, isect 0.083, ins 0.002, tot 0.185]

Running SMT solver (6)... 0.002 sec
Found point (-2,3/2,3/2,3/2,3/2,3/2,-1,5/2,5/2,3/2,3/2,3/2,-2,5/2,5/2,3/2,-3/2,3/2,-1/2)
Checking... Minimizing (16,61)... (16,9), 0.015 sec
Inserting... 

MAXIMIZE
Subject To
  eq0: -1 x1 -1 x16 +1 x19 = 0
  eq1: -1 x4 +1 x5 = 0
  eq2: -1 x2 -1 x7 +1 x8 = 2
  eq3: +1 x9 -1 x10 = 1
  eq4: +1 x9 -1 x12 = 1
  eq5: +1 x9 -1 x11 = 1
  eq6: -1 x3 +1 x4 = 0
  eq7: +1 x15 -1 x18 = 1
  eq8: +1 x15 -1 x16 = 1
  eq9: +1 x13 +1 x16 -1 x17 = 1
  eq10: -1 x7 = 1
  eq11: -1 x1 = 2
  eq12: -1 x4 +1 x6 = 0
  eq13: -1 x13 = 2
  eq14: -1 x1 -1 x2 +1 x5 = 2
  eq15: -1 x10 -1 x13 +1 x14 = 3
  ie0: -1 x2 -1 x7 +1 x11 >= 1
  ie1: +1 x17 >= -2
  ie2: -1 x2 +1 x16 >= -1
  ie3: +1 x10 -1 x15 +1 x17 >= -3
  ie4: +1 x2 >= -1
  ie5: +1 x3 >= -2
  ie6: -1 x9 +1 x15 >= -1
  ie7: +1 x8 -1 x9 >= 0
  ie8: +1 x10 -1 x16 >= 0
END

0.000 sec
[5 ph, smt 0.031, isect 0.098, ins 0.002, tot 0.204]

Running SMT solver (7)... 0.001 sec
Found point (-2,2,2,2,2,2,-1,3,3,2,2,2,-2,3,3,3/2,-3/2,2,-1/2)
Checking... Minimizing (16,60)... (15,13), 0.015 sec
Inserting... 

MAXIMIZE
Subject To
  eq0: +1 x16 -1 x19 = 2
  eq1: -1 x4 +1 x6 = 0
  eq2: -1 x13 = 2
  eq3: -1 x1 -1 x16 +1 x19 = 0
  eq4: -1 x4 +1 x5 = 0
  eq5: -1 x1 -1 x2 +1 x5 = 2
  eq6: -1 x2 -1 x7 +1 x8 = 2
  eq7: +1 x9 -1 x12 = 1
  eq8: +1 x9 -1 x10 = 1
  eq9: +1 x9 -1 x11 = 1
  eq10: -1 x3 +1 x4 = 0
  eq11: +1 x15 -1 x18 = 1
  eq12: +1 x13 +1 x16 -1 x17 = 1
  eq13: -1 x10 -1 x13 +1 x14 = 3
  eq14: -1 x7 = 1
  ie0: -1 x2 -1 x7 +1 x11 >= 1
  ie1: +1 x17 >= -2
  ie2: +1 x10 -1 x15 +1 x17 >= -3
  ie3: -1 x2 +1 x16 >= -1
  ie4: +1 x2 >= -1
  ie5: +1 x3 >= -2
  ie6: -1 x13 +1 x15 -1 x16 >= 2
  ie7: +1 x10 >= 1
  ie8: -1 x9 +1 x15 >= -1
  ie9: +1 x14 -1 x15 >= 0
  ie10: +1 x8 -1 x9 >= 0
  ie11: +1 x15 -1 x16 >= 1
  ie12: +1 x10 -1 x16 >= 0
END

0.003 sec
[5 ph, smt 0.032, isect 0.113, ins 0.005, tot 0.227]

Running SMT solver (8)... 0.001 sec
Found point (-2,4,4,4,4,4,-1,5,9/2,5/2,7/2,7/2,-2,7/2,5/2,3/2,-3/2,3/2,-1/2)
Checking... Minimizing (17,62)... (17,5), 0.014 sec
Inserting... 

MAXIMIZE
Subject To
  eq0: -1 x1 -1 x16 +1 x19 = 0
  eq1: -1 x4 +1 x5 = 0
  eq2: -1 x2 -1 x7 +1 x8 = 2
  eq3: +1 x9 -1 x11 = 1
  eq4: +1 x9 -1 x12 = 1
  eq5: +1 x15 -1 x18 = 1
  eq6: -1 x3 +1 x4 = 0
  eq7: +1 x15 -1 x16 = 1
  eq8: +1 x13 +1 x16 -1 x17 = 1
  eq9: -1 x7 = 1
  eq10: -1 x7 -1 x10 +1 x11 = 2
  eq11: -1 x1 = 2
  eq12: -1 x4 +1 x6 = 0
  eq13: -1 x13 = 2
  eq14: -1 x10 +1 x15 = 0
  eq15: -1 x1 -1 x2 +1 x5 = 2
  eq16: -1 x10 -1 x13 +1 x14 = 3
  ie0: +1 x17 >= -2
  ie1: -1 x1 -1 x2 +1 x9 >= 2
  ie2: -1 x1 +1 x3 -1 x16 >= 3
  ie3: +1 x2 -1 x10 >= 1
  ie4: +1 x3 >= -2
END

0.000 sec
[6 ph, smt 0.033, isect 0.127, ins 0.005, tot 0.245]

Running SMT solver (9)... 0.001 sec
Found point (-2,4,4,4,4,4,-1,5,5,5/2,7/2,4,-2,7/2,5/2,3/2,-3/2,3/2,-1/2)
Checking... Minimizing (16,62)... (16,8), 0.014 sec
Inserting... 

MAXIMIZE
Subject To
  eq0: -1 x1 -1 x16 +1 x19 = 0
  eq1: -1 x4 +1 x5 = 0
  eq2: +1 x15 -1 x18 = 1
  eq3: -1 x2 -1 x7 +1 x8 = 2
  eq4: +1 x9 -1 x12 = 1
  eq5: +1 x15 -1 x16 = 1
  eq6: -1 x3 +1 x4 = 0
  eq7: +1 x13 +1 x16 -1 x17 = 1
  eq8: -1 x7 = 1
  eq9: -1 x7 -1 x10 +1 x11 = 2
  eq10: -1 x1 = 2
  eq11: -1 x4 +1 x6 = 0
  eq12: -1 x13 = 2
  eq13: -1 x1 -1 x2 +1 x5 = 2
  eq14: -1 x10 +1 x15 = 0
  eq15: -1 x10 -1 x13 +1 x14 = 3
  ie0: +1 x17 >= -2
  ie1: -1 x1 -1 x2 +1 x9 >= 2
  ie2: -1 x1 +1 x3 -1 x16 >= 3
  ie3: +1 x8 -1 x9 +1 x10 >= -3
  ie4: +1 x3 >= -2
  ie5: +1 x8 -1 x9 >= 0
  ie6: +1 x2 -1 x10 >= 1
  ie7: -1 x7 +1 x9 -1 x10 >= 3
END

0.003 sec
[6 ph, smt 0.034, isect 0.141, ins 0.008, tot 0.267]

Running SMT solver (10)... 0.001 sec
Found point (-2,5,5,5,5,5,-1,6,5,3,4,4,-2,4,3,3/2,-3/2,2,-1/2)
Checking... Minimizing (17,63)... (16,6), 0.016 sec
Inserting... 

MAXIMIZE
Subject To
  eq0: +1 x16 -1 x19 = 2
  eq1: -1 x1 -1 x16 +1 x19 = 0
  eq2: -1 x4 +1 x5 = 0
  eq3: +1 x9 -1 x12 = 1
  eq4: +1 x9 -1 x11 = 1
  eq5: +1 x15 -1 x18 = 1
  eq6: -1 x3 +1 x4 = 0
  eq7: +1 x13 +1 x16 -1 x17 = 1
  eq8: -1 x7 = 1
  eq9: -1 x7 -1 x10 +1 x11 = 2
  eq10: -1 x4 +1 x6 = 0
  eq11: -1 x1 -1 x2 +1 x9 = 2
  eq12: +1 x8 -1 x9 = 1
  eq13: -1 x13 = 2
  eq14: -1 x10 +1 x15 = 0
  eq15: -1 x10 -1 x13 +1 x14 = 3
  ie0: +1 x17 >= -2
  ie1: -1 x1 -1 x2 +1 x4 >= 2
  ie2: +1 x15 -1 x16 >= 1
  ie3: +1 x3 >= -2
  ie4: -1 x13 +1 x15 -1 x16 >= 2
  ie5: +1 x1 +1 x2 -1 x4 >= -2
END

0.000 sec
[7 ph, smt 0.035, isect 0.157, ins 0.008, tot 0.286]

Running SMT solver (11)... 0.001 sec
Found point (-2,9/2,9/2,9/2,9/2,9/2,-1,11/2,5,3,4,4,-2,4,3,3/2,-3/2,2,-1/2)
Checking... Minimizing (17,61)... (16,7), 0.014 sec
Inserting... 

MAXIMIZE
Subject To
  eq0: +1 x16 -1 x19 = 2
  eq1: -1 x1 -1 x16 +1 x19 = 0
  eq2: -1 x4 +1 x5 = 0
  eq3: -1 x2 -1 x7 +1 x8 = 2
  eq4: +1 x9 -1 x12 = 1
  eq5: +1 x9 -1 x11 = 1
  eq6: +1 x15 -1 x18 = 1
  eq7: -1 x3 +1 x4 = 0
  eq8: +1 x13 +1 x16 -1 x17 = 1
  eq9: -1 x7 = 1
  eq10: -1 x7 -1 x10 +1 x11 = 2
  eq11: -1 x4 +1 x6 = 0
  eq12: -1 x13 = 2
  eq13: -1 x1 -1 x2 +1 x5 = 2
  eq14: -1 x10 +1 x15 = 0
  eq15: -1 x10 -1 x13 +1 x14 = 3
  ie0: +1 x17 >= -2
  ie1: +1 x15 -1 x16 >= 1
  ie2: -1 x1 -1 x2 +1 x9 >= 2
  ie3: -1 x1 +1 x3 -1 x16 >= 3
  ie4: +1 x3 >= -2
  ie5: +1 x2 -1 x10 >= 1
  ie6: -1 x13 +1 x15 -1 x16 >= 2
END

0.002 sec
[7 ph, smt 0.036, isect 0.172, ins 0.010, tot 0.307]

Running SMT solver (12)... 0.001 sec
Found point (-2,9/2,9/2,9/2,9/2,9/2,-1,11/2,11/2,3,4,9/2,-2,4,3,3/2,-3/2,2,-1/2)
Checking... Minimizing (16,61)... (15,10), 0.015 sec
Inserting... 

MAXIMIZE
Subject To
  eq0: -1 x7 -1 x10 +1 x11 = 2
  eq1: +1 x16 -1 x19 = 2
  eq2: -1 x4 +1 x6 = 0
  eq3: -1 x13 = 2
  eq4: -1 x1 -1 x16 +1 x19 = 0
  eq5: -1 x4 +1 x5 = 0
  eq6: -1 x1 -1 x2 +1 x5 = 2
  eq7: -1 x2 -1 x7 +1 x8 = 2
  eq8: +1 x9 -1 x12 = 1
  eq9: +1 x15 -1 x18 = 1
  eq10: -1 x10 +1 x15 = 0
  eq11: -1 x3 +1 x4 = 0
  eq12: +1 x13 +1 x16 -1 x17 = 1
  eq13: -1 x10 -1 x13 +1 x14 = 3
  eq14: -1 x7 = 1
  ie0: +1 x17 >= -2
  ie1: -1 x1 -1 x2 +1 x9 >= 2
  ie2: -1 x1 +1 x3 -1 x16 >= 3
  ie3: +1 x8 -1 x9 +1 x10 >= -3
  ie4: -1 x13 +1 x15 -1 x16 >= 2
  ie5: +1 x3 >= -2
  ie6: +1 x8 -1 x9 >= 0
  ie7: +1 x15 -1 x16 >= 1
  ie8: +1 x2 -1 x10 >= 1
  ie9: -1 x7 +1 x9 -1 x10 >= 3
END

0.003 sec
[6 ph, smt 0.036, isect 0.186, ins 0.013, tot 0.328]

Running SMT solver (13)... 0.006 sec
Found point (0,-3,-1,-2,-1,-2,2,1,0,-1,1,-1,1,3,-1,-2,-2,-2,-2)
Checking... Minimizing (19,62)... (19,0), 0.012 sec
Inserting... 

MAXIMIZE
Subject To
  eq0: -1 x19 = 2
  eq1: -1 x2 +1 x5 +1 x16 -1 x19 = 2
  eq2: -1 x2 -1 x7 +1 x8 = 2
  eq3: +1 x9 -1 x10 = 1
  eq4: +1 x9 -1 x12 = 1
  eq5: -1 x2 +1 x9 -1 x11 = 2
  eq6: +1 x15 -1 x18 = 1
  eq7: -1 x2 +1 x4 -1 x5 = 2
  eq8: +1 x15 -1 x16 = 1
  eq9: +1 x13 +1 x16 -1 x17 = 1
  eq10: -1 x12 = 1
  eq11: -1 x18 = 2
  eq12: -1 x2 +1 x4 = 1
  eq13: -1 x4 +1 x6 = 0
  eq14: +1 x8 -1 x9 = 1
  eq15: -1 x2 -1 x3 +1 x4 = 2
  eq16: -1 x1 -1 x2 +1 x5 = 2
  eq17: -1 x10 +1 x15 -1 x17 = 2
  eq18: -1 x10 -1 x13 +1 x14 = 3
END

0.000 sec
[7 ph, smt 0.042, isect 0.199, ins 0.013, tot 0.350]

Running SMT solver (14)... 0.003 sec
Found point (-2,3/2,3/2,3/2,3/2,3/2,-1,5/2,5/2,3/2,3/2,3/2,-1,7/2,3/2,0,-2,1/2,-2)
Checking... Minimizing (16,60)... (16,7), 0.014 sec
Inserting... 

MAXIMIZE
Subject To
  eq0: +1 x16 -1 x19 = 2
  eq1: -1 x19 = 2
  eq2: -1 x1 -1 x16 +1 x19 = 0
  eq3: -1 x4 +1 x5 = 0
  eq4: -1 x2 -1 x7 +1 x8 = 2
  eq5: +1 x9 -1 x12 = 1
  eq6: +1 x9 -1 x10 = 1
  eq7: +1 x9 -1 x11 = 1
  eq8: -1 x3 +1 x4 = 0
  eq9: +1 x15 -1 x18 = 1
  eq10: +1 x13 +1 x16 -1 x17 = 1
  eq11: -1 x7 = 1
  eq12: -1 x4 +1 x6 = 0
  eq13: -1 x1 -1 x2 +1 x5 = 2
  eq14: -1 x10 -1 x13 +1 x14 = 3
  eq15: -1 x17 = 2
  ie0: -1 x2 -1 x7 +1 x11 >= 1
  ie1: +1 x10 -1 x15 +1 x17 >= -3
  ie2: +1 x8 -1 x9 >= 0
  ie3: -1 x1 +1 x3 -1 x16 >= 3
  ie4: -1 x13 +1 x15 -1 x16 >= 2
  ie5: +1 x3 >= -2
  ie6: -1 x9 +1 x15 >= -1
END

0.000 sec
[8 ph, smt 0.045, isect 0.213, ins 0.013, tot 0.370]

Running SMT solver (15)... 0.001 sec
Found point (-2,3,3,3,3,3,-1,4,7/2,3/2,5/2,5/2,-1,7/2,3/2,0,-2,1/2,-2)
Checking... Minimizing (17,60)... (17,5), 0.013 sec
Inserting... 

MAXIMIZE
Subject To
  eq0: +1 x16 -1 x19 = 2
  eq1: -1 x19 = 2
  eq2: -1 x1 -1 x16 +1 x19 = 0
  eq3: -1 x4 +1 x5 = 0
  eq4: -1 x2 -1 x7 +1 x8 = 2
  eq5: +1 x9 -1 x12 = 1
  eq6: +1 x9 -1 x11 = 1
  eq7: +1 x15 -1 x18 = 1
  eq8: -1 x3 +1 x4 = 0
  eq9: +1 x13 +1 x16 -1 x17 = 1
  eq10: -1 x7 = 1
  eq11: -1 x7 -1 x10 +1 x11 = 2
  eq12: -1 x4 +1 x6 = 0
  eq13: -1 x1 -1 x2 +1 x5 = 2
  eq14: -1 x10 +1 x15 = 0
  eq15: -1 x10 -1 x13 +1 x14 = 3
  eq16: -1 x17 = 2
  ie0: -1 x1 -1 x2 +1 x9 >= 2
  ie1: -1 x1 +1 x3 -1 x16 >= 3
  ie2: +1 x3 >= -2
  ie3: +1 x2 -1 x10 >= 1
  ie4: -1 x13 +1 x15 -1 x16 >= 2
END

0.000 sec
[9 ph, smt 0.046, isect 0.225, ins 0.014, tot 0.387]

Running SMT solver (16)... 0.001 sec
Found point (-2,3,3,3,3,3,-1,4,4,3/2,5/2,3,-1,7/2,3/2,0,-2,1/2,-2)
Checking... Minimizing (16,60)... (16,8), 0.013 sec
Inserting... 

MAXIMIZE
Subject To
  eq0: +1 x16 -1 x19 = 2
  eq1: -1 x19 = 2
  eq2: -1 x1 -1 x16 +1 x19 = 0
  eq3: -1 x4 +1 x5 = 0
  eq4: -1 x2 -1 x7 +1 x8 = 2
  eq5: +1 x9 -1 x12 = 1
  eq6: +1 x15 -1 x18 = 1
  eq7: -1 x3 +1 x4 = 0
  eq8: +1 x13 +1 x16 -1 x17 = 1
  eq9: -1 x7 = 1
  eq10: -1 x7 -1 x10 +1 x11 = 2
  eq11: -1 x4 +1 x6 = 0
  eq12: -1 x1 -1 x2 +1 x5 = 2
  eq13: -1 x10 +1 x15 = 0
  eq14: -1 x10 -1 x13 +1 x14 = 3
  eq15: -1 x17 = 2
  ie0: -1 x1 -1 x2 +1 x9 >= 2
  ie1: -1 x1 +1 x3 -1 x16 >= 3
  ie2: +1 x8 -1 x9 +1 x10 >= -3
  ie3: -1 x13 +1 x15 -1 x16 >= 2
  ie4: +1 x3 >= -2
  ie5: +1 x8 -1 x9 >= 0
  ie6: +1 x2 -1 x10 >= 1
  ie7: -1 x7 +1 x9 -1 x10 >= 3
END

0.001 sec
[9 ph, smt 0.047, isect 0.238, ins 0.015, tot 0.405]

Running SMT solver (17)... 0.001 sec
Found point (-2,3,3,3,3,3,-1,4,11/3,5/3,8/3,8/3,-4/3,10/3,5/3,1/3,-2,2/3,-5/3)
Checking... Minimizing (17,61)... (16,12), 0.015 sec
Inserting... 

MAXIMIZE
Subject To
  eq0: +1 x16 -1 x19 = 2
  eq1: -1 x1 -1 x16 +1 x19 = 0
  eq2: -1 x4 +1 x5 = 0
  eq3: -1 x2 -1 x7 +1 x8 = 2
  eq4: +1 x9 -1 x12 = 1
  eq5: +1 x9 -1 x11 = 1
  eq6: +1 x15 -1 x18 = 1
  eq7: -1 x3 +1 x4 = 0
  eq8: +1 x13 +1 x16 -1 x17 = 1
  eq9: -1 x7 = 1
  eq10: -1 x7 -1 x10 +1 x11 = 2
  eq11: -1 x4 +1 x6 = 0
  eq12: -1 x1 -1 x2 +1 x5 = 2
  eq13: -1 x10 +1 x15 = 0
  eq14: -1 x10 -1 x13 +1 x14 = 3
  eq15: -1 x17 = 2
  ie0: -1 x10 +1 x14 >= 0
  ie1: -1 x10 -1 x13 +1 x15 >= -1
  ie2: -1 x1 -1 x2 +1 x9 >= 2
  ie3: -1 x1 +1 x3 -1 x16 >= 3
  ie4: -1 x1 +1 x19 >= -3
  ie5: +1 x2 >= -1
  ie6: +1 x13 >= -2
  ie7: +1 x3 >= -2
  ie8: -1 x13 +1 x15 -1 x16 >= 2
  ie9: +1 x15 -1 x16 >= 1
  ie10: +1 x2 -1 x10 >= 1
  ie11: +1 x19 >= -2
END

0.000 sec
[10 ph, smt 0.048, isect 0.254, ins 0.015, tot 0.425]

Running SMT solver (18)... 0.001 sec
Found point (-2,3,3,3,3,3,-1,4,4,5/3,8/3,3,-4/3,10/3,5/3,1/3,-2,2/3,-5/3)
Checking... Minimizing (16,61)... (15,15), 0.015 sec
Inserting... 

MAXIMIZE
Subject To
  eq0: -1 x7 -1 x10 +1 x11 = 2
  eq1: +1 x16 -1 x19 = 2
  eq2: -1 x4 +1 x6 = 0
  eq3: -1 x17 = 2
  eq4: -1 x1 -1 x16 +1 x19 = 0
  eq5: -1 x4 +1 x5 = 0
  eq6: -1 x1 -1 x2 +1 x5 = 2
  eq7: -1 x2 -1 x7 +1 x8 = 2
  eq8: +1 x9 -1 x12 = 1
  eq9: +1 x15 -1 x18 = 1
  eq10: -1 x10 +1 x15 = 0
  eq11: -1 x3 +1 x4 = 0
  eq12: +1 x13 +1 x16 -1 x17 = 1
  eq13: -1 x10 -1 x13 +1 x14 = 3
  eq14: -1 x7 = 1
  ie0: -1 x10 +1 x14 >= 0
  ie1: -1 x10 -1 x13 +1 x15 >= -1
  ie2: -1 x1 -1 x2 +1 x9 >= 2
  ie3: -1 x1 +1 x3 -1 x16 >= 3
  ie4: +1 x8 -1 x9 +1 x10 >= -3
  ie5: -1 x1 +1 x19 >= -3
  ie6: +1 x2 >= -1
  ie7: +1 x13 >= -2
  ie8: +1 x3 >= -2
  ie9: -1 x13 +1 x15 -1 x16 >= 2
  ie10: +1 x8 -1 x9 >= 0
  ie11: +1 x15 -1 x16 >= 1
  ie12: +1 x2 -1 x10 >= 1
  ie13: +1 x19 >= -2
  ie14: -1 x7 +1 x9 -1 x10 >= 3
END

0.003 sec
[8 ph, smt 0.048, isect 0.269, ins 0.018, tot 0.448]

Running SMT solver (19)... 0.001 sec
Found point (-2,2,2,2,2,2,-1,3,3,3/2,2,2,-1,7/2,3/2,0,-2,1/2,-2)
Checking... Minimizing (16,60)... (16,8), 0.014 sec
Inserting... 

MAXIMIZE
Subject To
  eq0: +1 x16 -1 x19 = 2
  eq1: -1 x19 = 2
  eq2: -1 x1 -1 x16 +1 x19 = 0
  eq3: -1 x4 +1 x5 = 0
  eq4: -1 x2 -1 x7 +1 x8 = 2
  eq5: +1 x9 -1 x12 = 1
  eq6: +1 x9 -1 x11 = 1
  eq7: +1 x15 -1 x18 = 1
  eq8: -1 x3 +1 x4 = 0
  eq9: +1 x13 +1 x16 -1 x17 = 1
  eq10: -1 x7 = 1
  eq11: -1 x4 +1 x6 = 0
  eq12: -1 x1 -1 x2 +1 x5 = 2
  eq13: -1 x10 +1 x15 = 0
  eq14: -1 x10 -1 x13 +1 x14 = 3
  eq15: -1 x17 = 2
  ie0: -1 x2 -1 x7 +1 x11 >= 1
  ie1: -1 x1 +1 x3 -1 x16 >= 3
  ie2: -1 x2 +1 x10 >= -1
  ie3: +1 x3 >= -2
  ie4: -1 x10 +1 x11 >= 0
  ie5: -1 x13 +1 x15 -1 x16 >= 2
  ie6: +1 x7 -1 x9 +1 x10 >= -3
  ie7: +1 x8 -1 x9 >= 0
END

0.001 sec
[9 ph, smt 0.049, isect 0.283, ins 0.020, tot 0.467]

Running SMT solver (20)... 0.001 sec
Found point (-2,2,2,2,2,2,-1,3,3,5/3,2,2,-4/3,10/3,5/3,1/3,-2,2/3,-5/3)
Checking... Minimizing (16,61)... (15,15), 0.016 sec
Inserting... 

MAXIMIZE
Subject To
  eq0: +1 x16 -1 x19 = 2
  eq1: -1 x4 +1 x6 = 0
  eq2: -1 x17 = 2
  eq3: -1 x1 -1 x16 +1 x19 = 0
  eq4: -1 x4 +1 x5 = 0
  eq5: -1 x1 -1 x2 +1 x5 = 2
  eq6: -1 x2 -1 x7 +1 x8 = 2
  eq7: +1 x9 -1 x12 = 1
  eq8: +1 x9 -1 x11 = 1
  eq9: +1 x15 -1 x18 = 1
  eq10: -1 x3 +1 x4 = 0
  eq11: -1 x10 +1 x15 = 0
  eq12: +1 x13 +1 x16 -1 x17 = 1
  eq13: -1 x10 -1 x13 +1 x14 = 3
  eq14: -1 x7 = 1
  ie0: -1 x2 -1 x7 +1 x11 >= 1
  ie1: -1 x10 +1 x14 >= 0
  ie2: -1 x10 -1 x13 +1 x15 >= -1
  ie3: -1 x1 +1 x3 -1 x16 >= 3
  ie4: -1 x2 +1 x10 >= -1
  ie5: -1 x1 +1 x19 >= -3
  ie6: +1 x2 >= -1
  ie7: +1 x13 >= -2
  ie8: -1 x10 +1 x11 >= 0
  ie9: +1 x3 >= -2
  ie10: -1 x13 +1 x15 -1 x16 >= 2
  ie11: +1 x7 -1 x9 +1 x10 >= -3
  ie12: +1 x8 -1 x9 >= 0
  ie13: +1 x15 -1 x16 >= 1
  ie14: +1 x19 >= -2
END

0.002 sec
[9 ph, smt 0.050, isect 0.299, ins 0.022, tot 0.489]

Running SMT solver (21)... 0.001 sec
Found point (-2,3/2,3/2,3/2,3/2,3/2,-1,5/2,5/2,3/2,3/2,3/2,-5/4,13/4,7/4,1/4,-2,3/4,-7/4)
Checking... Minimizing (16,61)... (15,13), 0.015 sec
Inserting... 

MAXIMIZE
Subject To
  eq0: +1 x16 -1 x19 = 2
  eq1: -1 x4 +1 x6 = 0
  eq2: -1 x17 = 2
  eq3: -1 x1 -1 x16 +1 x19 = 0
  eq4: -1 x4 +1 x5 = 0
  eq5: -1 x1 -1 x2 +1 x5 = 2
  eq6: -1 x2 -1 x7 +1 x8 = 2
  eq7: +1 x9 -1 x12 = 1
  eq8: +1 x9 -1 x10 = 1
  eq9: +1 x9 -1 x11 = 1
  eq10: -1 x3 +1 x4 = 0
  eq11: +1 x15 -1 x18 = 1
  eq12: +1 x13 +1 x16 -1 x17 = 1
  eq13: -1 x10 -1 x13 +1 x14 = 3
  eq14: -1 x7 = 1
  ie0: -1 x2 -1 x7 +1 x11 >= 1
  ie1: +1 x10 -1 x15 +1 x17 >= -3
  ie2: -1 x10 -1 x13 +1 x15 >= -1
  ie3: -1 x1 +1 x3 -1 x16 >= 3
  ie4: -1 x1 +1 x19 >= -3
  ie5: +1 x2 >= -1
  ie6: +1 x13 >= -2
  ie7: +1 x3 >= -2
  ie8: -1 x13 +1 x15 -1 x16 >= 2
  ie9: +1 x10 >= 1
  ie10: -1 x9 +1 x15 >= -1
  ie11: +1 x8 -1 x9 >= 0
  ie12: +1 x19 >= -2
END

0.002 sec
[9 ph, smt 0.051, isect 0.314, ins 0.024, tot 0.510]

Running SMT solver (22)... 0.002 sec
Found point (0,-1,1,1,1,1,-1,0,0,-1,-1,-1,1,3,-1,-2,-2,-2,-2)
Checking... Minimizing (18,62)... (18,2), 0.011 sec
Inserting... 

MAXIMIZE
Subject To
  eq0: -1 x19 = 2
  eq1: -1 x1 -1 x16 +1 x19 = 0
  eq2: -1 x4 +1 x5 = 0
  eq3: -1 x2 -1 x7 +1 x8 = 2
  eq4: +1 x9 -1 x12 = 1
  eq5: +1 x9 -1 x10 = 1
  eq6: +1 x9 -1 x11 = 1
  eq7: -1 x3 +1 x4 = 0
  eq8: +1 x15 -1 x18 = 1
  eq9: +1 x15 -1 x16 = 1
  eq10: +1 x13 +1 x16 -1 x17 = 1
  eq11: -1 x12 = 1
  eq12: -1 x18 = 2
  eq13: -1 x2 +1 x9 = 1
  eq14: -1 x4 +1 x6 = 0
  eq15: -1 x1 -1 x2 +1 x5 = 2
  eq16: -1 x10 +1 x15 -1 x17 = 2
  eq17: -1 x10 -1 x13 +1 x14 = 3
  ie0: -1 x2 -1 x7 +1 x11 >= 1
  ie1: -1 x2 +1 x8 >= 1
END

0.000 sec
[10 ph, smt 0.054, isect 0.325, ins 0.024, tot 0.527]

Running SMT solver (23)... 0.001 sec
Found point (0,-2/3,1,1,1,1,-1,1/3,1/3,-1,-2/3,-2/3,1,3,-1,-2,-2,-2,-2)
Checking... Minimizing (18,63)... (18,2), 0.011 sec
Inserting... 

MAXIMIZE
Subject To
  eq0: -1 x19 = 2
  eq1: -1 x1 -1 x16 +1 x19 = 0
  eq2: -1 x4 +1 x5 = 0
  eq3: -1 x2 -1 x7 +1 x8 = 2
  eq4: +1 x9 -1 x12 = 1
  eq5: +1 x9 -1 x11 = 1
  eq6: +1 x15 -1 x18 = 1
  eq7: -1 x3 +1 x4 = 0
  eq8: +1 x15 -1 x16 = 1
  eq9: +1 x13 +1 x16 -1 x17 = 1
  eq10: -1 x18 = 2
  eq11: -1 x7 = 1
  eq12: -1 x2 +1 x9 = 1
  eq13: -1 x1 +1 x5 -1 x16 = 3
  eq14: -1 x4 +1 x6 = 0
  eq15: -1 x10 +1 x15 = 0
  eq16: -1 x10 +1 x15 -1 x17 = 2
  eq17: -1 x10 -1 x13 +1 x14 = 3
  ie0: -1 x2 +1 x4 >= 1
  ie1: +1 x1 +1 x2 -1 x5 >= -2
END

0.001 sec
[10 ph, smt 0.055, isect 0.336, ins 0.025, tot 0.543]

Running SMT solver (24)... 0.001 sec
Found point (-1/3,-2/3,1,1,1,1,-1,1/3,1/3,-2/3,-2/3,-2/3,2/3,3,-2/3,-5/3,-2,-5/3,-2)
Checking... Minimizing (18,64)... (18,3), 0.013 sec
Inserting... 

MAXIMIZE
Subject To
  eq0: -1 x19 = 2
  eq1: -1 x1 -1 x16 +1 x19 = 0
  eq2: -1 x4 +1 x5 = 0
  eq3: -1 x2 -1 x7 +1 x8 = 2
  eq4: +1 x9 -1 x12 = 1
  eq5: +1 x9 -1 x10 = 1
  eq6: +1 x9 -1 x11 = 1
  eq7: -1 x3 +1 x4 = 0
  eq8: +1 x15 -1 x18 = 1
  eq9: +1 x15 -1 x16 = 1
  eq10: +1 x13 +1 x16 -1 x17 = 1
  eq11: -1 x7 = 1
  eq12: -1 x2 +1 x9 = 1
  eq13: -1 x4 +1 x6 = 0
  eq14: -1 x1 -1 x2 +1 x5 = 2
  eq15: -1 x10 +1 x15 -1 x17 = 2
  eq16: -1 x10 -1 x13 +1 x14 = 3
  eq17: -1 x17 = 2
  ie0: -1 x2 +1 x4 >= 1
  ie1: -1 x15 +1 x19 >= -3
  ie2: +1 x2 >= -1
END

0.000 sec
[11 ph, smt 0.056, isect 0.349, ins 0.025, tot 0.560]

Running SMT solver (25)... 0.001 sec
Found point (0,-3,-1,-2,-1,-2,1,0,0,-1,1,-1,1,3,-1,-2,-2,-2,-2)
Checking... Minimizing (18,62)... (18,4), 0.011 sec
Inserting... 

MAXIMIZE
Subject To
  eq0: -1 x19 = 2
  eq1: -1 x2 +1 x5 +1 x16 -1 x19 = 2
  eq2: +1 x9 -1 x10 = 1
  eq3: -1 x2 -1 x7 +1 x8 = 2
  eq4: +1 x9 -1 x12 = 1
  eq5: -1 x2 +1 x9 -1 x11 = 2
  eq6: -1 x2 +1 x4 -1 x5 = 2
  eq7: +1 x15 -1 x18 = 1
  eq8: +1 x15 -1 x16 = 1
  eq9: +1 x13 +1 x16 -1 x17 = 1
  eq10: -1 x12 = 1
  eq11: -1 x18 = 2
  eq12: -1 x2 +1 x4 = 1
  eq13: -1 x4 +1 x6 = 0
  eq14: -1 x2 -1 x3 +1 x4 = 2
  eq15: -1 x1 -1 x2 +1 x5 = 2
  eq16: -1 x10 +1 x15 -1 x17 = 2
  eq17: -1 x10 -1 x13 +1 x14 = 3
  ie0: -1 x2 -1 x7 +1 x11 >= 1
  ie1: +1 x8 -1 x9 >= 0
  ie2: -1 x2 -1 x7 +1 x9 >= 1
  ie3: -1 x2 +1 x8 >= 1
END

0.001 sec
[11 ph, smt 0.058, isect 0.360, ins 0.026, tot 0.578]

Running SMT solver (26)... 0.001 sec
Found point (0,1/2,3/2,3/2,3/2,3/2,-1,3/2,3/2,-1,0,1/2,1,3,-1,-2,-2,-2,-2)
Checking... Minimizing (17,63)... (17,5), 0.013 sec
Inserting... 

MAXIMIZE
Subject To
  eq0: -1 x19 = 2
  eq1: -1 x1 -1 x16 +1 x19 = 0
  eq2: -1 x4 +1 x5 = 0
  eq3: -1 x2 -1 x7 +1 x8 = 2
  eq4: +1 x9 -1 x12 = 1
  eq5: +1 x15 -1 x18 = 1
  eq6: +1 x15 -1 x16 = 1
  eq7: -1 x3 +1 x4 = 0
  eq8: +1 x13 +1 x16 -1 x17 = 1
  eq9: -1 x18 = 2
  eq10: -1 x7 -1 x10 +1 x11 = 2
  eq11: -1 x7 = 1
  eq12: -1 x2 +1 x9 = 1
  eq13: -1 x4 +1 x6 = 0
  eq14: -1 x10 +1 x15 = 0
  eq15: -1 x10 +1 x15 -1 x17 = 2
  eq16: -1 x10 -1 x13 +1 x14 = 3
  ie0: -1 x2 +1 x4 >= 1
  ie1: -1 x1 +1 x3 -1 x16 >= 3
  ie2: +1 x2 -1 x10 >= 1
  ie3: +1 x3 >= -1
  ie4: +1 x1 +1 x2 -1 x4 >= -2
END

0.000 sec
[12 ph, smt 0.059, isect 0.373, ins 0.026, tot 0.594]

Running SMT solver (27)... 0.001 sec
Found point (-3/2,1/2,1,1,1,1,-1,3/2,3/2,1/2,1/2,1/2,-1/2,3,1/2,-1/2,-2,-1/2,-2)
Checking... Minimizing (17,60)... (17,7), 0.015 sec
Inserting... 

MAXIMIZE
Subject To
  eq0: -1 x19 = 2
  eq1: -1 x1 -1 x16 +1 x19 = 0
  eq2: -1 x4 +1 x5 = 0
  eq3: -1 x2 -1 x7 +1 x8 = 2
  eq4: +1 x9 -1 x12 = 1
  eq5: +1 x9 -1 x10 = 1
  eq6: +1 x9 -1 x11 = 1
  eq7: -1 x3 +1 x4 = 0
  eq8: +1 x15 -1 x18 = 1
  eq9: +1 x15 -1 x16 = 1
  eq10: +1 x13 +1 x16 -1 x17 = 1
  eq11: -1 x7 = 1
  eq12: -1 x4 +1 x6 = 0
  eq13: -1 x1 -1 x2 +1 x5 = 2
  eq14: -1 x10 +1 x15 -1 x17 = 2
  eq15: -1 x10 -1 x13 +1 x14 = 3
  eq16: -1 x17 = 2
  ie0: -1 x2 -1 x7 +1 x11 >= 1
  ie1: -1 x1 -1 x2 +1 x8 >= 2
  ie2: +1 x8 -1 x9 >= 0
  ie3: -1 x15 +1 x19 >= -3
  ie4: +1 x2 >= -1
  ie5: -1 x1 +1 x19 >= -3
  ie6: +1 x3 >= -2
END

0.000 sec
[13 ph, smt 0.060, isect 0.387, ins 0.027, tot 0.614]

Running SMT solver (28)... 0.001 sec
Found point (-3/2,2,5/2,5/2,5/2,5/2,-1,3,5/2,1/2,3/2,3/2,-1/2,3,1/2,-1/2,-2,-1/2,-2)
Checking... Minimizing (18,63)... (17,7), 0.015 sec
Inserting... 

MAXIMIZE
Subject To
  eq0: -1 x19 = 2
  eq1: -1 x1 -1 x16 +1 x19 = 0
  eq2: -1 x4 +1 x5 = 0
  eq3: -1 x2 -1 x7 +1 x8 = 2
  eq4: +1 x9 -1 x12 = 1
  eq5: +1 x9 -1 x11 = 1
  eq6: +1 x15 -1 x18 = 1
  eq7: -1 x3 +1 x4 = 0
  eq8: +1 x15 -1 x16 = 1
  eq9: +1 x13 +1 x16 -1 x17 = 1
  eq10: -1 x7 = 1
  eq11: -1 x7 -1 x10 +1 x11 = 2
  eq12: -1 x4 +1 x6 = 0
  eq13: -1 x1 -1 x2 +1 x9 = 2
  eq14: -1 x10 +1 x15 = 0
  eq15: -1 x10 +1 x15 -1 x17 = 2
  eq16: -1 x10 -1 x13 +1 x14 = 3
  ie0: -1 x10 +1 x14 >= 0
  ie1: -1 x1 -1 x2 +1 x4 >= 2
  ie2: -1 x1 -1 x2 +1 x8 >= 2
  ie3: -1 x15 +1 x19 >= -3
  ie4: -1 x1 +1 x19 >= -3
  ie5: +1 x3 >= -2
  ie6: +1 x1 +1 x2 -1 x4 >= -2
END

0.000 sec
[14 ph, smt 0.061, isect 0.402, ins 0.027, tot 0.634]

Running SMT solver (29)... 0.001 sec
Found point (-4/3,2,8/3,8/3,8/3,8/3,-1,3,8/3,1/3,4/3,5/3,-1/3,3,1/3,-2/3,-2,-2/3,-2)
Checking... Minimizing (17,63)... (16,10), 0.016 sec
Inserting... 

MAXIMIZE
Subject To
  eq0: -1 x19 = 2
  eq1: -1 x1 -1 x16 +1 x19 = 0
  eq2: -1 x4 +1 x5 = 0
  eq3: -1 x2 -1 x7 +1 x8 = 2
  eq4: +1 x9 -1 x12 = 1
  eq5: +1 x15 -1 x18 = 1
  eq6: +1 x15 -1 x16 = 1
  eq7: -1 x3 +1 x4 = 0
  eq8: +1 x13 +1 x16 -1 x17 = 1
  eq9: -1 x7 = 1
  eq10: -1 x7 -1 x10 +1 x11 = 2
  eq11: -1 x4 +1 x6 = 0
  eq12: -1 x1 -1 x2 +1 x9 = 2
  eq13: -1 x10 +1 x15 = 0
  eq14: -1 x10 +1 x15 -1 x17 = 2
  eq15: -1 x10 -1 x13 +1 x14 = 3
  ie0: -1 x10 +1 x14 >= 0
  ie1: -1 x1 -1 x2 +1 x4 >= 2
  ie2: -1 x1 +1 x3 -1 x16 >= 3
  ie3: -1 x1 +1 x19 >= -3
  ie4: -1 x15 +1 x19 >= -3
  ie5: +1 x3 >= -2
  ie6: -1 x1 -1 x2 +1 x8 >= 2
  ie7: +1 x2 -1 x10 >= 1
  ie8: -1 x7 +1 x9 -1 x10 >= 3
  ie9: +1 x1 +1 x2 -1 x4 >= -2
END

0.002 sec
[14 ph, smt 0.063, isect 0.419, ins 0.029, tot 0.656]

Running SMT solver (30)... 0.001 sec
Found point (-1/4,1/2,7/4,7/4,7/4,7/4,-1,3/2,3/2,-3/4,1/4,1/2,3/4,3,-3/4,-7/4,-2,-7/4,-2)
Checking... Minimizing (17,64)... (16,9), 0.016 sec
Inserting... 

MAXIMIZE
Subject To
  eq0: -1 x19 = 2
  eq1: -1 x1 -1 x16 +1 x19 = 0
  eq2: -1 x4 +1 x5 = 0
  eq3: -1 x2 -1 x7 +1 x8 = 2
  eq4: +1 x9 -1 x12 = 1
  eq5: +1 x15 -1 x18 = 1
  eq6: +1 x15 -1 x16 = 1
  eq7: -1 x3 +1 x4 = 0
  eq8: +1 x13 +1 x16 -1 x17 = 1
  eq9: -1 x7 = 1
  eq10: -1 x7 -1 x10 +1 x11 = 2
  eq11: -1 x2 +1 x9 = 1
  eq12: -1 x4 +1 x6 = 0
  eq13: -1 x10 +1 x15 = 0
  eq14: -1 x10 +1 x15 -1 x17 = 2
  eq15: -1 x10 -1 x13 +1 x14 = 3
  ie0: -1 x10 +1 x14 >= 0
  ie1: -1 x10 -1 x13 +1 x15 >= -1
  ie2: -1 x2 +1 x4 >= 1
  ie3: -1 x1 +1 x3 -1 x16 >= 3
  ie4: -1 x15 +1 x19 >= -3
  ie5: +1 x2 >= -1
  ie6: +1 x3 >= -1
  ie7: -1 x7 +1 x9 -1 x10 >= 3
  ie8: +1 x1 +1 x2 -1 x4 >= -2
END

0.002 sec
[14 ph, smt 0.064, isect 0.434, ins 0.030, tot 0.678]

Running SMT solver (31)... 0.001 sec
Found point (-5/3,2,7/3,7/3,7/3,7/3,-1,3,8/3,2/3,5/3,5/3,-2/3,3,2/3,-1/3,-2,-1/3,-2)
Checking... Minimizing (18,61)... (17,8), 0.015 sec
Inserting... 

MAXIMIZE
Subject To
  eq0: -1 x19 = 2
  eq1: -1 x1 -1 x16 +1 x19 = 0
  eq2: -1 x4 +1 x5 = 0
  eq3: -1 x2 -1 x7 +1 x8 = 2
  eq4: +1 x9 -1 x12 = 1
  eq5: +1 x9 -1 x11 = 1
  eq6: +1 x15 -1 x18 = 1
  eq7: -1 x3 +1 x4 = 0
  eq8: +1 x15 -1 x16 = 1
  eq9: +1 x13 +1 x16 -1 x17 = 1
  eq10: -1 x7 = 1
  eq11: -1 x7 -1 x10 +1 x11 = 2
  eq12: -1 x4 +1 x6 = 0
  eq13: -1 x1 -1 x2 +1 x5 = 2
  eq14: -1 x10 +1 x15 = 0
  eq15: -1 x10 +1 x15 -1 x17 = 2
  eq16: -1 x10 -1 x13 +1 x14 = 3
  ie0: -1 x10 +1 x14 >= 0
  ie1: -1 x1 -1 x2 +1 x9 >= 2
  ie2: -1 x1 +1 x3 -1 x16 >= 3
  ie3: -1 x1 +1 x19 >= -3
  ie4: -1 x15 +1 x19 >= -3
  ie5: +1 x3 >= -2
  ie6: -1 x1 -1 x2 +1 x8 >= 2
  ie7: +1 x2 -1 x10 >= 1
END

0.000 sec
[15 ph, smt 0.065, isect 0.449, ins 0.030, tot 0.697]

Running SMT solver (32)... 0.001 sec
Found point (-3/2,2,5/2,5/2,5/2,5/2,-1,3,11/4,1/2,3/2,7/4,-1/2,3,1/2,-1/2,-2,-1/2,-2)
Checking... Minimizing (17,61)... (16,11), 0.016 sec
Inserting... 

MAXIMIZE
Subject To
  eq0: -1 x19 = 2
  eq1: -1 x1 -1 x16 +1 x19 = 0
  eq2: -1 x4 +1 x5 = 0
  eq3: -1 x2 -1 x7 +1 x8 = 2
  eq4: +1 x9 -1 x12 = 1
  eq5: +1 x15 -1 x18 = 1
  eq6: +1 x15 -1 x16 = 1
  eq7: -1 x3 +1 x4 = 0
  eq8: +1 x13 +1 x16 -1 x17 = 1
  eq9: -1 x7 = 1
  eq10: -1 x7 -1 x10 +1 x11 = 2
  eq11: -1 x4 +1 x6 = 0
  eq12: -1 x1 -1 x2 +1 x5 = 2
  eq13: -1 x10 +1 x15 = 0
  eq14: -1 x10 +1 x15 -1 x17 = 2
  eq15: -1 x10 -1 x13 +1 x14 = 3
  ie0: -1 x10 +1 x14 >= 0
  ie1: -1 x1 -1 x2 +1 x9 >= 2
  ie2: -1 x1 +1 x3 -1 x16 >= 3
  ie3: +1 x8 -1 x9 +1 x10 >= -3
  ie4: -1 x1 +1 x19 >= -3
  ie5: -1 x15 +1 x19 >= -3
  ie6: +1 x3 >= -2
  ie7: -1 x1 -1 x2 +1 x8 >= 2
  ie8: +1 x8 -1 x9 >= 0
  ie9: +1 x2 -1 x10 >= 1
  ie10: -1 x7 +1 x9 -1 x10 >= 3
END

0.003 sec
[14 ph, smt 0.066, isect 0.465, ins 0.033, tot 0.720]

Running SMT solver (33)... 0.001 sec
Found point (0,-1/4,5/4,5/4,5/4,5/4,-1,3/4,3/4,-1,-1/4,-1/4,1,3,-1,-2,-2,-2,-2)
Checking... Minimizing (17,63)... (17,6), 0.013 sec
Inserting... 

MAXIMIZE
Subject To
  eq0: -1 x19 = 2
  eq1: -1 x1 -1 x16 +1 x19 = 0
  eq2: -1 x4 +1 x5 = 0
  eq3: -1 x2 -1 x7 +1 x8 = 2
  eq4: +1 x9 -1 x12 = 1
  eq5: +1 x9 -1 x11 = 1
  eq6: +1 x15 -1 x18 = 1
  eq7: -1 x3 +1 x4 = 0
  eq8: +1 x15 -1 x16 = 1
  eq9: +1 x13 +1 x16 -1 x17 = 1
  eq10: -1 x18 = 2
  eq11: -1 x7 = 1
  eq12: -1 x2 +1 x9 = 1
  eq13: -1 x4 +1 x6 = 0
  eq14: -1 x10 +1 x15 = 0
  eq15: -1 x10 +1 x15 -1 x17 = 2
  eq16: -1 x10 -1 x13 +1 x14 = 3
  ie0: -1 x2 +1 x4 >= 1
  ie1: -1 x1 +1 x3 -1 x16 >= 3
  ie2: -1 x2 +1 x10 >= -1
  ie3: -1 x10 +1 x11 >= 0
  ie4: +1 x3 >= -1
  ie5: +1 x1 +1 x2 -1 x4 >= -2
END

0.001 sec
[14 ph, smt 0.067, isect 0.478, ins 0.034, tot 0.738]

Running SMT solver (34)... 0.001 sec
Found point (-3/4,1/2,7/4,7/4,7/4,7/4,-1,3/2,3/2,-1/4,1/2,1/2,1/4,3,-1/4,-5/4,-2,-5/4,-2)
Checking... Minimizing (17,64)... (16,10), 0.015 sec
Inserting... 

MAXIMIZE
Subject To
  eq0: -1 x19 = 2
  eq1: -1 x1 -1 x16 +1 x19 = 0
  eq2: -1 x4 +1 x5 = 0
  eq3: -1 x2 -1 x7 +1 x8 = 2
  eq4: +1 x9 -1 x12 = 1
  eq5: +1 x9 -1 x11 = 1
  eq6: +1 x15 -1 x18 = 1
  eq7: -1 x3 +1 x4 = 0
  eq8: +1 x15 -1 x16 = 1
  eq9: +1 x13 +1 x16 -1 x17 = 1
  eq10: -1 x7 = 1
  eq11: -1 x2 +1 x9 = 1
  eq12: -1 x4 +1 x6 = 0
  eq13: -1 x10 +1 x15 = 0
  eq14: -1 x10 +1 x15 -1 x17 = 2
  eq15: -1 x10 -1 x13 +1 x14 = 3
  ie0: -1 x10 +1 x14 >= 0
  ie1: -1 x10 -1 x13 +1 x15 >= -1
  ie2: -1 x2 +1 x4 >= 1
  ie3: -1 x1 +1 x3 -1 x16 >= 3
  ie4: -1 x2 +1 x10 >= -1
  ie5: -1 x15 +1 x19 >= -3
  ie6: +1 x2 >= -1
  ie7: -1 x10 +1 x11 >= 0
  ie8: +1 x3 >= -1
  ie9: +1 x1 +1 x2 -1 x4 >= -2
END

0.002 sec
[13 ph, smt 0.068, isect 0.493, ins 0.036, tot 0.760]

Running SMT solver (35)... 0.001 sec
Found point (-4/3,2/3,4/3,4/3,4/3,4/3,-1,5/3,5/3,1/3,2/3,2/3,-1/3,3,1/3,-2/3,-2,-2/3,-2)
Checking... Minimizing (17,61)... (16,11), 0.016 sec
Inserting... 

MAXIMIZE
Subject To
  eq0: -1 x19 = 2
  eq1: -1 x1 -1 x16 +1 x19 = 0
  eq2: -1 x4 +1 x5 = 0
  eq3: -1 x2 -1 x7 +1 x8 = 2
  eq4: +1 x9 -1 x12 = 1
  eq5: +1 x9 -1 x11 = 1
  eq6: +1 x15 -1 x18 = 1
  eq7: -1 x3 +1 x4 = 0
  eq8: +1 x15 -1 x16 = 1
  eq9: +1 x13 +1 x16 -1 x17 = 1
  eq10: -1 x7 = 1
  eq11: -1 x4 +1 x6 = 0
  eq12: -1 x1 -1 x2 +1 x5 = 2
  eq13: -1 x10 +1 x15 = 0
  eq14: -1 x10 +1 x15 -1 x17 = 2
  eq15: -1 x10 -1 x13 +1 x14 = 3
  ie0: -1 x2 -1 x7 +1 x11 >= 1
  ie1: -1 x10 +1 x14 >= 0
  ie2: -1 x1 +1 x3 -1 x16 >= 3
  ie3: -1 x2 +1 x10 >= -1
  ie4: -1 x15 +1 x19 >= -3
  ie5: -1 x1 +1 x19 >= -3
  ie6: -1 x10 +1 x11 >= 0
  ie7: +1 x3 >= -2
  ie8: +1 x7 -1 x9 +1 x10 >= -3
  ie9: -1 x1 -1 x2 +1 x8 >= 2
  ie10: +1 x8 -1 x9 >= 0
END

0.002 sec
[13 ph, smt 0.069, isect 0.510, ins 0.038, tot 0.782]

Running SMT solver (36)... 0.002 sec
No more solutions found



Solution:

\\\\\\\\\\\\\\\\\\\\\\\\\\\\\\\\\\\\\\\\ file 0

MAXIMIZE
Subject To
  eq0: -1 x19 = 2
  eq1: -1 x1 -1 x16 +1 x19 = 0
  eq2: -1 x4 +1 x5 = 0
  eq3: -1 x2 -1 x7 +1 x8 = 2
  eq4: +1 x9 -1 x12 = 1
  eq5: +1 x9 -1 x11 = 1
  eq6: +1 x15 -1 x18 = 1
  eq7: -1 x3 +1 x4 = 0
  eq8: +1 x15 -1 x16 = 1
  eq9: +1 x13 +1 x16 -1 x17 = 1
  eq10: -1 x7 = 1
  eq11: -1 x4 +1 x6 = 0
  eq12: -1 x1 -1 x2 +1 x5 = 2
  eq13: -1 x10 +1 x15 = 0
  eq14: -1 x10 +1 x15 -1 x17 = 2
  eq15: -1 x10 -1 x13 +1 x14 = 3
  ie0: -1 x2 -1 x7 +1 x11 >= 1
  ie1: -1 x10 +1 x14 >= 0
  ie2: -1 x1 +1 x3 -1 x16 >= 3
  ie3: -1 x2 +1 x10 >= -1
  ie4: -1 x15 +1 x19 >= -3
  ie5: -1 x1 +1 x19 >= -3
  ie6: -1 x10 +1 x11 >= 0
  ie7: +1 x3 >= -2
  ie8: +1 x7 -1 x9 +1 x10 >= -3
  ie9: -1 x1 -1 x2 +1 x8 >= 2
  ie10: +1 x8 -1 x9 >= 0
END

\\\\\\\\\\\\\\\\\\\\\\\\\\\\\\\\\\\\\\\\ file 1

MAXIMIZE
Subject To
  eq0: -1 x19 = 2
  eq1: -1 x1 -1 x16 +1 x19 = 0
  eq2: -1 x4 +1 x5 = 0
  eq3: -1 x2 -1 x7 +1 x8 = 2
  eq4: +1 x9 -1 x12 = 1
  eq5: +1 x9 -1 x11 = 1
  eq6: +1 x15 -1 x18 = 1
  eq7: -1 x3 +1 x4 = 0
  eq8: +1 x15 -1 x16 = 1
  eq9: +1 x13 +1 x16 -1 x17 = 1
  eq10: -1 x7 = 1
  eq11: -1 x2 +1 x9 = 1
  eq12: -1 x4 +1 x6 = 0
  eq13: -1 x10 +1 x15 = 0
  eq14: -1 x10 +1 x15 -1 x17 = 2
  eq15: -1 x10 -1 x13 +1 x14 = 3
  ie0: -1 x10 +1 x14 >= 0
  ie1: -1 x10 -1 x13 +1 x15 >= -1
  ie2: -1 x2 +1 x4 >= 1
  ie3: -1 x1 +1 x3 -1 x16 >= 3
  ie4: -1 x2 +1 x10 >= -1
  ie5: -1 x15 +1 x19 >= -3
  ie6: +1 x2 >= -1
  ie7: -1 x10 +1 x11 >= 0
  ie8: +1 x3 >= -1
  ie9: +1 x1 +1 x2 -1 x4 >= -2
END

\\\\\\\\\\\\\\\\\\\\\\\\\\\\\\\\\\\\\\\\ file 2

MAXIMIZE
Subject To
  eq0: -1 x19 = 2
  eq1: -1 x1 -1 x16 +1 x19 = 0
  eq2: -1 x4 +1 x5 = 0
  eq3: -1 x2 -1 x7 +1 x8 = 2
  eq4: +1 x9 -1 x12 = 1
  eq5: +1 x15 -1 x18 = 1
  eq6: +1 x15 -1 x16 = 1
  eq7: -1 x3 +1 x4 = 0
  eq8: +1 x13 +1 x16 -1 x17 = 1
  eq9: -1 x7 = 1
  eq10: -1 x7 -1 x10 +1 x11 = 2
  eq11: -1 x4 +1 x6 = 0
  eq12: -1 x1 -1 x2 +1 x5 = 2
  eq13: -1 x10 +1 x15 = 0
  eq14: -1 x10 +1 x15 -1 x17 = 2
  eq15: -1 x10 -1 x13 +1 x14 = 3
  ie0: -1 x10 +1 x14 >= 0
  ie1: -1 x1 -1 x2 +1 x9 >= 2
  ie2: -1 x1 +1 x3 -1 x16 >= 3
  ie3: +1 x8 -1 x9 +1 x10 >= -3
  ie4: -1 x1 +1 x19 >= -3
  ie5: -1 x15 +1 x19 >= -3
  ie6: +1 x3 >= -2
  ie7: -1 x1 -1 x2 +1 x8 >= 2
  ie8: +1 x8 -1 x9 >= 0
  ie9: +1 x2 -1 x10 >= 1
  ie10: -1 x7 +1 x9 -1 x10 >= 3
END

\\\\\\\\\\\\\\\\\\\\\\\\\\\\\\\\\\\\\\\\ file 3

MAXIMIZE
Subject To
  eq0: -1 x19 = 2
  eq1: -1 x1 -1 x16 +1 x19 = 0
  eq2: -1 x4 +1 x5 = 0
  eq3: -1 x2 -1 x7 +1 x8 = 2
  eq4: +1 x9 -1 x12 = 1
  eq5: +1 x15 -1 x18 = 1
  eq6: +1 x15 -1 x16 = 1
  eq7: -1 x3 +1 x4 = 0
  eq8: +1 x13 +1 x16 -1 x17 = 1
  eq9: -1 x7 = 1
  eq10: -1 x7 -1 x10 +1 x11 = 2
  eq11: -1 x2 +1 x9 = 1
  eq12: -1 x4 +1 x6 = 0
  eq13: -1 x10 +1 x15 = 0
  eq14: -1 x10 +1 x15 -1 x17 = 2
  eq15: -1 x10 -1 x13 +1 x14 = 3
  ie0: -1 x10 +1 x14 >= 0
  ie1: -1 x10 -1 x13 +1 x15 >= -1
  ie2: -1 x2 +1 x4 >= 1
  ie3: -1 x1 +1 x3 -1 x16 >= 3
  ie4: -1 x15 +1 x19 >= -3
  ie5: +1 x2 >= -1
  ie6: +1 x3 >= -1
  ie7: -1 x7 +1 x9 -1 x10 >= 3
  ie8: +1 x1 +1 x2 -1 x4 >= -2
END

\\\\\\\\\\\\\\\\\\\\\\\\\\\\\\\\\\\\\\\\ file 4

MAXIMIZE
Subject To
  eq0: -1 x19 = 2
  eq1: -1 x2 +1 x5 +1 x16 -1 x19 = 2
  eq2: +1 x9 -1 x10 = 1
  eq3: -1 x2 -1 x7 +1 x8 = 2
  eq4: +1 x9 -1 x12 = 1
  eq5: -1 x2 +1 x9 -1 x11 = 2
  eq6: -1 x2 +1 x4 -1 x5 = 2
  eq7: +1 x15 -1 x18 = 1
  eq8: +1 x15 -1 x16 = 1
  eq9: +1 x13 +1 x16 -1 x17 = 1
  eq10: -1 x12 = 1
  eq11: -1 x18 = 2
  eq12: -1 x2 +1 x4 = 1
  eq13: -1 x4 +1 x6 = 0
  eq14: -1 x2 -1 x3 +1 x4 = 2
  eq15: -1 x1 -1 x2 +1 x5 = 2
  eq16: -1 x10 +1 x15 -1 x17 = 2
  eq17: -1 x10 -1 x13 +1 x14 = 3
  ie0: -1 x2 -1 x7 +1 x11 >= 1
  ie1: +1 x8 -1 x9 >= 0
  ie2: -1 x2 -1 x7 +1 x9 >= 1
  ie3: -1 x2 +1 x8 >= 1
END

\\\\\\\\\\\\\\\\\\\\\\\\\\\\\\\\\\\\\\\\ file 5

MAXIMIZE
Subject To
  eq0: +1 x16 -1 x19 = 2
  eq1: -1 x4 +1 x6 = 0
  eq2: -1 x17 = 2
  eq3: -1 x1 -1 x16 +1 x19 = 0
  eq4: -1 x4 +1 x5 = 0
  eq5: -1 x1 -1 x2 +1 x5 = 2
  eq6: -1 x2 -1 x7 +1 x8 = 2
  eq7: +1 x9 -1 x12 = 1
  eq8: +1 x9 -1 x10 = 1
  eq9: +1 x9 -1 x11 = 1
  eq10: -1 x3 +1 x4 = 0
  eq11: +1 x15 -1 x18 = 1
  eq12: +1 x13 +1 x16 -1 x17 = 1
  eq13: -1 x10 -1 x13 +1 x14 = 3
  eq14: -1 x7 = 1
  ie0: -1 x2 -1 x7 +1 x11 >= 1
  ie1: +1 x10 -1 x15 +1 x17 >= -3
  ie2: -1 x10 -1 x13 +1 x15 >= -1
  ie3: -1 x1 +1 x3 -1 x16 >= 3
  ie4: -1 x1 +1 x19 >= -3
  ie5: +1 x2 >= -1
  ie6: +1 x13 >= -2
  ie7: +1 x3 >= -2
  ie8: -1 x13 +1 x15 -1 x16 >= 2
  ie9: +1 x10 >= 1
  ie10: -1 x9 +1 x15 >= -1
  ie11: +1 x8 -1 x9 >= 0
  ie12: +1 x19 >= -2
END

\\\\\\\\\\\\\\\\\\\\\\\\\\\\\\\\\\\\\\\\ file 6

MAXIMIZE
Subject To
  eq0: +1 x16 -1 x19 = 2
  eq1: -1 x4 +1 x6 = 0
  eq2: -1 x17 = 2
  eq3: -1 x1 -1 x16 +1 x19 = 0
  eq4: -1 x4 +1 x5 = 0
  eq5: -1 x1 -1 x2 +1 x5 = 2
  eq6: -1 x2 -1 x7 +1 x8 = 2
  eq7: +1 x9 -1 x12 = 1
  eq8: +1 x9 -1 x11 = 1
  eq9: +1 x15 -1 x18 = 1
  eq10: -1 x3 +1 x4 = 0
  eq11: -1 x10 +1 x15 = 0
  eq12: +1 x13 +1 x16 -1 x17 = 1
  eq13: -1 x10 -1 x13 +1 x14 = 3
  eq14: -1 x7 = 1
  ie0: -1 x2 -1 x7 +1 x11 >= 1
  ie1: -1 x10 +1 x14 >= 0
  ie2: -1 x10 -1 x13 +1 x15 >= -1
  ie3: -1 x1 +1 x3 -1 x16 >= 3
  ie4: -1 x2 +1 x10 >= -1
  ie5: -1 x1 +1 x19 >= -3
  ie6: +1 x2 >= -1
  ie7: +1 x13 >= -2
  ie8: -1 x10 +1 x11 >= 0
  ie9: +1 x3 >= -2
  ie10: -1 x13 +1 x15 -1 x16 >= 2
  ie11: +1 x7 -1 x9 +1 x10 >= -3
  ie12: +1 x8 -1 x9 >= 0
  ie13: +1 x15 -1 x16 >= 1
  ie14: +1 x19 >= -2
END

\\\\\\\\\\\\\\\\\\\\\\\\\\\\\\\\\\\\\\\\ file 7

MAXIMIZE
Subject To
  eq0: -1 x7 -1 x10 +1 x11 = 2
  eq1: +1 x16 -1 x19 = 2
  eq2: -1 x4 +1 x6 = 0
  eq3: -1 x17 = 2
  eq4: -1 x1 -1 x16 +1 x19 = 0
  eq5: -1 x4 +1 x5 = 0
  eq6: -1 x1 -1 x2 +1 x5 = 2
  eq7: -1 x2 -1 x7 +1 x8 = 2
  eq8: +1 x9 -1 x12 = 1
  eq9: +1 x15 -1 x18 = 1
  eq10: -1 x10 +1 x15 = 0
  eq11: -1 x3 +1 x4 = 0
  eq12: +1 x13 +1 x16 -1 x17 = 1
  eq13: -1 x10 -1 x13 +1 x14 = 3
  eq14: -1 x7 = 1
  ie0: -1 x10 +1 x14 >= 0
  ie1: -1 x10 -1 x13 +1 x15 >= -1
  ie2: -1 x1 -1 x2 +1 x9 >= 2
  ie3: -1 x1 +1 x3 -1 x16 >= 3
  ie4: +1 x8 -1 x9 +1 x10 >= -3
  ie5: -1 x1 +1 x19 >= -3
  ie6: +1 x2 >= -1
  ie7: +1 x13 >= -2
  ie8: +1 x3 >= -2
  ie9: -1 x13 +1 x15 -1 x16 >= 2
  ie10: +1 x8 -1 x9 >= 0
  ie11: +1 x15 -1 x16 >= 1
  ie12: +1 x2 -1 x10 >= 1
  ie13: +1 x19 >= -2
  ie14: -1 x7 +1 x9 -1 x10 >= 3
END

\\\\\\\\\\\\\\\\\\\\\\\\\\\\\\\\\\\\\\\\ file 8

MAXIMIZE
Subject To
  eq0: -1 x7 -1 x10 +1 x11 = 2
  eq1: +1 x16 -1 x19 = 2
  eq2: -1 x4 +1 x6 = 0
  eq3: -1 x13 = 2
  eq4: -1 x1 -1 x16 +1 x19 = 0
  eq5: -1 x4 +1 x5 = 0
  eq6: -1 x1 -1 x2 +1 x5 = 2
  eq7: -1 x2 -1 x7 +1 x8 = 2
  eq8: +1 x9 -1 x12 = 1
  eq9: +1 x15 -1 x18 = 1
  eq10: -1 x10 +1 x15 = 0
  eq11: -1 x3 +1 x4 = 0
  eq12: +1 x13 +1 x16 -1 x17 = 1
  eq13: -1 x10 -1 x13 +1 x14 = 3
  eq14: -1 x7 = 1
  ie0: +1 x17 >= -2
  ie1: -1 x1 -1 x2 +1 x9 >= 2
  ie2: -1 x1 +1 x3 -1 x16 >= 3
  ie3: +1 x8 -1 x9 +1 x10 >= -3
  ie4: -1 x13 +1 x15 -1 x16 >= 2
  ie5: +1 x3 >= -2
  ie6: +1 x8 -1 x9 >= 0
  ie7: +1 x15 -1 x16 >= 1
  ie8: +1 x2 -1 x10 >= 1
  ie9: -1 x7 +1 x9 -1 x10 >= 3
END

\\\\\\\\\\\\\\\\\\\\\\\\\\\\\\\\\\\\\\\\ file 9

MAXIMIZE
Subject To
  eq0: +1 x16 -1 x19 = 2
  eq1: -1 x4 +1 x6 = 0
  eq2: -1 x13 = 2
  eq3: -1 x1 -1 x16 +1 x19 = 0
  eq4: -1 x4 +1 x5 = 0
  eq5: -1 x1 -1 x2 +1 x5 = 2
  eq6: -1 x2 -1 x7 +1 x8 = 2
  eq7: +1 x9 -1 x12 = 1
  eq8: +1 x9 -1 x10 = 1
  eq9: +1 x9 -1 x11 = 1
  eq10: -1 x3 +1 x4 = 0
  eq11: +1 x15 -1 x18 = 1
  eq12: +1 x13 +1 x16 -1 x17 = 1
  eq13: -1 x10 -1 x13 +1 x14 = 3
  eq14: -1 x7 = 1
  ie0: -1 x2 -1 x7 +1 x11 >= 1
  ie1: +1 x17 >= -2
  ie2: +1 x10 -1 x15 +1 x17 >= -3
  ie3: -1 x2 +1 x16 >= -1
  ie4: +1 x2 >= -1
  ie5: +1 x3 >= -2
  ie6: -1 x13 +1 x15 -1 x16 >= 2
  ie7: +1 x10 >= 1
  ie8: -1 x9 +1 x15 >= -1
  ie9: +1 x14 -1 x15 >= 0
  ie10: +1 x8 -1 x9 >= 0
  ie11: +1 x15 -1 x16 >= 1
  ie12: +1 x10 -1 x16 >= 0
END

\\\\\\\\\\\\\\\\\\\\\\\\\\\\\\\\\\\\\\\\ file 10

MAXIMIZE
Subject To
  eq0: +1 x16 -1 x19 = 2
  eq1: -1 x4 +1 x6 = 0
  eq2: -1 x13 = 2
  eq3: -1 x1 -1 x16 +1 x19 = 0
  eq4: -1 x4 +1 x5 = 0
  eq5: -1 x1 -1 x2 +1 x5 = 2
  eq6: -1 x2 -1 x7 +1 x8 = 2
  eq7: +1 x9 -1 x12 = 1
  eq8: +1 x9 -1 x11 = 1
  eq9: +1 x15 -1 x18 = 1
  eq10: -1 x3 +1 x4 = 0
  eq11: -1 x10 +1 x15 = 0
  eq12: +1 x13 +1 x16 -1 x17 = 1
  eq13: -1 x10 -1 x13 +1 x14 = 3
  eq14: -1 x7 = 1
  ie0: -1 x2 -1 x7 +1 x11 >= 1
  ie1: +1 x17 >= -2
  ie2: -1 x1 +1 x3 -1 x16 >= 3
  ie3: -1 x2 +1 x10 >= -1
  ie4: -1 x10 +1 x11 >= 0
  ie5: +1 x3 >= -2
  ie6: -1 x13 +1 x15 -1 x16 >= 2
  ie7: +1 x7 -1 x9 +1 x10 >= -3
  ie8: +1 x8 -1 x9 >= 0
  ie9: +1 x15 -1 x16 >= 1
END

\\\\\\\\\\\\\\\\\\\\\\\\\\\\\\\\\\\\\\\\ file 11

MAXIMIZE
Subject To
  eq0: +1 x16 -1 x19 = 2
  eq1: -1 x4 +1 x6 = 0
  eq2: -1 x17 = 2
  eq3: -1 x1 -1 x16 +1 x19 = 0
  eq4: -1 x4 +1 x5 = 0
  eq5: -1 x1 -1 x2 +1 x5 = 2
  eq6: -1 x2 -1 x7 +1 x8 = 2
  eq7: +1 x9 -1 x12 = 1
  eq8: +1 x9 -1 x10 = 1
  eq9: +1 x9 -1 x11 = 1
  eq10: -1 x3 +1 x4 = 0
  eq11: +1 x15 -1 x18 = 1
  eq12: +1 x13 +1 x16 -1 x17 = 1
  eq13: -1 x10 -1 x13 +1 x14 = 3
  eq14: -1 x7 = 1
  ie0: -1 x2 -1 x7 +1 x11 >= 1
  ie1: +1 x10 -1 x15 +1 x17 >= -3
  ie2: -1 x2 +1 x16 >= -1
  ie3: -1 x1 +1 x19 >= -3
  ie4: +1 x2 >= -1
  ie5: +1 x13 >= -2
  ie6: +1 x3 >= -2
  ie7: -1 x13 +1 x15 -1 x16 >= 2
  ie8: +1 x10 >= 1
  ie9: -1 x9 +1 x15 >= -1
  ie10: +1 x8 -1 x9 >= 0
  ie11: +1 x15 -1 x16 >= 1
END

\\\\\\\\\\\\\\\\\\\\\\\\\\\\\\\\\\\\\\\\ file 12

MAXIMIZE
Subject To
  eq0: +1 x16 -1 x19 = 2
  eq1: -1 x4 +1 x6 = 0
  eq2: -1 x13 = 2
  eq3: -1 x1 -1 x16 +1 x19 = 0
  eq4: -1 x4 +1 x5 = 0
  eq5: -1 x1 -1 x2 +1 x5 = 2
  eq6: -1 x2 -1 x7 +1 x8 = 2
  eq7: +1 x9 -1 x12 = 1
  eq8: +1 x9 -1 x10 = 1
  eq9: +1 x9 -1 x11 = 1
  eq10: -1 x3 +1 x4 = 0
  eq11: +1 x15 -1 x18 = 1
  eq12: +1 x13 +1 x16 -1 x17 = 1
  eq13: -1 x10 -1 x13 +1 x14 = 3
  eq14: -1 x7 = 1
  ie0: -1 x2 -1 x7 +1 x11 >= 1
  ie1: +1 x17 >= -2
  ie2: +1 x10 -1 x15 +1 x17 >= -3
  ie3: -1 x1 +1 x3 -1 x16 >= 3
  ie4: +1 x3 >= -2
  ie5: -1 x13 +1 x15 -1 x16 >= 2
  ie6: -1 x9 +1 x15 >= -1
  ie7: +1 x14 -1 x15 >= 0
  ie8: +1 x8 -1 x9 >= 0
END

\\\\\\\\\\\\\\\\\\\\\\\\\\\\\\\\\\\\\\\\ end



13 polyhedra, 36 rounds, smt 0.071 sec, isect 0.510 sec, insert 0.038 sec, total 0.785 sec
Preprocessing 0.000 sec, super total 0.785 sec
Comparing... 0.182 sec.  Solution matches input.
