k1 = 147/5000
k2 = 13738317757/4000000000
k3 = 13738317757/4000000000
k4 = 147/5000
k5 = 13738317757/4000000000
k6 = 147/5000
k7 = 13738317757/4000000000
k8 = 147/5000
k9 = 76/5
k10 = 14801/1250
k11 = 167/50
k12 = 147/5000
k13 = 13738317757/4000000000
k14 = 305357142857/500000000000
k15 = 171/10000
k16 = 305357142857/500000000000
k17 = 171/10000
k18 = 13738317757/4000000000
k19 = 147/5000
k20 = 14801/1250
k21 = 11529979/1250000
k22 = 130093/50000
k23 = 171/10000
k24 = 305357142857/500000000000
k25 = 93148416477/50000000000000
k26 = 27/1000
k27 = 27/1000
k28 = 93148416477/50000000000000
k29 = 171/10000
k30 = 305357142857/500000000000
k31 = 2128/125
k32 = 86982/15625
k33 = 2004/625
k34 = 27/1000
k35 = 152027027027/25000000000000
k36 = 10773/500000
k37 = 415391351351/10000000000000000
k38 = 415391351351/10000000000000000
k39 = 10773/500000
k40 = 411/1000
k41 = 242901/500000
k42 = 8631/5000
k43 = 0
k44 = 0
k45 = 0
k46 = 0
k47 = 0
k48 = 1
k49 = 0
k50 = 77/2
k51 = 389/100
k52 = 77/2
