[
  ["x1","x2","x3","x4","x5","x6","x7","x8","x9","x10"],
  [
    [[[-25,0,0,0,0,0,1,0,0,0,0],1],[[-24,0,0,0,0,0,1,0,0,1,0],1],[[-24,1,0,0,0,0,0,0,0,0,0],-1],[[-23,1,0,0,0,0,0,0,0,1,0],-1],[[-23,1,0,0,0,0,1,0,0,0,0],1],[[-22,0,0,0,1,0,1,0,0,0,0],1],[[-22,0,1,0,0,0,1,0,0,0,0],1],[[-22,1,0,0,0,0,1,0,0,0,0],1],[[-22,1,0,0,0,0,1,0,0,1,0],1],[[-22,1,0,0,1,0,0,0,0,0,0],-1],[[-22,2,0,0,0,0,0,0,0,0,0],-1],[[-21,0,0,0,1,0,1,0,0,1,0],1],[[-21,0,0,1,0,0,1,0,0,0,0],1],[[-21,0,1,0,0,0,1,0,0,1,0],1],[[-21,1,0,0,0,0,1,0,0,1,0],1],[[-21,1,0,0,1,0,0,0,0,0,0],-1],[[-21,1,0,0,1,0,0,0,0,1,0],-1],[[-21,1,1,0,0,0,0,0,0,0,0],-1],[[-21,2,0,0,0,0,0,0,0,0,0],-1],[[-21,2,0,0,0,0,0,0,0,1,0],-1],[[-20,0,0,1,0,0,1,0,0,1,0],1],[[-20,1,0,0,1,0,0,0,0,1,0],-1],[[-20,1,0,0,1,0,1,0,0,0,0],1],[[-20,1,0,1,0,0,0,0,0,0,0],-1],[[-20,1,1,0,0,0,0,0,0,1,0],-1],[[-20,2,0,0,0,0,0,0,0,1,0],-1],[[-20,2,0,0,0,0,1,0,0,0,0],1],[[-19,0,1,1,0,0,0,0,0,0,0],1],[[-19,1,0,0,1,0,1,0,0,0,0],1],[[-19,1,0,0,1,0,1,0,0,1,0],1],[[-19,1,0,1,0,0,0,0,0,1,0],-1],[[-19,1,0,1,0,0,1,0,0,0,0],1],[[-19,1,1,0,0,0,1,0,0,0,0],1],[[-19,2,0,0,0,0,1,0,0,1,0],1],[[-19,2,0,0,1,0,0,0,0,0,0],-1],[[-19,3,0,0,0,0,0,0,0,0,0],-1],[[-18,0,1,1,0,0,0,0,0,1,0],1],[[-18,0,1,1,0,0,1,0,0,0,0],1],[[-18,1,0,0,1,0,1,0,0,1,0],1],[[-18,1,0,1,0,0,1,0,0,0,0],1],[[-18,1,0,1,0,0,1,0,0,1,0],1],[[-18,1,1,0,0,0,1,0,0,1,0],1],[[-18,2,0,0,1,0,0,0,0,0,0],-1],[[-18,2,0,0,1,0,0,0,0,1,0],-1],[[-18,2,0,1,0,0,0,0,0,0,0],-1],[[-18,2,1,0,0,0,0,0,0,0,0],-1],[[-18,3,0,0,0,0,0,0,0,1,0],-1],[[-17,0,1,1,0,0,1,0,0,1,0],1],[[-17,1,0,1,0,0,1,0,0,1,0],1],[[-17,1,1,1,0,0,0,0,0,0,0],-1],[[-17,2,0,0,1,0,0,0,0,1,0],-1],[[-17,2,0,0,1,0,1,0,0,0,0],1],[[-17,2,0,1,0,0,0,0,0,0,0],-1],[[-17,2,0,1,0,0,0,0,0,1,0],-1],[[-17,2,1,0,0,0,0,0,0,1,0],-1],[[-16,1,1,1,0,0,0,0,0,0,0],1],[[-16,1,1,1,0,0,0,0,0,1,0],-1],[[-16,2,0,0,1,0,1,0,0,1,0],1],[[-16,2,0,1,0,0,0,0,0,1,0],-1],[[-16,2,0,1,0,0,1,0,0,0,0],1],[[-16,3,0,0,1,0,0,0,0,0,0],-1],[[-15,1,1,1,0,0,0,0,0,1,0],1],[[-15,1,1,1,0,0,1,0,0,0,0],1],[[-15,2,0,1,0,0,1,0,0,1,0],1],[[-15,3,0,0,1,0,0,0,0,1,0],-1],[[-15,3,0,1,0,0,0,0,0,0,0],-1],[[-14,1,1,1,0,0,1,0,0,1,0],1],[[-14,2,1,1,0,0,0,0,0,0,0],-1],[[-14,3,0,1,0,0,0,0,0,1,0],-1],[[-13,2,1,1,0,0,0,0,0,1,0],-1]],
    [[[-25,0,0,0,0,0,0,1,0,0,0],1],[[-24,0,0,0,0,0,0,1,0,1,0],1],[[-24,0,1,0,0,0,0,0,0,0,0],-1],[[-23,0,1,0,0,0,0,0,0,1,0],-1],[[-23,1,0,0,0,0,0,0,0,1,0],1],[[-23,1,0,0,0,0,0,1,0,0,0],1],[[-22,0,0,0,1,0,0,1,0,0,0],1],[[-22,0,1,0,0,0,0,1,0,0,0],1],[[-22,1,0,0,0,0,0,1,0,0,0],1],[[-22,1,0,0,0,0,0,1,0,1,0],1],[[-22,1,0,0,1,0,0,0,0,0,0],1],[[-22,1,1,0,0,0,0,0,0,0,0],-1],[[-21,0,0,0,1,0,0,1,0,1,0],1],[[-21,0,0,1,0,0,0,1,0,0,0],1],[[-21,0,1,0,0,0,0,1,0,1,0],1],[[-21,0,1,0,1,0,0,0,0,0,0],-1],[[-21,0,2,0,0,0,0,0,0,0,0],-1],[[-21,1,0,0,0,0,0,1,0,1,0],1],[[-21,1,0,0,1,0,0,0,0,1,0],1],[[-21,1,1,0,0,0,0,0,0,0,0],-1],[[-21,1,1,0,0,0,0,0,0,1,0],-1],[[-21,2,0,0,0,0,0,0,0,1,0],1],[[-20,0,0,1,0,0,0,1,0,1,0],1],[[-20,0,1,0,1,0,0,0,0,1,0],-1],[[-20,0,1,1,0,0,0,0,0,0,0],-1],[[-20,0,2,0,0,0,0,0,0,1,0],-1],[[-20,1,0,0,1,0,0,0,0,1,0],1],[[-20,1,0,0,1,0,0,1,0,0,0],1],[[-20,1,1,0,0,0,0,0,0,1,0],0],[[-20,2,0,0,0,0,0,1,0,0,0],1],[[-19,0,1,1,0,0,0,0,0,0,0],-1],[[-19,0,1,1,0,0,0,0,0,1,0],-1],[[-19,1,0,0,1,0,0,1,0,0,0],1],[[-19,1,0,0,1,0,0,1,0,1,0],1],[[-19,1,0,1,0,0,0,0,0,1,0],1],[[-19,1,0,1,0,0,0,1,0,0,0],1],[[-19,1,1,0,0,0,0,1,0,0,0],1],[[-19,1,1,0,1,0,0,0,0,0,0],-1],[[-19,2,0,0,0,0,0,1,0,1,0],1],[[-19,2,0,0,1,0,0,0,0,0,0],1],[[-19,2,1,0,0,0,0,0,0,0,0],-1],[[-18,0,1,1,0,0,0,0,0,1,0],-1],[[-18,0,1,1,0,0,0,1,0,0,0],1],[[-18,1,0,0,1,0,0,1,0,1,0],1],[[-18,1,0,1,0,0,0,1,0,0,0],1],[[-18,1,0,1,0,0,0,1,0,1,0],1],[[-18,1,1,0,0,0,0,1,0,1,0],1],[[-18,1,1,0,1,0,0,0,0,0,0],-1],[[-18,1,1,0,1,0,0,0,0,1,0],-1],[[-18,1,1,1,0,0,0,0,0,0,0],-1],[[-18,1,2,0,0,0,0,0,0,0,0],-1],[[-18,2,0,0,1,0,0,0,0,1,0],1],[[-18,2,1,0,0,0,0,0,0,1,0],-1],[[-17,0,1,1,0,0,0,1,0,1,0],1],[[-17,0,2,1,0,0,0,0,0,0,0],-1],[[-17,1,0,1,0,0,0,1,0,1,0],1],[[-17,1,1,0,1,0,0,0,0,1,0],-1],[[-17,1,1,1,0,0,0,0,0,0,0],-1],[[-17,1,1,1,0,0,0,0,0,1,0],-1],[[-17,1,2,0,0,0,0,0,0,1,0],-1],[[-17,2,0,0,1,0,0,1,0,0,0],1],[[-17,2,0,1,0,0,0,0,0,1,0],1],[[-16,0,2,1,0,0,0,0,0,1,0],-1],[[-16,1,1,1,0,0,0,0,0,0,0],-1],[[-16,1,1,1,0,0,0,0,0,1,0],0],[[-16,2,0,0,1,0,0,1,0,1,0],1],[[-16,2,0,1,0,0,0,1,0,0,0],1],[[-16,2,1,0,1,0,0,0,0,0,0],-1],[[-15,1,1,1,0,0,0,0,0,1,0],-1],[[-15,1,1,1,0,0,0,1,0,0,0],1],[[-15,2,0,1,0,0,0,1,0,1,0],1],[[-15,2,1,0,1,0,0,0,0,1,0],-1],[[-15,2,1,1,0,0,0,0,0,0,0],-1],[[-14,1,1,1,0,0,0,1,0,1,0],1],[[-14,1,2,1,0,0,0,0,0,0,0],-1],[[-14,2,1,1,0,0,0,0,0,1,0],-1],[[-13,1,2,1,0,0,0,0,0,1,0],-1]],
    [[[-21,0,0,0,0,0,0,0,1,0,0],1],[[-20,0,0,1,0,0,0,0,0,0,0],-1],[[-19,1,0,0,0,0,0,0,1,0,0],1],[[-18,0,0,0,1,0,0,0,1,0,0],1],[[-18,0,1,0,0,0,0,0,1,0,0],1],[[-18,1,0,0,1,0,0,0,0,0,0],1],[[-18,1,0,1,0,0,0,0,0,0,0],-1],[[-17,0,0,1,0,0,0,0,1,0,0],1],[[-17,0,0,1,1,0,0,0,0,0,0],-1],[[-17,0,1,1,0,0,0,0,0,0,0],-1],[[-16,0,0,2,0,0,0,0,0,0,0],-1],[[-16,1,0,0,1,0,0,0,1,0,0],1],[[-15,0,1,1,0,0,0,0,0,0,0],-1],[[-15,1,0,1,0,0,0,0,1,0,0],1],[[-15,1,0,1,1,0,0,0,0,0,0],-1],[[-14,0,1,1,0,0,0,0,1,0,0],1],[[-14,1,0,2,0,0,0,0,0,0,0],-1],[[-13,0,1,2,0,0,0,0,0,0,0],-1]],
    [[[-21,0,0,0,0,1,0,0,0,0,0],1],[[-20,0,0,0,1,0,0,0,0,0,0],-1],[[-19,1,0,0,0,1,0,0,0,0,0],1],[[-18,0,0,0,1,1,0,0,0,0,0],1],[[-18,0,1,0,0,1,0,0,0,0,0],1],[[-18,1,0,0,1,0,0,0,0,0,0],-1],[[-17,0,0,0,2,0,0,0,0,0,0],-1],[[-17,0,0,1,0,1,0,0,0,0,0],1],[[-17,0,1,0,1,0,0,0,0,0,0],-1],[[-16,0,0,1,1,0,0,0,0,0,0],-1],[[-16,1,0,0,1,1,0,0,0,0,0],1],[[-15,0,1,1,0,0,0,0,0,0,0],1],[[-15,1,0,0,2,0,0,0,0,0,0],-1],[[-15,1,0,1,0,1,0,0,0,0,0],1],[[-14,0,1,1,0,1,0,0,0,0,0],1],[[-14,1,0,1,1,0,0,0,0,0,0],-1],[[-13,0,1,1,1,0,0,0,0,0,0],-1]],
    [[[-21,0,0,0,0,1,0,0,0,0,0],-1],[[-20,0,0,0,1,0,0,0,0,0,0],1],[[-19,0,0,0,0,1,1,0,0,0,0],-1],[[-18,0,0,0,0,1,0,1,0,0,0],-1],[[-18,0,0,0,1,0,1,0,0,0,0],1],[[-17,0,0,0,0,0,0,1,1,0,0],1],[[-17,0,0,0,0,1,0,0,1,0,0],-1],[[-17,0,0,0,0,2,0,0,0,0,0],-1],[[-17,0,0,0,1,0,0,1,0,0,0],1],[[-16,0,0,0,0,2,1,0,0,0,0],-1],[[-16,0,0,0,1,0,0,0,1,0,0],1],[[-16,0,0,0,1,1,0,0,0,0,0],1],[[-15,0,0,0,0,1,1,0,1,0,0],-1],[[-15,0,0,0,1,1,1,0,0,0,0],1],[[-14,0,0,0,0,1,0,1,1,0,0],-1],[[-14,0,0,0,1,0,1,0,1,0,0],1],[[-13,0,0,0,1,0,0,1,1,0,0],1]],
    [[[-24,0,0,0,0,0,0,1,0,0,0],1],[[-22,0,0,0,0,0,1,1,0,0,0],1],[[-21,0,0,0,0,0,0,2,0,0,0],1],[[-21,0,0,0,0,0,1,0,0,0,0],-1],[[-20,0,0,0,0,0,0,1,1,0,0],1],[[-20,0,0,0,0,1,0,1,0,0,0],1],[[-20,1,0,0,0,0,0,0,0,0,0],1],[[-19,0,0,0,0,0,2,0,0,0,0],-1],[[-19,0,0,0,0,1,1,0,0,0,0],-1],[[-19,0,0,0,0,1,1,1,0,0,0],1],[[-18,0,0,0,0,0,1,1,0,0,0],-1],[[-18,0,0,0,0,0,1,1,1,0,0],1],[[-18,1,0,0,0,0,1,0,0,0,0],1],[[-17,0,0,0,0,0,0,1,1,0,0],1],[[-17,0,0,0,0,0,0,2,1,0,0],1],[[-17,0,0,0,0,0,1,0,1,0,0],-1],[[-17,0,0,0,0,1,1,0,0,0,0],-1],[[-17,1,0,0,0,0,0,1,0,0,0],1],[[-16,0,0,0,0,1,2,0,0,0,0],-1],[[-16,1,0,0,0,0,0,0,1,0,0],1],[[-16,1,0,0,0,1,0,0,0,0,0],1],[[-15,0,0,0,0,0,2,0,1,0,0],-1],[[-15,1,0,0,0,1,1,0,0,0,0],1],[[-14,0,0,0,0,0,1,1,1,0,0],-1],[[-14,1,0,0,0,0,1,0,1,0,0],1],[[-13,1,0,0,0,0,0,1,1,0,0],1]],
    [[[-24,0,0,0,0,0,0,1,0,0,0],-1],[[-22,0,0,0,0,0,1,1,0,0,0],-1],[[-21,0,0,0,0,0,0,1,0,0,0],-1],[[-21,0,0,0,0,0,0,2,0,0,0],-1],[[-20,0,0,0,0,0,0,1,1,0,0],-1],[[-20,0,0,0,0,1,0,1,0,0,0],-1],[[-20,0,1,0,0,0,0,0,0,0,0],1],[[-19,0,0,0,0,0,1,1,0,0,0],-1],[[-19,0,0,0,0,1,1,0,0,0,0],1],[[-19,0,0,0,0,1,1,1,0,0,0],-1],[[-18,0,0,0,0,0,0,2,0,0,0],-1],[[-18,0,0,0,0,0,1,1,1,0,0],-1],[[-18,0,1,0,0,0,1,0,0,0,0],1],[[-17,0,0,0,0,0,0,1,1,0,0],-1],[[-17,0,0,0,0,0,0,2,1,0,0],-1],[[-17,0,0,0,0,1,0,1,0,0,0],-1],[[-17,0,1,0,0,0,0,1,0,0,0],1],[[-16,0,0,0,0,1,1,1,0,0,0],-1],[[-16,0,1,0,0,0,0,0,1,0,0],1],[[-16,0,1,0,0,1,0,0,0,0,0],1],[[-15,0,0,0,0,0,1,1,1,0,0],-1],[[-15,0,1,0,0,1,1,0,0,0,0],1],[[-14,0,0,0,0,0,0,2,1,0,0],-1],[[-14,0,1,0,0,0,1,0,1,0,0],1],[[-13,0,1,0,0,0,0,1,1,0,0],1]],
    [[[-21,0,0,0,0,0,0,0,1,0,0],-1],[[-20,0,0,1,0,0,0,0,0,0,0],1],[[-19,0,0,0,0,0,1,0,1,0,0],-1],[[-19,0,0,0,0,1,1,0,0,0,0],1],[[-18,0,0,0,0,0,0,1,1,0,0],-1],[[-18,0,0,1,0,0,1,0,0,0,0],1],[[-17,0,0,0,0,0,0,0,2,0,0],-1],[[-17,0,0,0,0,0,0,1,1,0,0],-1],[[-17,0,0,0,0,1,0,0,1,0,0],-1],[[-17,0,0,1,0,0,0,1,0,0,0],1],[[-16,0,0,0,0,1,1,0,1,0,0],-1],[[-16,0,0,1,0,0,0,0,1,0,0],1],[[-16,0,0,1,0,1,0,0,0,0,0],1],[[-15,0,0,0,0,0,1,0,2,0,0],-1],[[-15,0,0,1,0,1,1,0,0,0,0],1],[[-14,0,0,0,0,0,0,1,2,0,0],-1],[[-14,0,0,1,0,0,1,0,1,0,0],1],[[-13,0,0,1,0,0,0,1,1,0,0],1]],
    [[[-6,0,0,0,0,0,0,0,0,0,1],1],[[-5,0,0,0,0,0,0,0,0,1,0],-1],[[-5,0,0,0,0,0,0,0,0,1,1],1],[[-4,0,0,0,0,0,0,0,0,2,0],-1],[[-4,1,0,0,0,0,0,0,0,1,0],-1],[[-3,1,0,0,0,0,0,0,0,0,1],1],[[-2,1,0,0,0,0,0,0,0,1,0],-1],[[-2,1,0,0,0,0,0,0,0,1,1],1],[[-1,1,0,0,0,0,0,0,0,2,0],-1]],
    [[[-4,0,0,0,0,0,0,1,0,0,0],1],[[-1,0,0,0,0,0,0,0,0,0,1],-1],[[0,0,0,0,0,0,0,0,0,1,0],1]],
    [[[-4,0,0,0,0,0,0,0,0,0,0],-1],[[0,0,0,0,0,0,0,0,1,0,0],1],[[0,0,0,0,0,1,0,0,0,0,0],1],[[1,0,0,0,1,0,0,0,0,0,0],1],[[1,0,0,1,0,0,0,0,0,0,0],1]],
    [[[-4,0,0,0,0,0,0,0,0,0,0],-1],[[0,0,0,0,0,0,0,0,0,0,1],1],[[0,0,0,0,0,0,0,1,0,0,0],1],[[0,0,0,0,0,1,0,0,0,0,0],1],[[1,0,0,0,0,0,0,0,0,1,0],1],[[1,0,0,0,1,0,0,0,0,0,0],1],[[1,0,1,0,0,0,0,0,0,0,0],1]],
    [[[-4,0,0,0,0,0,0,0,0,0,0],-1],[[0,0,0,0,0,0,0,1,0,0,0],1],[[0,0,0,0,0,0,1,0,0,0,0],1],[[1,0,1,0,0,0,0,0,0,0,0],1],[[1,1,0,0,0,0,0,0,0,0,0],1]]
  ]
]
