
\\\\\\\\\\\\\\\\\\\\\\\\\\\\\\\\\\\\\\\\ file 0

\ combo: 553-636-64-66-16-28-11-17-10-1-0-0-3
\ dimension 1; is compact
MAXIMIZE
Subject To
  ie0: -1 x4 >= -1        \ x4**-1 <= 11.0
  ie1: +1 x4 >= -3        \ x4 <= 1331.0
  eq0: +1 x10 = -4        \ x10 = 14641.0
  eq1: +1 x9 = -5         \ x9 = 161051.0
  eq2: +1 x8 = -4         \ x8 = 14641.0
  eq3: +1 x7 = 1          \ x7 = 0.0909091
  eq4: +1 x6 = -4         \ x6 = 14641.0
  eq5: +1 x4 -1 x5 = -1   \ x4 * x5**-1 = 11.0
  eq6: +1 x3 = -5         \ x3 = 161051.0
  eq7: +1 x2 = -3         \ x2 = 1331.0
  eq8: +1 x1 = -5         \ x1 = 161051.0
END

\\\\\\\\\\\\\\\\\\\\\\\\\\\\\\\\\\\\\\\\ file 1

\ combo: 531-586-60-59-55-49-44-53-10-1-1-2-1
\ dimension 2; is compact
MAXIMIZE
Subject To
  ie0: -1 x3 >= 4          \ x3**-1 <= 6.83013e-05
  ie1: -1 x9 >= 4          \ x9**-1 <= 6.83013e-05
  ie2: +1 x3 >= -5         \ x3 <= 161051.0
  ie3: +1 x9 >= -5         \ x9 <= 161051.0
  eq0: +1 x9 -1 x10 = -1   \ x9 * x10**-1 = 11.0
  eq1: +1 x3 -1 x8 = -1    \ x3 * x8**-1 = 11.0
  eq2: +1 x7 = 0           \ x7 = 1.0
  eq3: +1 x6 = -4          \ x6 = 14641.0
  eq4: +1 x5 = -4          \ x5 = 14641.0
  eq5: +1 x4 = -5          \ x4 = 161051.0
  eq6: +1 x2 = -3          \ x2 = 1331.0
  eq7: +1 x1 = -5          \ x1 = 161051.0
END

\\\\\\\\\\\\\\\\\\\\\\\\\\\\\\\\\\\\\\\\ file 2

\ combo: 531-586-60-59-55-49-44-53-10-1-0-0-1
\ dimension 1; is compact
MAXIMIZE
Subject To
  ie0: -1 x4 >= 4         \ x4**-1 <= 6.83013e-05
  ie1: +1 x4 >= -5        \ x4 <= 161051.0
  eq0: +1 x10 = -4        \ x10 = 14641.0
  eq1: +1 x9 = -5         \ x9 = 161051.0
  eq2: +1 x8 = -4         \ x8 = 14641.0
  eq3: +1 x7 = 0          \ x7 = 1.0
  eq4: +1 x6 = -4         \ x6 = 14641.0
  eq5: +1 x4 -1 x5 = -1   \ x4 * x5**-1 = 11.0
  eq6: +1 x3 = -5         \ x3 = 161051.0
  eq7: +1 x2 = -3         \ x2 = 1331.0
  eq8: +1 x1 = -5         \ x1 = 161051.0
END

\\\\\\\\\\\\\\\\\\\\\\\\\\\\\\\\\\\\\\\\ file 3

\ combo: 553-636-64-66-16-28-10-17-10-1-0-0-3
\ dimension 1; is compact
MAXIMIZE
Subject To
  ie0: -1 x4 >= 3         \ x4**-1 <= 0.000751315
  ie1: +1 x4 >= -4        \ x4 <= 14641.0
  eq0: +1 x10 = -4        \ x10 = 14641.0
  eq1: +1 x9 = -5         \ x9 = 161051.0
  eq2: +1 x8 = -4         \ x8 = 14641.0
  eq3: +1 x4 -1 x7 = -4   \ x4 * x7**-1 = 14641.0
  eq4: +1 x6 = -4         \ x6 = 14641.0
  eq5: +1 x4 -1 x5 = -1   \ x4 * x5**-1 = 11.0
  eq6: +1 x3 = -5         \ x3 = 161051.0
  eq7: +1 x2 = -3         \ x2 = 1331.0
  eq8: +1 x1 = -5         \ x1 = 161051.0
END

\\\\\\\\\\\\\\\\\\\\\\\\\\\\\\\\\\\\\\\\ end

