[
  ["#0",
    [[0,0,1],
     [0,0,1],
     [1,1,0]], [
    [[[-2,1,0,0,0,0,0,0,0]], [[1,0,1,0,0,0,0,0,0]], 0],
    [[[-3,1,-1,0,0,0,0,0,0]], [[2,-1,0,0,0,0,0,0,0],[0,1,0,0,0,0,0,0,0]], 1],
    [[[-3,1,-1,0,0,0,0,0,0]], [[0,-1,0,0,0,0,0,0,0]], 4]
  ]],
  ["#1",
    [[0,0,1,1,0,1,1,1,1,1,1,1,1,1,1,1,0,0,0,1,1,1,1,1,1,1,1,1,1,1,1,1,1,1,1,1,1,1,1,1,1,1,1,1,1],
     [0,0,1,1,1,1,1,1,1,1,1,1,1,1,1,1,1,1,1,1,1,1,1,1,1,1,1,1,1,1,1,1,1,1,1,1,1,1,1,1,1,1,1,1,1],
     [1,1,0,0,1,1,1,0,1,1,1,1,1,1,1,1,1,1,1,0,0,0,1,1,1,1,1,1,1,1,1,1,1,1,1,1,1,1,1,1,1,1,1,1,1],
     [1,1,0,0,1,1,1,1,1,1,1,1,1,1,1,1,1,1,1,1,1,1,1,1,1,1,1,1,1,1,1,1,1,1,1,1,1,1,1,1,1,1,1,1,1],
     [0,1,1,1,0,0,0,1,1,1,1,1,1,1,1,1,0,0,0,1,1,1,1,1,1,1,1,1,1,1,1,1,1,1,1,1,1,1,1,1,1,1,1,1,1],
     [1,1,1,1,0,0,0,1,0,1,1,1,1,1,1,1,1,1,1,1,1,1,1,0,1,0,1,0,1,1,0,1,1,1,1,1,1,1,0,0,0,0,1,1,1],
     [1,1,1,1,0,0,0,1,1,1,1,1,1,1,1,1,1,1,1,1,1,1,1,1,1,1,1,1,1,1,1,1,1,1,1,1,1,1,1,1,1,1,0,1,1],
     [1,1,0,1,1,1,1,0,0,0,1,1,1,1,1,1,1,1,1,0,0,0,1,1,1,1,1,1,1,1,1,1,1,1,1,1,1,1,1,1,1,1,1,1,1],
     [1,1,1,1,1,0,1,0,0,0,1,1,1,1,1,1,1,1,1,1,1,1,1,0,1,0,1,0,1,1,0,1,1,1,1,1,1,1,0,0,0,0,1,1,1],
     [1,1,1,1,1,1,1,0,0,0,1,1,1,1,1,1,1,1,1,1,1,1,1,1,1,1,1,1,1,1,1,1,1,1,1,1,1,1,1,1,1,1,1,0,1],
     [1,1,1,1,1,1,1,1,1,1,0,1,1,1,1,1,1,1,1,1,1,1,0,1,1,1,1,1,1,1,1,1,0,0,0,1,1,1,1,1,1,1,1,1,1],
     [1,1,1,1,1,1,1,1,1,1,1,0,1,1,1,1,1,1,1,1,1,1,1,1,0,1,1,1,1,1,1,1,1,1,1,0,0,0,1,1,1,1,1,1,1],
     [1,1,1,1,1,1,1,1,1,1,1,1,0,0,1,1,1,1,1,1,1,1,1,1,1,1,1,1,1,1,1,1,1,1,1,1,1,1,1,1,1,1,1,1,1],
     [1,1,1,1,1,1,1,1,1,1,1,1,0,0,1,1,1,1,1,1,1,1,1,1,1,1,1,1,1,1,1,1,1,1,1,1,1,1,1,1,1,1,1,1,1],
     [1,1,1,1,1,1,1,1,1,1,1,1,1,1,0,0,1,1,1,1,1,1,1,1,1,1,1,1,1,0,1,1,1,1,1,1,1,1,1,1,1,1,1,1,1],
     [1,1,1,1,1,1,1,1,1,1,1,1,1,1,0,0,1,1,1,1,1,1,1,1,1,1,1,1,1,1,1,1,1,1,1,1,1,1,1,1,1,1,1,1,1],
     [0,1,1,1,0,1,1,1,1,1,1,1,1,1,1,1,0,0,0,1,1,1,1,1,1,1,1,1,1,1,1,1,1,1,1,1,1,1,1,1,1,1,1,1,1],
     [0,1,1,1,0,1,1,1,1,1,1,1,1,1,1,1,0,0,0,1,1,1,1,1,1,1,1,1,1,1,1,1,1,1,1,1,1,1,0,1,1,1,0,1,1],
     [0,1,1,1,0,1,1,1,1,1,1,1,1,1,1,1,0,0,0,1,1,0,1,1,1,1,1,1,1,1,1,1,1,0,1,1,0,1,1,1,1,1,1,1,1],
     [1,1,0,1,1,1,1,0,1,1,1,1,1,1,1,1,1,1,1,0,0,0,1,1,1,1,1,1,1,1,1,1,1,1,1,1,1,1,1,1,1,1,1,1,1],
     [1,1,0,1,1,1,1,0,1,1,1,1,1,1,1,1,1,1,1,0,0,0,1,1,1,1,1,1,1,1,1,1,1,1,1,1,1,1,1,0,1,1,1,0,1],
     [1,1,0,1,1,1,1,0,1,1,1,1,1,1,1,1,1,1,0,0,0,0,1,1,1,1,1,1,1,1,1,1,1,0,1,1,0,1,1,1,1,1,1,1,1],
     [1,1,1,1,1,1,1,1,1,1,0,1,1,1,1,1,1,1,1,1,1,1,0,0,1,1,1,1,1,1,1,1,0,0,0,1,1,1,1,1,1,1,1,1,1],
     [1,1,1,1,1,0,1,1,0,1,1,1,1,1,1,1,1,1,1,1,1,1,0,0,1,0,1,0,1,1,0,1,1,1,1,1,1,1,0,0,0,0,1,1,1],
     [1,1,1,1,1,1,1,1,1,1,1,0,1,1,1,1,1,1,1,1,1,1,1,1,0,0,0,1,1,1,1,1,1,1,1,0,0,0,1,1,1,1,1,1,1],
     [1,1,1,1,1,0,1,1,0,1,1,1,1,1,1,1,1,1,1,1,1,1,1,0,0,0,0,0,1,1,0,1,1,1,1,1,1,1,0,0,0,0,1,1,1],
     [1,1,1,1,1,1,1,1,1,1,1,1,1,1,1,1,1,1,1,1,1,1,1,1,0,0,0,1,1,1,1,1,1,1,1,1,1,1,1,1,1,1,1,1,0],
     [1,1,1,1,1,0,1,1,0,1,1,1,1,1,1,1,1,1,1,1,1,1,1,0,1,0,1,0,0,1,0,1,1,1,1,1,1,1,0,0,0,0,1,1,1],
     [1,1,1,1,1,1,1,1,1,1,1,1,1,1,1,1,1,1,1,1,1,1,1,1,1,1,1,0,0,1,1,1,1,1,1,1,1,1,1,1,1,1,1,1,1],
     [1,1,1,1,1,1,1,1,1,1,1,1,1,1,0,1,1,1,1,1,1,1,1,1,1,1,1,1,1,0,0,0,1,1,1,1,1,1,1,1,1,1,1,1,1],
     [1,1,1,1,1,0,1,1,0,1,1,1,1,1,1,1,1,1,1,1,1,1,1,0,1,0,1,0,1,0,0,0,1,1,1,1,1,1,0,0,0,0,1,1,1],
     [1,1,1,1,1,1,1,1,1,1,1,1,1,1,1,1,1,1,1,1,1,1,1,1,1,1,1,1,1,0,0,0,1,1,1,1,1,1,1,1,1,1,1,1,1],
     [1,1,1,1,1,1,1,1,1,1,0,1,1,1,1,1,1,1,1,1,1,1,0,1,1,1,1,1,1,1,1,1,0,0,0,1,1,1,1,1,1,1,1,1,1],
     [1,1,1,1,1,1,1,1,1,1,0,1,1,1,1,1,1,1,0,1,1,0,0,1,1,1,1,1,1,1,1,1,0,0,0,1,0,1,1,1,1,1,1,1,1],
     [1,1,1,1,1,1,1,1,1,1,0,1,1,1,1,1,1,1,1,1,1,1,0,1,1,1,1,1,1,1,1,1,0,0,0,1,1,1,1,1,0,1,1,1,1],
     [1,1,1,1,1,1,1,1,1,1,1,0,1,1,1,1,1,1,1,1,1,1,1,1,0,1,1,1,1,1,1,1,1,1,1,0,0,0,1,1,1,1,1,1,1],
     [1,1,1,1,1,1,1,1,1,1,1,0,1,1,1,1,1,1,0,1,1,0,1,1,0,1,1,1,1,1,1,1,1,0,1,0,0,0,1,1,1,1,1,1,1],
     [1,1,1,1,1,1,1,1,1,1,1,0,1,1,1,1,1,1,1,1,1,1,1,1,0,1,1,1,1,1,1,1,1,1,1,0,0,0,1,1,1,0,1,1,0],
     [1,1,1,1,1,0,1,1,0,1,1,1,1,1,1,1,1,0,1,1,1,1,1,0,1,0,1,0,1,1,0,1,1,1,1,1,1,1,0,0,0,0,0,1,1],
     [1,1,1,1,1,0,1,1,0,1,1,1,1,1,1,1,1,1,1,1,0,1,1,0,1,0,1,0,1,1,0,1,1,1,1,1,1,1,0,0,0,0,1,0,1],
     [1,1,1,1,1,0,1,1,0,1,1,1,1,1,1,1,1,1,1,1,1,1,1,0,1,0,1,0,1,1,0,1,1,1,0,1,1,1,0,0,0,0,1,1,1],
     [1,1,1,1,1,0,1,1,0,1,1,1,1,1,1,1,1,1,1,1,1,1,1,0,1,0,1,0,1,1,0,1,1,1,1,1,1,0,0,0,0,0,1,1,0],
     [1,1,1,1,1,1,0,1,1,1,1,1,1,1,1,1,1,0,1,1,1,1,1,1,1,1,1,1,1,1,1,1,1,1,1,1,1,1,0,1,1,1,0,1,1],
     [1,1,1,1,1,1,1,1,1,0,1,1,1,1,1,1,1,1,1,1,0,1,1,1,1,1,1,1,1,1,1,1,1,1,1,1,1,1,1,0,1,1,1,0,1],
     [1,1,1,1,1,1,1,1,1,1,1,1,1,1,1,1,1,1,1,1,1,1,1,1,1,1,0,1,1,1,1,1,1,1,1,1,1,0,1,1,1,0,1,1,0]], [
    [[[-2,1,0,0,0,0,0,0,0]], [[1,0,-1,1,0,0,0,0,0],[2,0,-1,0,0,0,0,0,0],[1,0,1,0,0,0,0,0,0],[1,0,1,0,0,0,0,0,-1],[0,0,0,0,0,1,0,0,0],[1,0,0,0,0,0,0,0,-1]], 0],
    [[[-3,1,-1,0,0,0,0,0,0]], [[-2,1,0,0,0,0,0,0,-1],[0,0,0,0,0,1,0,0,0],[4,-1,0,1,0,0,0,0,0],[2,-1,0,0,0,0,0,0,0]], 5],
    [[[-2,1,0,0,0,0,0,0,0]], [[1,0,-1,1,0,0,0,0,0],[0,0,0,0,0,-1,0,0,0],[2,0,-1,0,0,0,0,0,0],[1,0,1,0,0,0,0,0,0],[1,0,1,0,0,0,0,0,-1],[1,0,0,0,0,0,0,0,-1]], 16],
    [[[-3,1,-1,0,0,0,0,0,0]], [[-2,1,0,0,0,0,0,0,-1],[0,0,0,0,0,-1,0,0,0],[4,-1,0,1,0,0,0,0,0],[2,-1,0,0,0,0,0,0,0]], 22],
    [[[-1,1,-1,1,0,0,0,0,0]], [[-2,1,0,0,0,0,0,0,0],[0,1,-1,0,0,0,0,0,0],[4,-1,0,0,0,0,0,0,0],[3,-1,1,0,0,0,0,0,0],[0,0,0,0,0,1,0,0,0],[1,0,0,0,0,0,0,0,-1],[3,-1,1,0,0,0,0,0,-1]], 30],
    [[[-3,1,-1,0,0,0,0,0,1]], [[-2,1,0,0,0,0,0,0,0],[0,0,0,0,0,1,0,0,0],[4,-1,0,0,0,0,0,0,0],[-2,1,-1,0,0,0,0,0,0],[3,-1,1,0,0,0,0,0,0],[1,-1,1,-1,0,0,0,0,0]], 38],
    [[[-3,1,-1,0,0,0,0,0,0]], [[-2,1,0,0,0,0,0,0,-1],[-4,1,0,-1,0,0,0,0,0],[4,-1,0,0,0,0,0,0,0],[0,0,0,0,0,1,0,0,0],[0,0,0,0,0,0,0,0,-1],[-2,0,0,-1,0,0,0,0,0]], 39],
    [[[-1,1,-1,1,0,0,0,0,0]], [[-2,1,0,0,0,0,0,0,0],[3,-1,1,0,0,-1,0,0,-1],[1,0,0,0,0,0,0,0,-1],[3,-1,1,0,0,0,0,0,0],[4,-1,0,0,0,0,0,0,0],[0,0,0,0,0,-1,0,0,0],[0,1,-1,0,0,0,0,0,0],[1,0,1,0,0,0,0,0,-1]], 46],
    [[[-3,1,-1,0,0,1,0,0,1]], [[-2,1,0,0,0,1,0,0,0],[-2,1,-1,0,0,1,0,0,0],[0,0,0,0,0,-1,0,0,0],[3,-1,1,0,0,0,0,0,0],[4,-1,0,0,0,0,0,0,0],[1,-1,1,-1,0,0,0,0,0]], 53],
    [[[-3,1,-1,0,0,0,0,0,0]], [[-2,1,0,0,0,0,0,0,-1],[-4,1,0,-1,0,0,0,0,0],[1,0,0,0,0,0,0,0,-1],[4,-1,0,0,0,0,0,0,0],[0,0,0,0,0,-1,0,0,0],[0,0,0,0,0,-1,0,0,-1],[-2,0,0,-1,0,0,0,0,0]], 55],
    [[[-2,1,0,0,0,0,0,0,0]], [[1,0,-1,1,0,0,0,0,0],[2,0,-1,0,0,0,0,0,0],[0,0,1,0,0,0,0,0,0],[0,0,0,0,0,1,0,0,0],[-1,0,0,0,0,0,0,0,1]], 63],
    [[[-2,1,0,0,0,0,0,0,0]], [[1,0,-1,1,0,0,0,0,0],[2,0,-1,0,0,0,0,0,0],[0,0,1,0,0,0,0,0,0],[-1,0,0,0,0,0,0,0,1],[0,0,0,0,0,-1,0,0,0]], 71],
    [[[-2,1,0,0,0,0,0,0,0]], [[1,0,1,0,0,0,0,0,0],[0,0,0,0,0,1,0,0,0],[1,0,-1,1,0,0,0,0,0],[-1,0,-1,0,0,0,0,0,1],[0,0,-1,0,0,0,0,0,0]], 79],
    [[[-3,1,-1,0,0,0,0,0,0]], [[0,0,0,0,0,1,0,0,0],[4,-1,0,1,0,0,0,0,0],[2,-1,0,0,0,0,0,0,1],[2,-1,0,0,0,0,0,0,0]], 86],
    [[[-2,1,0,0,0,0,0,0,0]], [[1,0,-1,1,0,0,0,0,0],[1,0,1,0,0,0,0,0,0],[0,0,0,0,0,-1,0,0,0],[-1,0,-1,0,0,0,0,0,1],[0,0,-1,0,0,0,0,0,0]], 96],
    [[[-3,1,-1,0,0,0,0,0,0]], [[0,0,0,0,0,-1,0,0,0],[4,-1,0,1,0,0,0,0,0],[2,-1,0,0,0,0,0,0,1],[2,-1,0,0,0,0,0,0,0]], 102],
    [[[0,1,-1,0,0,0,0,0,0]], [[4,-1,0,0,0,1,0,0,0],[-2,1,0,0,0,0,0,0,0],[3,-1,0,1,0,0,0,0,0],[-1,0,0,1,0,0,0,0,0],[0,0,0,0,0,1,0,0,0],[1,0,0,0,0,0,0,0,-1]], 105],
    [[[-3,0,1,-1,0,0,0,0,0]], [[4,0,-1,0,0,1,0,0,0],[1,0,0,0,0,0,0,0,-1],[-4,1,0,0,0,0,0,0,0],[0,0,0,0,0,1,0,0,0],[0,1,-1,0,0,0,0,0,0],[-1,0,1,0,0,0,0,0,0],[-1,0,1,0,0,0,0,0,-1]], 113],
    [[[-4,0,1,0,0,-1,0,0,0]], [[0,1,-1,0,0,0,0,0,0],[3,0,-1,1,0,0,0,0,0],[-4,0,1,0,0,0,0,0,0],[1,0,0,0,0,0,0,0,-1]], 115],
    [[[0,1,-1,0,0,0,0,0,0]], [[4,-1,0,0,0,0,0,0,0],[-2,1,0,0,0,0,0,0,0],[-1,0,0,1,0,0,0,0,0],[1,0,0,0,0,0,0,0,-1],[0,0,0,0,0,-1,0,0,0]], 119],
    [[[-3,0,1,-1,0,0,0,0,0]], [[4,0,-1,0,0,0,0,0,0],[-4,1,0,0,0,0,0,0,0],[0,0,0,0,0,-1,0,0,0],[1,0,0,0,0,0,0,0,-1],[-1,0,1,0,0,-1,0,0,-1],[-1,0,1,0,0,0,0,0,0]], 127],
    [[[-4,0,1,0,0,0,0,0,0]], [[-4,1,0,0,0,0,0,0,0],[1,0,0,0,0,0,0,0,-1],[-1,0,0,1,0,0,0,0,0],[0,0,0,0,0,-1,0,0,0]], 128],
    [[[-1,1,-1,1,0,0,0,0,0]], [[-2,1,0,0,0,0,0,0,0],[4,-1,0,0,0,0,0,0,0],[0,1,-1,0,0,0,0,0,0],[2,-1,1,0,0,0,0,0,0],[0,0,0,0,0,1,0,0,0],[-1,0,0,0,0,0,0,0,1]], 135],
    [[[-2,1,-1,0,0,0,0,0,0]], [[-2,1,0,0,0,0,0,0,0],[4,-1,0,0,0,0,0,0,0],[0,0,0,0,0,1,0,0,0],[-1,0,0,0,0,0,0,0,1],[-1,0,0,-1,0,0,0,0,0]], 139],
    [[[-1,1,-1,1,0,0,0,0,0]], [[-2,1,0,0,0,0,0,0,0],[0,1,-1,0,0,0,0,0,0],[0,0,1,0,0,0,0,0,0],[4,-1,0,0,0,0,0,0,0],[-1,0,0,0,0,0,0,0,1],[0,0,0,0,0,-1,0,0,0],[3,-1,1,0,0,0,0,0,0],[2,-1,1,0,0,-1,0,0,0]], 141],
    [[[-2,1,-1,0,0,1,0,0,0]], [[0,0,1,0,0,0,0,0,0],[-1,0,0,0,0,0,0,0,1],[-2,1,-1,0,0,0,0,0,0],[4,-1,0,0,0,0,0,0,0],[3,-1,1,0,0,0,0,0,0],[1,-1,1,-1,0,0,0,0,0]], 144],
    [[[-3,1,-1,0,0,0,0,0,0]], [[-3,1,0,0,0,0,0,0,0],[-1,0,0,0,0,0,0,0,1],[-1,0,0,0,0,-1,0,0,0],[4,-1,0,0,0,0,0,0,0],[-2,0,0,-1,0,0,0,0,0]], 146],
    [[[-2,1,0,0,0,0,0,0,0]], [[0,0,0,0,0,1,0,0,0],[-1,0,-1,0,0,0,0,0,1],[0,0,-1,0,0,0,0,0,0],[1,0,1,0,0,0,0,0,0],[-1,0,1,-1,0,0,0,0,0]], 154],
    [[[-3,1,-1,0,0,0,0,0,0]], [[-4,1,0,-1,0,0,0,0,0],[0,0,0,0,0,1,0,0,0],[2,-1,0,0,0,0,0,0,1],[2,-1,0,0,0,0,0,0,0]], 159],
    [[[-1,1,-1,1,0,0,0,0,0]], [[-2,1,0,0,0,0,0,0,0],[3,-1,1,0,0,0,0,0,0],[2,-1,0,0,0,-1,0,0,0],[-1,0,-1,0,0,0,0,0,1],[0,0,-1,0,0,0,0,0,0]], 165],
    [[[-2,1,0,0,0,1,0,0,0]], [[-2,1,0,0,0,0,0,0,0],[-1,0,-1,0,0,0,0,0,1],[0,0,-1,0,0,0,0,0,0],[3,-1,1,0,0,0,0,0,0],[1,-1,1,-1,0,0,0,0,0]], 167],
    [[[-3,1,-1,0,0,0,0,0,0]], [[-4,1,0,-1,0,0,0,0,0],[0,0,0,0,0,-1,0,0,0],[-2,0,0,-1,0,0,0,0,0],[2,-1,0,0,0,0,0,0,1],[3,-1,0,0,0,0,0,0,0],[2,-1,0,0,0,-1,0,0,0]], 174],
    [[[0,1,-1,0,0,0,0,0,0]], [[3,-1,0,0,0,1,0,0,1],[3,-1,0,1,0,0,0,0,0],[-2,1,0,0,0,0,0,0,0],[-1,0,0,1,0,0,0,0,0],[0,0,0,0,0,1,0,0,0],[-1,0,0,0,0,0,0,0,1]], 175],
    [[[-3,0,1,0,0,-1,0,0,-1]], [[3,0,-1,1,0,0,0,0,0],[0,1,-1,0,0,0,0,0,0],[0,0,0,0,0,1,0,0,0],[-4,0,1,0,0,-1,0,0,0]], 179],
    [[[-3,0,1,-1,0,0,0,0,0]], [[3,0,-1,0,0,1,0,0,1],[-1,0,0,0,0,0,0,0,1],[0,0,0,0,0,1,0,0,0],[-2,0,1,0,0,0,0,0,0],[0,1,-1,0,0,0,0,0,0],[-4,1,0,0,0,0,0,0,0]], 180],
    [[[0,1,-1,0,0,0,0,0,0]], [[3,-1,0,0,0,0,0,0,1],[-2,1,0,0,0,0,0,0,0],[-1,0,0,1,0,0,0,0,0],[3,-1,0,1,0,0,0,0,0],[-1,0,0,0,0,0,0,0,1],[0,0,0,0,0,-1,0,0,0]], 183],
    [[[-3,0,1,0,0,0,0,0,-1]], [[0,1,-1,0,0,0,0,0,0],[-4,0,1,0,0,0,0,0,0],[3,0,-1,1,0,0,0,0,0],[0,0,0,0,0,-1,0,0,0]], 186],
    [[[-3,0,1,-1,0,0,0,0,0]], [[3,0,-1,0,0,0,0,0,1],[0,0,0,0,0,-1,0,0,0],[-4,1,0,0,0,0,0,0,0],[-1,0,0,0,0,0,0,0,1],[0,1,-1,0,0,0,0,0,0],[-1,0,1,0,0,0,0,0,0],[-2,0,1,0,0,-1,0,0,0]], 188],
    [[[-1,0,1,0,0,0,0,0,-1]], [[-4,1,0,0,0,0,0,0,0],[2,0,-1,0,0,0,0,0,0],[-1,0,1,0,0,0,0,0,0],[0,0,0,0,0,1,0,0,0],[-3,0,1,-1,0,0,0,0,0]], 189],
    [[[-1,0,1,0,0,-1,0,0,-1]], [[-4,1,0,0,0,0,0,0,0],[-1,0,1,0,0,0,0,0,0],[0,0,0,0,0,-1,0,0,0],[2,0,-1,0,0,1,0,0,0],[-3,0,1,-1,0,0,0,0,0]], 190],
    [[[-2,0,1,0,0,0,0,0,0]], [[-4,1,0,0,0,0,0,0,0],[-1,0,0,0,0,0,0,0,1],[0,0,0,0,0,1,0,0,0],[-1,0,0,-1,0,0,0,0,0]], 191],
    [[[-2,0,1,0,0,-1,0,0,0]], [[-4,1,0,0,0,0,0,0,0],[2,0,-1,0,0,0,0,0,0],[-1,0,1,0,0,0,0,0,0],[-1,0,0,0,0,0,0,0,1],[-3,0,1,-1,0,0,0,0,0]], 192],
    [[[-1,0,1,0,0,0,0,0,0]], [[-4,1,0,0,0,0,0,0,0],[0,0,0,0,0,0,0,0,-1],[0,0,0,0,0,1,0,0,0],[-2,0,0,-1,0,0,0,0,0]], 193],
    [[[-1,0,1,0,0,0,0,0,0]], [[-4,1,0,0,0,0,0,0,0],[0,0,0,0,0,-1,0,0,0],[1,0,0,0,0,0,0,0,-1],[0,0,0,0,0,-1,0,0,-1],[-2,0,0,-1,0,0,0,0,0]], 196],
    [[[-1,0,1,0,0,0,0,0,0]], [[-4,1,0,0,0,0,0,0,0],[-1,0,0,0,0,-1,0,0,0],[-1,0,0,0,0,0,0,0,1],[-2,0,0,-1,0,0,0,0,0]], 199]
  ]],
  ["#2",
    [[0,0,1,1,0,0,1,1,1,1,1,1,1,1,1,1],
     [0,0,1,1,0,1,0,0,1,1,1,1,1,1,1,1],
     [1,1,0,0,1,1,0,1,0,0,1,1,1,1,1,1],
     [1,1,0,0,1,1,1,1,1,0,1,1,1,1,1,1],
     [0,0,1,1,0,0,0,0,1,1,1,1,1,1,1,1],
     [0,1,1,1,0,0,1,1,1,1,0,1,1,0,0,1],
     [1,0,0,1,0,1,0,0,0,0,1,1,1,1,1,1],
     [1,0,1,1,0,1,0,0,0,1,1,0,1,0,1,0],
     [1,1,0,1,1,1,0,0,0,0,1,0,1,0,1,0],
     [1,1,0,0,1,1,0,1,0,0,1,1,1,1,1,1],
     [1,1,1,1,1,0,1,1,1,1,0,0,0,0,0,1],
     [1,1,1,1,1,1,1,0,0,1,0,0,0,0,1,0],
     [1,1,1,1,1,1,1,1,1,1,0,0,0,1,0,0],
     [1,1,1,1,1,0,1,0,0,1,0,0,1,0,0,0],
     [1,1,1,1,1,0,1,1,1,1,0,1,0,0,0,0],
     [1,1,1,1,1,1,1,0,0,1,1,0,0,0,0,0]], [
    [[[-2,0,0,1,0,0,0,0,0]], [[0,0,0,0,1,0,0,0,0],[2,0,-1,0,0,0,0,0,0]], 0],
    [[[-2,0,0,1,-1,0,0,0,0]], [[2,0,0,-1,0,0,0,0,0],[1,0,-1,1,0,0,0,0,0],[2,0,-1,0,0,0,0,0,0]], 1],
    [[[1,0,1,-2,1,0,0,0,0]], [[-1,0,1,-1,0,0,0,0,0],[2,0,-1,1,0,0,0,0,0],[1,0,0,-1,0,0,0,0,0]], 9],
    [[[-3,0,0,1,-1,0,0,0,0]], [[1,0,0,-1,0,0,0,0,0],[-2,0,1,-1,0,0,0,0,0]], 11],
    [[[0,0,0,0,1,0,0,0,0]], [[-2,0,0,1,0,0,0,0,0],[2,0,-1,0,0,0,0,0,0]], 19],
    [[[-2,0,1,0,0,0,0,0,0]], [[-2,0,0,1,0,0,0,0,0],[0,0,0,0,1,0,0,0,0]], 21],
    [[[-1,0,1,-1,0,0,0,0,0]], [[2,0,-1,0,0,0,0,0,0],[-3,0,1,0,-1,0,0,0,0]], 24],
    [[[-2,0,1,0,0,0,0,0,0]], [[-2,0,0,1,-1,0,0,0,0],[-1,0,0,1,0,0,0,0,0],[0,0,0,0,-1,0,0,0,0]], 27],
    [[[-1,0,0,1,0,0,0,0,0]], [[3,0,-1,0,0,0,0,0,0],[1,0,-1,0,-1,0,0,0,0],[-2,0,1,0,0,0,0,0,0]], 34],
    [[[-2,0,1,-1,0,0,0,0,0]], [[3,0,-1,0,0,0,0,0,0],[-5,0,1,0,-1,0,0,0,0]], 35],
    [[[0,0,1,-1,0,0,0,0,0]], [[3,0,-1,0,1,0,0,0,0],[-2,0,1,0,0,0,0,0,0],[0,0,0,0,1,0,0,0,0]], 38],
    [[[0,0,1,-1,1,0,0,0,0]], [[3,0,-1,0,0,0,0,0,0],[-2,0,1,0,0,0,0,0,0],[0,0,1,-1,0,0,0,0,0],[-1,0,0,1,0,0,0,0,0]], 39],
    [[[-3,0,0,1,-1,0,0,0,0]], [[-1,0,0,1,0,0,0,0,0],[0,0,1,-1,0,0,0,0,0],[-3,0,1,0,0,0,0,0,0]], 42],
    [[[0,0,0,0,1,0,0,0,0]], [[3,0,-1,0,0,0,0,0,0],[0,0,-1,1,0,0,0,0,0],[-2,0,1,0,0,0,0,0,0]], 43],
    [[[-3,0,1,0,-1,0,0,0,0]], [[0,0,-1,1,0,0,0,0,0],[-3,0,1,0,0,0,0,0,0]], 44],
    [[[-3,0,1,0,0,0,0,0,0]], [[-3,0,0,1,-1,0,0,0,0],[-1,0,0,1,0,0,0,0,0],[0,0,0,0,-1,0,0,0,0]], 47]
  ]],
  ["#3",
    [[0,0,0,0,0,1,1,1],
     [0,0,1,1,1,0,1,1],
     [0,1,0,0,0,1,1,1],
     [0,1,0,0,0,0,0,1],
     [0,1,0,0,0,1,1,0],
     [1,0,1,0,1,0,0,1],
     [1,1,1,0,1,0,0,0],
     [1,1,1,1,0,1,0,0]], [
    [[[-2,0,0,1,0,0,0,0,0]], [[3,0,0,0,-1,1,0,0,0],[2,0,0,0,-1,0,0,0,0],[0,0,0,0,1,0,0,0,0]], 0],
    [[[-2,0,0,1,-1,0,0,0,0]], [[5,0,0,-1,0,1,0,0,0],[2,0,0,-1,0,0,0,0,0]], 1],
    [[[0,0,0,1,-1,0,0,0,0]], [[5,0,0,-1,0,1,0,0,0],[-2,0,0,1,0,0,0,0,0],[1,0,0,0,0,1,0,0,0]], 2],
    [[[1,0,0,1,-1,1,0,0,0]], [[4,0,0,-1,0,0,0,0,0],[-2,0,0,1,0,0,0,0,0],[3,0,0,-1,1,0,0,0,0],[0,0,0,0,1,0,0,0,0],[0,0,0,1,-1,0,0,0,0]], 3],
    [[[-5,0,0,0,1,-1,0,0,0]], [[-1,0,0,0,1,0,0,0,0],[0,0,0,1,-1,0,0,0,0],[-4,0,0,1,0,0,0,0,0]], 4],
    [[[1,0,0,1,-2,1,0,0,0]], [[-2,0,0,1,-1,0,0,0,0],[0,0,0,0,-1,0,0,0,0],[3,0,0,-1,1,0,0,0,0]], 5],
    [[[-3,0,0,1,-1,0,0,0,0]], [[4,0,0,-1,0,0,0,0,0],[-4,0,0,0,0,-1,0,0,0],[-7,0,0,1,0,-1,0,0,0]], 6],
    [[[-1,0,0,0,1,0,0,0,0]], [[-4,0,0,0,0,-1,0,0,0],[-4,0,0,1,0,0,0,0,0]], 7]
  ]],
  ["#4",
    [[0,0,0,0,0,0,0,0,0,0,0,1,1,1,1,1,1,1,1,1,1,1,1,1,1,1,1,1,1,1,1,1,1,1,1,1,1,1,1,1,1,1,1,1],
     [0,0,0,0,0,0,1,1,1,1,1,0,0,0,0,0,1,1,1,1,1,1,1,1,1,1,1,1,1,1,1,1,1,1,1,1,1,1,1,1,1,1,1,1],
     [0,0,0,0,0,0,1,1,1,1,1,1,0,1,1,1,1,1,1,1,0,0,0,0,1,1,1,1,1,1,1,1,1,1,1,1,1,1,1,1,1,1,1,1],
     [0,0,0,0,0,0,1,1,1,1,1,1,1,1,1,1,1,1,1,1,1,1,1,1,1,1,1,0,0,0,0,1,1,1,1,1,1,1,1,1,1,1,1,1],
     [0,0,0,0,0,0,1,1,1,1,1,1,1,1,1,1,1,1,1,1,1,1,1,1,1,1,1,0,1,1,1,1,1,1,1,1,1,1,1,1,1,1,1,1],
     [0,0,0,0,0,0,1,1,1,1,1,1,1,1,1,1,1,1,1,1,1,1,1,1,1,1,1,1,1,1,1,1,1,1,1,1,1,1,1,1,1,1,1,1],
     [0,1,1,1,1,1,0,0,0,0,0,0,1,1,1,1,0,0,0,0,1,1,1,1,1,1,1,1,1,1,1,1,1,1,1,1,1,1,1,1,1,1,1,1],
     [0,1,1,1,1,1,0,0,0,0,0,1,1,1,1,1,0,1,1,1,0,1,1,1,0,0,0,1,1,1,1,1,1,1,1,1,1,1,1,1,1,1,1,1],
     [0,1,1,1,1,1,0,0,0,0,0,1,1,1,1,1,1,1,1,1,1,1,1,1,1,1,1,1,1,1,1,0,1,1,1,1,1,1,1,1,1,1,1,1],
     [0,1,1,1,1,1,0,0,0,0,0,1,1,1,1,1,1,1,1,1,1,1,1,1,1,1,1,1,1,1,1,1,1,1,1,1,1,1,1,1,1,1,1,1],
     [0,1,1,1,1,1,0,0,0,0,0,1,1,1,1,1,1,1,1,1,1,1,1,1,1,1,1,1,1,1,1,1,1,1,1,1,1,0,1,1,1,1,1,1],
     [1,0,1,1,1,1,0,1,1,1,1,0,0,0,0,0,0,0,0,0,1,1,1,1,1,1,1,1,1,1,1,1,1,1,1,1,1,1,1,1,1,1,1,1],
     [1,0,0,1,1,1,1,1,1,1,1,0,0,0,0,0,1,1,1,1,0,0,0,0,1,1,1,1,1,1,1,1,1,1,1,1,1,1,1,1,1,1,1,1],
     [1,0,1,1,1,1,1,1,1,1,1,0,0,0,0,0,1,1,1,1,1,1,1,1,1,1,1,1,1,1,1,1,0,0,0,0,1,1,1,1,1,1,1,1],
     [1,0,1,1,1,1,1,1,1,1,1,0,0,0,0,0,1,1,1,1,1,1,1,1,1,1,1,1,1,1,1,1,0,1,1,1,1,1,1,1,1,1,1,1],
     [1,0,1,1,1,1,1,1,1,1,1,0,0,0,0,0,1,1,1,1,1,1,1,1,1,1,1,1,1,1,1,1,1,1,1,1,1,1,1,1,1,1,1,1],
     [1,1,1,1,1,1,0,0,1,1,1,0,1,1,1,1,0,0,0,0,0,1,1,1,0,0,0,1,1,1,1,1,1,1,1,1,1,1,1,1,1,1,1,1],
     [1,1,1,1,1,1,0,1,1,1,1,0,1,1,1,1,0,0,0,0,1,1,1,1,1,1,1,1,1,1,1,1,1,1,1,1,0,1,1,1,1,1,1,1],
     [1,1,1,1,1,1,0,1,1,1,1,0,1,1,1,1,0,0,0,0,1,1,1,1,1,1,1,1,1,1,1,1,1,1,1,1,1,1,1,1,1,1,1,1],
     [1,1,1,1,1,1,0,1,1,1,1,0,1,1,1,1,0,0,0,0,1,1,1,1,1,1,1,1,1,1,1,1,1,1,1,1,1,1,1,1,1,1,0,1],
     [1,1,0,1,1,1,1,0,1,1,1,1,0,1,1,1,0,1,1,1,0,0,0,0,0,0,0,1,1,1,1,1,1,1,1,1,1,1,1,1,1,1,1,1],
     [1,1,0,1,1,1,1,1,1,1,1,1,0,1,1,1,1,1,1,1,0,0,0,0,1,1,1,1,0,1,1,1,1,0,1,1,1,1,0,0,0,1,1,1],
     [1,1,0,1,1,1,1,1,1,1,1,1,0,1,1,1,1,1,1,1,0,0,0,0,1,1,1,1,1,1,1,1,1,1,1,1,1,1,1,1,1,1,1,1],
     [1,1,0,1,1,1,1,1,1,1,1,1,0,1,1,1,1,1,1,1,0,0,0,0,1,1,1,1,1,1,1,1,1,1,1,1,1,1,1,1,1,1,1,1],
     [1,1,1,1,1,1,1,0,1,1,1,1,1,1,1,1,0,1,1,1,0,1,1,1,0,0,0,1,1,1,1,1,1,1,1,1,1,1,0,1,1,0,1,1],
     [1,1,1,1,1,1,1,0,1,1,1,1,1,1,1,1,0,1,1,1,0,1,1,1,0,0,0,1,1,1,1,1,1,1,1,1,1,1,1,1,1,1,1,1],
     [1,1,1,1,1,1,1,0,1,1,1,1,1,1,1,1,0,1,1,1,0,1,1,1,0,0,0,1,1,1,1,1,1,1,1,1,1,1,1,1,1,1,1,0],
     [1,1,1,0,0,1,1,1,1,1,1,1,1,1,1,1,1,1,1,1,1,1,1,1,1,1,1,0,0,0,0,1,1,1,1,1,1,1,1,1,1,1,1,1],
     [1,1,1,0,1,1,1,1,1,1,1,1,1,1,1,1,1,1,1,1,1,0,1,1,1,1,1,0,0,0,0,1,1,0,1,1,1,1,0,0,0,1,1,1],
     [1,1,1,0,1,1,1,1,1,1,1,1,1,1,1,1,1,1,1,1,1,1,1,1,1,1,1,0,0,0,0,1,1,1,1,1,1,1,1,1,1,1,1,1],
     [1,1,1,0,1,1,1,1,1,1,1,1,1,1,1,1,1,1,1,1,1,1,1,1,1,1,1,0,0,0,0,1,1,1,1,0,1,1,1,0,1,1,1,1],
     [1,1,1,1,1,1,1,1,0,1,1,1,1,1,1,1,1,1,1,1,1,1,1,1,1,1,1,1,1,1,1,0,1,1,1,1,1,1,1,1,1,1,1,1],
     [1,1,1,1,1,1,1,1,1,1,1,1,1,0,0,1,1,1,1,1,1,1,1,1,1,1,1,1,1,1,1,1,0,0,0,0,1,1,1,1,1,1,1,1],
     [1,1,1,1,1,1,1,1,1,1,1,1,1,0,1,1,1,1,1,1,1,0,1,1,1,1,1,1,0,1,1,1,0,0,0,0,1,1,0,0,0,1,1,1],
     [1,1,1,1,1,1,1,1,1,1,1,1,1,0,1,1,1,1,1,1,1,1,1,1,1,1,1,1,1,1,1,1,0,0,0,0,1,1,1,1,1,1,1,1],
     [1,1,1,1,1,1,1,1,1,1,1,1,1,0,1,1,1,1,1,1,1,1,1,1,1,1,1,1,1,1,0,1,0,0,0,0,1,1,1,0,1,1,1,1],
     [1,1,1,1,1,1,1,1,1,1,1,1,1,1,1,1,1,0,1,1,1,1,1,1,1,1,1,1,1,1,1,1,1,1,1,1,0,1,1,1,1,1,1,1],
     [1,1,1,1,1,1,1,1,1,1,0,1,1,1,1,1,1,1,1,1,1,1,1,1,1,1,1,1,1,1,1,1,1,1,1,1,1,0,1,1,1,1,1,1],
     [1,1,1,1,1,1,1,1,1,1,1,1,1,1,1,1,1,1,1,1,1,0,1,1,0,1,1,1,0,1,1,1,1,0,1,1,1,1,0,0,0,0,1,1],
     [1,1,1,1,1,1,1,1,1,1,1,1,1,1,1,1,1,1,1,1,1,0,1,1,1,1,1,1,0,1,0,1,1,0,1,0,1,1,0,0,0,1,1,1],
     [1,1,1,1,1,1,1,1,1,1,1,1,1,1,1,1,1,1,1,1,1,0,1,1,1,1,1,1,0,1,1,1,1,0,1,1,1,1,0,0,0,1,1,1],
     [1,1,1,1,1,1,1,1,1,1,1,1,1,1,1,1,1,1,1,1,1,1,1,1,0,1,1,1,1,1,1,1,1,1,1,1,1,1,0,1,1,0,1,1],
     [1,1,1,1,1,1,1,1,1,1,1,1,1,1,1,1,1,1,1,0,1,1,1,1,1,1,1,1,1,1,1,1,1,1,1,1,1,1,1,1,1,1,0,1],
     [1,1,1,1,1,1,1,1,1,1,1,1,1,1,1,1,1,1,1,1,1,1,1,1,1,1,0,1,1,1,1,1,1,1,1,1,1,1,1,1,1,1,1,0]], [
    [[[0,0,0,0,0,1,0,0,0]], [[1,0,1,0,0,0,0,0,-1],[1,0,0,0,0,0,0,0,-1],[2,0,0,0,0,0,1,0,0],[2,0,0,0,-1,0,0,0,0]], 0],
    [[[-1,0,0,0,0,0,0,0,1]], [[0,0,1,0,0,0,0,0,0],[2,0,0,0,-1,0,0,0,0],[0,0,0,0,0,1,0,0,0],[2,0,0,0,0,-1,1,0,0],[2,0,0,0,0,-1,0,0,0]], 1],
    [[[1,0,1,0,0,0,0,0,-1]], [[0,0,0,0,0,1,0,0,0],[0,0,-1,0,0,0,0,0,0],[2,0,0,0,0,-1,1,0,0],[2,0,0,0,0,-1,0,0,0],[2,0,0,0,-1,0,0,0,0]], 3],
    [[[-2,0,0,0,1,0,0,0,0]], [[1,0,1,0,0,0,0,0,-1],[2,0,0,0,0,-1,1,0,0],[1,0,0,0,0,0,0,0,-1],[2,0,0,0,0,-1,0,0,0],[0,0,0,0,0,1,0,0,0]], 5],
    [[[-2,0,0,0,0,1,0,0,0]], [[1,0,1,0,0,0,0,0,-1],[0,0,0,0,0,0,1,0,0],[1,0,0,0,0,0,0,0,-1],[2,0,0,0,-1,0,0,0,0]], 7],
    [[[-2,0,0,0,0,1,-1,0,0]], [[1,0,1,0,0,0,0,0,-1],[2,0,0,0,-1,0,0,0,0],[0,0,0,0,0,1,0,0,0],[1,0,0,0,0,0,0,0,-1],[2,0,0,0,0,-1,0,0,0]], 8],
    [[[-1,0,0,0,0,0,0,0,1]], [[0,0,1,0,0,0,0,0,0],[2,0,0,0,-1,0,0,0,0],[2,0,0,0,0,-1,1,0,0],[0,0,0,0,0,-1,0,0,0],[3,0,0,0,-1,1,0,0,0]], 28],
    [[[1,0,1,0,0,0,0,0,-1]], [[0,0,-1,0,0,0,0,0,0],[2,0,0,0,0,-1,1,0,0],[2,0,0,0,-1,0,0,0,0],[0,0,0,0,0,-1,0,0,0],[3,0,0,0,-1,1,0,0,0]], 30],
    [[[-2,0,0,0,1,0,0,0,0]], [[1,0,1,0,0,0,0,0,-1],[1,0,0,0,0,1,0,0,0],[1,0,0,0,0,0,0,0,-1],[2,0,0,0,0,-1,1,0,0],[0,0,0,0,0,-1,0,0,0]], 32],
    [[[-2,0,0,0,0,1,-1,0,0]], [[1,0,1,0,0,0,0,0,-1],[1,0,0,0,0,0,0,0,-1],[0,0,0,0,0,-1,0,0,0],[3,0,0,0,-1,1,0,0,0],[2,0,0,0,-1,0,0,0,0]], 34],
    [[[-3,0,0,0,1,-1,0,0,0]], [[1,0,1,0,0,0,0,0,-1],[1,0,0,0,0,0,0,0,-1],[5,0,0,0,-1,0,1,0,0],[2,0,0,0,-1,0,0,0,0]], 37],
    [[[0,0,0,0,0,1,0,0,0]], [[0,0,1,0,0,0,0,0,0],[-1,0,0,0,0,0,0,0,1],[2,0,0,0,-1,0,0,0,0],[2,0,0,0,0,0,1,0,0]], 55],
    [[[0,0,1,0,0,0,0,0,0]], [[0,0,0,0,0,1,0,0,0],[-1,0,0,0,0,0,0,0,1],[2,0,0,0,-1,0,0,0,0],[2,0,0,0,0,-1,1,0,0],[2,0,0,0,0,-1,0,0,0]], 56],
    [[[-2,0,0,0,1,0,0,0,0]], [[2,0,0,0,0,-1,1,0,0],[0,0,1,0,0,0,0,0,0],[2,0,0,0,0,-1,0,0,0],[-1,0,0,0,0,0,0,0,1],[0,0,0,0,0,1,0,0,0]], 63],
    [[[-2,0,0,0,0,1,0,0,0]], [[0,0,1,0,0,0,0,0,0],[2,0,0,0,-1,0,0,0,0],[0,0,0,0,0,0,1,0,0],[-1,0,0,0,0,0,0,0,1]], 65],
    [[[-2,0,0,0,0,1,-1,0,0]], [[2,0,0,0,-1,0,0,0,0],[0,0,1,0,0,0,0,0,0],[0,0,0,0,0,1,0,0,0],[-1,0,0,0,0,0,0,0,1],[2,0,0,0,0,-1,0,0,0]], 66],
    [[[0,0,1,0,0,0,0,0,0]], [[-1,0,0,0,0,0,0,0,1],[2,0,0,0,-1,0,0,0,0],[2,0,0,0,0,-1,1,0,0],[0,0,0,0,0,-1,0,0,0],[3,0,0,0,-1,1,0,0,0]], 81],
    [[[-2,0,0,0,1,0,0,0,0]], [[0,0,1,0,0,0,0,0,0],[1,0,0,0,0,1,0,0,0],[0,0,0,0,0,-1,0,0,0],[-1,0,0,0,0,0,0,0,1],[2,0,0,0,0,-1,1,0,0]], 87],
    [[[-2,0,0,0,0,1,-1,0,0]], [[0,0,1,0,0,0,0,0,0],[-1,0,0,0,0,0,0,0,1],[0,0,0,0,0,-1,0,0,0],[3,0,0,0,-1,1,0,0,0],[2,0,0,0,-1,0,0,0,0]], 90],
    [[[-3,0,0,0,1,-1,0,0,0]], [[0,0,1,0,0,0,0,0,0],[-1,0,0,0,0,0,0,0,1],[5,0,0,0,-1,0,1,0,0],[2,0,0,0,-1,0,0,0,0]], 97],
    [[[0,0,0,0,0,1,0,0,0]], [[2,0,0,0,0,0,1,0,0],[2,0,0,0,-1,0,0,0,0],[-1,0,-1,0,0,0,0,0,1],[0,0,-1,0,0,0,0,0,0]], 106],
    [[[-2,0,0,0,1,0,0,0,0]], [[0,0,0,0,0,1,0,0,0],[2,0,0,0,0,-1,1,0,0],[0,0,-1,0,0,0,0,0,0],[2,0,0,0,0,-1,0,0,0],[-1,0,-1,0,0,0,0,0,1]], 117],
    [[[-2,0,0,0,0,1,0,0,0]], [[0,0,0,0,0,0,1,0,0],[2,0,0,0,-1,0,0,0,0],[-1,0,-1,0,0,0,0,0,1],[0,0,-1,0,0,0,0,0,0]], 119],
    [[[-2,0,0,0,0,1,-1,0,0]], [[0,0,0,0,0,1,0,0,0],[2,0,0,0,0,-1,0,0,0],[2,0,0,0,-1,0,0,0,0],[-1,0,-1,0,0,0,0,0,1],[0,0,-1,0,0,0,0,0,0]], 120],
    [[[-2,0,0,0,1,0,0,0,0]], [[1,0,0,0,0,1,0,0,0],[2,0,0,0,0,-1,1,0,0],[0,0,0,0,0,-1,0,0,0],[-1,0,-1,0,0,0,0,0,1],[0,0,-1,0,0,0,0,0,0]], 139],
    [[[-2,0,0,0,0,1,-1,0,0]], [[0,0,0,0,0,-1,0,0,0],[3,0,0,0,-1,1,0,0,0],[2,0,0,0,-1,0,0,0,0],[-1,0,-1,0,0,0,0,0,1],[0,0,-1,0,0,0,0,0,0]], 141],
    [[[-3,0,0,0,1,-1,0,0,0]], [[5,0,0,0,-1,0,1,0,0],[2,0,0,0,-1,0,0,0,0],[-1,0,-1,0,0,0,0,0,1],[0,0,-1,0,0,0,0,0,0]], 145],
    [[[0,0,0,0,1,-1,0,0,0]], [[3,0,1,0,-1,0,0,0,-1],[2,0,0,0,-1,0,1,0,0],[1,0,0,0,0,0,0,0,-1],[-2,0,0,0,1,0,0,0,0]], 153],
    [[[1,0,1,0,0,0,0,0,-1]], [[2,0,0,0,0,-1,0,0,0],[2,0,0,0,0,-1,1,0,0],[0,0,-1,0,0,0,0,0,0],[-2,0,0,0,1,0,0,0,0],[0,0,0,0,0,1,0,0,0]], 159],
    [[[-2,0,0,0,0,1,-1,0,0]], [[1,0,0,0,0,0,0,0,-1],[1,0,1,0,0,0,0,0,-1],[3,0,1,0,0,-1,0,0,-1],[0,0,0,0,0,1,0,0,0],[-2,0,0,0,1,0,0,0,0],[0,0,0,0,1,-1,0,0,0]], 163],
    [[[3,0,1,0,0,-1,0,0,-1]], [[-2,0,0,0,0,1,0,0,0],[2,0,0,0,0,-1,1,0,0],[-2,0,-1,0,0,1,0,0,0],[0,0,0,0,1,-1,0,0,0]], 167],
    [[[-2,0,0,0,0,1,-1,0,0]], [[1,0,1,0,0,0,0,0,-1],[0,0,0,0,0,-1,0,0,0],[-2,0,0,0,1,0,0,0,0],[1,0,0,0,0,1,0,0,0],[1,0,0,0,0,0,0,0,-1]], 178],
    [[[0,0,0,0,1,-1,0,0,0]], [[2,0,0,0,-1,0,1,0,0],[2,0,1,0,-1,0,0,0,0],[-1,0,0,0,0,0,0,0,1],[-2,0,0,0,1,0,0,0,0]], 199],
    [[[0,0,1,0,0,0,0,0,0]], [[2,0,0,0,0,-1,1,0,0],[2,0,0,0,0,-1,0,0,0],[-2,0,0,0,1,0,0,0,0],[-1,0,0,0,0,0,0,0,1],[0,0,0,0,0,1,0,0,0]], 202],
    [[[-2,0,0,0,0,1,-1,0,0]], [[-1,0,0,0,0,0,0,0,1],[0,0,0,0,0,1,0,0,0],[0,0,0,0,1,-1,0,0,0],[-2,0,0,0,1,0,0,0,0],[2,0,1,0,0,-1,0,0,0],[0,0,1,0,0,0,0,0,0]], 208],
    [[[2,0,1,0,0,-1,0,0,0]], [[0,0,-1,0,0,0,1,0,0],[0,0,1,0,0,0,0,0,0],[-1,0,0,0,0,0,0,0,1],[-2,0,-1,0,1,0,0,0,0]], 210],
    [[[-2,0,0,0,0,1,-1,0,0]], [[0,0,0,0,0,-1,0,0,0],[0,0,1,0,0,0,0,0,0],[-2,0,0,0,1,0,0,0,0],[1,0,0,0,0,1,0,0,0],[-1,0,0,0,0,0,0,0,1]], 221],
    [[[-2,0,0,0,0,1,-1,0,0]], [[1,0,1,0,0,0,0,0,-1],[-3,0,0,0,1,-1,0,0,0],[1,0,0,0,0,0,0,0,-1],[-1,0,0,0,0,-1,0,0,0]], 231],
    [[[0,0,0,0,0,1,0,0,0]], [[-2,0,0,0,1,0,0,0,0],[2,0,0,0,0,0,1,0,0],[0,0,-1,0,0,0,0,0,0],[-1,0,-1,0,0,0,0,0,1]], 242],
    [[[-2,0,0,0,0,1,0,0,0]], [[-2,0,0,0,1,0,0,0,0],[0,0,-1,0,0,0,0,0,0],[0,0,0,0,0,0,1,0,0],[-1,0,-1,0,0,0,0,0,1]], 250],
    [[[-2,0,0,0,0,1,-1,0,0]], [[0,0,-1,0,0,0,0,0,0],[-1,0,-1,0,0,0,0,0,1],[-2,0,0,0,1,0,0,0,0],[0,0,0,0,0,1,0,0,0],[2,0,0,0,0,-1,0,0,0]], 251],
    [[[-2,0,0,0,0,1,-1,0,0]], [[-2,0,0,0,1,0,0,0,0],[1,0,0,0,0,1,0,0,0],[0,0,0,0,0,-1,0,0,0],[-1,0,-1,0,0,0,0,0,1],[0,0,-1,0,0,0,0,0,0]], 261],
    [[[-2,0,0,0,0,1,-1,0,0]], [[0,0,1,0,0,0,0,0,0],[-3,0,0,0,1,-1,0,0,0],[-1,0,0,0,0,0,0,0,1],[-1,0,0,0,0,-1,0,0,0]], 271],
    [[[-2,0,0,0,0,1,-1,0,0]], [[-3,0,0,0,1,-1,0,0,0],[-1,0,0,0,0,-1,0,0,0],[-1,0,-1,0,0,0,0,0,1],[0,0,-1,0,0,0,0,0,0]], 277]
  ]],
  ["#5",
    [[0,0,1,1,1],
     [0,0,1,0,1],
     [1,1,0,0,1],
     [1,0,0,0,1],
     [1,1,1,1,0]], [
    [[[0,0,0,0,0,0,1,-1,0]], [[2,0,0,0,0,-1,0,0,0],[2,0,0,0,0,-1,1,0,0],[2,0,0,0,0,0,-1,0,0]], 0],
    [[[-2,0,0,0,0,0,1,0,0]], [[2,0,0,0,0,-1,0,0,0],[-2,0,0,0,0,0,0,1,0]], 5],
    [[[0,0,0,0,0,0,1,-1,0]], [[0,0,0,0,0,0,1,0,0],[0,0,0,0,0,1,-1,0,0],[-2,0,0,0,0,1,0,0,0]], 6],
    [[[0,0,0,0,0,1,-1,0,0]], [[0,0,0,0,0,-1,0,1,0],[-2,0,0,0,0,1,0,0,0]], 9],
    [[[0,0,0,0,0,0,1,-1,0]], [[0,0,0,0,0,0,-1,0,0],[-2,0,0,0,0,1,-1,0,0]], 10]
  ]],
  ["#6",
    [[0,1,0,1,1,1],
     [1,0,1,1,0,1],
     [0,1,0,0,1,1],
     [1,1,0,0,1,1],
     [1,0,1,1,0,0],
     [1,1,1,1,0,0]], [
    [[[-1,0,0,0,0,0,0,1,0]], [[0,0,0,0,0,0,0,0,1],[1,0,0,0,0,0,-1,0,0]], 4],
    [[[-1,0,0,0,0,0,0,1,0]], [[0,0,0,0,0,0,0,0,-1],[1,0,0,0,0,0,-1,0,0]], 7],
    [[[0,0,0,0,0,0,1,-1,0]], [[2,0,0,0,0,0,-1,0,0],[-1,0,0,0,0,0,1,0,0],[0,0,0,0,0,0,0,0,1]], 8],
    [[[-2,0,0,0,0,0,0,1,0]], [[0,0,0,0,0,0,0,0,1],[-2,0,0,0,0,0,1,0,0]], 10],
    [[[0,0,0,0,0,0,1,-1,0]], [[-1,0,0,0,0,0,1,0,0],[2,0,0,0,0,0,-1,0,0],[0,0,0,0,0,0,0,0,-1]], 13],
    [[[-2,0,0,0,0,0,0,1,0]], [[0,0,0,0,0,0,0,0,-1],[-2,0,0,0,0,0,1,0,0]], 15]
  ]],
  ["#7",
    [[0,0,0,0,0,1,0,1,1,0,1,1,0,0,1,1,1,1,1,1,1,1,1],
     [0,0,0,0,1,1,1,1,1,1,1,1,0,1,0,0,1,1,1,1,1,1,1],
     [0,0,0,0,1,0,1,0,1,1,0,1,1,1,0,1,0,0,1,1,1,1,1],
     [0,0,0,0,1,1,1,1,1,1,1,1,1,1,1,1,1,1,1,0,1,1,1],
     [0,1,1,1,0,0,0,1,1,0,1,1,0,0,1,1,1,1,1,1,1,1,1],
     [1,1,0,1,0,0,1,0,1,1,0,1,1,1,0,1,0,0,1,1,1,1,1],
     [0,1,1,1,0,1,0,0,0,0,1,1,0,0,1,1,1,1,1,1,1,1,1],
     [1,1,0,1,1,0,0,0,0,1,0,1,1,1,0,1,0,0,1,1,1,1,1],
     [1,1,1,1,1,1,0,0,0,1,1,1,1,1,1,1,1,1,1,1,0,1,1],
     [0,1,1,1,0,1,0,1,1,0,0,0,0,0,1,1,1,1,1,1,1,1,1],
     [1,1,0,1,1,0,1,0,1,0,0,0,1,1,0,1,0,0,1,1,1,1,1],
     [1,1,1,1,1,1,1,1,1,0,0,0,1,1,1,1,1,1,1,1,1,0,1],
     [0,0,1,1,0,1,0,1,1,0,1,1,0,0,0,0,1,1,1,1,1,1,1],
     [0,1,1,1,0,1,0,1,1,0,1,1,0,0,1,0,0,1,0,1,1,1,1],
     [1,0,0,1,1,0,1,0,1,1,0,1,0,1,0,0,0,0,1,1,1,1,1],
     [1,0,1,1,1,1,1,1,1,1,1,1,0,0,0,0,0,1,0,1,1,1,1],
     [1,1,0,1,1,0,1,0,1,1,0,1,1,0,0,0,0,0,0,1,1,1,1],
     [1,1,0,1,1,0,1,0,1,1,0,1,1,1,0,1,0,0,1,0,0,0,0],
     [1,1,1,1,1,1,1,1,1,1,1,1,1,0,1,0,0,1,0,1,1,1,0],
     [1,1,1,0,1,1,1,1,1,1,1,1,1,1,1,1,1,0,1,0,0,0,0],
     [1,1,1,1,1,1,1,1,0,1,1,1,1,1,1,1,1,0,1,0,0,0,0],
     [1,1,1,1,1,1,1,1,1,1,1,0,1,1,1,1,1,0,1,0,0,0,0],
     [1,1,1,1,1,1,1,1,1,1,1,1,1,1,1,1,1,0,0,0,0,0,0]], [
    [[[1,0,1,0,0,0,0,0,-2]], [[1,0,-1,0,0,0,0,0,0],[0,0,0,0,0,0,0,1,0],[1,0,1,0,0,0,0,0,0],[0,0,0,0,0,1,0,0,0]], 0],
    [[[1,0,1,0,0,0,0,0,-1]], [[-1,0,-1,0,0,0,0,1,0],[-1,0,-1,0,0,0,0,0,0],[0,0,0,0,0,1,0,0,0]], 1],
    [[[1,0,1,0,0,0,0,1,-2]], [[1,0,-1,0,0,0,0,-1,0],[1,0,1,0,0,0,0,-1,0],[0,0,0,0,0,0,0,-1,0],[13,0,-1,0,0,0,0,1,0],[3,0,-1,0,0,2,0,1,0],[0,0,0,0,0,1,0,0,0]], 2],
    [[[7,0,0,0,0,0,0,1,-1]], [[-6,0,0,0,0,0,0,-1,0],[-13,0,1,0,0,0,0,-1,0],[-5,0,0,0,0,1,0,0,0]], 3],
    [[[1,0,1,0,0,-1,0,0,-2]], [[1,0,1,0,0,1,0,0,0],[0,0,0,0,0,-1,0,0,0],[0,0,0,0,0,0,0,1,0],[1,0,-1,0,0,1,0,0,0]], 5],
    [[[1,0,1,0,0,-1,0,1,-2]], [[1,0,1,0,0,1,0,-1,0],[0,0,0,0,0,-1,0,0,0],[0,0,0,0,0,0,0,-1,0],[3,0,-1,0,0,1,0,1,0],[1,0,-1,0,0,1,0,-1,0]], 7],
    [[[0,0,1,0,0,0,0,0,-1]], [[-1,0,1,0,0,0,0,0,0],[7,0,-1,0,0,0,0,1,0],[0,0,0,0,0,1,0,0,0],[0,0,0,0,0,0,0,1,0]], 8],
    [[[0,0,1,0,0,0,0,1,-1]], [[0,0,0,0,0,0,0,-1,0],[-1,0,1,0,0,0,0,1,0],[7,0,-1,0,0,0,0,0,0],[0,0,0,0,0,1,0,0,0],[1,0,0,0,0,1,0,1,0]], 9],
    [[[7,0,0,0,0,0,0,1,-1]], [[6,0,0,0,0,0,0,1,0],[0,0,0,0,0,1,0,0,0],[1,0,0,0,0,1,0,1,0],[-7,0,1,0,0,0,0,-1,0],[-7,0,1,0,0,0,0,0,0]], 11],
    [[[0,0,1,0,0,-1,0,0,-1]], [[0,0,0,0,0,-1,0,0,0],[0,0,1,0,0,0,0,0,0],[0,0,0,0,0,0,0,1,0],[7,0,-1,0,0,1,0,1,0],[-1,0,1,0,0,-1,0,0,0]], 13],
    [[[0,0,1,0,0,-1,0,1,-1]], [[0,0,0,0,0,-1,0,0,0],[0,0,1,0,0,0,0,0,0],[0,0,0,0,0,0,0,-1,0],[1,0,0,0,0,0,0,1,0],[7,0,-1,0,0,1,0,0,0],[-1,0,1,0,0,-1,0,1,0]], 14],
    [[[7,0,0,0,0,0,0,1,-1]], [[0,0,0,0,0,-1,0,0,0],[0,0,1,0,0,0,0,0,0],[-7,0,1,0,0,-1,0,0,0],[1,0,0,0,0,0,0,1,0],[-7,0,1,0,0,-1,0,-1,0]], 16],
    [[[0,0,0,0,0,0,0,0,1]], [[0,0,0,0,0,1,0,0,0],[-1,0,-1,0,0,0,0,0,0],[0,0,0,0,0,0,0,1,0]], 18],
    [[[0,0,0,0,0,1,0,0,1]], [[7,0,0,0,0,1,0,1,0],[0,0,0,0,0,0,0,1,0],[0,0,0,0,0,-1,0,0,0],[0,0,-1,0,0,0,0,0,0],[-1,0,-1,0,0,-1,0,0,0]], 19],
    [[[0,0,0,0,0,0,0,1,-1]], [[0,0,0,0,0,1,0,0,0],[-1,0,-1,0,0,0,0,1,0],[0,0,0,0,0,0,0,-1,0]], 20],
    [[[0,0,0,0,0,1,0,0,0]], [[0,0,0,0,0,0,0,1,-1],[-1,0,-1,0,0,0,0,0,1],[0,0,0,0,0,0,0,0,-1]], 21],
    [[[0,0,0,0,0,1,0,-1,1]], [[7,0,0,0,0,1,0,0,0],[0,0,0,0,0,-1,0,0,0],[0,0,0,0,0,0,0,-1,0],[1,0,-1,0,0,0,0,1,0],[0,0,-1,0,0,0,0,0,0],[-1,0,-1,0,0,-1,0,1,0]], 22],
    [[[-1,0,1,0,0,-1,0,0,-1]], [[-1,0,0,0,0,-1,0,-1,0],[-3,0,1,0,0,-2,0,-1,0],[7,0,-1,0,0,0,0,0,0],[5,0,0,0,0,-1,0,0,0],[-1,0,0,0,0,0,0,-1,0],[7,0,0,0,0,1,0,0,0],[-3,0,1,0,0,-1,0,-1,0],[-1,0,1,0,0,0,0,-1,0],[7,0,-1,0,0,1,0,0,0]], 23],
    [[[7,0,0,0,0,0,0,1,-1]], [[-7,0,0,0,0,-1,0,0,0],[0,0,-1,0,0,0,0,0,0],[-7,0,0,0,0,-1,0,-1,0],[1,0,-1,0,0,0,0,1,0]], 25],
    [[[-5,0,0,0,0,1,0,0,0]], [[-6,0,1,0,0,0,0,0,-1],[-7,0,0,0,0,0,0,-1,1],[1,0,0,0,0,0,0,0,-1]], 26],
    [[[-6,0,0,0,0,1,0,0,1]], [[-1,0,0,0,0,-1,0,-1,0],[-7,0,1,0,0,0,0,0,0],[5,0,0,0,0,-1,0,0,0],[0,0,0,0,0,1,0,0,0]], 27],
    [[[-6,0,0,0,0,0,0,0,1]], [[0,0,1,0,0,0,0,0,0],[-7,0,1,0,0,-1,0,0,0],[0,0,0,0,0,-1,0,0,0],[-1,0,0,0,0,0,0,-1,0]], 28],
    [[[6,0,1,0,0,0,0,0,-1]], [[-1,0,1,0,0,0,0,-1,0],[-7,0,0,0,0,-1,0,0,0],[0,0,-1,0,0,0,0,0,0]], 29]
  ]]
]
