k1 = 1
k2 = 1
k3 = 6/125
k4 = 25374/25
k5 = 59
k6 = 17/10
k7 = 1
k8 = 6/5
k9 = 36/5
k10 = 25374/25
k11 = 517547/10000
k12 = 37/100
k13 = 1/10
k14 = 0
k15 = 248021/500
k16 = 4/5
k17 = 3/20
k18 = 248021/500
k19 = 13/100
k20 = 454327/10000
k21 = 21/1000
k22 = 3/20
k23 = 110391/50
k24 = 3/10
k25 = 2
k26 = 81/1000
k27 = 5
k28 = 4
k29 = 10
k30 = 23273/200
k31 = 123/100
k32 = 127/100
k33 = 23273/200
k34 = 11/200
k35 = 416929/500
k36 = 3/5
k37 = 1/10
k38 = 1/100
k39 = 3/50
k40 = 416929/500
k41 = 11/2000
k42 = 443866
k43 = 76431/50
k44 = 42887/125
k45 = 1/5
k46 = 17/100
k47 = 33208/625
k48 = 3/10
k49 = 898023/10000
k50 = 1/10
k51 = 71/100
k52 = 418/25
k53 = 59
k54 = 6/125
k55 = 814797/10000
k56 = 25
k57 = 17/500
k58 = 13/100
k59 = 13/100
k60 = 19/10
k61 = 59
k62 = 6/125
k63 = 247/10
k64 = 59
k65 = 6/125
k66 = 70957/25000000
k67 = 6/125
k68 = 56483/25000
k69 = 8019/2500
k70 = 4329/10
k71 = 133333/1000
k72 = 0
k73 = 28/5
k74 = 24
k75 = 49/50
k76 = 393/100
