[
  ["#0",
    [[0,1,1,1,1],
     [1,0,0,1,1],
     [1,0,0,1,0],
     [1,1,1,0,0],
     [1,1,0,0,0]], [
    [[[-8,1,0,0,0,0,0,0,0,0,0,0,0,0,0,0,0,0,0,0]], [[7,0,0,0,0,0,0,0,0,0,0,0,0,0,0,0,0,-1,0,0],[6,0,0,0,0,0,0,0,0,0,0,0,0,0,0,0,0,0,-1,0]], 0],
    [[[-8,1,0,0,0,0,0,0,0,0,0,0,0,0,0,0,0,0,0,0]], [[-6,0,0,0,0,0,0,0,0,0,0,0,0,0,0,0,0,0,1,0],[7,0,0,0,0,0,0,0,0,0,0,0,0,0,0,0,0,-1,0,0]], 4],
    [[[27,1,0,0,0,0,0,0,0,0,0,0,0,0,0,0,0,-5,0,0]], [[2,-1,0,0,0,0,0,0,0,0,0,0,0,0,0,0,0,0,1,0],[-8,1,0,0,0,0,0,0,0,0,0,0,0,0,0,0,0,0,0,0]], 9],
    [[[-8,1,0,0,0,0,0,0,0,0,0,0,0,0,0,0,0,0,0,0]], [[-7,0,0,0,0,0,0,0,0,0,0,0,0,0,0,0,0,1,0,0],[6,0,0,0,0,0,0,0,0,0,0,0,0,0,0,0,0,0,-1,0]], 10],
    [[[-2,1,0,0,0,0,0,0,0,0,0,0,0,0,0,0,0,0,-1,0]], [[-27,-1,0,0,0,0,0,0,0,0,0,0,0,0,0,0,0,5,0,0],[-8,1,0,0,0,0,0,0,0,0,0,0,0,0,0,0,0,0,0,0]], 11]
  ]],
  ["#1",
    [[0]], [
    [[[5,0,1,-1,0,0,0,-1,0,0,0,0,0,0,0,0,0,0,0,0]], [], 0]
  ]],
  ["#2",
    [[0,0,0,1,1,1,1,1],
     [0,0,1,1,0,1,0,0],
     [0,1,0,1,1,1,0,1],
     [1,1,1,0,0,0,1,1],
     [1,0,1,0,0,1,0,0],
     [1,1,1,0,1,0,1,0],
     [1,0,0,1,0,1,0,0],
     [1,0,1,1,0,0,0,0]], [
    [[[5,0,1,-1,0,0,0,-1,0,0,0,0,0,0,0,0,0,0,0,0]], [[23,0,-1,0,0,0,0,0,0,-1,0,0,0,0,0,0,0,0,0,0],[10,0,-1,1,0,0,0,0,0,0,0,0,0,0,0,0,0,0,0,0],[6,0,0,0,0,0,0,0,0,-1,0,0,0,0,0,0,0,0,0,0]], 0],
    [[[-28,0,0,1,0,0,0,1,0,1,0,0,0,0,0,0,0,0,0,0]], [[5,0,1,-1,0,0,0,-1,0,0,0,0,0,0,0,0,0,0,0,0],[15,0,0,0,0,0,0,-1,0,0,0,0,0,0,0,0,0,0,0,0],[-22,0,0,1,0,0,0,1,0,0,0,0,0,0,0,0,0,0,0,0]], 2],
    [[[-10,0,1,-1,0,0,0,0,0,0,0,0,0,0,0,0,0,0,0,0]], [[23,0,-1,0,0,0,0,0,0,-1,0,0,0,0,0,0,0,0,0,0],[6,0,0,0,0,0,0,0,0,-1,0,0,0,0,0,0,0,0,0,0],[-15,0,0,0,0,0,0,1,0,0,0,0,0,0,0,0,0,0,0,0]], 4],
    [[[5,0,1,-1,0,0,0,-1,0,0,0,0,0,0,0,0,0,0,0,0]], [[17,0,-1,0,0,0,0,0,0,0,0,0,0,0,0,0,0,0,0,0],[10,0,-1,1,0,0,0,0,0,0,0,0,0,0,0,0,0,0,0,0],[-6,0,0,0,0,0,0,0,0,1,0,0,0,0,0,0,0,0,0,0]], 6],
    [[[-22,0,0,1,0,0,0,1,0,0,0,0,0,0,0,0,0,0,0,0]], [[-7,0,0,1,0,0,0,0,0,0,0,0,0,0,0,0,0,0,0,0],[-17,0,1,0,0,0,0,0,0,0,0,0,0,0,0,0,0,0,0,0],[-6,0,0,0,0,0,0,0,0,1,0,0,0,0,0,0,0,0,0,0]], 7],
    [[[-10,0,1,-1,0,0,0,0,0,0,0,0,0,0,0,0,0,0,0,0]], [[17,0,-1,0,0,0,0,0,0,0,0,0,0,0,0,0,0,0,0,0],[-6,0,0,0,0,0,0,0,0,1,0,0,0,0,0,0,0,0,0,0],[-15,0,0,0,0,0,0,1,0,0,0,0,0,0,0,0,0,0,0,0]], 9],
    [[[-13,0,0,1,0,0,0,0,0,1,0,0,0,0,0,0,0,0,0,0]], [[-7,0,0,1,0,0,0,0,0,0,0,0,0,0,0,0,0,0,0,0],[-10,0,1,-1,0,0,0,0,0,0,0,0,0,0,0,0,0,0,0,0],[-15,0,0,0,0,0,0,1,0,0,0,0,0,0,0,0,0,0,0,0]], 10],
    [[[-7,0,0,1,0,0,0,0,0,0,0,0,0,0,0,0,0,0,0,0]], [[-6,0,0,0,0,0,0,0,0,1,0,0,0,0,0,0,0,0,0,0],[-15,0,0,0,0,0,0,1,0,0,0,0,0,0,0,0,0,0,0,0],[-17,0,1,0,0,0,0,0,0,0,0,0,0,0,0,0,0,0,0,0]], 11]
  ]],
  ["#3",
    [[0,1],
     [1,0]], [
    [[[-4,0,1,0,-1,0,0,0,0,0,0,0,0,0,0,0,0,0,0,0]], [[4,0,-1,1,0,0,0,0,0,0,0,0,0,0,0,0,0,0,0,0]], 0],
    [[[-4,0,1,0,-1,0,0,0,0,0,0,0,0,0,0,0,0,0,0,0]], [[-4,0,1,-1,0,0,0,0,0,0,0,0,0,0,0,0,0,0,0,0]], 3]
  ]],
  ["#4",
    [[0,0],
     [0,0]], [
    [[[-10,0,0,0,0,1,0,0,0,0,0,0,0,0,0,0,0,0,0,0]], [[9,0,0,0,0,0,-1,0,0,0,0,0,0,0,0,0,0,0,0,0]], 0],
    [[[-1,0,0,0,0,1,-1,0,0,0,0,0,0,0,0,0,0,0,0,0]], [[-10,0,0,0,0,1,0,0,0,0,0,0,0,0,0,0,0,0,0,0]], 1]
  ]],
  ["#5",
    [[0,0],
     [0,0]], [
    [[[-17,0,0,0,0,1,1,0,0,0,0,0,0,0,0,0,0,0,0,0]], [[8,0,0,0,0,-1,0,0,0,0,0,0,0,0,0,0,0,0,0,0]], 0],
    [[[-9,0,0,0,0,0,1,0,0,0,0,0,0,0,0,0,0,0,0,0]], [[-8,0,0,0,0,1,0,0,0,0,0,0,0,0,0,0,0,0,0,0]], 1]
  ]],
  ["#6",
    [[0,0,0,0,0,1,1,1,1,1,0,1,1,1,1,1,1,1,1,1,1,1,1,1,1,1,1,1,1,1,0,0,1,1,1,1,1,1,1,1,1,1,1,1,1,1,1,1,1,1,1,1,1,1,1,1,1,1,1,1,1,1,1,1,1,1,1,1,1,1,1,1,1,1,1,1,1,1,1,1,1,1,1,1,1,1,1,1,1,1,1,1,1,1,1,1,1,1,1,1],
     [0,0,0,0,0,1,1,1,1,1,1,1,1,1,1,1,1,1,1,1,1,1,1,1,1,1,1,1,1,1,1,1,1,1,0,1,1,1,1,1,1,1,1,1,1,1,1,1,1,1,1,1,1,1,1,1,1,1,1,1,1,1,1,1,1,1,1,1,1,1,1,1,1,1,1,1,1,1,1,1,1,1,1,1,1,1,1,1,1,1,1,1,1,1,1,1,1,1,1,1],
     [0,0,0,0,0,1,1,1,1,1,1,1,1,1,1,1,1,1,1,1,1,1,1,1,1,1,1,1,1,1,1,1,1,1,1,1,0,1,1,1,1,1,1,1,1,1,1,1,1,1,1,1,1,1,1,1,1,1,1,1,1,1,1,1,1,1,1,1,1,1,1,1,1,1,1,1,1,1,1,1,1,1,1,1,1,1,1,1,1,1,1,1,1,1,1,1,1,1,1,1],
     [0,0,0,0,0,1,1,1,1,1,1,1,1,1,1,1,1,1,1,1,1,1,1,1,1,1,1,1,1,1,1,1,1,1,1,1,1,1,0,1,1,1,1,1,1,1,1,1,1,1,1,1,1,1,1,1,1,1,1,1,1,1,1,1,1,1,1,1,1,1,1,1,1,1,1,1,1,1,1,1,1,1,1,1,1,1,1,1,1,1,1,1,1,1,1,1,1,1,1,1],
     [0,0,0,0,0,1,1,1,1,1,1,1,1,1,1,1,1,1,1,1,1,1,1,1,1,1,1,1,1,1,1,1,1,1,1,1,1,1,1,0,1,1,1,1,1,1,1,1,1,1,1,1,1,1,1,1,1,1,1,1,1,1,1,1,1,1,1,1,1,1,1,1,1,1,1,1,1,1,1,1,1,1,1,1,1,1,1,1,1,1,1,1,1,1,1,1,1,1,1,1],
     [1,1,1,1,1,0,0,0,0,0,1,1,1,1,1,1,1,1,1,1,0,1,1,1,1,1,1,1,1,1,1,1,0,0,1,1,1,1,1,1,1,1,1,1,1,1,1,1,1,1,1,1,1,1,1,1,1,1,1,1,1,1,1,1,1,1,1,1,1,1,1,1,1,1,1,1,1,1,1,1,1,1,1,1,1,1,1,1,1,1,1,1,1,1,1,1,1,1,1,1],
     [1,1,1,1,1,0,0,0,0,0,1,1,1,1,1,1,1,1,1,1,1,1,1,1,1,1,1,1,1,1,1,1,1,1,1,0,1,1,1,1,1,1,1,1,1,1,1,1,1,1,1,1,1,1,1,1,1,1,1,1,1,1,1,1,1,1,1,1,1,1,1,1,1,1,1,1,1,1,1,1,1,1,1,1,1,1,1,1,1,1,1,1,1,1,1,1,1,1,1,1],
     [1,1,1,1,1,0,0,0,0,0,1,1,1,1,1,1,1,1,1,1,1,1,1,1,1,1,1,1,1,1,1,1,1,1,1,1,1,0,1,1,1,1,1,1,1,1,1,1,1,1,1,1,1,1,1,1,1,1,1,1,1,1,1,1,1,1,1,1,1,1,1,1,1,1,1,1,1,1,1,1,1,1,1,1,1,1,1,1,1,1,1,1,1,1,1,1,1,1,1,1],
     [1,1,1,1,1,0,0,0,0,0,1,1,1,1,1,1,1,1,1,1,1,1,1,1,1,1,1,1,1,1,1,1,1,1,1,1,1,1,1,1,1,1,1,1,1,0,1,1,1,1,1,1,1,1,1,1,1,1,1,1,1,1,1,1,1,1,1,1,1,1,1,1,1,1,1,1,1,1,1,1,1,1,1,1,1,1,1,1,1,1,1,1,1,1,1,1,1,1,1,1],
     [1,1,1,1,1,0,0,0,0,0,1,1,1,1,1,1,1,1,1,1,1,1,1,1,1,1,1,1,1,1,1,1,1,1,1,1,1,1,1,1,1,1,1,1,1,1,0,1,1,1,1,1,1,1,1,1,1,1,1,1,1,1,1,1,1,1,1,1,1,1,1,1,1,1,1,1,1,1,1,1,1,1,1,1,1,1,1,1,1,1,1,1,1,1,1,1,1,1,1,1],
     [0,1,1,1,1,1,1,1,1,1,0,0,0,0,0,1,1,1,1,1,1,1,1,1,1,1,1,1,1,1,0,0,1,1,1,1,1,1,1,1,1,1,1,1,1,1,1,1,1,1,1,1,1,1,1,1,1,1,1,1,1,1,1,1,1,1,1,1,1,1,1,1,1,1,1,1,1,1,1,1,1,1,1,1,1,1,1,1,1,1,1,1,1,1,1,1,1,1,1,1],
     [1,1,1,1,1,1,1,1,1,1,0,0,0,0,0,1,1,1,1,1,1,1,1,1,1,1,1,1,1,1,1,1,1,1,1,1,1,1,1,1,1,1,1,1,1,1,1,1,1,1,1,1,1,1,1,1,1,1,1,1,1,1,1,1,1,1,1,1,0,1,1,1,1,1,1,1,1,1,1,1,1,1,1,1,1,1,1,1,1,1,1,1,1,1,1,1,1,1,1,1],
     [1,1,1,1,1,1,1,1,1,1,0,0,0,0,0,1,1,1,1,1,1,1,1,1,1,1,1,1,1,1,1,1,1,1,1,1,1,1,1,1,1,1,1,1,1,1,1,1,1,1,1,1,1,1,1,1,1,1,1,1,1,1,1,1,1,1,1,1,1,1,1,1,0,1,1,1,1,1,1,1,1,1,1,1,1,1,1,1,1,1,1,1,1,1,1,1,1,1,1,1],
     [1,1,1,1,1,1,1,1,1,1,0,0,0,0,0,1,1,1,1,1,1,1,1,1,1,1,1,1,1,1,1,1,1,1,1,1,1,1,1,1,1,1,1,1,1,1,1,1,1,1,1,1,1,1,1,1,1,1,1,1,1,1,1,1,1,1,1,1,1,1,1,1,1,1,1,1,0,1,1,1,1,1,1,1,1,1,1,1,1,1,1,1,1,1,1,1,1,1,1,1],
     [1,1,1,1,1,1,1,1,1,1,0,0,0,0,0,1,1,1,1,1,1,1,1,1,1,1,1,1,1,1,1,1,1,1,1,1,1,1,1,1,1,1,1,1,1,1,1,1,1,1,1,1,1,1,1,1,1,1,1,1,1,1,1,1,1,1,1,1,1,1,1,1,1,1,1,1,1,0,1,1,1,1,1,1,1,1,1,1,1,1,1,1,1,1,1,1,1,1,1,1],
     [1,1,1,1,1,1,1,1,1,1,1,1,1,1,1,0,0,0,0,0,1,1,1,1,1,1,1,1,1,1,1,1,1,1,1,1,1,1,1,1,0,1,1,1,1,1,1,1,1,1,1,1,0,1,1,1,1,1,1,1,1,1,0,0,0,1,1,1,1,1,1,1,1,1,1,1,1,1,1,1,1,1,1,1,1,1,1,1,1,1,1,1,1,1,1,1,1,1,1,1],
     [1,1,1,1,1,1,1,1,1,1,1,1,1,1,1,0,0,0,0,0,1,1,1,1,1,1,1,1,1,1,1,1,1,1,1,1,1,1,1,1,1,0,1,1,1,1,1,1,1,1,1,1,1,1,1,1,1,1,1,1,1,1,1,1,1,1,1,1,1,0,1,1,1,1,1,1,1,1,1,1,1,1,1,1,1,1,1,1,1,1,1,1,1,1,1,1,1,1,1,1],
     [1,1,1,1,1,1,1,1,1,1,1,1,1,1,1,0,0,0,0,0,1,1,1,1,1,1,1,1,1,1,1,1,1,1,1,1,1,1,1,1,1,1,0,1,1,1,1,1,1,1,1,1,1,1,1,1,1,1,1,1,1,1,1,1,1,1,1,1,1,1,1,1,1,0,1,1,1,1,1,1,1,1,1,1,1,1,1,1,1,1,1,1,1,1,1,1,1,1,1,1],
     [1,1,1,1,1,1,1,1,1,1,1,1,1,1,1,0,0,0,0,0,1,1,1,1,1,1,1,1,1,1,1,1,1,1,1,1,1,1,1,1,1,1,1,0,1,1,1,1,1,1,1,1,1,1,1,1,1,1,1,1,1,1,1,1,1,1,1,1,1,1,1,1,1,1,1,1,1,1,1,1,1,1,0,1,1,1,1,1,1,1,1,1,1,1,1,1,1,1,1,1],
     [1,1,1,1,1,1,1,1,1,1,1,1,1,1,1,0,0,0,0,0,1,1,1,1,1,1,1,1,1,1,1,1,1,1,1,1,1,1,1,1,1,1,1,1,0,1,1,1,1,1,1,1,1,1,1,1,1,1,1,1,1,1,1,1,1,1,1,1,1,1,1,1,1,1,1,1,1,1,1,1,1,1,1,0,1,1,1,1,1,1,1,1,1,1,1,1,1,1,1,1],
     [1,1,1,1,1,0,1,1,1,1,1,1,1,1,1,1,1,1,1,1,0,0,0,0,0,1,1,1,1,1,1,1,0,0,1,1,1,1,1,1,1,1,1,1,1,1,1,1,1,1,1,1,1,1,1,1,1,1,1,1,1,1,1,1,1,1,1,1,1,1,1,1,1,1,1,1,1,1,1,1,1,1,1,1,1,1,1,1,1,1,1,1,1,1,1,1,1,1,1,1],
     [1,1,1,1,1,1,1,1,1,1,1,1,1,1,1,1,1,1,1,1,0,0,0,0,0,1,1,1,1,1,1,1,1,1,1,1,1,1,1,1,1,1,1,1,1,1,1,1,1,1,1,1,1,1,1,1,1,1,1,1,1,1,1,1,1,1,1,1,1,1,0,1,1,1,1,1,1,1,1,1,1,1,1,1,1,1,1,1,1,1,1,1,1,1,1,1,1,1,1,1],
     [1,1,1,1,1,1,1,1,1,1,1,1,1,1,1,1,1,1,1,1,0,0,0,0,0,1,1,1,1,1,1,1,1,1,1,1,1,1,1,1,1,1,1,1,1,1,1,1,1,1,1,1,1,1,1,1,1,1,1,1,1,1,1,1,1,1,1,1,1,1,1,1,1,1,0,1,1,1,1,1,1,1,1,1,1,1,1,1,1,1,1,1,1,1,1,1,1,1,1,1],
     [1,1,1,1,1,1,1,1,1,1,1,1,1,1,1,1,1,1,1,1,0,0,0,0,0,1,1,1,1,1,1,1,1,1,1,1,1,1,1,1,1,1,1,1,1,1,1,1,1,1,1,1,1,1,1,1,1,1,1,1,1,1,1,1,1,1,1,1,1,1,1,1,1,1,1,1,1,1,1,1,1,1,1,1,0,1,1,1,1,1,1,1,1,1,1,1,1,1,1,1],
     [1,1,1,1,1,1,1,1,1,1,1,1,1,1,1,1,1,1,1,1,0,0,0,0,0,1,1,1,1,1,1,1,1,1,1,1,1,1,1,1,1,1,1,1,1,1,1,1,1,1,1,1,1,1,1,1,1,1,1,1,1,1,1,1,1,1,1,1,1,1,1,1,1,1,1,1,1,1,1,1,1,1,1,1,1,0,1,1,1,1,1,1,1,1,1,1,1,1,1,1],
     [1,1,1,1,1,1,1,1,1,1,1,1,1,1,1,1,1,1,1,1,1,1,1,1,1,0,0,0,0,0,1,1,1,1,1,1,1,1,1,1,1,1,1,1,1,1,1,0,1,1,1,1,1,1,1,1,1,0,1,1,1,1,1,1,1,0,0,0,1,1,1,1,1,1,1,1,1,1,1,1,1,1,1,1,1,1,1,1,1,1,1,1,1,1,1,1,1,1,1,1],
     [1,1,1,1,1,1,1,1,1,1,1,1,1,1,1,1,1,1,1,1,1,1,1,1,1,0,0,0,0,0,1,1,1,1,1,1,1,1,1,1,1,1,1,1,1,1,1,1,0,1,1,1,1,1,1,1,1,1,1,1,1,1,1,1,1,1,1,1,1,1,1,0,1,1,1,1,1,1,1,1,1,1,1,1,1,1,1,1,1,1,1,1,1,1,1,1,1,1,1,1],
     [1,1,1,1,1,1,1,1,1,1,1,1,1,1,1,1,1,1,1,1,1,1,1,1,1,0,0,0,0,0,1,1,1,1,1,1,1,1,1,1,1,1,1,1,1,1,1,1,1,0,1,1,1,1,1,1,1,1,1,1,1,1,1,1,1,1,1,1,1,1,1,1,1,1,1,0,1,1,1,1,1,1,1,1,1,1,1,1,1,1,1,1,1,1,1,1,1,1,1,1],
     [1,1,1,1,1,1,1,1,1,1,1,1,1,1,1,1,1,1,1,1,1,1,1,1,1,0,0,0,0,0,1,1,1,1,1,1,1,1,1,1,1,1,1,1,1,1,1,1,1,1,0,1,1,1,1,1,1,1,1,1,1,1,1,1,1,1,1,1,1,1,1,1,1,1,1,1,1,1,1,1,1,1,1,1,1,1,1,1,1,1,0,1,1,1,1,1,1,1,1,1],
     [1,1,1,1,1,1,1,1,1,1,1,1,1,1,1,1,1,1,1,1,1,1,1,1,1,0,0,0,0,0,1,1,1,1,1,1,1,1,1,1,1,1,1,1,1,1,1,1,1,1,1,0,1,1,1,1,1,1,1,1,1,1,1,1,1,1,1,1,1,1,1,1,1,1,1,1,1,1,1,1,1,1,1,1,1,1,1,1,1,1,1,0,1,1,1,1,1,1,1,1],
     [0,1,1,1,1,1,1,1,1,1,0,1,1,1,1,1,1,1,1,1,1,1,1,1,1,1,1,1,1,1,0,0,1,1,0,1,0,1,0,0,0,0,0,0,0,1,1,1,1,1,1,1,1,1,1,1,1,1,1,1,1,1,1,1,1,1,1,1,1,1,1,1,1,1,1,1,1,1,1,1,1,1,1,1,1,1,1,1,1,1,1,1,1,1,1,1,1,1,1,1],
     [0,1,1,1,1,1,1,1,1,1,0,1,1,1,1,1,1,1,1,1,1,1,1,1,1,1,1,1,1,1,0,0,1,1,1,1,1,1,1,1,1,1,1,1,1,1,1,1,1,1,1,1,1,1,1,1,1,1,1,1,1,1,0,1,1,1,1,1,0,1,1,1,0,1,1,1,0,0,0,0,0,0,1,1,1,1,1,1,1,1,1,1,1,1,1,1,1,1,1,1],
     [1,1,1,1,1,0,1,1,1,1,1,1,1,1,1,1,1,1,1,1,0,1,1,1,1,1,1,1,1,1,1,1,0,0,1,0,1,0,1,1,1,1,1,1,1,0,0,0,0,0,0,0,1,1,1,1,1,1,1,1,1,1,1,1,1,1,1,1,1,1,1,1,1,1,1,1,1,1,1,1,1,1,1,1,1,1,1,1,1,1,1,1,1,1,1,1,1,1,1,1],
     [1,1,1,1,1,0,1,1,1,1,1,1,1,1,1,1,1,1,1,1,0,1,1,1,1,1,1,1,1,1,1,1,0,0,1,1,1,1,1,1,1,1,1,1,1,1,1,1,1,1,1,1,1,1,1,1,1,1,1,1,1,1,1,1,1,0,1,1,1,1,0,1,1,1,0,1,1,1,1,1,1,1,1,1,0,0,0,0,0,0,1,1,1,1,1,1,1,1,1,1],
     [1,0,1,1,1,1,1,1,1,1,1,1,1,1,1,1,1,1,1,1,1,1,1,1,1,1,1,1,1,1,0,1,1,1,0,1,0,1,0,0,0,0,0,0,0,1,1,1,1,1,1,1,1,1,1,1,1,1,1,1,1,1,1,1,1,1,1,1,1,1,1,1,1,1,1,1,1,1,1,1,1,1,1,1,1,1,1,1,1,1,1,1,1,1,1,1,1,1,1,1],
     [1,1,1,1,1,1,0,1,1,1,1,1,1,1,1,1,1,1,1,1,1,1,1,1,1,1,1,1,1,1,1,1,0,1,1,0,1,0,1,1,1,1,1,1,1,0,0,0,0,0,0,0,1,1,1,1,1,1,1,1,1,1,1,1,1,1,1,1,1,1,1,1,1,1,1,1,1,1,1,1,1,1,1,1,1,1,1,1,1,1,1,1,1,1,1,1,1,1,1,1],
     [1,1,0,1,1,1,1,1,1,1,1,1,1,1,1,1,1,1,1,1,1,1,1,1,1,1,1,1,1,1,0,1,1,1,0,1,0,1,0,0,0,0,0,0,0,1,1,1,1,1,1,1,1,1,1,1,1,1,1,1,1,1,1,1,1,1,1,1,1,1,1,1,1,1,1,1,1,1,1,1,1,1,1,1,1,1,1,1,1,1,1,1,1,1,1,1,1,1,1,1],
     [1,1,1,1,1,1,1,0,1,1,1,1,1,1,1,1,1,1,1,1,1,1,1,1,1,1,1,1,1,1,1,1,0,1,1,0,1,0,1,1,1,1,1,1,1,0,0,0,0,0,0,0,1,1,1,1,1,1,1,1,1,1,1,1,1,1,1,1,1,1,1,1,1,1,1,1,1,1,1,1,1,1,1,1,1,1,1,1,1,1,1,1,1,1,1,1,1,1,1,1],
     [1,1,1,0,1,1,1,1,1,1,1,1,1,1,1,1,1,1,1,1,1,1,1,1,1,1,1,1,1,1,0,1,1,1,0,1,0,1,0,0,0,0,0,0,0,1,1,1,1,1,1,1,1,1,1,1,1,1,1,1,1,1,1,1,1,1,1,1,1,1,1,1,1,1,1,1,1,1,1,1,1,1,1,1,1,1,1,1,1,1,1,1,1,1,1,1,1,1,1,1],
     [1,1,1,1,0,1,1,1,1,1,1,1,1,1,1,1,1,1,1,1,1,1,1,1,1,1,1,1,1,1,0,1,1,1,0,1,0,1,0,0,0,0,0,0,0,1,1,1,1,1,1,1,1,1,1,1,1,1,1,1,1,1,1,1,1,1,1,1,1,1,1,1,1,1,1,1,1,1,1,1,1,1,1,1,1,1,1,1,1,1,1,1,1,1,1,1,1,1,1,1],
     [1,1,1,1,1,1,1,1,1,1,1,1,1,1,1,0,1,1,1,1,1,1,1,1,1,1,1,1,1,1,0,1,1,1,0,1,0,1,0,0,0,0,0,0,0,1,1,1,1,1,1,1,0,1,1,1,1,1,1,1,1,1,0,0,0,1,1,1,1,1,1,1,1,1,1,1,1,1,1,1,1,1,1,1,1,1,1,1,1,1,1,1,1,1,1,1,1,1,1,1],
     [1,1,1,1,1,1,1,1,1,1,1,1,1,1,1,1,0,1,1,1,1,1,1,1,1,1,1,1,1,1,0,1,1,1,0,1,0,1,0,0,0,0,0,0,0,1,1,1,1,1,1,1,1,1,1,1,1,1,1,1,1,1,1,1,1,1,1,1,1,0,1,1,1,1,1,1,1,1,1,1,1,1,1,1,1,1,1,1,1,1,1,1,1,1,1,1,1,1,1,1],
     [1,1,1,1,1,1,1,1,1,1,1,1,1,1,1,1,1,0,1,1,1,1,1,1,1,1,1,1,1,1,0,1,1,1,0,1,0,1,0,0,0,0,0,0,0,1,1,1,1,1,1,1,1,1,1,1,1,1,1,1,1,1,1,1,1,1,1,1,1,1,1,1,1,0,1,1,1,1,1,1,1,1,1,1,1,1,1,1,1,1,1,1,1,1,1,1,1,1,1,1],
     [1,1,1,1,1,1,1,1,1,1,1,1,1,1,1,1,1,1,0,1,1,1,1,1,1,1,1,1,1,1,0,1,1,1,0,1,0,1,0,0,0,0,0,0,0,1,1,1,1,1,1,1,1,1,1,1,1,1,1,1,1,1,1,1,1,1,1,1,1,1,1,1,1,1,1,1,1,1,1,1,1,1,0,1,1,1,1,1,1,1,1,1,1,1,1,1,1,1,1,1],
     [1,1,1,1,1,1,1,1,1,1,1,1,1,1,1,1,1,1,1,0,1,1,1,1,1,1,1,1,1,1,0,1,1,1,0,1,0,1,0,0,0,0,0,0,0,1,1,1,1,1,1,1,1,1,1,1,1,1,1,1,1,1,1,1,1,1,1,1,1,1,1,1,1,1,1,1,1,1,1,1,1,1,1,0,1,1,1,1,1,1,1,1,1,1,1,1,1,1,1,1],
     [1,1,1,1,1,1,1,1,0,1,1,1,1,1,1,1,1,1,1,1,1,1,1,1,1,1,1,1,1,1,1,1,0,1,1,0,1,0,1,1,1,1,1,1,1,0,0,0,0,0,0,0,1,1,1,1,1,1,1,1,1,1,1,1,1,1,1,1,1,1,1,1,1,1,1,1,1,1,1,1,1,1,1,1,1,1,1,1,1,1,1,1,1,1,1,1,1,1,1,1],
     [1,1,1,1,1,1,1,1,1,0,1,1,1,1,1,1,1,1,1,1,1,1,1,1,1,1,1,1,1,1,1,1,0,1,1,0,1,0,1,1,1,1,1,1,1,0,0,0,0,0,0,0,1,1,1,1,1,1,1,1,1,1,1,1,1,1,1,1,1,1,1,1,1,1,1,1,1,1,1,1,1,1,1,1,1,1,1,1,1,1,1,1,1,1,1,1,1,1,1,1],
     [1,1,1,1,1,1,1,1,1,1,1,1,1,1,1,1,1,1,1,1,1,1,1,1,1,0,1,1,1,1,1,1,0,1,1,0,1,0,1,1,1,1,1,1,1,0,0,0,0,0,0,0,1,1,1,1,1,0,1,1,1,1,1,1,1,0,0,0,1,1,1,1,1,1,1,1,1,1,1,1,1,1,1,1,1,1,1,1,1,1,1,1,1,1,1,1,1,1,1,1],
     [1,1,1,1,1,1,1,1,1,1,1,1,1,1,1,1,1,1,1,1,1,1,1,1,1,1,0,1,1,1,1,1,0,1,1,0,1,0,1,1,1,1,1,1,1,0,0,0,0,0,0,0,1,1,1,1,1,1,1,1,1,1,1,1,1,1,1,1,1,1,1,0,1,1,1,1,1,1,1,1,1,1,1,1,1,1,1,1,1,1,1,1,1,1,1,1,1,1,1,1],
     [1,1,1,1,1,1,1,1,1,1,1,1,1,1,1,1,1,1,1,1,1,1,1,1,1,1,1,0,1,1,1,1,0,1,1,0,1,0,1,1,1,1,1,1,1,0,0,0,0,0,0,0,1,1,1,1,1,1,1,1,1,1,1,1,1,1,1,1,1,1,1,1,1,1,1,0,1,1,1,1,1,1,1,1,1,1,1,1,1,1,1,1,1,1,1,1,1,1,1,1],
     [1,1,1,1,1,1,1,1,1,1,1,1,1,1,1,1,1,1,1,1,1,1,1,1,1,1,1,1,0,1,1,1,0,1,1,0,1,0,1,1,1,1,1,1,1,0,0,0,0,0,0,0,1,1,1,1,1,1,1,1,1,1,1,1,1,1,1,1,1,1,1,1,1,1,1,1,1,1,1,1,1,1,1,1,1,1,1,1,1,1,0,1,1,1,1,1,1,1,1,1],
     [1,1,1,1,1,1,1,1,1,1,1,1,1,1,1,1,1,1,1,1,1,1,1,1,1,1,1,1,1,0,1,1,0,1,1,0,1,0,1,1,1,1,1,1,1,0,0,0,0,0,0,0,1,1,1,1,1,1,1,1,1,1,1,1,1,1,1,1,1,1,1,1,1,1,1,1,1,1,1,1,1,1,1,1,1,1,1,1,1,1,1,0,1,1,1,1,1,1,1,1],
     [1,1,1,1,1,1,1,1,1,1,1,1,1,1,1,0,1,1,1,1,1,1,1,1,1,1,1,1,1,1,1,1,1,1,1,1,1,1,1,1,0,1,1,1,1,1,1,1,1,1,1,1,0,0,0,0,0,1,1,1,1,1,0,0,0,1,1,1,1,1,1,1,1,1,1,1,1,1,1,1,1,1,1,1,1,1,1,1,1,1,1,1,1,1,1,1,1,1,1,1],
     [1,1,1,1,1,1,1,1,1,1,1,1,1,1,1,1,1,1,1,1,1,1,1,1,1,1,1,1,1,1,1,1,1,1,1,1,1,1,1,1,1,1,1,1,1,1,1,1,1,1,1,1,0,0,0,0,0,1,1,1,1,1,1,1,1,1,1,1,1,1,1,1,1,1,1,1,1,1,0,1,1,1,1,1,1,1,1,1,1,1,1,1,0,1,1,1,1,1,1,1],
     [1,1,1,1,1,1,1,1,1,1,1,1,1,1,1,1,1,1,1,1,1,1,1,1,1,1,1,1,1,1,1,1,1,1,1,1,1,1,1,1,1,1,1,1,1,1,1,1,1,1,1,1,0,0,0,0,0,1,1,1,1,1,1,1,1,1,1,1,1,1,1,1,1,1,1,1,1,1,1,0,1,1,1,1,1,1,1,1,1,1,1,1,1,1,0,1,1,1,1,1],
     [1,1,1,1,1,1,1,1,1,1,1,1,1,1,1,1,1,1,1,1,1,1,1,1,1,1,1,1,1,1,1,1,1,1,1,1,1,1,1,1,1,1,1,1,1,1,1,1,1,1,1,1,0,0,0,0,0,1,1,1,1,1,1,1,1,1,1,1,1,1,1,1,1,1,1,1,1,1,1,1,0,1,1,1,1,1,1,1,1,1,1,1,1,1,1,1,0,1,1,1],
     [1,1,1,1,1,1,1,1,1,1,1,1,1,1,1,1,1,1,1,1,1,1,1,1,1,1,1,1,1,1,1,1,1,1,1,1,1,1,1,1,1,1,1,1,1,1,1,1,1,1,1,1,0,0,0,0,0,1,1,1,1,1,1,1,1,1,1,1,1,1,1,1,1,1,1,1,1,1,1,1,1,0,1,1,1,1,1,1,1,1,1,1,1,1,1,1,1,0,1,1],
     [1,1,1,1,1,1,1,1,1,1,1,1,1,1,1,1,1,1,1,1,1,1,1,1,1,0,1,1,1,1,1,1,1,1,1,1,1,1,1,1,1,1,1,1,1,1,1,0,1,1,1,1,1,1,1,1,1,0,0,0,0,0,1,1,1,0,0,0,1,1,1,1,1,1,1,1,1,1,1,1,1,1,1,1,1,1,1,1,1,1,1,1,1,1,1,1,1,1,1,1],
     [1,1,1,1,1,1,1,1,1,1,1,1,1,1,1,1,1,1,1,1,1,1,1,1,1,1,1,1,1,1,1,1,1,1,1,1,1,1,1,1,1,1,1,1,1,1,1,1,1,1,1,1,1,1,1,1,1,0,0,0,0,0,1,1,1,1,1,1,1,1,1,1,1,1,1,1,1,1,1,1,1,1,1,1,1,1,0,1,1,1,1,1,1,0,1,1,1,1,1,1],
     [1,1,1,1,1,1,1,1,1,1,1,1,1,1,1,1,1,1,1,1,1,1,1,1,1,1,1,1,1,1,1,1,1,1,1,1,1,1,1,1,1,1,1,1,1,1,1,1,1,1,1,1,1,1,1,1,1,0,0,0,0,0,1,1,1,1,1,1,1,1,1,1,1,1,1,1,1,1,1,1,1,1,1,1,1,1,1,0,1,1,1,1,1,1,1,0,1,1,1,1],
     [1,1,1,1,1,1,1,1,1,1,1,1,1,1,1,1,1,1,1,1,1,1,1,1,1,1,1,1,1,1,1,1,1,1,1,1,1,1,1,1,1,1,1,1,1,1,1,1,1,1,1,1,1,1,1,1,1,0,0,0,0,0,1,1,1,1,1,1,1,1,1,1,1,1,1,1,1,1,1,1,1,1,1,1,1,1,1,1,0,1,1,1,1,1,1,1,1,1,0,1],
     [1,1,1,1,1,1,1,1,1,1,1,1,1,1,1,1,1,1,1,1,1,1,1,1,1,1,1,1,1,1,1,1,1,1,1,1,1,1,1,1,1,1,1,1,1,1,1,1,1,1,1,1,1,1,1,1,1,0,0,0,0,0,1,1,1,1,1,1,1,1,1,1,1,1,1,1,1,1,1,1,1,1,1,1,1,1,1,1,1,0,1,1,1,1,1,1,1,1,1,0],
     [1,1,1,1,1,1,1,1,1,1,1,1,1,1,1,0,1,1,1,1,1,1,1,1,1,1,1,1,1,1,1,0,1,1,1,1,1,1,1,1,0,1,1,1,1,1,1,1,1,1,1,1,0,1,1,1,1,1,1,1,1,1,0,0,0,1,1,1,0,1,1,1,0,1,1,1,0,0,0,0,0,0,1,1,1,1,1,1,1,1,1,1,1,1,1,1,1,1,1,1],
     [1,1,1,1,1,1,1,1,1,1,1,1,1,1,1,0,1,1,1,1,1,1,1,1,1,1,1,1,1,1,1,1,1,1,1,1,1,1,1,1,0,1,1,1,1,1,1,1,1,1,1,1,0,1,1,1,1,1,1,1,1,1,0,0,0,1,1,1,1,0,1,1,1,0,1,1,1,1,1,1,1,1,0,0,1,1,1,1,1,1,1,1,1,1,1,1,1,1,1,1],
     [1,1,1,1,1,1,1,1,1,1,1,1,1,1,1,0,1,1,1,1,1,1,1,1,1,1,1,1,1,1,1,1,1,1,1,1,1,1,1,1,0,1,1,1,1,1,1,1,1,1,1,1,0,1,1,1,1,1,1,1,1,1,0,0,0,1,1,1,1,1,1,1,1,1,1,1,1,1,1,1,1,1,1,1,1,1,1,1,1,1,1,1,0,1,0,1,0,0,1,1],
     [1,1,1,1,1,1,1,1,1,1,1,1,1,1,1,1,1,1,1,1,1,1,1,1,1,0,1,1,1,1,1,1,1,0,1,1,1,1,1,1,1,1,1,1,1,1,1,0,1,1,1,1,1,1,1,1,1,0,1,1,1,1,1,1,1,0,0,0,1,1,0,1,1,1,0,1,1,1,1,1,1,1,1,1,0,0,0,0,0,0,1,1,1,1,1,1,1,1,1,1],
     [1,1,1,1,1,1,1,1,1,1,1,1,1,1,1,1,1,1,1,1,1,1,1,1,1,0,1,1,1,1,1,1,1,1,1,1,1,1,1,1,1,1,1,1,1,1,1,0,1,1,1,1,1,1,1,1,1,0,1,1,1,1,1,1,1,0,0,0,1,1,1,0,1,1,1,0,1,1,1,1,1,1,1,1,1,1,1,1,1,1,0,0,1,1,1,1,1,1,1,1],
     [1,1,1,1,1,1,1,1,1,1,1,1,1,1,1,1,1,1,1,1,1,1,1,1,1,0,1,1,1,1,1,1,1,1,1,1,1,1,1,1,1,1,1,1,1,1,1,0,1,1,1,1,1,1,1,1,1,0,1,1,1,1,1,1,1,0,0,0,1,1,1,1,1,1,1,1,1,1,1,1,1,1,1,1,1,1,1,1,1,1,1,1,1,0,1,0,1,1,0,0],
     [1,1,1,1,1,1,1,1,1,1,1,0,1,1,1,1,1,1,1,1,1,1,1,1,1,1,1,1,1,1,1,0,1,1,1,1,1,1,1,1,1,1,1,1,1,1,1,1,1,1,1,1,1,1,1,1,1,1,1,1,1,1,0,1,1,1,1,1,0,1,1,1,0,1,1,1,0,0,0,0,0,0,1,1,1,1,1,1,1,1,1,1,1,1,1,1,1,1,1,1],
     [1,1,1,1,1,1,1,1,1,1,1,1,1,1,1,1,0,1,1,1,1,1,1,1,1,1,1,1,1,1,1,1,1,1,1,1,1,1,1,1,1,0,1,1,1,1,1,1,1,1,1,1,1,1,1,1,1,1,1,1,1,1,1,0,1,1,1,1,1,0,1,1,1,0,1,1,1,1,1,1,1,1,0,0,1,1,1,1,1,1,1,1,1,1,1,1,1,1,1,1],
     [1,1,1,1,1,1,1,1,1,1,1,1,1,1,1,1,1,1,1,1,1,0,1,1,1,1,1,1,1,1,1,1,1,0,1,1,1,1,1,1,1,1,1,1,1,1,1,1,1,1,1,1,1,1,1,1,1,1,1,1,1,1,1,1,1,0,1,1,1,1,0,1,1,1,0,1,1,1,1,1,1,1,1,1,0,0,0,0,0,0,1,1,1,1,1,1,1,1,1,1],
     [1,1,1,1,1,1,1,1,1,1,1,1,1,1,1,1,1,1,1,1,1,1,1,1,1,1,0,1,1,1,1,1,1,1,1,1,1,1,1,1,1,1,1,1,1,1,1,1,0,1,1,1,1,1,1,1,1,1,1,1,1,1,1,1,1,1,0,1,1,1,1,0,1,1,1,0,1,1,1,1,1,1,1,1,1,1,1,1,1,1,0,0,1,1,1,1,1,1,1,1],
     [1,1,1,1,1,1,1,1,1,1,1,1,0,1,1,1,1,1,1,1,1,1,1,1,1,1,1,1,1,1,1,0,1,1,1,1,1,1,1,1,1,1,1,1,1,1,1,1,1,1,1,1,1,1,1,1,1,1,1,1,1,1,0,1,1,1,1,1,0,1,1,1,0,1,1,1,0,0,0,0,0,0,1,1,1,1,1,1,1,1,1,1,1,1,1,1,1,1,1,1],
     [1,1,1,1,1,1,1,1,1,1,1,1,1,1,1,1,1,0,1,1,1,1,1,1,1,1,1,1,1,1,1,1,1,1,1,1,1,1,1,1,1,1,0,1,1,1,1,1,1,1,1,1,1,1,1,1,1,1,1,1,1,1,1,0,1,1,1,1,1,0,1,1,1,0,1,1,1,1,1,1,1,1,0,0,1,1,1,1,1,1,1,1,1,1,1,1,1,1,1,1],
     [1,1,1,1,1,1,1,1,1,1,1,1,1,1,1,1,1,1,1,1,1,1,0,1,1,1,1,1,1,1,1,1,1,0,1,1,1,1,1,1,1,1,1,1,1,1,1,1,1,1,1,1,1,1,1,1,1,1,1,1,1,1,1,1,1,0,1,1,1,1,0,1,1,1,0,1,1,1,1,1,1,1,1,1,0,0,0,0,0,0,1,1,1,1,1,1,1,1,1,1],
     [1,1,1,1,1,1,1,1,1,1,1,1,1,1,1,1,1,1,1,1,1,1,1,1,1,1,1,0,1,1,1,1,1,1,1,1,1,1,1,1,1,1,1,1,1,1,1,1,1,0,1,1,1,1,1,1,1,1,1,1,1,1,1,1,1,1,0,1,1,1,1,0,1,1,1,0,1,1,1,1,1,1,1,1,1,1,1,1,1,1,0,0,1,1,1,1,1,1,1,1],
     [1,1,1,1,1,1,1,1,1,1,1,1,1,0,1,1,1,1,1,1,1,1,1,1,1,1,1,1,1,1,1,0,1,1,1,1,1,1,1,1,1,1,1,1,1,1,1,1,1,1,1,1,1,1,1,1,1,1,1,1,1,1,0,1,1,1,1,1,0,1,1,1,0,1,1,1,0,0,0,0,0,0,1,1,1,1,1,1,1,1,1,1,1,1,1,1,1,1,1,1],
     [1,1,1,1,1,1,1,1,1,1,1,1,1,1,0,1,1,1,1,1,1,1,1,1,1,1,1,1,1,1,1,0,1,1,1,1,1,1,1,1,1,1,1,1,1,1,1,1,1,1,1,1,1,1,1,1,1,1,1,1,1,1,0,1,1,1,1,1,0,1,1,1,0,1,1,1,0,0,0,0,0,0,1,1,1,1,1,1,1,1,1,1,1,1,1,1,1,1,1,1],
     [1,1,1,1,1,1,1,1,1,1,1,1,1,1,1,1,1,1,1,1,1,1,1,1,1,1,1,1,1,1,1,0,1,1,1,1,1,1,1,1,1,1,1,1,1,1,1,1,1,1,1,1,1,0,1,1,1,1,1,1,1,1,0,1,1,1,1,1,0,1,1,1,0,1,1,1,0,0,0,0,0,0,1,1,1,1,1,1,1,1,1,1,0,1,1,1,1,1,1,1],
     [1,1,1,1,1,1,1,1,1,1,1,1,1,1,1,1,1,1,1,1,1,1,1,1,1,1,1,1,1,1,1,0,1,1,1,1,1,1,1,1,1,1,1,1,1,1,1,1,1,1,1,1,1,1,0,1,1,1,1,1,1,1,0,1,1,1,1,1,0,1,1,1,0,1,1,1,0,0,0,0,0,0,1,1,1,1,1,1,1,1,1,1,1,1,0,1,1,1,1,1],
     [1,1,1,1,1,1,1,1,1,1,1,1,1,1,1,1,1,1,1,1,1,1,1,1,1,1,1,1,1,1,1,0,1,1,1,1,1,1,1,1,1,1,1,1,1,1,1,1,1,1,1,1,1,1,1,0,1,1,1,1,1,1,0,1,1,1,1,1,0,1,1,1,0,1,1,1,0,0,0,0,0,0,1,1,1,1,1,1,1,1,1,1,1,1,1,1,0,1,1,1],
     [1,1,1,1,1,1,1,1,1,1,1,1,1,1,1,1,1,1,1,1,1,1,1,1,1,1,1,1,1,1,1,0,1,1,1,1,1,1,1,1,1,1,1,1,1,1,1,1,1,1,1,1,1,1,1,1,0,1,1,1,1,1,0,1,1,1,1,1,0,1,1,1,0,1,1,1,0,0,0,0,0,0,1,1,1,1,1,1,1,1,1,1,1,1,1,1,1,0,1,1],
     [1,1,1,1,1,1,1,1,1,1,1,1,1,1,1,1,1,1,0,1,1,1,1,1,1,1,1,1,1,1,1,1,1,1,1,1,1,1,1,1,1,1,1,0,1,1,1,1,1,1,1,1,1,1,1,1,1,1,1,1,1,1,1,0,1,1,1,1,1,0,1,1,1,0,1,1,1,1,1,1,1,1,0,0,1,1,1,1,1,1,1,1,1,1,1,1,1,1,1,1],
     [1,1,1,1,1,1,1,1,1,1,1,1,1,1,1,1,1,1,1,0,1,1,1,1,1,1,1,1,1,1,1,1,1,1,1,1,1,1,1,1,1,1,1,1,0,1,1,1,1,1,1,1,1,1,1,1,1,1,1,1,1,1,1,0,1,1,1,1,1,0,1,1,1,0,1,1,1,1,1,1,1,1,0,0,1,1,1,1,1,1,1,1,1,1,1,1,1,1,1,1],
     [1,1,1,1,1,1,1,1,1,1,1,1,1,1,1,1,1,1,1,1,1,1,1,0,1,1,1,1,1,1,1,1,1,0,1,1,1,1,1,1,1,1,1,1,1,1,1,1,1,1,1,1,1,1,1,1,1,1,1,1,1,1,1,1,1,0,1,1,1,1,0,1,1,1,0,1,1,1,1,1,1,1,1,1,0,0,0,0,0,0,1,1,1,1,1,1,1,1,1,1],
     [1,1,1,1,1,1,1,1,1,1,1,1,1,1,1,1,1,1,1,1,1,1,1,1,0,1,1,1,1,1,1,1,1,0,1,1,1,1,1,1,1,1,1,1,1,1,1,1,1,1,1,1,1,1,1,1,1,1,1,1,1,1,1,1,1,0,1,1,1,1,0,1,1,1,0,1,1,1,1,1,1,1,1,1,0,0,0,0,0,0,1,1,1,1,1,1,1,1,1,1],
     [1,1,1,1,1,1,1,1,1,1,1,1,1,1,1,1,1,1,1,1,1,1,1,1,1,1,1,1,1,1,1,1,1,0,1,1,1,1,1,1,1,1,1,1,1,1,1,1,1,1,1,1,1,1,1,1,1,1,0,1,1,1,1,1,1,0,1,1,1,1,0,1,1,1,0,1,1,1,1,1,1,1,1,1,0,0,0,0,0,0,1,1,1,0,1,1,1,1,1,1],
     [1,1,1,1,1,1,1,1,1,1,1,1,1,1,1,1,1,1,1,1,1,1,1,1,1,1,1,1,1,1,1,1,1,0,1,1,1,1,1,1,1,1,1,1,1,1,1,1,1,1,1,1,1,1,1,1,1,1,1,0,1,1,1,1,1,0,1,1,1,1,0,1,1,1,0,1,1,1,1,1,1,1,1,1,0,0,0,0,0,0,1,1,1,1,1,0,1,1,1,1],
     [1,1,1,1,1,1,1,1,1,1,1,1,1,1,1,1,1,1,1,1,1,1,1,1,1,1,1,1,1,1,1,1,1,0,1,1,1,1,1,1,1,1,1,1,1,1,1,1,1,1,1,1,1,1,1,1,1,1,1,1,0,1,1,1,1,0,1,1,1,1,0,1,1,1,0,1,1,1,1,1,1,1,1,1,0,0,0,0,0,0,1,1,1,1,1,1,1,1,0,1],
     [1,1,1,1,1,1,1,1,1,1,1,1,1,1,1,1,1,1,1,1,1,1,1,1,1,1,1,1,1,1,1,1,1,0,1,1,1,1,1,1,1,1,1,1,1,1,1,1,1,1,1,1,1,1,1,1,1,1,1,1,1,0,1,1,1,0,1,1,1,1,0,1,1,1,0,1,1,1,1,1,1,1,1,1,0,0,0,0,0,0,1,1,1,1,1,1,1,1,1,0],
     [1,1,1,1,1,1,1,1,1,1,1,1,1,1,1,1,1,1,1,1,1,1,1,1,1,1,1,1,0,1,1,1,1,1,1,1,1,1,1,1,1,1,1,1,1,1,1,1,1,1,0,1,1,1,1,1,1,1,1,1,1,1,1,1,1,1,0,1,1,1,1,0,1,1,1,0,1,1,1,1,1,1,1,1,1,1,1,1,1,1,0,0,1,1,1,1,1,1,1,1],
     [1,1,1,1,1,1,1,1,1,1,1,1,1,1,1,1,1,1,1,1,1,1,1,1,1,1,1,1,1,0,1,1,1,1,1,1,1,1,1,1,1,1,1,1,1,1,1,1,1,1,1,0,1,1,1,1,1,1,1,1,1,1,1,1,1,1,0,1,1,1,1,0,1,1,1,0,1,1,1,1,1,1,1,1,1,1,1,1,1,1,0,0,1,1,1,1,1,1,1,1],
     [1,1,1,1,1,1,1,1,1,1,1,1,1,1,1,1,1,1,1,1,1,1,1,1,1,1,1,1,1,1,1,1,1,1,1,1,1,1,1,1,1,1,1,1,1,1,1,1,1,1,1,1,1,0,1,1,1,1,1,1,1,1,1,1,0,1,1,1,1,1,1,1,1,1,1,1,1,1,0,1,1,1,1,1,1,1,1,1,1,1,1,1,0,1,0,1,0,0,1,1],
     [1,1,1,1,1,1,1,1,1,1,1,1,1,1,1,1,1,1,1,1,1,1,1,1,1,1,1,1,1,1,1,1,1,1,1,1,1,1,1,1,1,1,1,1,1,1,1,1,1,1,1,1,1,1,1,1,1,1,0,1,1,1,1,1,1,1,1,0,1,1,1,1,1,1,1,1,1,1,1,1,1,1,1,1,1,1,0,1,1,1,1,1,1,0,1,0,1,1,0,0],
     [1,1,1,1,1,1,1,1,1,1,1,1,1,1,1,1,1,1,1,1,1,1,1,1,1,1,1,1,1,1,1,1,1,1,1,1,1,1,1,1,1,1,1,1,1,1,1,1,1,1,1,1,1,1,0,1,1,1,1,1,1,1,1,1,0,1,1,1,1,1,1,1,1,1,1,1,1,1,1,0,1,1,1,1,1,1,1,1,1,1,1,1,0,1,0,1,0,0,1,1],
     [1,1,1,1,1,1,1,1,1,1,1,1,1,1,1,1,1,1,1,1,1,1,1,1,1,1,1,1,1,1,1,1,1,1,1,1,1,1,1,1,1,1,1,1,1,1,1,1,1,1,1,1,1,1,1,1,1,1,1,0,1,1,1,1,1,1,1,0,1,1,1,1,1,1,1,1,1,1,1,1,1,1,1,1,1,1,1,0,1,1,1,1,1,0,1,0,1,1,0,0],
     [1,1,1,1,1,1,1,1,1,1,1,1,1,1,1,1,1,1,1,1,1,1,1,1,1,1,1,1,1,1,1,1,1,1,1,1,1,1,1,1,1,1,1,1,1,1,1,1,1,1,1,1,1,1,1,0,1,1,1,1,1,1,1,1,0,1,1,1,1,1,1,1,1,1,1,1,1,1,1,1,0,1,1,1,1,1,1,1,1,1,1,1,0,1,0,1,0,0,1,1],
     [1,1,1,1,1,1,1,1,1,1,1,1,1,1,1,1,1,1,1,1,1,1,1,1,1,1,1,1,1,1,1,1,1,1,1,1,1,1,1,1,1,1,1,1,1,1,1,1,1,1,1,1,1,1,1,1,0,1,1,1,1,1,1,1,0,1,1,1,1,1,1,1,1,1,1,1,1,1,1,1,1,0,1,1,1,1,1,1,1,1,1,1,0,1,0,1,0,0,1,1],
     [1,1,1,1,1,1,1,1,1,1,1,1,1,1,1,1,1,1,1,1,1,1,1,1,1,1,1,1,1,1,1,1,1,1,1,1,1,1,1,1,1,1,1,1,1,1,1,1,1,1,1,1,1,1,1,1,1,1,1,1,0,1,1,1,1,1,1,0,1,1,1,1,1,1,1,1,1,1,1,1,1,1,1,1,1,1,1,1,0,1,1,1,1,0,1,0,1,1,0,0],
     [1,1,1,1,1,1,1,1,1,1,1,1,1,1,1,1,1,1,1,1,1,1,1,1,1,1,1,1,1,1,1,1,1,1,1,1,1,1,1,1,1,1,1,1,1,1,1,1,1,1,1,1,1,1,1,1,1,1,1,1,1,0,1,1,1,1,1,0,1,1,1,1,1,1,1,1,1,1,1,1,1,1,1,1,1,1,1,1,1,0,1,1,1,0,1,0,1,1,0,0]], [
    [[[-6,0,0,1,0,-1,0,1,0,0,0,0,0,0,0,0,0,0,0,0]], [[0,0,1,0,0,-1,0,0,0,0,0,0,0,0,0,0,0,0,0,0],[5,0,0,0,0,0,-1,0,0,0,0,0,0,0,0,0,0,0,0,0],[0,0,0,1,-1,0,0,0,0,0,0,0,0,0,0,0,0,0,0,0],[3,0,0,0,1,-1,0,0,0,0,0,0,0,0,0,0,0,0,0,0],[5,0,0,0,0,0,0,0,-1,0,0,0,0,0,0,0,0,0,0,0],[10,0,0,-1,0,0,0,0,0,0,0,0,0,0,0,0,0,0,0,0],[4,0,0,0,0,-1,0,0,0,0,0,0,0,0,0,1,0,0,0,0],[4,0,0,0,0,-1,0,0,0,0,0,0,0,0,0,0,0,0,1,0]], 0],
    [[[6,0,1,-1,0,0,0,-1,0,0,0,0,0,0,0,0,0,0,0,0]], [[0,0,0,1,-1,0,0,0,0,0,0,0,0,0,0,0,0,0,0,0],[5,0,0,0,0,0,0,0,-1,0,0,0,0,0,0,0,0,0,0,0],[5,0,0,0,0,0,-1,0,0,0,0,0,0,0,0,0,0,0,0,0],[3,0,-1,0,1,0,0,0,0,0,0,0,0,0,0,0,0,0,0,0],[0,0,-1,0,0,1,0,0,0,0,0,0,0,0,0,0,0,0,0,0],[10,0,0,-1,0,0,0,0,0,0,0,0,0,0,0,0,0,0,0,0],[4,0,-1,0,0,0,0,0,0,0,0,0,0,0,0,1,0,0,0,0],[4,0,-1,0,0,0,0,0,0,0,0,0,0,0,0,0,0,0,1,0]], 2],
    [[[-9,0,0,1,-1,0,0,1,0,0,0,0,0,0,0,0,0,0,0,0]], [[-3,0,1,0,-1,0,0,0,0,0,0,0,0,0,0,0,0,0,0,0],[0,0,0,1,-1,0,0,0,0,0,0,0,0,0,0,0,0,0,0,0],[5,0,0,0,0,0,0,0,-1,0,0,0,0,0,0,0,0,0,0,0],[5,0,0,0,0,0,-1,0,0,0,0,0,0,0,0,0,0,0,0,0],[-3,0,0,0,-1,1,0,0,0,0,0,0,0,0,0,0,0,0,0,0],[10,0,0,-1,0,0,0,0,0,0,0,0,0,0,0,0,0,0,0,0],[1,0,0,0,-1,0,0,0,0,0,0,0,0,0,0,1,0,0,0,0],[1,0,0,0,-1,0,0,0,0,0,0,0,0,0,0,0,0,0,1,0]], 4],
    [[[-10,0,0,1,0,0,0,1,0,0,0,0,0,0,0,0,0,0,-1,0]], [[6,0,1,-1,0,0,0,-1,0,0,0,0,0,0,0,0,0,0,0,0],[5,0,0,0,0,0,-1,0,0,0,0,0,0,0,0,0,0,0,0,0],[0,0,0,1,-1,0,0,0,0,0,0,0,0,0,0,0,0,0,0,0],[9,0,0,-1,1,0,0,-1,0,0,0,0,0,0,0,0,0,0,0,0],[6,0,0,-1,0,1,0,-1,0,0,0,0,0,0,0,0,0,0,0,0],[10,0,0,-1,0,0,0,0,0,0,0,0,0,0,0,0,0,0,0,0],[5,0,0,0,0,0,0,0,-1,0,0,0,0,0,0,0,0,0,0,0],[10,0,0,-1,0,0,0,-1,0,0,0,0,0,0,0,1,0,0,0,0]], 6],
    [[[-10,0,0,1,0,0,0,1,0,0,0,0,0,0,0,-1,0,0,0,0]], [[6,0,1,-1,0,0,0,-1,0,0,0,0,0,0,0,0,0,0,0,0],[0,0,0,1,-1,0,0,0,0,0,0,0,0,0,0,0,0,0,0,0],[5,0,0,0,0,0,-1,0,0,0,0,0,0,0,0,0,0,0,0,0],[9,0,0,-1,1,0,0,-1,0,0,0,0,0,0,0,0,0,0,0,0],[6,0,0,-1,0,1,0,-1,0,0,0,0,0,0,0,0,0,0,0,0],[10,0,0,-1,0,0,0,0,0,0,0,0,0,0,0,0,0,0,0,0],[10,0,0,-1,0,0,0,-1,0,0,0,0,0,0,0,0,0,0,1,0],[5,0,0,0,0,0,0,0,-1,0,0,0,0,0,0,0,0,0,0,0]], 7],
    [[[-6,0,0,1,0,-1,0,1,0,0,0,0,0,0,0,0,0,0,0,0]], [[0,0,1,0,0,-1,0,0,0,0,0,0,0,0,0,0,0,0,0,0],[5,0,0,0,0,0,-1,0,0,0,0,0,0,0,0,0,0,0,0,0],[3,0,0,0,1,-1,0,0,0,0,0,0,0,0,0,0,0,0,0,0],[5,0,0,0,0,0,0,0,-1,0,0,0,0,0,0,0,0,0,0,0],[10,0,0,-1,0,0,0,0,0,0,0,0,0,0,0,0,0,0,0,0],[4,0,0,0,0,-1,0,0,0,0,0,0,0,0,0,1,0,0,0,0],[4,0,0,0,0,-1,0,0,0,0,0,0,0,0,0,0,0,0,1,0],[0,0,0,-1,1,0,0,0,0,0,0,0,0,0,0,0,0,0,0,0]], 37],
    [[[6,0,1,-1,0,0,0,-1,0,0,0,0,0,0,0,0,0,0,0,0]], [[5,0,0,0,0,0,0,0,-1,0,0,0,0,0,0,0,0,0,0,0],[5,0,0,0,0,0,-1,0,0,0,0,0,0,0,0,0,0,0,0,0],[0,0,0,-1,1,0,0,0,0,0,0,0,0,0,0,0,0,0,0,0],[3,0,-1,0,1,0,0,0,0,0,0,0,0,0,0,0,0,0,0,0],[0,0,-1,0,0,1,0,0,0,0,0,0,0,0,0,0,0,0,0,0],[10,0,0,-1,0,0,0,0,0,0,0,0,0,0,0,0,0,0,0,0],[4,0,-1,0,0,0,0,0,0,0,0,0,0,0,0,1,0,0,0,0],[4,0,-1,0,0,0,0,0,0,0,0,0,0,0,0,0,0,0,1,0]], 39],
    [[[-9,0,0,1,-1,0,0,1,0,0,0,0,0,0,0,0,0,0,0,0]], [[-3,0,1,0,-1,0,0,0,0,0,0,0,0,0,0,0,0,0,0,0],[5,0,0,0,0,0,0,0,-1,0,0,0,0,0,0,0,0,0,0,0],[5,0,0,0,0,0,-1,0,0,0,0,0,0,0,0,0,0,0,0,0],[-3,0,0,0,-1,1,0,0,0,0,0,0,0,0,0,0,0,0,0,0],[10,0,0,-1,0,0,0,0,0,0,0,0,0,0,0,0,0,0,0,0],[1,0,0,0,-1,0,0,0,0,0,0,0,0,0,0,1,0,0,0,0],[1,0,0,0,-1,0,0,0,0,0,0,0,0,0,0,0,0,0,1,0],[0,0,0,-1,1,0,0,0,0,0,0,0,0,0,0,0,0,0,0,0]], 41],
    [[[-10,0,0,1,0,0,0,1,0,0,0,0,0,0,0,0,0,0,-1,0]], [[6,0,1,-1,0,0,0,-1,0,0,0,0,0,0,0,0,0,0,0,0],[9,0,0,-1,1,0,0,-1,0,0,0,0,0,0,0,0,0,0,0,0],[6,0,0,-1,0,1,0,-1,0,0,0,0,0,0,0,0,0,0,0,0],[10,0,0,-1,0,0,0,0,0,0,0,0,0,0,0,0,0,0,0,0],[10,0,0,-1,0,0,0,-1,0,0,0,0,0,0,0,1,0,0,0,0],[5,0,0,0,0,0,0,0,-1,0,0,0,0,0,0,0,0,0,0,0],[5,0,0,0,0,0,-1,0,0,0,0,0,0,0,0,0,0,0,0,0],[0,0,0,-1,1,0,0,0,0,0,0,0,0,0,0,0,0,0,0,0]], 44],
    [[[-10,0,0,1,0,0,0,1,0,0,0,0,0,0,0,-1,0,0,0,0]], [[6,0,1,-1,0,0,0,-1,0,0,0,0,0,0,0,0,0,0,0,0],[9,0,0,-1,1,0,0,-1,0,0,0,0,0,0,0,0,0,0,0,0],[6,0,0,-1,0,1,0,-1,0,0,0,0,0,0,0,0,0,0,0,0],[10,0,0,-1,0,0,0,0,0,0,0,0,0,0,0,0,0,0,0,0],[10,0,0,-1,0,0,0,-1,0,0,0,0,0,0,0,0,0,0,1,0],[5,0,0,0,0,0,0,0,-1,0,0,0,0,0,0,0,0,0,0,0],[5,0,0,0,0,0,-1,0,0,0,0,0,0,0,0,0,0,0,0,0],[0,0,0,-1,1,0,0,0,0,0,0,0,0,0,0,0,0,0,0,0]], 45],
    [[[-1,0,0,1,0,-1,-1,1,0,0,0,0,0,0,0,0,0,0,0,0]], [[5,0,1,0,0,-1,-1,0,0,0,0,0,0,0,0,0,0,0,0,0],[-5,0,0,0,0,0,1,0,0,0,0,0,0,0,0,0,0,0,0,0],[9,0,0,0,0,-1,-1,0,0,0,0,0,0,0,0,0,0,0,1,0],[9,0,0,0,0,-1,-1,0,0,0,0,0,0,0,0,1,0,0,0,0],[10,0,0,-1,0,0,0,0,0,0,0,0,0,0,0,0,0,0,0,0],[0,0,0,1,-1,0,0,0,0,0,0,0,0,0,0,0,0,0,0,0],[8,0,0,0,1,-1,-1,0,0,0,0,0,0,0,0,0,0,0,0,0],[5,0,0,0,0,0,0,0,-1,0,0,0,0,0,0,0,0,0,0,0]], 72],
    [[[6,0,1,-1,0,0,0,-1,0,0,0,0,0,0,0,0,0,0,0,0]], [[0,0,0,1,-1,0,0,0,0,0,0,0,0,0,0,0,0,0,0,0],[-5,0,0,0,0,0,1,0,0,0,0,0,0,0,0,0,0,0,0,0],[4,0,-1,0,0,0,0,0,0,0,0,0,0,0,0,0,0,0,1,0],[4,0,-1,0,0,0,0,0,0,0,0,0,0,0,0,1,0,0,0,0],[10,0,0,-1,0,0,0,0,0,0,0,0,0,0,0,0,0,0,0,0],[5,0,0,0,0,0,0,0,-1,0,0,0,0,0,0,0,0,0,0,0],[3,0,-1,0,1,0,0,0,0,0,0,0,0,0,0,0,0,0,0,0],[-5,0,-1,0,0,1,1,0,0,0,0,0,0,0,0,0,0,0,0,0]], 84],
    [[[-9,0,0,1,-1,0,0,1,0,0,0,0,0,0,0,0,0,0,0,0]], [[-3,0,1,0,-1,0,0,0,0,0,0,0,0,0,0,0,0,0,0,0],[0,0,0,1,-1,0,0,0,0,0,0,0,0,0,0,0,0,0,0,0],[1,0,0,0,-1,0,0,0,0,0,0,0,0,0,0,0,0,0,1,0],[1,0,0,0,-1,0,0,0,0,0,0,0,0,0,0,1,0,0,0,0],[-5,0,0,0,0,0,1,0,0,0,0,0,0,0,0,0,0,0,0,0],[10,0,0,-1,0,0,0,0,0,0,0,0,0,0,0,0,0,0,0,0],[5,0,0,0,0,0,0,0,-1,0,0,0,0,0,0,0,0,0,0,0],[-8,0,0,0,-1,1,1,0,0,0,0,0,0,0,0,0,0,0,0,0]], 88],
    [[[-10,0,0,1,0,0,0,1,0,0,0,0,0,0,0,0,0,0,-1,0]], [[5,0,0,0,0,0,0,0,-1,0,0,0,0,0,0,0,0,0,0,0],[6,0,1,-1,0,0,0,-1,0,0,0,0,0,0,0,0,0,0,0,0],[10,0,0,-1,0,0,0,-1,0,0,0,0,0,0,0,1,0,0,0,0],[10,0,0,-1,0,0,0,0,0,0,0,0,0,0,0,0,0,0,0,0],[0,0,0,1,-1,0,0,0,0,0,0,0,0,0,0,0,0,0,0,0],[9,0,0,-1,1,0,0,-1,0,0,0,0,0,0,0,0,0,0,0,0],[-5,0,0,0,0,0,1,0,0,0,0,0,0,0,0,0,0,0,0,0],[1,0,0,-1,0,1,1,-1,0,0,0,0,0,0,0,0,0,0,0,0]], 92],
    [[[-10,0,0,1,0,0,0,1,0,0,0,0,0,0,0,-1,0,0,0,0]], [[6,0,1,-1,0,0,0,-1,0,0,0,0,0,0,0,0,0,0,0,0],[5,0,0,0,0,0,0,0,-1,0,0,0,0,0,0,0,0,0,0,0],[10,0,0,-1,0,0,0,-1,0,0,0,0,0,0,0,0,0,0,1,0],[10,0,0,-1,0,0,0,0,0,0,0,0,0,0,0,0,0,0,0,0],[0,0,0,1,-1,0,0,0,0,0,0,0,0,0,0,0,0,0,0,0],[9,0,0,-1,1,0,0,-1,0,0,0,0,0,0,0,0,0,0,0,0],[1,0,0,-1,0,1,1,-1,0,0,0,0,0,0,0,0,0,0,0,0],[-5,0,0,0,0,0,1,0,0,0,0,0,0,0,0,0,0,0,0,0]], 93],
    [[[-6,0,0,1,0,-1,0,1,0,0,0,0,0,0,0,0,0,0,0,0]], [[-5,0,0,0,0,0,0,0,1,0,0,0,0,0,0,0,0,0,0,0],[3,0,0,0,1,-1,0,0,0,0,0,0,0,0,0,0,0,0,0,0],[0,0,1,0,0,-1,0,0,0,0,0,0,0,0,0,0,0,0,0,0],[5,0,0,-1,0,0,0,0,1,0,0,0,0,0,0,0,0,0,0,0],[5,0,0,0,0,0,-1,0,0,0,0,0,0,0,0,0,0,0,0,0],[0,0,0,1,-1,0,0,0,0,0,0,0,0,0,0,0,0,0,0,0],[4,0,0,0,0,-1,0,0,0,0,0,0,0,0,0,0,0,0,1,0],[4,0,0,0,0,-1,0,0,0,0,0,0,0,0,0,1,0,0,0,0],[13,0,0,-1,0,0,0,0,0,0,0,0,0,0,0,0,0,0,0,0]], 118],
    [[[6,0,1,-1,0,0,0,-1,0,0,0,0,0,0,0,0,0,0,0,0]], [[3,0,-1,0,1,0,0,0,0,0,0,0,0,0,0,0,0,0,0,0],[0,0,-1,0,0,1,0,0,0,0,0,0,0,0,0,0,0,0,0,0],[0,0,0,1,-1,0,0,0,0,0,0,0,0,0,0,0,0,0,0,0],[5,0,0,-1,0,0,0,0,1,0,0,0,0,0,0,0,0,0,0,0],[-5,0,0,0,0,0,0,0,1,0,0,0,0,0,0,0,0,0,0,0],[13,0,0,-1,0,0,0,0,0,0,0,0,0,0,0,0,0,0,0,0],[4,0,-1,0,0,0,0,0,0,0,0,0,0,0,0,0,0,0,1,0],[4,0,-1,0,0,0,0,0,0,0,0,0,0,0,0,1,0,0,0,0],[5,0,0,0,0,0,-1,0,0,0,0,0,0,0,0,0,0,0,0,0]], 121],
    [[[-9,0,0,1,-1,0,0,1,0,0,0,0,0,0,0,0,0,0,0,0]], [[5,0,0,0,0,0,-1,0,0,0,0,0,0,0,0,0,0,0,0,0],[-3,0,1,0,-1,0,0,0,0,0,0,0,0,0,0,0,0,0,0,0],[-3,0,0,0,-1,1,0,0,0,0,0,0,0,0,0,0,0,0,0,0],[0,0,0,1,-1,0,0,0,0,0,0,0,0,0,0,0,0,0,0,0],[-5,0,0,0,0,0,0,0,1,0,0,0,0,0,0,0,0,0,0,0],[5,0,0,-1,0,0,0,0,1,0,0,0,0,0,0,0,0,0,0,0],[1,0,0,0,-1,0,0,0,0,0,0,0,0,0,0,0,0,0,1,0],[1,0,0,0,-1,0,0,0,0,0,0,0,0,0,0,1,0,0,0,0],[13,0,0,-1,0,0,0,0,0,0,0,0,0,0,0,0,0,0,0,0]], 125],
    [[[-10,0,0,1,0,0,0,1,0,0,0,0,0,0,0,0,0,0,-1,0]], [[5,0,0,0,0,0,-1,0,0,0,0,0,0,0,0,0,0,0,0,0],[9,0,0,-1,1,0,0,-1,0,0,0,0,0,0,0,0,0,0,0,0],[6,0,1,-1,0,0,0,-1,0,0,0,0,0,0,0,0,0,0,0,0],[6,0,0,-1,0,1,0,-1,0,0,0,0,0,0,0,0,0,0,0,0],[0,0,0,1,-1,0,0,0,0,0,0,0,0,0,0,0,0,0,0,0],[5,0,0,-1,0,0,0,0,1,0,0,0,0,0,0,0,0,0,0,0],[10,0,0,-1,0,0,0,-1,0,0,0,0,0,0,0,1,0,0,0,0],[-5,0,0,0,0,0,0,0,1,0,0,0,0,0,0,0,0,0,0,0],[13,0,0,-1,0,0,0,0,0,0,0,0,0,0,0,0,0,0,0,0]], 130],
    [[[-10,0,0,1,0,0,0,1,0,0,0,0,0,0,0,-1,0,0,0,0]], [[9,0,0,-1,1,0,0,-1,0,0,0,0,0,0,0,0,0,0,0,0],[5,0,0,0,0,0,-1,0,0,0,0,0,0,0,0,0,0,0,0,0],[6,0,1,-1,0,0,0,-1,0,0,0,0,0,0,0,0,0,0,0,0],[6,0,0,-1,0,1,0,-1,0,0,0,0,0,0,0,0,0,0,0,0],[0,0,0,1,-1,0,0,0,0,0,0,0,0,0,0,0,0,0,0,0],[5,0,0,-1,0,0,0,0,1,0,0,0,0,0,0,0,0,0,0,0],[10,0,0,-1,0,0,0,-1,0,0,0,0,0,0,0,0,0,0,1,0],[13,0,0,-1,0,0,0,0,0,0,0,0,0,0,0,0,0,0,0,0],[-5,0,0,0,0,0,0,0,1,0,0,0,0,0,0,0,0,0,0,0]], 131],
    [[[-1,0,0,1,0,-1,-1,1,0,0,0,0,0,0,0,0,0,0,0,0]], [[5,0,1,0,0,-1,-1,0,0,0,0,0,0,0,0,0,0,0,0,0],[-5,0,0,0,0,0,1,0,0,0,0,0,0,0,0,0,0,0,0,0],[8,0,0,0,1,-1,-1,0,0,0,0,0,0,0,0,0,0,0,0,0],[5,0,0,0,0,0,0,0,-1,0,0,0,0,0,0,0,0,0,0,0],[10,0,0,-1,0,0,0,0,0,0,0,0,0,0,0,0,0,0,0,0],[9,0,0,0,0,-1,-1,0,0,0,0,0,0,0,0,1,0,0,0,0],[9,0,0,0,0,-1,-1,0,0,0,0,0,0,0,0,0,0,0,1,0],[0,0,0,-1,1,0,0,0,0,0,0,0,0,0,0,0,0,0,0,0]], 145],
    [[[6,0,1,-1,0,0,0,-1,0,0,0,0,0,0,0,0,0,0,0,0]], [[-5,0,0,0,0,0,1,0,0,0,0,0,0,0,0,0,0,0,0,0],[5,0,0,0,0,0,0,0,-1,0,0,0,0,0,0,0,0,0,0,0],[0,0,0,-1,1,0,0,0,0,0,0,0,0,0,0,0,0,0,0,0],[3,0,-1,0,1,0,0,0,0,0,0,0,0,0,0,0,0,0,0,0],[-5,0,-1,0,0,1,1,0,0,0,0,0,0,0,0,0,0,0,0,0],[10,0,0,-1,0,0,0,0,0,0,0,0,0,0,0,0,0,0,0,0],[4,0,-1,0,0,0,0,0,0,0,0,0,0,0,0,1,0,0,0,0],[4,0,-1,0,0,0,0,0,0,0,0,0,0,0,0,0,0,0,1,0]], 158],
    [[[-9,0,0,1,-1,0,0,1,0,0,0,0,0,0,0,0,0,0,0,0]], [[-3,0,1,0,-1,0,0,0,0,0,0,0,0,0,0,0,0,0,0,0],[-5,0,0,0,0,0,1,0,0,0,0,0,0,0,0,0,0,0,0,0],[5,0,0,0,0,0,0,0,-1,0,0,0,0,0,0,0,0,0,0,0],[-8,0,0,0,-1,1,1,0,0,0,0,0,0,0,0,0,0,0,0,0],[10,0,0,-1,0,0,0,0,0,0,0,0,0,0,0,0,0,0,0,0],[1,0,0,0,-1,0,0,0,0,0,0,0,0,0,0,1,0,0,0,0],[1,0,0,0,-1,0,0,0,0,0,0,0,0,0,0,0,0,0,1,0],[0,0,0,-1,1,0,0,0,0,0,0,0,0,0,0,0,0,0,0,0]], 162],
    [[[-10,0,0,1,0,0,0,1,0,0,0,0,0,0,0,0,0,0,-1,0]], [[6,0,1,-1,0,0,0,-1,0,0,0,0,0,0,0,0,0,0,0,0],[0,0,0,-1,1,0,0,0,0,0,0,0,0,0,0,0,0,0,0,0],[9,0,0,-1,1,0,0,-1,0,0,0,0,0,0,0,0,0,0,0,0],[1,0,0,-1,0,1,1,-1,0,0,0,0,0,0,0,0,0,0,0,0],[-5,0,0,0,0,0,1,0,0,0,0,0,0,0,0,0,0,0,0,0],[10,0,0,-1,0,0,0,0,0,0,0,0,0,0,0,0,0,0,0,0],[10,0,0,-1,0,0,0,-1,0,0,0,0,0,0,0,1,0,0,0,0],[5,0,0,0,0,0,0,0,-1,0,0,0,0,0,0,0,0,0,0,0]], 168],
    [[[-10,0,0,1,0,0,0,1,0,0,0,0,0,0,0,-1,0,0,0,0]], [[6,0,1,-1,0,0,0,-1,0,0,0,0,0,0,0,0,0,0,0,0],[9,0,0,-1,1,0,0,-1,0,0,0,0,0,0,0,0,0,0,0,0],[0,0,0,-1,1,0,0,0,0,0,0,0,0,0,0,0,0,0,0,0],[1,0,0,-1,0,1,1,-1,0,0,0,0,0,0,0,0,0,0,0,0],[-5,0,0,0,0,0,1,0,0,0,0,0,0,0,0,0,0,0,0,0],[10,0,0,-1,0,0,0,0,0,0,0,0,0,0,0,0,0,0,0,0],[10,0,0,-1,0,0,0,-1,0,0,0,0,0,0,0,0,0,0,1,0],[5,0,0,0,0,0,0,0,-1,0,0,0,0,0,0,0,0,0,0,0]], 169],
    [[[-6,0,0,1,0,-1,0,1,0,0,0,0,0,0,0,0,0,0,0,0]], [[0,0,1,0,0,-1,0,0,0,0,0,0,0,0,0,0,0,0,0,0],[4,0,0,0,0,-1,0,0,0,0,0,0,0,0,0,0,0,0,1,0],[0,0,0,-1,1,0,0,0,0,0,0,0,0,0,0,0,0,0,0,0],[5,0,0,0,0,0,-1,0,0,0,0,0,0,0,0,0,0,0,0,0],[3,0,0,0,1,-1,0,0,0,0,0,0,0,0,0,0,0,0,0,0],[4,0,0,0,0,-1,0,0,0,0,0,0,0,0,0,1,0,0,0,0],[13,0,0,-1,0,0,0,0,0,0,0,0,0,0,0,0,0,0,0,0],[5,0,0,-1,0,0,0,0,1,0,0,0,0,0,0,0,0,0,0,0],[-5,0,0,0,0,0,0,0,1,0,0,0,0,0,0,0,0,0,0,0]], 191],
    [[[6,0,1,-1,0,0,0,-1,0,0,0,0,0,0,0,0,0,0,0,0]], [[-5,0,0,0,0,0,0,0,1,0,0,0,0,0,0,0,0,0,0,0],[5,0,0,0,0,0,-1,0,0,0,0,0,0,0,0,0,0,0,0,0],[0,0,0,-1,1,0,0,0,0,0,0,0,0,0,0,0,0,0,0,0],[3,0,-1,0,1,0,0,0,0,0,0,0,0,0,0,0,0,0,0,0],[4,0,-1,0,0,0,0,0,0,0,0,0,0,0,0,0,0,0,1,0],[4,0,-1,0,0,0,0,0,0,0,0,0,0,0,0,1,0,0,0,0],[13,0,0,-1,0,0,0,0,0,0,0,0,0,0,0,0,0,0,0,0],[5,0,0,-1,0,0,0,0,1,0,0,0,0,0,0,0,0,0,0,0],[0,0,-1,0,0,1,0,0,0,0,0,0,0,0,0,0,0,0,0,0]], 195],
    [[[-9,0,0,1,-1,0,0,1,0,0,0,0,0,0,0,0,0,0,0,0]], [[-3,0,1,0,-1,0,0,0,0,0,0,0,0,0,0,0,0,0,0,0],[0,0,0,-1,1,0,0,0,0,0,0,0,0,0,0,0,0,0,0,0],[1,0,0,0,-1,0,0,0,0,0,0,0,0,0,0,0,0,0,1,0],[-5,0,0,0,0,0,0,0,1,0,0,0,0,0,0,0,0,0,0,0],[5,0,0,0,0,0,-1,0,0,0,0,0,0,0,0,0,0,0,0,0],[-3,0,0,0,-1,1,0,0,0,0,0,0,0,0,0,0,0,0,0,0],[1,0,0,0,-1,0,0,0,0,0,0,0,0,0,0,1,0,0,0,0],[13,0,0,-1,0,0,0,0,0,0,0,0,0,0,0,0,0,0,0,0],[5,0,0,-1,0,0,0,0,1,0,0,0,0,0,0,0,0,0,0,0]], 199],
    [[[-10,0,0,1,0,0,0,1,0,0,0,0,0,0,0,0,0,0,-1,0]], [[5,0,0,0,0,0,-1,0,0,0,0,0,0,0,0,0,0,0,0,0],[6,0,1,-1,0,0,0,-1,0,0,0,0,0,0,0,0,0,0,0,0],[10,0,0,-1,0,0,0,-1,0,0,0,0,0,0,0,1,0,0,0,0],[-5,0,0,0,0,0,0,0,1,0,0,0,0,0,0,0,0,0,0,0],[9,0,0,-1,1,0,0,-1,0,0,0,0,0,0,0,0,0,0,0,0],[13,0,0,-1,0,0,0,0,0,0,0,0,0,0,0,0,0,0,0,0],[0,0,0,-1,1,0,0,0,0,0,0,0,0,0,0,0,0,0,0,0],[5,0,0,-1,0,0,0,0,1,0,0,0,0,0,0,0,0,0,0,0],[6,0,0,-1,0,1,0,-1,0,0,0,0,0,0,0,0,0,0,0,0]], 206],
    [[[-10,0,0,1,0,0,0,1,0,0,0,0,0,0,0,-1,0,0,0,0]], [[6,0,1,-1,0,0,0,-1,0,0,0,0,0,0,0,0,0,0,0,0],[5,0,0,0,0,0,-1,0,0,0,0,0,0,0,0,0,0,0,0,0],[10,0,0,-1,0,0,0,-1,0,0,0,0,0,0,0,0,0,0,1,0],[-5,0,0,0,0,0,0,0,1,0,0,0,0,0,0,0,0,0,0,0],[9,0,0,-1,1,0,0,-1,0,0,0,0,0,0,0,0,0,0,0,0],[13,0,0,-1,0,0,0,0,0,0,0,0,0,0,0,0,0,0,0,0],[5,0,0,-1,0,0,0,0,1,0,0,0,0,0,0,0,0,0,0,0],[0,0,0,-1,1,0,0,0,0,0,0,0,0,0,0,0,0,0,0,0],[6,0,0,-1,0,1,0,-1,0,0,0,0,0,0,0,0,0,0,0,0]], 207],
    [[[-4,0,0,0,0,1,0,-1,0,0,0,0,0,0,0,0,0,0,0,0]], [[0,0,1,0,0,-1,0,0,0,0,0,0,0,0,0,0,0,0,0,0],[-10,0,0,1,0,0,0,0,0,0,0,0,0,0,0,0,0,0,0,0],[0,0,0,1,-1,0,0,0,0,0,0,0,0,0,0,0,0,0,0,0],[3,0,0,0,1,-1,0,0,0,0,0,0,0,0,0,0,0,0,0,0],[5,0,0,0,0,0,0,0,-1,0,0,0,0,0,0,0,0,0,0,0],[5,0,0,0,0,0,-1,0,0,0,0,0,0,0,0,0,0,0,0,0],[4,0,0,0,0,-1,0,0,0,0,0,0,0,0,0,1,0,0,0,0],[4,0,0,0,0,-1,0,0,0,0,0,0,0,0,0,0,0,0,1,0]], 216],
    [[[-9,0,0,0,0,1,1,-1,0,0,0,0,0,0,0,0,0,0,0,0]], [[5,0,1,0,0,-1,-1,0,0,0,0,0,0,0,0,0,0,0,0,0],[-10,0,0,1,0,0,0,0,0,0,0,0,0,0,0,0,0,0,0,0],[9,0,0,0,0,-1,-1,0,0,0,0,0,0,0,0,0,0,0,1,0],[9,0,0,0,0,-1,-1,0,0,0,0,0,0,0,0,1,0,0,0,0],[0,0,0,1,-1,0,0,0,0,0,0,0,0,0,0,0,0,0,0,0],[8,0,0,0,1,-1,-1,0,0,0,0,0,0,0,0,0,0,0,0,0],[5,0,0,0,0,0,0,0,-1,0,0,0,0,0,0,0,0,0,0,0],[-5,0,0,0,0,0,1,0,0,0,0,0,0,0,0,0,0,0,0,0]], 220],
    [[[-4,0,0,0,0,1,0,-1,0,0,0,0,0,0,0,0,0,0,0,0]], [[0,0,1,0,0,-1,0,0,0,0,0,0,0,0,0,0,0,0,0,0],[-10,0,0,1,0,0,0,0,0,0,0,0,0,0,0,0,0,0,0,0],[3,0,0,0,1,-1,0,0,0,0,0,0,0,0,0,0,0,0,0,0],[5,0,0,0,0,0,0,0,-1,0,0,0,0,0,0,0,0,0,0,0],[4,0,0,0,0,-1,0,0,0,0,0,0,0,0,0,1,0,0,0,0],[4,0,0,0,0,-1,0,0,0,0,0,0,0,0,0,0,0,0,1,0],[5,0,0,0,0,0,-1,0,0,0,0,0,0,0,0,0,0,0,0,0],[0,0,0,-1,1,0,0,0,0,0,0,0,0,0,0,0,0,0,0,0]], 223],
    [[[-9,0,0,0,0,1,1,-1,0,0,0,0,0,0,0,0,0,0,0,0]], [[5,0,1,0,0,-1,-1,0,0,0,0,0,0,0,0,0,0,0,0,0],[-10,0,0,1,0,0,0,0,0,0,0,0,0,0,0,0,0,0,0,0],[8,0,0,0,1,-1,-1,0,0,0,0,0,0,0,0,0,0,0,0,0],[5,0,0,0,0,0,0,0,-1,0,0,0,0,0,0,0,0,0,0,0],[-5,0,0,0,0,0,1,0,0,0,0,0,0,0,0,0,0,0,0,0],[0,0,0,-1,1,0,0,0,0,0,0,0,0,0,0,0,0,0,0,0],[9,0,0,0,0,-1,-1,0,0,0,0,0,0,0,0,1,0,0,0,0],[9,0,0,0,0,-1,-1,0,0,0,0,0,0,0,0,0,0,0,1,0]], 227],
    [[[-4,0,1,0,0,0,0,-1,0,0,0,0,0,0,0,0,0,0,0,0]], [[5,0,0,0,0,0,0,0,-1,0,0,0,0,0,0,0,0,0,0,0],[-10,0,0,1,0,0,0,0,0,0,0,0,0,0,0,0,0,0,0,0],[0,0,0,1,-1,0,0,0,0,0,0,0,0,0,0,0,0,0,0,0],[3,0,-1,0,1,0,0,0,0,0,0,0,0,0,0,0,0,0,0,0],[0,0,-1,0,0,1,0,0,0,0,0,0,0,0,0,0,0,0,0,0],[5,0,0,0,0,0,-1,0,0,0,0,0,0,0,0,0,0,0,0,0],[4,0,-1,0,0,0,0,0,0,0,0,0,0,0,0,1,0,0,0,0],[4,0,-1,0,0,0,0,0,0,0,0,0,0,0,0,0,0,0,1,0]], 228],
    [[[-4,0,1,0,0,0,0,-1,0,0,0,0,0,0,0,0,0,0,0,0]], [[5,0,0,0,0,0,0,0,-1,0,0,0,0,0,0,0,0,0,0,0],[-10,0,0,1,0,0,0,0,0,0,0,0,0,0,0,0,0,0,0,0],[3,0,-1,0,1,0,0,0,0,0,0,0,0,0,0,0,0,0,0,0],[0,0,-1,0,0,1,0,0,0,0,0,0,0,0,0,0,0,0,0,0],[4,0,-1,0,0,0,0,0,0,0,0,0,0,0,0,1,0,0,0,0],[4,0,-1,0,0,0,0,0,0,0,0,0,0,0,0,0,0,0,1,0],[5,0,0,0,0,0,-1,0,0,0,0,0,0,0,0,0,0,0,0,0],[0,0,0,-1,1,0,0,0,0,0,0,0,0,0,0,0,0,0,0,0]], 235],
    [[[-1,0,0,0,1,0,0,-1,0,0,0,0,0,0,0,0,0,0,0,0]], [[-3,0,1,0,-1,0,0,0,0,0,0,0,0,0,0,0,0,0,0,0],[-10,0,0,1,0,0,0,0,0,0,0,0,0,0,0,0,0,0,0,0],[0,0,0,1,-1,0,0,0,0,0,0,0,0,0,0,0,0,0,0,0],[5,0,0,0,0,0,0,0,-1,0,0,0,0,0,0,0,0,0,0,0],[-3,0,0,0,-1,1,0,0,0,0,0,0,0,0,0,0,0,0,0,0],[5,0,0,0,0,0,-1,0,0,0,0,0,0,0,0,0,0,0,0,0],[1,0,0,0,-1,0,0,0,0,0,0,0,0,0,0,1,0,0,0,0],[1,0,0,0,-1,0,0,0,0,0,0,0,0,0,0,0,0,0,1,0]], 240],
    [[[-1,0,0,0,1,0,0,-1,0,0,0,0,0,0,0,0,0,0,0,0]], [[-3,0,1,0,-1,0,0,0,0,0,0,0,0,0,0,0,0,0,0,0],[-10,0,0,1,0,0,0,0,0,0,0,0,0,0,0,0,0,0,0,0],[5,0,0,0,0,0,0,0,-1,0,0,0,0,0,0,0,0,0,0,0],[-3,0,0,0,-1,1,0,0,0,0,0,0,0,0,0,0,0,0,0,0],[1,0,0,0,-1,0,0,0,0,0,0,0,0,0,0,1,0,0,0,0],[1,0,0,0,-1,0,0,0,0,0,0,0,0,0,0,0,0,0,1,0],[5,0,0,0,0,0,-1,0,0,0,0,0,0,0,0,0,0,0,0,0],[0,0,0,-1,1,0,0,0,0,0,0,0,0,0,0,0,0,0,0,0]], 247],
    [[[0,0,0,0,0,0,0,1,0,0,0,0,0,0,0,0,0,0,-1,0]], [[-4,0,1,0,0,0,0,-1,0,0,0,0,0,0,0,0,0,0,0,0],[-10,0,0,1,0,0,0,0,0,0,0,0,0,0,0,0,0,0,0,0],[5,0,0,0,0,0,-1,0,0,0,0,0,0,0,0,0,0,0,0,0],[0,0,0,1,-1,0,0,0,0,0,0,0,0,0,0,0,0,0,0,0],[-1,0,0,0,1,0,0,-1,0,0,0,0,0,0,0,0,0,0,0,0],[-4,0,0,0,0,1,0,-1,0,0,0,0,0,0,0,0,0,0,0,0],[5,0,0,0,0,0,0,0,-1,0,0,0,0,0,0,0,0,0,0,0],[0,0,0,0,0,0,0,-1,0,0,0,0,0,0,0,1,0,0,0,0]], 252],
    [[[0,0,0,0,0,0,0,1,0,0,0,0,0,0,0,-1,0,0,0,0]], [[-4,0,1,0,0,0,0,-1,0,0,0,0,0,0,0,0,0,0,0,0],[-10,0,0,1,0,0,0,0,0,0,0,0,0,0,0,0,0,0,0,0],[0,0,0,1,-1,0,0,0,0,0,0,0,0,0,0,0,0,0,0,0],[5,0,0,0,0,0,-1,0,0,0,0,0,0,0,0,0,0,0,0,0],[-1,0,0,0,1,0,0,-1,0,0,0,0,0,0,0,0,0,0,0,0],[-4,0,0,0,0,1,0,-1,0,0,0,0,0,0,0,0,0,0,0,0],[5,0,0,0,0,0,0,0,-1,0,0,0,0,0,0,0,0,0,0,0],[0,0,0,0,0,0,0,-1,0,0,0,0,0,0,0,0,0,0,1,0]], 258],
    [[[1,0,0,0,0,1,0,-1,-1,0,0,0,0,0,0,0,0,0,0,0]], [[0,0,1,0,0,-1,0,0,0,0,0,0,0,0,0,0,0,0,0,0],[-6,0,0,1,0,-1,0,1,0,0,0,0,0,0,0,0,0,0,0,0],[0,0,0,1,-1,0,0,0,0,0,0,0,0,0,0,0,0,0,0,0],[3,0,0,0,1,-1,0,0,0,0,0,0,0,0,0,0,0,0,0,0],[-4,0,0,0,0,1,0,-1,0,0,0,0,0,0,0,0,0,0,0,0],[5,0,0,0,0,0,-1,0,0,0,0,0,0,0,0,0,0,0,0,0],[7,0,0,0,0,-1,0,1,0,0,0,0,0,0,0,0,0,0,0,0],[4,0,0,0,0,-1,0,0,0,0,0,0,0,0,0,0,0,0,1,0],[4,0,0,0,0,-1,0,0,0,0,0,0,0,0,0,1,0,0,0,0]], 266],
    [[[1,0,1,0,0,0,0,-1,-1,0,0,0,0,0,0,0,0,0,0,0]], [[-4,0,1,0,0,0,0,-1,0,0,0,0,0,0,0,0,0,0,0,0],[-6,0,-1,1,0,0,0,1,0,0,0,0,0,0,0,0,0,0,0,0],[0,0,0,1,-1,0,0,0,0,0,0,0,0,0,0,0,0,0,0,0],[3,0,-1,0,1,0,0,0,0,0,0,0,0,0,0,0,0,0,0,0],[0,0,-1,0,0,1,0,0,0,0,0,0,0,0,0,0,0,0,0,0],[5,0,0,0,0,0,-1,0,0,0,0,0,0,0,0,0,0,0,0,0],[7,0,-1,0,0,0,0,1,0,0,0,0,0,0,0,0,0,0,0,0],[4,0,-1,0,0,0,0,0,0,0,0,0,0,0,0,0,0,0,1,0],[4,0,-1,0,0,0,0,0,0,0,0,0,0,0,0,1,0,0,0,0]], 269],
    [[[4,0,0,0,1,0,0,-1,-1,0,0,0,0,0,0,0,0,0,0,0]], [[-3,0,1,0,-1,0,0,0,0,0,0,0,0,0,0,0,0,0,0,0],[-9,0,0,1,-1,0,0,1,0,0,0,0,0,0,0,0,0,0,0,0],[0,0,0,1,-1,0,0,0,0,0,0,0,0,0,0,0,0,0,0,0],[-1,0,0,0,1,0,0,-1,0,0,0,0,0,0,0,0,0,0,0,0],[-3,0,0,0,-1,1,0,0,0,0,0,0,0,0,0,0,0,0,0,0],[5,0,0,0,0,0,-1,0,0,0,0,0,0,0,0,0,0,0,0,0],[4,0,0,0,-1,0,0,1,0,0,0,0,0,0,0,0,0,0,0,0],[1,0,0,0,-1,0,0,0,0,0,0,0,0,0,0,0,0,0,1,0],[1,0,0,0,-1,0,0,0,0,0,0,0,0,0,0,1,0,0,0,0]], 273],
    [[[-5,0,0,0,0,0,0,1,1,0,0,0,0,0,0,0,0,0,-1,0]], [[5,0,0,0,0,0,-1,0,0,0,0,0,0,0,0,0,0,0,0,0],[1,0,1,0,0,0,0,-1,-1,0,0,0,0,0,0,0,0,0,0,0],[-5,0,0,1,0,0,0,0,-1,0,0,0,0,0,0,0,0,0,0,0],[0,0,0,1,-1,0,0,0,0,0,0,0,0,0,0,0,0,0,0,0],[4,0,0,0,1,0,0,-1,-1,0,0,0,0,0,0,0,0,0,0,0],[1,0,0,0,0,1,0,-1,-1,0,0,0,0,0,0,0,0,0,0,0],[5,0,0,0,0,0,0,-1,-1,0,0,0,0,0,0,1,0,0,0,0],[-5,0,0,0,0,0,0,0,1,0,0,0,0,0,0,0,0,0,0,0],[8,0,0,0,0,0,0,0,-1,0,0,0,0,0,0,0,0,0,0,0]], 278],
    [[[-5,0,0,0,0,0,0,1,1,0,0,0,0,0,0,-1,0,0,0,0]], [[1,0,1,0,0,0,0,-1,-1,0,0,0,0,0,0,0,0,0,0,0],[5,0,0,0,0,0,-1,0,0,0,0,0,0,0,0,0,0,0,0,0],[-5,0,0,1,0,0,0,0,-1,0,0,0,0,0,0,0,0,0,0,0],[0,0,0,1,-1,0,0,0,0,0,0,0,0,0,0,0,0,0,0,0],[4,0,0,0,1,0,0,-1,-1,0,0,0,0,0,0,0,0,0,0,0],[1,0,0,0,0,1,0,-1,-1,0,0,0,0,0,0,0,0,0,0,0],[5,0,0,0,0,0,0,-1,-1,0,0,0,0,0,0,0,0,0,1,0],[8,0,0,0,0,0,0,0,-1,0,0,0,0,0,0,0,0,0,0,0],[-5,0,0,0,0,0,0,0,1,0,0,0,0,0,0,0,0,0,0,0]], 279],
    [[[0,0,0,0,0,0,0,1,0,0,0,0,0,0,0,0,0,0,-1,0]], [[-4,0,1,0,0,0,0,-1,0,0,0,0,0,0,0,0,0,0,0,0],[-10,0,0,1,0,0,0,0,0,0,0,0,0,0,0,0,0,0,0,0],[-1,0,0,0,1,0,0,-1,0,0,0,0,0,0,0,0,0,0,0,0],[-4,0,0,0,0,1,0,-1,0,0,0,0,0,0,0,0,0,0,0,0],[0,0,0,0,0,0,0,-1,0,0,0,0,0,0,0,1,0,0,0,0],[5,0,0,0,0,0,0,0,-1,0,0,0,0,0,0,0,0,0,0,0],[5,0,0,0,0,0,-1,0,0,0,0,0,0,0,0,0,0,0,0,0],[0,0,0,-1,1,0,0,0,0,0,0,0,0,0,0,0,0,0,0,0]], 292],
    [[[0,0,0,0,0,0,0,1,0,0,0,0,0,0,0,-1,0,0,0,0]], [[-4,0,1,0,0,0,0,-1,0,0,0,0,0,0,0,0,0,0,0,0],[-10,0,0,1,0,0,0,0,0,0,0,0,0,0,0,0,0,0,0,0],[-1,0,0,0,1,0,0,-1,0,0,0,0,0,0,0,0,0,0,0,0],[-4,0,0,0,0,1,0,-1,0,0,0,0,0,0,0,0,0,0,0,0],[0,0,0,0,0,0,0,-1,0,0,0,0,0,0,0,0,0,0,1,0],[5,0,0,0,0,0,0,0,-1,0,0,0,0,0,0,0,0,0,0,0],[5,0,0,0,0,0,-1,0,0,0,0,0,0,0,0,0,0,0,0,0],[0,0,0,-1,1,0,0,0,0,0,0,0,0,0,0,0,0,0,0,0]], 297],
    [[[1,0,0,0,0,1,0,-1,-1,0,0,0,0,0,0,0,0,0,0,0]], [[0,0,1,0,0,-1,0,0,0,0,0,0,0,0,0,0,0,0,0,0],[-6,0,0,1,0,-1,0,1,0,0,0,0,0,0,0,0,0,0,0,0],[3,0,0,0,1,-1,0,0,0,0,0,0,0,0,0,0,0,0,0,0],[-4,0,0,0,0,1,0,-1,0,0,0,0,0,0,0,0,0,0,0,0],[7,0,0,0,0,-1,0,1,0,0,0,0,0,0,0,0,0,0,0,0],[4,0,0,0,0,-1,0,0,0,0,0,0,0,0,0,1,0,0,0,0],[4,0,0,0,0,-1,0,0,0,0,0,0,0,0,0,0,0,0,1,0],[5,0,0,0,0,0,-1,0,0,0,0,0,0,0,0,0,0,0,0,0],[0,0,0,-1,1,0,0,0,0,0,0,0,0,0,0,0,0,0,0,0]], 303],
    [[[1,0,1,0,0,0,0,-1,-1,0,0,0,0,0,0,0,0,0,0,0]], [[-4,0,1,0,0,0,0,-1,0,0,0,0,0,0,0,0,0,0,0,0],[-6,0,-1,1,0,0,0,1,0,0,0,0,0,0,0,0,0,0,0,0],[3,0,-1,0,1,0,0,0,0,0,0,0,0,0,0,0,0,0,0,0],[0,0,-1,0,0,1,0,0,0,0,0,0,0,0,0,0,0,0,0,0],[7,0,-1,0,0,0,0,1,0,0,0,0,0,0,0,0,0,0,0,0],[4,0,-1,0,0,0,0,0,0,0,0,0,0,0,0,1,0,0,0,0],[4,0,-1,0,0,0,0,0,0,0,0,0,0,0,0,0,0,0,1,0],[5,0,0,0,0,0,-1,0,0,0,0,0,0,0,0,0,0,0,0,0],[0,0,0,-1,1,0,0,0,0,0,0,0,0,0,0,0,0,0,0,0]], 307],
    [[[4,0,0,0,1,0,0,-1,-1,0,0,0,0,0,0,0,0,0,0,0]], [[-3,0,1,0,-1,0,0,0,0,0,0,0,0,0,0,0,0,0,0,0],[-9,0,0,1,-1,0,0,1,0,0,0,0,0,0,0,0,0,0,0,0],[-1,0,0,0,1,0,0,-1,0,0,0,0,0,0,0,0,0,0,0,0],[-3,0,0,0,-1,1,0,0,0,0,0,0,0,0,0,0,0,0,0,0],[4,0,0,0,-1,0,0,1,0,0,0,0,0,0,0,0,0,0,0,0],[1,0,0,0,-1,0,0,0,0,0,0,0,0,0,0,1,0,0,0,0],[1,0,0,0,-1,0,0,0,0,0,0,0,0,0,0,0,0,0,1,0],[5,0,0,0,0,0,-1,0,0,0,0,0,0,0,0,0,0,0,0,0],[0,0,0,-1,1,0,0,0,0,0,0,0,0,0,0,0,0,0,0,0]], 311],
    [[[-5,0,0,0,0,0,0,1,1,0,0,0,0,0,0,0,0,0,-1,0]], [[1,0,1,0,0,0,0,-1,-1,0,0,0,0,0,0,0,0,0,0,0],[-5,0,0,1,0,0,0,0,-1,0,0,0,0,0,0,0,0,0,0,0],[4,0,0,0,1,0,0,-1,-1,0,0,0,0,0,0,0,0,0,0,0],[1,0,0,0,0,1,0,-1,-1,0,0,0,0,0,0,0,0,0,0,0],[8,0,0,0,0,0,0,0,-1,0,0,0,0,0,0,0,0,0,0,0],[-5,0,0,0,0,0,0,0,1,0,0,0,0,0,0,0,0,0,0,0],[0,0,0,-1,1,0,0,0,0,0,0,0,0,0,0,0,0,0,0,0],[5,0,0,0,0,0,0,-1,-1,0,0,0,0,0,0,1,0,0,0,0],[5,0,0,0,0,0,-1,0,0,0,0,0,0,0,0,0,0,0,0,0]], 318],
    [[[-5,0,0,0,0,0,0,1,1,0,0,0,0,0,0,-1,0,0,0,0]], [[1,0,1,0,0,0,0,-1,-1,0,0,0,0,0,0,0,0,0,0,0],[-5,0,0,1,0,0,0,0,-1,0,0,0,0,0,0,0,0,0,0,0],[4,0,0,0,1,0,0,-1,-1,0,0,0,0,0,0,0,0,0,0,0],[1,0,0,0,0,1,0,-1,-1,0,0,0,0,0,0,0,0,0,0,0],[8,0,0,0,0,0,0,0,-1,0,0,0,0,0,0,0,0,0,0,0],[-5,0,0,0,0,0,0,0,1,0,0,0,0,0,0,0,0,0,0,0],[5,0,0,0,0,0,0,-1,-1,0,0,0,0,0,0,0,0,0,1,0],[0,0,0,-1,1,0,0,0,0,0,0,0,0,0,0,0,0,0,0,0],[5,0,0,0,0,0,-1,0,0,0,0,0,0,0,0,0,0,0,0,0]], 319],
    [[[-1,0,0,1,0,-1,-1,1,0,0,0,0,0,0,0,0,0,0,0,0]], [[9,0,0,0,0,-1,-1,0,0,0,0,0,0,0,0,0,0,0,1,0],[9,0,0,0,0,-1,-1,0,0,0,0,0,0,0,0,1,0,0,0,0],[5,0,1,0,0,-1,-1,0,0,0,0,0,0,0,0,0,0,0,0,0],[-5,0,0,0,0,0,1,0,0,0,0,0,0,0,0,0,0,0,0,0],[13,0,0,-1,0,0,0,0,0,0,0,0,0,0,0,0,0,0,0,0],[5,0,0,-1,0,0,0,0,1,0,0,0,0,0,0,0,0,0,0,0],[-5,0,0,0,0,0,0,0,1,0,0,0,0,0,0,0,0,0,0,0],[8,0,0,0,1,-1,-1,0,0,0,0,0,0,0,0,0,0,0,0,0],[0,0,0,1,-1,0,0,0,0,0,0,0,0,0,0,0,0,0,0,0]], 328],
    [[[6,0,1,-1,0,0,0,-1,0,0,0,0,0,0,0,0,0,0,0,0]], [[4,0,-1,0,0,0,0,0,0,0,0,0,0,0,0,0,0,0,1,0],[4,0,-1,0,0,0,0,0,0,0,0,0,0,0,0,1,0,0,0,0],[0,0,0,1,-1,0,0,0,0,0,0,0,0,0,0,0,0,0,0,0],[-5,0,0,0,0,0,1,0,0,0,0,0,0,0,0,0,0,0,0,0],[13,0,0,-1,0,0,0,0,0,0,0,0,0,0,0,0,0,0,0,0],[5,0,0,-1,0,0,0,0,1,0,0,0,0,0,0,0,0,0,0,0],[-5,0,0,0,0,0,0,0,1,0,0,0,0,0,0,0,0,0,0,0],[3,0,-1,0,1,0,0,0,0,0,0,0,0,0,0,0,0,0,0,0],[-5,0,-1,0,0,1,1,0,0,0,0,0,0,0,0,0,0,0,0,0]], 346],
    [[[-9,0,0,1,-1,0,0,1,0,0,0,0,0,0,0,0,0,0,0,0]], [[1,0,0,0,-1,0,0,0,0,0,0,0,0,0,0,0,0,0,1,0],[1,0,0,0,-1,0,0,0,0,0,0,0,0,0,0,1,0,0,0,0],[-3,0,1,0,-1,0,0,0,0,0,0,0,0,0,0,0,0,0,0,0],[0,0,0,1,-1,0,0,0,0,0,0,0,0,0,0,0,0,0,0,0],[13,0,0,-1,0,0,0,0,0,0,0,0,0,0,0,0,0,0,0,0],[5,0,0,-1,0,0,0,0,1,0,0,0,0,0,0,0,0,0,0,0],[-8,0,0,0,-1,1,1,0,0,0,0,0,0,0,0,0,0,0,0,0],[-5,0,0,0,0,0,0,0,1,0,0,0,0,0,0,0,0,0,0,0],[-5,0,0,0,0,0,1,0,0,0,0,0,0,0,0,0,0,0,0,0]], 348],
    [[[-10,0,0,1,0,0,0,1,0,0,0,0,0,0,0,0,0,0,-1,0]], [[10,0,0,-1,0,0,0,-1,0,0,0,0,0,0,0,1,0,0,0,0],[-5,0,0,0,0,0,0,0,1,0,0,0,0,0,0,0,0,0,0,0],[13,0,0,-1,0,0,0,0,0,0,0,0,0,0,0,0,0,0,0,0],[5,0,0,-1,0,0,0,0,1,0,0,0,0,0,0,0,0,0,0,0],[-5,0,0,0,0,0,1,0,0,0,0,0,0,0,0,0,0,0,0,0],[1,0,0,-1,0,1,1,-1,0,0,0,0,0,0,0,0,0,0,0,0],[9,0,0,-1,1,0,0,-1,0,0,0,0,0,0,0,0,0,0,0,0],[6,0,1,-1,0,0,0,-1,0,0,0,0,0,0,0,0,0,0,0,0],[0,0,0,1,-1,0,0,0,0,0,0,0,0,0,0,0,0,0,0,0]], 350],
    [[[-10,0,0,1,0,0,0,1,0,0,0,0,0,0,0,-1,0,0,0,0]], [[10,0,0,-1,0,0,0,-1,0,0,0,0,0,0,0,0,0,0,1,0],[6,0,1,-1,0,0,0,-1,0,0,0,0,0,0,0,0,0,0,0,0],[-5,0,0,0,0,0,0,0,1,0,0,0,0,0,0,0,0,0,0,0],[13,0,0,-1,0,0,0,0,0,0,0,0,0,0,0,0,0,0,0,0],[5,0,0,-1,0,0,0,0,1,0,0,0,0,0,0,0,0,0,0,0],[0,0,0,1,-1,0,0,0,0,0,0,0,0,0,0,0,0,0,0,0],[-5,0,0,0,0,0,1,0,0,0,0,0,0,0,0,0,0,0,0,0],[1,0,0,-1,0,1,1,-1,0,0,0,0,0,0,0,0,0,0,0,0],[9,0,0,-1,1,0,0,-1,0,0,0,0,0,0,0,0,0,0,0,0]], 351],
    [[[-1,0,0,1,0,-1,-1,1,0,0,0,0,0,0,0,0,0,0,0,0]], [[9,0,0,0,0,-1,-1,0,0,0,0,0,0,0,0,0,0,0,1,0],[9,0,0,0,0,-1,-1,0,0,0,0,0,0,0,0,1,0,0,0,0],[5,0,1,0,0,-1,-1,0,0,0,0,0,0,0,0,0,0,0,0,0],[0,0,0,-1,1,0,0,0,0,0,0,0,0,0,0,0,0,0,0,0],[-5,0,0,0,0,0,1,0,0,0,0,0,0,0,0,0,0,0,0,0],[13,0,0,-1,0,0,0,0,0,0,0,0,0,0,0,0,0,0,0,0],[5,0,0,-1,0,0,0,0,1,0,0,0,0,0,0,0,0,0,0,0],[8,0,0,0,1,-1,-1,0,0,0,0,0,0,0,0,0,0,0,0,0],[-5,0,0,0,0,0,0,0,1,0,0,0,0,0,0,0,0,0,0,0]], 355],
    [[[6,0,1,-1,0,0,0,-1,0,0,0,0,0,0,0,0,0,0,0,0]], [[4,0,-1,0,0,0,0,0,0,0,0,0,0,0,0,0,0,0,1,0],[4,0,-1,0,0,0,0,0,0,0,0,0,0,0,0,1,0,0,0,0],[-5,0,0,0,0,0,1,0,0,0,0,0,0,0,0,0,0,0,0,0],[-5,0,0,0,0,0,0,0,1,0,0,0,0,0,0,0,0,0,0,0],[13,0,0,-1,0,0,0,0,0,0,0,0,0,0,0,0,0,0,0,0],[5,0,0,-1,0,0,0,0,1,0,0,0,0,0,0,0,0,0,0,0],[0,0,0,-1,1,0,0,0,0,0,0,0,0,0,0,0,0,0,0,0],[3,0,-1,0,1,0,0,0,0,0,0,0,0,0,0,0,0,0,0,0],[-5,0,-1,0,0,1,1,0,0,0,0,0,0,0,0,0,0,0,0,0]], 373],
    [[[-9,0,0,1,-1,0,0,1,0,0,0,0,0,0,0,0,0,0,0,0]], [[0,0,0,-1,1,0,0,0,0,0,0,0,0,0,0,0,0,0,0,0],[1,0,0,0,-1,0,0,0,0,0,0,0,0,0,0,0,0,0,1,0],[-3,0,1,0,-1,0,0,0,0,0,0,0,0,0,0,0,0,0,0,0],[1,0,0,0,-1,0,0,0,0,0,0,0,0,0,0,1,0,0,0,0],[-5,0,0,0,0,0,1,0,0,0,0,0,0,0,0,0,0,0,0,0],[-5,0,0,0,0,0,0,0,1,0,0,0,0,0,0,0,0,0,0,0],[-8,0,0,0,-1,1,1,0,0,0,0,0,0,0,0,0,0,0,0,0],[13,0,0,-1,0,0,0,0,0,0,0,0,0,0,0,0,0,0,0,0],[5,0,0,-1,0,0,0,0,1,0,0,0,0,0,0,0,0,0,0,0]], 375],
    [[[-10,0,0,1,0,0,0,1,0,0,0,0,0,0,0,0,0,0,-1,0]], [[0,0,0,-1,1,0,0,0,0,0,0,0,0,0,0,0,0,0,0,0],[10,0,0,-1,0,0,0,-1,0,0,0,0,0,0,0,1,0,0,0,0],[6,0,1,-1,0,0,0,-1,0,0,0,0,0,0,0,0,0,0,0,0],[-5,0,0,0,0,0,0,0,1,0,0,0,0,0,0,0,0,0,0,0],[9,0,0,-1,1,0,0,-1,0,0,0,0,0,0,0,0,0,0,0,0],[1,0,0,-1,0,1,1,-1,0,0,0,0,0,0,0,0,0,0,0,0],[13,0,0,-1,0,0,0,0,0,0,0,0,0,0,0,0,0,0,0,0],[-5,0,0,0,0,0,1,0,0,0,0,0,0,0,0,0,0,0,0,0],[5,0,0,-1,0,0,0,0,1,0,0,0,0,0,0,0,0,0,0,0]], 378],
    [[[-10,0,0,1,0,0,0,1,0,0,0,0,0,0,0,-1,0,0,0,0]], [[10,0,0,-1,0,0,0,-1,0,0,0,0,0,0,0,0,0,0,1,0],[0,0,0,-1,1,0,0,0,0,0,0,0,0,0,0,0,0,0,0,0],[6,0,1,-1,0,0,0,-1,0,0,0,0,0,0,0,0,0,0,0,0],[-5,0,0,0,0,0,0,0,1,0,0,0,0,0,0,0,0,0,0,0],[9,0,0,-1,1,0,0,-1,0,0,0,0,0,0,0,0,0,0,0,0],[1,0,0,-1,0,1,1,-1,0,0,0,0,0,0,0,0,0,0,0,0],[-5,0,0,0,0,0,1,0,0,0,0,0,0,0,0,0,0,0,0,0],[13,0,0,-1,0,0,0,0,0,0,0,0,0,0,0,0,0,0,0,0],[5,0,0,-1,0,0,0,0,1,0,0,0,0,0,0,0,0,0,0,0]], 379],
    [[[-4,0,0,0,0,1,1,-1,-1,0,0,0,0,0,0,0,0,0,0,0]], [[9,0,0,0,0,-1,-1,0,0,0,0,0,0,0,0,0,0,0,1,0],[9,0,0,0,0,-1,-1,0,0,0,0,0,0,0,0,1,0,0,0,0],[5,0,1,0,0,-1,-1,0,0,0,0,0,0,0,0,0,0,0,0,0],[-1,0,0,1,0,-1,-1,1,0,0,0,0,0,0,0,0,0,0,0,0],[12,0,0,0,0,-1,-1,1,0,0,0,0,0,0,0,0,0,0,0,0],[0,0,0,1,-1,0,0,0,0,0,0,0,0,0,0,0,0,0,0,0],[8,0,0,0,1,-1,-1,0,0,0,0,0,0,0,0,0,0,0,0,0],[-9,0,0,0,0,1,1,-1,0,0,0,0,0,0,0,0,0,0,0,0],[-5,0,0,0,0,0,1,0,0,0,0,0,0,0,0,0,0,0,0,0]], 380],
    [[[-7,0,0,0,0,1,0,-1,0,0,0,0,0,0,0,0,0,0,0,0]], [[0,0,1,0,0,-1,0,0,0,0,0,0,0,0,0,0,0,0,0,0],[-13,0,0,1,0,0,0,0,0,0,0,0,0,0,0,0,0,0,0,0],[0,0,0,1,-1,0,0,0,0,0,0,0,0,0,0,0,0,0,0,0],[3,0,0,0,1,-1,0,0,0,0,0,0,0,0,0,0,0,0,0,0],[5,0,0,0,0,0,-1,0,0,0,0,0,0,0,0,0,0,0,0,0],[-8,0,0,0,0,0,0,0,1,0,0,0,0,0,0,0,0,0,0,0],[4,0,0,0,0,-1,0,0,0,0,0,0,0,0,0,0,0,0,1,0],[4,0,0,0,0,-1,0,0,0,0,0,0,0,0,0,1,0,0,0,0]], 382],
    [[[-12,0,0,0,0,1,1,-1,0,0,0,0,0,0,0,0,0,0,0,0]], [[9,0,0,0,0,-1,-1,0,0,0,0,0,0,0,0,0,0,0,1,0],[9,0,0,0,0,-1,-1,0,0,0,0,0,0,0,0,1,0,0,0,0],[5,0,1,0,0,-1,-1,0,0,0,0,0,0,0,0,0,0,0,0,0],[-13,0,0,1,0,0,0,0,0,0,0,0,0,0,0,0,0,0,0,0],[-8,0,0,0,0,0,0,0,1,0,0,0,0,0,0,0,0,0,0,0],[0,0,0,1,-1,0,0,0,0,0,0,0,0,0,0,0,0,0,0,0],[8,0,0,0,1,-1,-1,0,0,0,0,0,0,0,0,0,0,0,0,0],[-5,0,0,0,0,0,1,0,0,0,0,0,0,0,0,0,0,0,0,0]], 384],
    [[[-4,0,0,0,0,1,1,-1,-1,0,0,0,0,0,0,0,0,0,0,0]], [[5,0,1,0,0,-1,-1,0,0,0,0,0,0,0,0,0,0,0,0,0],[-1,0,0,1,0,-1,-1,1,0,0,0,0,0,0,0,0,0,0,0,0],[8,0,0,0,1,-1,-1,0,0,0,0,0,0,0,0,0,0,0,0,0],[-9,0,0,0,0,1,1,-1,0,0,0,0,0,0,0,0,0,0,0,0],[-5,0,0,0,0,0,1,0,0,0,0,0,0,0,0,0,0,0,0,0],[0,0,0,-1,1,0,0,0,0,0,0,0,0,0,0,0,0,0,0,0],[12,0,0,0,0,-1,-1,1,0,0,0,0,0,0,0,0,0,0,0,0],[9,0,0,0,0,-1,-1,0,0,0,0,0,0,0,0,1,0,0,0,0],[9,0,0,0,0,-1,-1,0,0,0,0,0,0,0,0,0,0,0,1,0]], 387],
    [[[-7,0,0,0,0,1,0,-1,0,0,0,0,0,0,0,0,0,0,0,0]], [[0,0,1,0,0,-1,0,0,0,0,0,0,0,0,0,0,0,0,0,0],[-13,0,0,1,0,0,0,0,0,0,0,0,0,0,0,0,0,0,0,0],[3,0,0,0,1,-1,0,0,0,0,0,0,0,0,0,0,0,0,0,0],[-8,0,0,0,0,0,0,0,1,0,0,0,0,0,0,0,0,0,0,0],[4,0,0,0,0,-1,0,0,0,0,0,0,0,0,0,1,0,0,0,0],[4,0,0,0,0,-1,0,0,0,0,0,0,0,0,0,0,0,0,1,0],[5,0,0,0,0,0,-1,0,0,0,0,0,0,0,0,0,0,0,0,0],[0,0,0,-1,1,0,0,0,0,0,0,0,0,0,0,0,0,0,0,0]], 389],
    [[[-12,0,0,0,0,1,1,-1,0,0,0,0,0,0,0,0,0,0,0,0]], [[5,0,1,0,0,-1,-1,0,0,0,0,0,0,0,0,0,0,0,0,0],[-13,0,0,1,0,0,0,0,0,0,0,0,0,0,0,0,0,0,0,0],[8,0,0,0,1,-1,-1,0,0,0,0,0,0,0,0,0,0,0,0,0],[0,0,0,-1,1,0,0,0,0,0,0,0,0,0,0,0,0,0,0,0],[-5,0,0,0,0,0,1,0,0,0,0,0,0,0,0,0,0,0,0,0],[-8,0,0,0,0,0,0,0,1,0,0,0,0,0,0,0,0,0,0,0],[9,0,0,0,0,-1,-1,0,0,0,0,0,0,0,0,1,0,0,0,0],[9,0,0,0,0,-1,-1,0,0,0,0,0,0,0,0,0,0,0,1,0]], 391],
    [[[-4,0,1,0,0,0,0,-1,0,0,0,0,0,0,0,0,0,0,0,0]], [[5,0,0,0,0,0,0,0,-1,0,0,0,0,0,0,0,0,0,0,0],[-10,0,0,1,0,0,0,0,0,0,0,0,0,0,0,0,0,0,0,0],[4,0,-1,0,0,0,0,0,0,0,0,0,0,0,0,0,0,0,1,0],[4,0,-1,0,0,0,0,0,0,0,0,0,0,0,0,1,0,0,0,0],[0,0,0,1,-1,0,0,0,0,0,0,0,0,0,0,0,0,0,0,0],[3,0,-1,0,1,0,0,0,0,0,0,0,0,0,0,0,0,0,0,0],[-5,0,-1,0,0,1,1,0,0,0,0,0,0,0,0,0,0,0,0,0],[-5,0,0,0,0,0,1,0,0,0,0,0,0,0,0,0,0,0,0,0]], 392],
    [[[-7,0,1,0,0,0,0,-1,0,0,0,0,0,0,0,0,0,0,0,0]], [[-13,0,0,1,0,0,0,0,0,0,0,0,0,0,0,0,0,0,0,0],[0,0,0,1,-1,0,0,0,0,0,0,0,0,0,0,0,0,0,0,0],[3,0,-1,0,1,0,0,0,0,0,0,0,0,0,0,0,0,0,0,0],[5,0,0,0,0,0,-1,0,0,0,0,0,0,0,0,0,0,0,0,0],[0,0,-1,0,0,1,0,0,0,0,0,0,0,0,0,0,0,0,0,0],[-8,0,0,0,0,0,0,0,1,0,0,0,0,0,0,0,0,0,0,0],[4,0,-1,0,0,0,0,0,0,0,0,0,0,0,0,0,0,0,1,0],[4,0,-1,0,0,0,0,0,0,0,0,0,0,0,0,1,0,0,0,0]], 396],
    [[[-4,0,1,0,0,0,0,-1,0,0,0,0,0,0,0,0,0,0,0,0]], [[5,0,0,0,0,0,0,0,-1,0,0,0,0,0,0,0,0,0,0,0],[-10,0,0,1,0,0,0,0,0,0,0,0,0,0,0,0,0,0,0,0],[3,0,-1,0,1,0,0,0,0,0,0,0,0,0,0,0,0,0,0,0],[-5,0,-1,0,0,1,1,0,0,0,0,0,0,0,0,0,0,0,0,0],[-5,0,0,0,0,0,1,0,0,0,0,0,0,0,0,0,0,0,0,0],[0,0,0,-1,1,0,0,0,0,0,0,0,0,0,0,0,0,0,0,0],[4,0,-1,0,0,0,0,0,0,0,0,0,0,0,0,1,0,0,0,0],[4,0,-1,0,0,0,0,0,0,0,0,0,0,0,0,0,0,0,1,0]], 401],
    [[[-7,0,1,0,0,0,0,-1,0,0,0,0,0,0,0,0,0,0,0,0]], [[-13,0,0,1,0,0,0,0,0,0,0,0,0,0,0,0,0,0,0,0],[3,0,-1,0,1,0,0,0,0,0,0,0,0,0,0,0,0,0,0,0],[0,0,-1,0,0,1,0,0,0,0,0,0,0,0,0,0,0,0,0,0],[-8,0,0,0,0,0,0,0,1,0,0,0,0,0,0,0,0,0,0,0],[4,0,-1,0,0,0,0,0,0,0,0,0,0,0,0,1,0,0,0,0],[4,0,-1,0,0,0,0,0,0,0,0,0,0,0,0,0,0,0,1,0],[5,0,0,0,0,0,-1,0,0,0,0,0,0,0,0,0,0,0,0,0],[0,0,0,-1,1,0,0,0,0,0,0,0,0,0,0,0,0,0,0,0]], 405],
    [[[-1,0,0,0,1,0,0,-1,0,0,0,0,0,0,0,0,0,0,0,0]], [[-3,0,1,0,-1,0,0,0,0,0,0,0,0,0,0,0,0,0,0,0],[-10,0,0,1,0,0,0,0,0,0,0,0,0,0,0,0,0,0,0,0],[1,0,0,0,-1,0,0,0,0,0,0,0,0,0,0,0,0,0,1,0],[1,0,0,0,-1,0,0,0,0,0,0,0,0,0,0,1,0,0,0,0],[0,0,0,1,-1,0,0,0,0,0,0,0,0,0,0,0,0,0,0,0],[5,0,0,0,0,0,0,0,-1,0,0,0,0,0,0,0,0,0,0,0],[-8,0,0,0,-1,1,1,0,0,0,0,0,0,0,0,0,0,0,0,0],[-5,0,0,0,0,0,1,0,0,0,0,0,0,0,0,0,0,0,0,0]], 408],
    [[[-4,0,0,0,1,0,0,-1,0,0,0,0,0,0,0,0,0,0,0,0]], [[-3,0,1,0,-1,0,0,0,0,0,0,0,0,0,0,0,0,0,0,0],[-13,0,0,1,0,0,0,0,0,0,0,0,0,0,0,0,0,0,0,0],[0,0,0,1,-1,0,0,0,0,0,0,0,0,0,0,0,0,0,0,0],[5,0,0,0,0,0,-1,0,0,0,0,0,0,0,0,0,0,0,0,0],[-3,0,0,0,-1,1,0,0,0,0,0,0,0,0,0,0,0,0,0,0],[-8,0,0,0,0,0,0,0,1,0,0,0,0,0,0,0,0,0,0,0],[1,0,0,0,-1,0,0,0,0,0,0,0,0,0,0,0,0,0,1,0],[1,0,0,0,-1,0,0,0,0,0,0,0,0,0,0,1,0,0,0,0]], 412],
    [[[-1,0,0,0,1,0,0,-1,0,0,0,0,0,0,0,0,0,0,0,0]], [[-3,0,1,0,-1,0,0,0,0,0,0,0,0,0,0,0,0,0,0,0],[-10,0,0,1,0,0,0,0,0,0,0,0,0,0,0,0,0,0,0,0],[5,0,0,0,0,0,0,0,-1,0,0,0,0,0,0,0,0,0,0,0],[-8,0,0,0,-1,1,1,0,0,0,0,0,0,0,0,0,0,0,0,0],[-5,0,0,0,0,0,1,0,0,0,0,0,0,0,0,0,0,0,0,0],[0,0,0,-1,1,0,0,0,0,0,0,0,0,0,0,0,0,0,0,0],[1,0,0,0,-1,0,0,0,0,0,0,0,0,0,0,1,0,0,0,0],[1,0,0,0,-1,0,0,0,0,0,0,0,0,0,0,0,0,0,1,0]], 417],
    [[[-4,0,0,0,1,0,0,-1,0,0,0,0,0,0,0,0,0,0,0,0]], [[-3,0,1,0,-1,0,0,0,0,0,0,0,0,0,0,0,0,0,0,0],[-13,0,0,1,0,0,0,0,0,0,0,0,0,0,0,0,0,0,0,0],[-3,0,0,0,-1,1,0,0,0,0,0,0,0,0,0,0,0,0,0,0],[-8,0,0,0,0,0,0,0,1,0,0,0,0,0,0,0,0,0,0,0],[1,0,0,0,-1,0,0,0,0,0,0,0,0,0,0,1,0,0,0,0],[1,0,0,0,-1,0,0,0,0,0,0,0,0,0,0,0,0,0,1,0],[5,0,0,0,0,0,-1,0,0,0,0,0,0,0,0,0,0,0,0,0],[0,0,0,-1,1,0,0,0,0,0,0,0,0,0,0,0,0,0,0,0]], 421],
    [[[0,0,0,0,0,0,0,1,0,0,0,0,0,0,0,0,0,0,-1,0]], [[5,0,0,0,0,0,0,0,-1,0,0,0,0,0,0,0,0,0,0,0],[-4,0,1,0,0,0,0,-1,0,0,0,0,0,0,0,0,0,0,0,0],[0,0,0,0,0,0,0,-1,0,0,0,0,0,0,0,1,0,0,0,0],[-10,0,0,1,0,0,0,0,0,0,0,0,0,0,0,0,0,0,0,0],[-5,0,0,0,0,0,1,0,0,0,0,0,0,0,0,0,0,0,0,0],[0,0,0,1,-1,0,0,0,0,0,0,0,0,0,0,0,0,0,0,0],[-9,0,0,0,0,1,1,-1,0,0,0,0,0,0,0,0,0,0,0,0],[-1,0,0,0,1,0,0,-1,0,0,0,0,0,0,0,0,0,0,0,0]], 424],
    [[[0,0,0,0,0,0,0,1,0,0,0,0,0,0,0,-1,0,0,0,0]], [[-4,0,1,0,0,0,0,-1,0,0,0,0,0,0,0,0,0,0,0,0],[5,0,0,0,0,0,0,0,-1,0,0,0,0,0,0,0,0,0,0,0],[0,0,0,0,0,0,0,-1,0,0,0,0,0,0,0,0,0,0,1,0],[-10,0,0,1,0,0,0,0,0,0,0,0,0,0,0,0,0,0,0,0],[0,0,0,1,-1,0,0,0,0,0,0,0,0,0,0,0,0,0,0,0],[-1,0,0,0,1,0,0,-1,0,0,0,0,0,0,0,0,0,0,0,0],[-5,0,0,0,0,0,1,0,0,0,0,0,0,0,0,0,0,0,0,0],[-9,0,0,0,0,1,1,-1,0,0,0,0,0,0,0,0,0,0,0,0]], 426],
    [[[1,0,1,0,0,0,0,-1,-1,0,0,0,0,0,0,0,0,0,0,0]], [[4,0,-1,0,0,0,0,0,0,0,0,0,0,0,0,0,0,0,1,0],[4,0,-1,0,0,0,0,0,0,0,0,0,0,0,0,1,0,0,0,0],[-4,0,1,0,0,0,0,-1,0,0,0,0,0,0,0,0,0,0,0,0],[-6,0,-1,1,0,0,0,1,0,0,0,0,0,0,0,0,0,0,0,0],[7,0,-1,0,0,0,0,1,0,0,0,0,0,0,0,0,0,0,0,0],[0,0,0,1,-1,0,0,0,0,0,0,0,0,0,0,0,0,0,0,0],[3,0,-1,0,1,0,0,0,0,0,0,0,0,0,0,0,0,0,0,0],[-5,0,-1,0,0,1,1,0,0,0,0,0,0,0,0,0,0,0,0,0],[-5,0,0,0,0,0,1,0,0,0,0,0,0,0,0,0,0,0,0,0]], 434],
    [[[4,0,0,0,1,0,0,-1,-1,0,0,0,0,0,0,0,0,0,0,0]], [[1,0,0,0,-1,0,0,0,0,0,0,0,0,0,0,0,0,0,1,0],[1,0,0,0,-1,0,0,0,0,0,0,0,0,0,0,1,0,0,0,0],[-3,0,1,0,-1,0,0,0,0,0,0,0,0,0,0,0,0,0,0,0],[-9,0,0,1,-1,0,0,1,0,0,0,0,0,0,0,0,0,0,0,0],[4,0,0,0,-1,0,0,1,0,0,0,0,0,0,0,0,0,0,0,0],[0,0,0,1,-1,0,0,0,0,0,0,0,0,0,0,0,0,0,0,0],[-1,0,0,0,1,0,0,-1,0,0,0,0,0,0,0,0,0,0,0,0],[-8,0,0,0,-1,1,1,0,0,0,0,0,0,0,0,0,0,0,0,0],[-5,0,0,0,0,0,1,0,0,0,0,0,0,0,0,0,0,0,0,0]], 436],
    [[[-5,0,0,0,0,0,0,1,1,0,0,0,0,0,0,0,0,0,-1,0]], [[5,0,0,0,0,0,0,-1,-1,0,0,0,0,0,0,1,0,0,0,0],[-5,0,0,0,0,0,0,0,1,0,0,0,0,0,0,0,0,0,0,0],[8,0,0,0,0,0,0,0,-1,0,0,0,0,0,0,0,0,0,0,0],[-5,0,0,0,0,0,1,0,0,0,0,0,0,0,0,0,0,0,0,0],[-4,0,0,0,0,1,1,-1,-1,0,0,0,0,0,0,0,0,0,0,0],[4,0,0,0,1,0,0,-1,-1,0,0,0,0,0,0,0,0,0,0,0],[0,0,0,1,-1,0,0,0,0,0,0,0,0,0,0,0,0,0,0,0],[-5,0,0,1,0,0,0,0,-1,0,0,0,0,0,0,0,0,0,0,0],[1,0,1,0,0,0,0,-1,-1,0,0,0,0,0,0,0,0,0,0,0]], 438],
    [[[-5,0,0,0,0,0,0,1,1,0,0,0,0,0,0,-1,0,0,0,0]], [[5,0,0,0,0,0,0,-1,-1,0,0,0,0,0,0,0,0,0,1,0],[1,0,1,0,0,0,0,-1,-1,0,0,0,0,0,0,0,0,0,0,0],[-5,0,0,0,0,0,0,0,1,0,0,0,0,0,0,0,0,0,0,0],[8,0,0,0,0,0,0,0,-1,0,0,0,0,0,0,0,0,0,0,0],[-5,0,0,1,0,0,0,0,-1,0,0,0,0,0,0,0,0,0,0,0],[-5,0,0,0,0,0,1,0,0,0,0,0,0,0,0,0,0,0,0,0],[-4,0,0,0,0,1,1,-1,-1,0,0,0,0,0,0,0,0,0,0,0],[4,0,0,0,1,0,0,-1,-1,0,0,0,0,0,0,0,0,0,0,0],[0,0,0,1,-1,0,0,0,0,0,0,0,0,0,0,0,0,0,0,0]], 439],
    [[[3,0,0,0,0,0,0,1,0,0,0,0,0,0,0,0,0,0,-1,0]], [[5,0,0,0,0,0,-1,0,0,0,0,0,0,0,0,0,0,0,0,0],[-7,0,1,0,0,0,0,-1,0,0,0,0,0,0,0,0,0,0,0,0],[-13,0,0,1,0,0,0,0,0,0,0,0,0,0,0,0,0,0,0,0],[0,0,0,1,-1,0,0,0,0,0,0,0,0,0,0,0,0,0,0,0],[-4,0,0,0,1,0,0,-1,0,0,0,0,0,0,0,0,0,0,0,0],[-3,0,0,0,0,0,0,-1,0,0,0,0,0,0,0,1,0,0,0,0],[-7,0,0,0,0,1,0,-1,0,0,0,0,0,0,0,0,0,0,0,0],[-8,0,0,0,0,0,0,0,1,0,0,0,0,0,0,0,0,0,0,0]], 443],
    [[[3,0,0,0,0,0,0,1,0,0,0,0,0,0,0,-1,0,0,0,0]], [[-7,0,1,0,0,0,0,-1,0,0,0,0,0,0,0,0,0,0,0,0],[5,0,0,0,0,0,-1,0,0,0,0,0,0,0,0,0,0,0,0,0],[-13,0,0,1,0,0,0,0,0,0,0,0,0,0,0,0,0,0,0,0],[0,0,0,1,-1,0,0,0,0,0,0,0,0,0,0,0,0,0,0,0],[-4,0,0,0,1,0,0,-1,0,0,0,0,0,0,0,0,0,0,0,0],[-3,0,0,0,0,0,0,-1,0,0,0,0,0,0,0,0,0,0,1,0],[-7,0,0,0,0,1,0,-1,0,0,0,0,0,0,0,0,0,0,0,0],[-8,0,0,0,0,0,0,0,1,0,0,0,0,0,0,0,0,0,0,0]], 448],
    [[[0,0,0,0,0,0,0,1,0,0,0,0,0,0,0,0,0,0,-1,0]], [[-4,0,1,0,0,0,0,-1,0,0,0,0,0,0,0,0,0,0,0,0],[-10,0,0,1,0,0,0,0,0,0,0,0,0,0,0,0,0,0,0,0],[0,0,0,-1,1,0,0,0,0,0,0,0,0,0,0,0,0,0,0,0],[-1,0,0,0,1,0,0,-1,0,0,0,0,0,0,0,0,0,0,0,0],[-9,0,0,0,0,1,1,-1,0,0,0,0,0,0,0,0,0,0,0,0],[-5,0,0,0,0,0,1,0,0,0,0,0,0,0,0,0,0,0,0,0],[0,0,0,0,0,0,0,-1,0,0,0,0,0,0,0,1,0,0,0,0],[5,0,0,0,0,0,0,0,-1,0,0,0,0,0,0,0,0,0,0,0]], 452],
    [[[0,0,0,0,0,0,0,1,0,0,0,0,0,0,0,-1,0,0,0,0]], [[-4,0,1,0,0,0,0,-1,0,0,0,0,0,0,0,0,0,0,0,0],[-10,0,0,1,0,0,0,0,0,0,0,0,0,0,0,0,0,0,0,0],[-1,0,0,0,1,0,0,-1,0,0,0,0,0,0,0,0,0,0,0,0],[0,0,0,-1,1,0,0,0,0,0,0,0,0,0,0,0,0,0,0,0],[-9,0,0,0,0,1,1,-1,0,0,0,0,0,0,0,0,0,0,0,0],[-5,0,0,0,0,0,1,0,0,0,0,0,0,0,0,0,0,0,0,0],[0,0,0,0,0,0,0,-1,0,0,0,0,0,0,0,0,0,0,1,0],[5,0,0,0,0,0,0,0,-1,0,0,0,0,0,0,0,0,0,0,0]], 453],
    [[[1,0,1,0,0,0,0,-1,-1,0,0,0,0,0,0,0,0,0,0,0]], [[-4,0,1,0,0,0,0,-1,0,0,0,0,0,0,0,0,0,0,0,0],[-6,0,-1,1,0,0,0,1,0,0,0,0,0,0,0,0,0,0,0,0],[3,0,-1,0,1,0,0,0,0,0,0,0,0,0,0,0,0,0,0,0],[-5,0,-1,0,0,1,1,0,0,0,0,0,0,0,0,0,0,0,0,0],[-5,0,0,0,0,0,1,0,0,0,0,0,0,0,0,0,0,0,0,0],[0,0,0,-1,1,0,0,0,0,0,0,0,0,0,0,0,0,0,0,0],[7,0,-1,0,0,0,0,1,0,0,0,0,0,0,0,0,0,0,0,0],[4,0,-1,0,0,0,0,0,0,0,0,0,0,0,0,1,0,0,0,0],[4,0,-1,0,0,0,0,0,0,0,0,0,0,0,0,0,0,0,1,0]], 457],
    [[[4,0,0,0,1,0,0,-1,-1,0,0,0,0,0,0,0,0,0,0,0]], [[-3,0,1,0,-1,0,0,0,0,0,0,0,0,0,0,0,0,0,0,0],[-9,0,0,1,-1,0,0,1,0,0,0,0,0,0,0,0,0,0,0,0],[-1,0,0,0,1,0,0,-1,0,0,0,0,0,0,0,0,0,0,0,0],[-8,0,0,0,-1,1,1,0,0,0,0,0,0,0,0,0,0,0,0,0],[-5,0,0,0,0,0,1,0,0,0,0,0,0,0,0,0,0,0,0,0],[0,0,0,-1,1,0,0,0,0,0,0,0,0,0,0,0,0,0,0,0],[4,0,0,0,-1,0,0,1,0,0,0,0,0,0,0,0,0,0,0,0],[1,0,0,0,-1,0,0,0,0,0,0,0,0,0,0,1,0,0,0,0],[1,0,0,0,-1,0,0,0,0,0,0,0,0,0,0,0,0,0,1,0]], 459],
    [[[-5,0,0,0,0,0,0,1,1,0,0,0,0,0,0,0,0,0,-1,0]], [[0,0,0,-1,1,0,0,0,0,0,0,0,0,0,0,0,0,0,0,0],[1,0,1,0,0,0,0,-1,-1,0,0,0,0,0,0,0,0,0,0,0],[-5,0,0,1,0,0,0,0,-1,0,0,0,0,0,0,0,0,0,0,0],[4,0,0,0,1,0,0,-1,-1,0,0,0,0,0,0,0,0,0,0,0],[-4,0,0,0,0,1,1,-1,-1,0,0,0,0,0,0,0,0,0,0,0],[-5,0,0,0,0,0,1,0,0,0,0,0,0,0,0,0,0,0,0,0],[8,0,0,0,0,0,0,0,-1,0,0,0,0,0,0,0,0,0,0,0],[-5,0,0,0,0,0,0,0,1,0,0,0,0,0,0,0,0,0,0,0],[5,0,0,0,0,0,0,-1,-1,0,0,0,0,0,0,1,0,0,0,0]], 462],
    [[[-5,0,0,0,0,0,0,1,1,0,0,0,0,0,0,-1,0,0,0,0]], [[1,0,1,0,0,0,0,-1,-1,0,0,0,0,0,0,0,0,0,0,0],[0,0,0,-1,1,0,0,0,0,0,0,0,0,0,0,0,0,0,0,0],[-5,0,0,1,0,0,0,0,-1,0,0,0,0,0,0,0,0,0,0,0],[4,0,0,0,1,0,0,-1,-1,0,0,0,0,0,0,0,0,0,0,0],[-4,0,0,0,0,1,1,-1,-1,0,0,0,0,0,0,0,0,0,0,0],[-5,0,0,0,0,0,1,0,0,0,0,0,0,0,0,0,0,0,0,0],[8,0,0,0,0,0,0,0,-1,0,0,0,0,0,0,0,0,0,0,0],[-5,0,0,0,0,0,0,0,1,0,0,0,0,0,0,0,0,0,0,0],[5,0,0,0,0,0,0,-1,-1,0,0,0,0,0,0,0,0,0,1,0]], 463],
    [[[3,0,0,0,0,0,0,1,0,0,0,0,0,0,0,0,0,0,-1,0]], [[-7,0,1,0,0,0,0,-1,0,0,0,0,0,0,0,0,0,0,0,0],[-13,0,0,1,0,0,0,0,0,0,0,0,0,0,0,0,0,0,0,0],[-4,0,0,0,1,0,0,-1,0,0,0,0,0,0,0,0,0,0,0,0],[-7,0,0,0,0,1,0,-1,0,0,0,0,0,0,0,0,0,0,0,0],[-8,0,0,0,0,0,0,0,1,0,0,0,0,0,0,0,0,0,0,0],[0,0,0,-1,1,0,0,0,0,0,0,0,0,0,0,0,0,0,0,0],[-3,0,0,0,0,0,0,-1,0,0,0,0,0,0,0,1,0,0,0,0],[5,0,0,0,0,0,-1,0,0,0,0,0,0,0,0,0,0,0,0,0]], 465],
    [[[3,0,0,0,0,0,0,1,0,0,0,0,0,0,0,-1,0,0,0,0]], [[-7,0,1,0,0,0,0,-1,0,0,0,0,0,0,0,0,0,0,0,0],[-13,0,0,1,0,0,0,0,0,0,0,0,0,0,0,0,0,0,0,0],[-4,0,0,0,1,0,0,-1,0,0,0,0,0,0,0,0,0,0,0,0],[-7,0,0,0,0,1,0,-1,0,0,0,0,0,0,0,0,0,0,0,0],[-8,0,0,0,0,0,0,0,1,0,0,0,0,0,0,0,0,0,0,0],[0,0,0,-1,1,0,0,0,0,0,0,0,0,0,0,0,0,0,0,0],[-3,0,0,0,0,0,0,-1,0,0,0,0,0,0,0,0,0,0,1,0],[5,0,0,0,0,0,-1,0,0,0,0,0,0,0,0,0,0,0,0,0]], 469],
    [[[-7,0,1,0,0,0,0,-1,0,0,0,0,0,0,0,0,0,0,0,0]], [[4,0,-1,0,0,0,0,0,0,0,0,0,0,0,0,0,0,0,1,0],[4,0,-1,0,0,0,0,0,0,0,0,0,0,0,0,1,0,0,0,0],[-13,0,0,1,0,0,0,0,0,0,0,0,0,0,0,0,0,0,0,0],[-8,0,0,0,0,0,0,0,1,0,0,0,0,0,0,0,0,0,0,0],[0,0,0,1,-1,0,0,0,0,0,0,0,0,0,0,0,0,0,0,0],[3,0,-1,0,1,0,0,0,0,0,0,0,0,0,0,0,0,0,0,0],[-5,0,-1,0,0,1,1,0,0,0,0,0,0,0,0,0,0,0,0,0],[-5,0,0,0,0,0,1,0,0,0,0,0,0,0,0,0,0,0,0,0]], 474],
    [[[-7,0,1,0,0,0,0,-1,0,0,0,0,0,0,0,0,0,0,0,0]], [[-13,0,0,1,0,0,0,0,0,0,0,0,0,0,0,0,0,0,0,0],[3,0,-1,0,1,0,0,0,0,0,0,0,0,0,0,0,0,0,0,0],[-5,0,-1,0,0,1,1,0,0,0,0,0,0,0,0,0,0,0,0,0],[0,0,0,-1,1,0,0,0,0,0,0,0,0,0,0,0,0,0,0,0],[-5,0,0,0,0,0,1,0,0,0,0,0,0,0,0,0,0,0,0,0],[-8,0,0,0,0,0,0,0,1,0,0,0,0,0,0,0,0,0,0,0],[4,0,-1,0,0,0,0,0,0,0,0,0,0,0,0,1,0,0,0,0],[4,0,-1,0,0,0,0,0,0,0,0,0,0,0,0,0,0,0,1,0]], 479],
    [[[-4,0,0,0,1,0,0,-1,0,0,0,0,0,0,0,0,0,0,0,0]], [[1,0,0,0,-1,0,0,0,0,0,0,0,0,0,0,0,0,0,1,0],[1,0,0,0,-1,0,0,0,0,0,0,0,0,0,0,1,0,0,0,0],[-3,0,1,0,-1,0,0,0,0,0,0,0,0,0,0,0,0,0,0,0],[-13,0,0,1,0,0,0,0,0,0,0,0,0,0,0,0,0,0,0,0],[-8,0,0,0,0,0,0,0,1,0,0,0,0,0,0,0,0,0,0,0],[0,0,0,1,-1,0,0,0,0,0,0,0,0,0,0,0,0,0,0,0],[-8,0,0,0,-1,1,1,0,0,0,0,0,0,0,0,0,0,0,0,0],[-5,0,0,0,0,0,1,0,0,0,0,0,0,0,0,0,0,0,0,0]], 492],
    [[[-4,0,0,0,1,0,0,-1,0,0,0,0,0,0,0,0,0,0,0,0]], [[-3,0,1,0,-1,0,0,0,0,0,0,0,0,0,0,0,0,0,0,0],[-13,0,0,1,0,0,0,0,0,0,0,0,0,0,0,0,0,0,0,0],[-8,0,0,0,-1,1,1,0,0,0,0,0,0,0,0,0,0,0,0,0],[0,0,0,-1,1,0,0,0,0,0,0,0,0,0,0,0,0,0,0,0],[-5,0,0,0,0,0,1,0,0,0,0,0,0,0,0,0,0,0,0,0],[-8,0,0,0,0,0,0,0,1,0,0,0,0,0,0,0,0,0,0,0],[1,0,0,0,-1,0,0,0,0,0,0,0,0,0,0,1,0,0,0,0],[1,0,0,0,-1,0,0,0,0,0,0,0,0,0,0,0,0,0,1,0]], 495],
    [[[3,0,0,0,0,0,0,1,0,0,0,0,0,0,0,0,0,0,-1,0]], [[-3,0,0,0,0,0,0,-1,0,0,0,0,0,0,0,1,0,0,0,0],[-7,0,1,0,0,0,0,-1,0,0,0,0,0,0,0,0,0,0,0,0],[-8,0,0,0,0,0,0,0,1,0,0,0,0,0,0,0,0,0,0,0],[-5,0,0,0,0,0,1,0,0,0,0,0,0,0,0,0,0,0,0,0],[-12,0,0,0,0,1,1,-1,0,0,0,0,0,0,0,0,0,0,0,0],[-4,0,0,0,1,0,0,-1,0,0,0,0,0,0,0,0,0,0,0,0],[0,0,0,1,-1,0,0,0,0,0,0,0,0,0,0,0,0,0,0,0],[-13,0,0,1,0,0,0,0,0,0,0,0,0,0,0,0,0,0,0,0]], 496],
    [[[3,0,0,0,0,0,0,1,0,0,0,0,0,0,0,-1,0,0,0,0]], [[-3,0,0,0,0,0,0,-1,0,0,0,0,0,0,0,0,0,0,1,0],[-7,0,1,0,0,0,0,-1,0,0,0,0,0,0,0,0,0,0,0,0],[-13,0,0,1,0,0,0,0,0,0,0,0,0,0,0,0,0,0,0,0],[-8,0,0,0,0,0,0,0,1,0,0,0,0,0,0,0,0,0,0,0],[0,0,0,1,-1,0,0,0,0,0,0,0,0,0,0,0,0,0,0,0],[-5,0,0,0,0,0,1,0,0,0,0,0,0,0,0,0,0,0,0,0],[-12,0,0,0,0,1,1,-1,0,0,0,0,0,0,0,0,0,0,0,0],[-4,0,0,0,1,0,0,-1,0,0,0,0,0,0,0,0,0,0,0,0]], 498],
    [[[3,0,0,0,0,0,0,1,0,0,0,0,0,0,0,0,0,0,-1,0]], [[0,0,0,-1,1,0,0,0,0,0,0,0,0,0,0,0,0,0,0,0],[-7,0,1,0,0,0,0,-1,0,0,0,0,0,0,0,0,0,0,0,0],[-13,0,0,1,0,0,0,0,0,0,0,0,0,0,0,0,0,0,0,0],[-4,0,0,0,1,0,0,-1,0,0,0,0,0,0,0,0,0,0,0,0],[-12,0,0,0,0,1,1,-1,0,0,0,0,0,0,0,0,0,0,0,0],[-5,0,0,0,0,0,1,0,0,0,0,0,0,0,0,0,0,0,0,0],[-8,0,0,0,0,0,0,0,1,0,0,0,0,0,0,0,0,0,0,0],[-3,0,0,0,0,0,0,-1,0,0,0,0,0,0,0,1,0,0,0,0]], 501],
    [[[3,0,0,0,0,0,0,1,0,0,0,0,0,0,0,-1,0,0,0,0]], [[-7,0,1,0,0,0,0,-1,0,0,0,0,0,0,0,0,0,0,0,0],[0,0,0,-1,1,0,0,0,0,0,0,0,0,0,0,0,0,0,0,0],[-13,0,0,1,0,0,0,0,0,0,0,0,0,0,0,0,0,0,0,0],[-4,0,0,0,1,0,0,-1,0,0,0,0,0,0,0,0,0,0,0,0],[-12,0,0,0,0,1,1,-1,0,0,0,0,0,0,0,0,0,0,0,0],[-5,0,0,0,0,0,1,0,0,0,0,0,0,0,0,0,0,0,0,0],[-8,0,0,0,0,0,0,0,1,0,0,0,0,0,0,0,0,0,0,0],[-3,0,0,0,0,0,0,-1,0,0,0,0,0,0,0,0,0,0,1,0]], 503]
  ]],
  ["#7",
    [[0,0,0,1],
     [0,0,1,0],
     [0,1,0,0],
     [1,0,0,0]], [
    [[[-11,0,0,0,0,0,0,0,1,1,0,0,0,0,0,0,0,0,0,0]], [[8,-1,0,0,0,0,0,0,0,0,0,0,0,0,0,0,0,0,0,0],[-6,0,0,0,0,0,0,0,1,0,0,0,0,0,0,0,0,0,0,0]], 0],
    [[[-51,5,0,0,0,0,0,0,1,1,0,0,0,0,0,0,0,0,0,0]], [[-8,1,0,0,0,0,0,0,0,0,0,0,0,0,0,0,0,0,0,0],[-46,5,0,0,0,0,0,0,1,0,0,0,0,0,0,0,0,0,0,0]], 1],
    [[[-6,0,0,0,0,0,0,0,1,0,0,0,0,0,0,0,0,0,0,0]], [[8,-1,0,0,0,0,0,0,0,0,0,0,0,0,0,0,0,0,0,0],[-5,0,0,0,0,0,0,0,0,1,0,0,0,0,0,0,0,0,0,0]], 2],
    [[[-46,5,0,0,0,0,0,0,1,0,0,0,0,0,0,0,0,0,0,0]], [[-8,1,0,0,0,0,0,0,0,0,0,0,0,0,0,0,0,0,0,0],[-5,0,0,0,0,0,0,0,0,1,0,0,0,0,0,0,0,0,0,0]], 3]
  ]],
  ["#8",
    [[0,0],
     [0,0]], [
    [[[-11,0,0,0,0,0,0,1,0,1,0,0,0,0,0,0,0,0,0,0]], [[6,0,0,0,0,0,0,-1,0,0,0,0,0,0,0,0,0,0,0,0]], 0],
    [[[-5,0,0,0,0,0,0,0,0,1,0,0,0,0,0,0,0,0,0,0]], [[-6,0,0,0,0,0,0,1,0,0,0,0,0,0,0,0,0,0,0,0]], 1]
  ]],
  ["#9",
    [[0,0,0,0,0,1,1,1,1,1,1,1,1,1,1,1],
     [0,0,0,0,1,0,1,1,1,1,1,1,1,1,1,1],
     [0,0,0,0,1,1,0,1,1,1,1,1,1,1,1,1],
     [0,0,0,0,1,1,1,0,1,1,1,0,1,1,1,0],
     [0,1,1,1,0,0,0,0,1,1,1,1,1,1,1,1],
     [1,0,1,1,0,0,0,0,1,1,1,1,1,1,1,1],
     [1,1,0,1,0,0,0,0,1,1,1,1,1,1,1,1],
     [1,1,1,0,0,0,0,0,1,1,1,0,1,1,1,0],
     [1,1,1,1,1,1,1,1,0,0,0,0,0,1,1,1],
     [1,1,1,1,1,1,1,1,0,0,0,0,1,0,1,1],
     [1,1,1,1,1,1,1,1,0,0,0,0,1,1,0,1],
     [1,1,1,0,1,1,1,0,0,0,0,0,1,1,1,0],
     [1,1,1,1,1,1,1,1,0,1,1,1,0,0,0,0],
     [1,1,1,1,1,1,1,1,1,0,1,1,0,0,0,0],
     [1,1,1,1,1,1,1,1,1,1,0,1,0,0,0,0],
     [1,1,1,0,1,1,1,0,1,1,1,0,0,0,0,0]], [
    [[[-6,0,0,0,0,0,0,0,0,0,1,0,1,0,0,-1,0,0,0,0]], [[6,0,0,0,0,0,0,0,0,-1,0,0,0,0,0,0,0,0,0,0],[5,0,0,0,0,0,0,0,0,0,0,0,-1,0,0,0,0,0,0,0],[9,0,0,0,0,0,0,0,0,0,-1,1,-1,0,0,0,0,0,0,0],[7,0,0,0,0,0,0,0,0,0,-1,0,-1,1,0,0,0,0,0,0],[17,0,0,0,0,0,0,0,0,0,-1,0,-1,0,0,0,0,0,0,0]], 0],
    [[[-7,0,0,0,0,0,0,0,0,0,1,0,1,-1,0,0,0,0,0,0]], [[6,0,0,0,0,0,0,0,0,-1,0,0,0,0,0,0,0,0,0,0],[5,0,0,0,0,0,0,0,0,0,0,0,-1,0,0,0,0,0,0,0],[9,0,0,0,0,0,0,0,0,0,-1,1,-1,0,0,0,0,0,0,0],[6,0,0,0,0,0,0,0,0,0,-1,0,-1,0,0,1,0,0,0,0],[17,0,0,0,0,0,0,0,0,0,-1,0,-1,0,0,0,0,0,0,0]], 1],
    [[[-9,0,0,0,0,0,0,0,0,0,1,-1,1,0,0,0,0,0,0,0]], [[-4,0,0,0,0,0,0,0,0,0,1,-1,0,0,0,0,0,0,0,0],[6,0,0,0,0,0,0,0,0,-1,0,0,0,0,0,0,0,0,0,0],[-2,0,0,0,0,0,0,0,0,0,0,-1,0,1,0,0,0,0,0,0],[-3,0,0,0,0,0,0,0,0,0,0,-1,0,0,0,1,0,0,0,0],[8,0,0,0,0,0,0,0,0,0,0,-1,0,0,0,0,0,0,0,0]], 2],
    [[[-17,0,0,0,0,0,0,0,0,0,1,0,1,0,0,0,0,0,0,0]], [[-12,0,0,0,0,0,0,0,0,0,1,0,0,0,0,0,0,0,0,0],[-8,0,0,0,0,0,0,0,0,0,0,1,0,0,0,0,0,0,0,0],[-10,0,0,0,0,0,0,0,0,0,0,0,0,1,0,0,0,0,0,0],[-11,0,0,0,0,0,0,0,0,0,0,0,0,0,0,1,0,0,0,0],[6,0,0,0,0,0,0,0,0,-1,0,0,0,0,0,0,0,0,0,0]], 6],
    [[[-1,0,0,0,0,0,0,0,0,0,1,0,0,0,0,-1,0,0,0,0]], [[6,0,0,0,0,0,0,0,0,-1,0,0,0,0,0,0,0,0,0,0],[-5,0,0,0,0,0,0,0,0,0,0,0,1,0,0,0,0,0,0,0],[4,0,0,0,0,0,0,0,0,0,-1,1,0,0,0,0,0,0,0,0],[2,0,0,0,0,0,0,0,0,0,-1,0,0,1,0,0,0,0,0,0],[12,0,0,0,0,0,0,0,0,0,-1,0,0,0,0,0,0,0,0,0]], 7],
    [[[-2,0,0,0,0,0,0,0,0,0,1,0,0,-1,0,0,0,0,0,0]], [[-5,0,0,0,0,0,0,0,0,0,0,0,1,0,0,0,0,0,0,0],[6,0,0,0,0,0,0,0,0,-1,0,0,0,0,0,0,0,0,0,0],[4,0,0,0,0,0,0,0,0,0,-1,1,0,0,0,0,0,0,0,0],[1,0,0,0,0,0,0,0,0,0,-1,0,0,0,0,1,0,0,0,0],[12,0,0,0,0,0,0,0,0,0,-1,0,0,0,0,0,0,0,0,0]], 8],
    [[[-4,0,0,0,0,0,0,0,0,0,1,-1,0,0,0,0,0,0,0,0]], [[-5,0,0,0,0,0,0,0,0,0,0,0,1,0,0,0,0,0,0,0],[6,0,0,0,0,0,0,0,0,-1,0,0,0,0,0,0,0,0,0,0],[2,0,0,0,0,0,0,0,0,0,-1,0,0,1,0,0,0,0,0,0],[1,0,0,0,0,0,0,0,0,0,-1,0,0,0,0,1,0,0,0,0],[12,0,0,0,0,0,0,0,0,0,-1,0,0,0,0,0,0,0,0,0]], 9],
    [[[-12,0,0,0,0,0,0,0,0,0,1,0,0,0,0,0,0,0,0,0]], [[-5,0,0,0,0,0,0,0,0,0,0,0,1,0,0,0,0,0,0,0],[-8,0,0,0,0,0,0,0,0,0,0,1,0,0,0,0,0,0,0,0],[6,0,0,0,0,0,0,0,0,-1,0,0,0,0,0,0,0,0,0,0],[-10,0,0,0,0,0,0,0,0,0,0,0,0,1,0,0,0,0,0,0],[-11,0,0,0,0,0,0,0,0,0,0,0,0,0,0,1,0,0,0,0]], 13],
    [[[-6,0,0,0,0,0,0,0,0,0,1,0,1,0,0,-1,0,0,0,0]], [[7,0,0,0,0,0,0,0,0,0,-1,0,-1,1,0,0,0,0,0,0],[9,0,0,0,0,0,0,0,0,0,-1,1,-1,0,0,0,0,0,0,0],[5,0,0,0,0,0,0,0,0,0,0,0,-1,0,0,0,0,0,0,0],[-6,0,0,0,0,0,0,0,0,1,0,0,0,0,0,0,0,0,0,0],[11,0,0,0,0,0,0,0,0,1,-1,0,-1,0,0,0,0,0,0,0]], 17],
    [[[-7,0,0,0,0,0,0,0,0,0,1,0,1,-1,0,0,0,0,0,0]], [[6,0,0,0,0,0,0,0,0,0,-1,0,-1,0,0,1,0,0,0,0],[9,0,0,0,0,0,0,0,0,0,-1,1,-1,0,0,0,0,0,0,0],[5,0,0,0,0,0,0,0,0,0,0,0,-1,0,0,0,0,0,0,0],[-6,0,0,0,0,0,0,0,0,1,0,0,0,0,0,0,0,0,0,0],[11,0,0,0,0,0,0,0,0,1,-1,0,-1,0,0,0,0,0,0,0]], 18],
    [[[-9,0,0,0,0,0,0,0,0,0,1,-1,1,0,0,0,0,0,0,0]], [[-3,0,0,0,0,0,0,0,0,0,0,-1,0,0,0,1,0,0,0,0],[-2,0,0,0,0,0,0,0,0,0,0,-1,0,1,0,0,0,0,0,0],[-4,0,0,0,0,0,0,0,0,0,1,-1,0,0,0,0,0,0,0,0],[-6,0,0,0,0,0,0,0,0,1,0,0,0,0,0,0,0,0,0,0],[2,0,0,0,0,0,0,0,0,1,0,-1,0,0,0,0,0,0,0,0]], 19],
    [[[11,0,0,0,0,0,0,0,0,1,-1,0,-1,0,0,0,0,0,0,0]], [[-5,0,0,0,0,0,0,0,0,-1,0,0,0,0,0,1,0,0,0,0],[-4,0,0,0,0,0,0,0,0,-1,0,0,0,1,0,0,0,0,0,0],[-2,0,0,0,0,0,0,0,0,-1,0,1,0,0,0,0,0,0,0,0],[-6,0,0,0,0,0,0,0,0,-1,1,0,0,0,0,0,0,0,0,0],[-6,0,0,0,0,0,0,0,0,1,0,0,0,0,0,0,0,0,0,0]], 20],
    [[[-1,0,0,0,0,0,0,0,0,0,1,0,0,0,0,-1,0,0,0,0]], [[2,0,0,0,0,0,0,0,0,0,-1,0,0,1,0,0,0,0,0,0],[4,0,0,0,0,0,0,0,0,0,-1,1,0,0,0,0,0,0,0,0],[-5,0,0,0,0,0,0,0,0,0,0,0,1,0,0,0,0,0,0,0],[6,0,0,0,0,0,0,0,0,1,-1,0,0,0,0,0,0,0,0,0],[-6,0,0,0,0,0,0,0,0,1,0,0,0,0,0,0,0,0,0,0]], 24],
    [[[-2,0,0,0,0,0,0,0,0,0,1,0,0,-1,0,0,0,0,0,0]], [[1,0,0,0,0,0,0,0,0,0,-1,0,0,0,0,1,0,0,0,0],[4,0,0,0,0,0,0,0,0,0,-1,1,0,0,0,0,0,0,0,0],[-5,0,0,0,0,0,0,0,0,0,0,0,1,0,0,0,0,0,0,0],[6,0,0,0,0,0,0,0,0,1,-1,0,0,0,0,0,0,0,0,0],[-6,0,0,0,0,0,0,0,0,1,0,0,0,0,0,0,0,0,0,0]], 25],
    [[[-4,0,0,0,0,0,0,0,0,0,1,-1,0,0,0,0,0,0,0,0]], [[1,0,0,0,0,0,0,0,0,0,-1,0,0,0,0,1,0,0,0,0],[2,0,0,0,0,0,0,0,0,0,-1,0,0,1,0,0,0,0,0,0],[-5,0,0,0,0,0,0,0,0,0,0,0,1,0,0,0,0,0,0,0],[6,0,0,0,0,0,0,0,0,1,-1,0,0,0,0,0,0,0,0,0],[-6,0,0,0,0,0,0,0,0,1,0,0,0,0,0,0,0,0,0,0]], 26],
    [[[6,0,0,0,0,0,0,0,0,1,-1,0,0,0,0,0,0,0,0,0]], [[-5,0,0,0,0,0,0,0,0,-1,0,0,0,0,0,1,0,0,0,0],[-4,0,0,0,0,0,0,0,0,-1,0,0,0,1,0,0,0,0,0,0],[-2,0,0,0,0,0,0,0,0,-1,0,1,0,0,0,0,0,0,0,0],[-5,0,0,0,0,0,0,0,0,0,0,0,1,0,0,0,0,0,0,0],[-6,0,0,0,0,0,0,0,0,1,0,0,0,0,0,0,0,0,0,0]], 27]
  ]],
  ["#10",
    [[0,0],
     [0,0]], [
    [[[-1,0,0,0,0,0,0,0,0,0,1,-1,0,0,0,0,0,0,0,0]], [[3,0,0,0,0,0,0,0,0,0,-1,0,0,0,0,1,0,0,0,0]], 0],
    [[[-2,0,0,0,0,0,0,0,0,0,0,1,0,0,0,-1,0,0,0,0]], [[-1,0,0,0,0,0,0,0,0,0,1,-1,0,0,0,0,0,0,0,0]], 1]
  ]],
  ["#11",
    [[0,0,0,0,0,1,1,1,0,1,1,1,0,1,1],
     [0,0,0,0,1,0,1,1,1,0,1,1,1,1,1],
     [0,0,0,0,1,1,0,1,1,1,0,1,1,0,1],
     [0,0,0,0,1,1,1,0,1,1,1,0,1,1,0],
     [0,1,1,1,0,0,0,0,0,1,1,1,0,1,1],
     [1,0,1,1,0,0,0,0,1,0,1,1,1,1,1],
     [1,1,0,1,0,0,0,0,1,1,0,1,1,0,1],
     [1,1,1,0,0,0,0,0,1,1,1,0,1,1,0],
     [0,1,1,1,0,1,1,1,0,0,0,0,0,1,1],
     [1,0,1,1,1,0,1,1,0,0,0,0,1,1,1],
     [1,1,0,1,1,1,0,1,0,0,0,0,1,0,1],
     [1,1,1,0,1,1,1,0,0,0,0,0,1,1,0],
     [0,1,1,1,0,1,1,1,0,1,1,1,0,0,0],
     [1,1,0,1,1,1,0,1,1,1,0,1,0,0,0],
     [1,1,1,0,1,1,1,0,1,1,1,0,0,0,0]], [
    [[[-12,0,0,0,0,0,0,0,0,0,0,0,2,0,0,0,-1,0,0,1]], [[9,0,0,0,0,0,0,0,0,0,0,0,0,0,0,0,-1,0,0,0],[2,0,0,0,0,0,0,0,0,0,0,0,0,0,0,0,-1,1,0,0],[0,0,0,0,0,0,0,0,0,0,0,0,0,1,0,0,-1,0,0,0],[3,0,0,0,0,0,0,0,0,0,0,0,1,0,0,0,-1,0,0,0],[-7,0,0,0,0,0,0,0,0,0,0,0,1,1,0,0,-1,0,0,0],[-7,0,0,0,0,0,0,0,0,0,1,0,1,0,0,0,-1,0,0,0]], 0],
    [[[-12,0,0,0,0,0,0,0,0,0,0,0,2,-1,0,0,0,0,0,1]], [[9,0,0,0,0,0,0,0,0,0,0,0,0,-1,0,0,0,0,0,0],[2,0,0,0,0,0,0,0,0,0,0,0,0,-1,0,0,0,1,0,0],[0,0,0,0,0,0,0,0,0,0,0,0,0,-1,0,0,1,0,0,0],[-7,0,0,0,0,0,0,0,0,0,1,0,1,-1,0,0,0,0,0,0],[-7,0,0,0,0,0,0,0,0,0,0,0,1,0,0,0,0,0,0,0]], 1],
    [[[-14,0,0,0,0,0,0,0,0,0,0,0,2,0,0,0,0,-1,0,1]], [[7,0,0,0,0,0,0,0,0,0,0,0,0,0,0,0,0,-1,0,0],[-2,0,0,0,0,0,0,0,0,0,0,0,0,0,0,0,1,-1,0,0],[-2,0,0,0,0,0,0,0,0,0,0,0,0,1,0,0,0,-1,0,0],[1,0,0,0,0,0,0,0,0,0,0,0,1,0,0,0,0,-1,0,0],[-9,0,0,0,0,0,0,0,0,0,0,0,1,1,0,0,0,-1,0,0],[-9,0,0,0,0,0,0,0,0,0,1,0,1,0,0,0,0,-1,0,0]], 2],
    [[[-21,0,0,0,0,0,0,0,0,0,0,0,2,0,0,0,0,0,0,1]], [[-7,0,0,0,0,0,0,0,0,0,0,0,0,0,0,0,0,1,0,0],[-9,0,0,0,0,0,0,0,0,0,0,0,0,0,0,0,1,0,0,0],[-9,0,0,0,0,0,0,0,0,0,0,0,0,1,0,0,0,0,0,0],[-6,0,0,0,0,0,0,0,0,0,0,0,1,0,0,0,0,0,0,0],[-16,0,0,0,0,0,0,0,0,0,0,0,1,1,0,0,0,0,0,0],[-16,0,0,0,0,0,0,0,0,0,1,0,1,0,0,0,0,0,0,0]], 3],
    [[[-7,0,0,0,0,0,0,0,0,0,0,0,1,1,0,0,-1,0,0,0]], [[16,0,0,0,0,0,0,0,0,0,0,0,-1,-1,0,0,0,0,0,0],[9,0,0,0,0,0,0,0,0,0,0,0,-1,-1,0,0,0,1,0,0],[7,0,0,0,0,0,0,0,0,0,0,0,-1,0,0,0,0,0,0,0],[10,0,0,0,0,0,0,0,0,0,0,0,0,-1,0,0,0,0,0,0],[-5,0,0,0,0,0,0,0,0,0,0,0,1,-1,0,0,0,0,0,1],[0,0,0,0,0,0,0,0,0,0,1,0,0,-1,0,0,0,0,0,0]], 4],
    [[[-7,0,0,0,0,0,0,0,0,0,0,0,1,0,0,0,0,0,0,0]], [[9,0,0,0,0,0,0,0,0,0,0,0,0,-1,0,0,0,0,0,0],[2,0,0,0,0,0,0,0,0,0,0,0,0,-1,0,0,0,1,0,0],[0,0,0,0,0,0,0,0,0,0,0,0,0,-1,0,0,1,0,0,0],[0,0,0,0,0,0,0,0,0,0,1,0,0,-1,0,0,0,0,0,0],[2,0,0,0,0,0,0,0,0,0,0,0,0,-1,0,0,0,0,0,1]], 5],
    [[[-9,0,0,0,0,0,0,0,0,0,0,0,1,1,0,0,0,-1,0,0]], [[16,0,0,0,0,0,0,0,0,0,0,0,-1,-1,0,0,0,0,0,0],[7,0,0,0,0,0,0,0,0,0,0,0,-1,-1,0,0,1,0,0,0],[7,0,0,0,0,0,0,0,0,0,0,0,-1,0,0,0,0,0,0,0],[10,0,0,0,0,0,0,0,0,0,0,0,0,-1,0,0,0,0,0,0],[-5,0,0,0,0,0,0,0,0,0,0,0,1,-1,0,0,0,0,0,1],[0,0,0,0,0,0,0,0,0,0,1,0,0,-1,0,0,0,0,0,0]], 6],
    [[[-16,0,0,0,0,0,0,0,0,0,0,0,1,1,0,0,0,0,0,0]], [[-7,0,0,0,0,0,0,0,0,0,0,0,0,0,0,0,0,1,0,0],[-9,0,0,0,0,0,0,0,0,0,0,0,0,0,0,0,1,0,0,0],[7,0,0,0,0,0,0,0,0,0,0,0,-1,0,0,0,0,0,0,0],[-6,0,0,0,0,0,0,0,0,0,0,0,1,0,0,0,0,0,0,0],[-21,0,0,0,0,0,0,0,0,0,0,0,2,0,0,0,0,0,0,1],[-16,0,0,0,0,0,0,0,0,0,1,0,1,0,0,0,0,0,0,0]], 7],
    [[[-7,0,0,0,0,0,0,0,0,0,1,0,1,0,0,0,-1,0,0,0]], [[16,0,0,0,0,0,0,0,0,0,-1,0,-1,0,0,0,0,0,0,0],[9,0,0,0,0,0,0,0,0,0,-1,0,-1,0,0,0,0,1,0,0],[7,0,0,0,0,0,0,0,0,0,-1,0,-1,1,0,0,0,0,0,0],[10,0,0,0,0,0,0,0,0,0,-1,0,0,0,0,0,0,0,0,0],[0,0,0,0,0,0,0,0,0,0,-1,0,0,1,0,0,0,0,0,0],[-5,0,0,0,0,0,0,0,0,0,-1,0,1,0,0,0,0,0,0,1]], 8],
    [[[-7,0,0,0,0,0,0,0,0,0,1,0,1,-1,0,0,0,0,0,0]], [[16,0,0,0,0,0,0,0,0,0,-1,0,-1,0,0,0,0,0,0,0],[9,0,0,0,0,0,0,0,0,0,-1,0,-1,0,0,0,0,1,0,0],[7,0,0,0,0,0,0,0,0,0,-1,0,-1,0,0,0,1,0,0,0],[-7,0,0,0,0,0,0,0,0,0,0,0,1,0,0,0,0,0,0,0],[-5,0,0,0,0,0,0,0,0,0,-1,0,1,0,0,0,0,0,0,1]], 9],
    [[[-9,0,0,0,0,0,0,0,0,0,1,0,1,0,0,0,0,-1,0,0]], [[16,0,0,0,0,0,0,0,0,0,-1,0,-1,0,0,0,0,0,0,0],[7,0,0,0,0,0,0,0,0,0,-1,0,-1,0,0,0,1,0,0,0],[7,0,0,0,0,0,0,0,0,0,-1,0,-1,1,0,0,0,0,0,0],[10,0,0,0,0,0,0,0,0,0,-1,0,0,0,0,0,0,0,0,0],[0,0,0,0,0,0,0,0,0,0,-1,0,0,1,0,0,0,0,0,0],[-5,0,0,0,0,0,0,0,0,0,-1,0,1,0,0,0,0,0,0,1]], 10],
    [[[-16,0,0,0,0,0,0,0,0,0,1,0,1,0,0,0,0,0,0,0]], [[-7,0,0,0,0,0,0,0,0,0,0,0,0,0,0,0,0,1,0,0],[-9,0,0,0,0,0,0,0,0,0,0,0,0,0,0,0,1,0,0,0],[-9,0,0,0,0,0,0,0,0,0,0,0,0,1,0,0,0,0,0,0],[10,0,0,0,0,0,0,0,0,0,-1,0,0,0,0,0,0,0,0,0],[0,0,0,0,0,0,0,0,0,0,-1,0,0,1,0,0,0,0,0,0],[11,0,0,0,0,0,0,0,0,0,-2,0,0,0,0,0,0,0,0,1]], 11],
    [[[3,0,0,0,0,0,0,0,0,0,0,0,1,0,0,0,-1,0,0,0]], [[6,0,0,0,0,0,0,0,0,0,0,0,-1,0,0,0,0,0,0,0],[-1,0,0,0,0,0,0,0,0,0,0,0,-1,0,0,0,0,1,0,0],[-10,0,0,0,0,0,0,0,0,0,1,0,0,0,0,0,0,0,0,0],[-10,0,0,0,0,0,0,0,0,0,0,0,0,1,0,0,0,0,0,0],[-15,0,0,0,0,0,0,0,0,0,0,0,1,0,0,0,0,0,0,1]], 12],
    [[[1,0,0,0,0,0,0,0,0,0,0,0,1,0,0,0,0,-1,0,0]], [[6,0,0,0,0,0,0,0,0,0,0,0,-1,0,0,0,0,0,0,0],[-3,0,0,0,0,0,0,0,0,0,0,0,-1,0,0,0,1,0,0,0],[-10,0,0,0,0,0,0,0,0,0,1,0,0,0,0,0,0,0,0,0],[-10,0,0,0,0,0,0,0,0,0,0,0,0,1,0,0,0,0,0,0],[-15,0,0,0,0,0,0,0,0,0,0,0,1,0,0,0,0,0,0,1]], 13],
    [[[-6,0,0,0,0,0,0,0,0,0,0,0,1,0,0,0,0,0,0,0]], [[-7,0,0,0,0,0,0,0,0,0,0,0,0,0,0,0,0,1,0,0],[-9,0,0,0,0,0,0,0,0,0,0,0,0,0,0,0,1,0,0,0],[-10,0,0,0,0,0,0,0,0,0,1,0,0,0,0,0,0,0,0,0],[-10,0,0,0,0,0,0,0,0,0,0,0,0,1,0,0,0,0,0,0],[-9,0,0,0,0,0,0,0,0,0,0,0,0,0,0,0,0,0,0,1]], 14]
  ]],
  ["#12",
    [[0,0,0,1],
     [0,0,1,0],
     [0,1,0,0],
     [1,0,0,0]], [
    [[[0,0,0,0,0,0,0,0,0,0,1,0,0,-1,0,0,0,0,0,0]], [[7,0,0,0,0,0,0,0,0,0,-1,0,-1,0,0,0,1,0,0,0],[7,0,0,0,0,0,0,0,0,0,0,0,-1,0,0,0,0,0,0,0]], 0],
    [[[-7,0,0,0,0,0,0,0,0,0,0,0,1,1,0,0,-1,0,0,0]], [[7,0,0,0,0,0,0,0,0,0,0,0,-1,0,0,0,0,0,0,0],[0,0,0,0,0,0,0,0,0,0,1,0,0,-1,0,0,0,0,0,0]], 1],
    [[[-7,0,0,0,0,0,0,0,0,0,1,0,1,-1,0,0,0,0,0,0]], [[7,0,0,0,0,0,0,0,0,0,-1,0,-1,0,0,0,1,0,0,0],[-7,0,0,0,0,0,0,0,0,0,0,0,1,0,0,0,0,0,0,0]], 2],
    [[[0,0,0,0,0,0,0,0,0,0,0,0,0,1,0,0,-1,0,0,0]], [[-7,0,0,0,0,0,0,0,0,0,0,0,1,0,0,0,0,0,0,0],[-7,0,0,0,0,0,0,0,0,0,1,0,1,-1,0,0,0,0,0,0]], 3]
  ]],
  ["#13",
    [[0,0],
     [0,0]], [
    [[[0,0,0,0,0,0,0,0,0,0,0,0,0,0,1,0,0,0,0,-1]], [[2,0,0,0,0,0,0,0,0,0,0,0,0,0,-1,0,0,0,1,0]], 0],
    [[[-2,0,0,0,0,0,0,0,0,0,0,0,0,0,1,0,0,0,-1,0]], [[0,0,0,0,0,0,0,0,0,0,0,0,0,0,-1,0,0,0,0,1]], 1]
  ]],
  ["#14",
    [[0]], [
    [[[0,0,0,0,0,0,0,0,0,0,0,1,0,0,0,-1,0,0,0,0]], [], 0]
  ]],
  ["#15",
    [[0]], [
    [[[-7,0,0,0,0,0,0,0,0,0,0,0,1,1,0,0,-1,0,0,0]], [], 0]
  ]],
  ["#16",
    [[0]], [
    [[[-14,0,0,0,0,0,0,0,0,0,0,0,2,0,0,0,0,-1,0,1]], [], 0]
  ]],
  ["#17",
    [[0]], [
    [[[0,0,0,0,0,0,0,0,0,0,0,0,0,0,1,0,0,0,-1,0]], [], 0]
  ]],
  ["#18",
    [[0,0,0,0,0,1,1,1],
     [0,0,0,0,1,0,1,1],
     [0,0,0,0,1,1,0,1],
     [0,0,0,0,1,1,1,0],
     [0,1,1,1,0,0,0,0],
     [1,0,1,1,0,0,0,0],
     [1,1,0,1,0,0,0,0],
     [1,1,1,0,0,0,0,0]], [
    [[[-11,0,0,0,0,0,0,0,0,0,0,0,2,0,0,0,0,0,-1,1]], [[10,0,0,0,0,0,0,0,0,0,0,0,0,0,0,0,0,0,-1,0],[11,0,0,0,0,0,0,0,0,0,0,0,-2,0,0,0,0,0,0,0],[3,0,0,0,0,0,0,0,0,0,0,0,0,0,0,0,0,1,-1,0],[2,0,0,0,0,0,0,0,0,0,0,0,0,0,1,0,0,0,-1,0]], 0],
    [[[-13,0,0,0,0,0,0,0,0,0,0,0,2,0,-1,0,0,0,0,1]], [[8,0,0,0,0,0,0,0,0,0,0,0,0,0,-1,0,0,0,0,0],[11,0,0,0,0,0,0,0,0,0,0,0,-2,0,0,0,0,0,0,0],[-2,0,0,0,0,0,0,0,0,0,0,0,0,0,-1,0,0,0,1,0],[1,0,0,0,0,0,0,0,0,0,0,0,0,0,-1,0,0,1,0,0]], 1],
    [[[-14,0,0,0,0,0,0,0,0,0,0,0,2,0,0,0,0,-1,0,1]], [[7,0,0,0,0,0,0,0,0,0,0,0,0,0,0,0,0,-1,0,0],[11,0,0,0,0,0,0,0,0,0,0,0,-2,0,0,0,0,0,0,0],[-3,0,0,0,0,0,0,0,0,0,0,0,0,0,0,0,0,-1,1,0],[-1,0,0,0,0,0,0,0,0,0,0,0,0,0,1,0,0,-1,0,0]], 2],
    [[[-21,0,0,0,0,0,0,0,0,0,0,0,2,0,0,0,0,0,0,1]], [[11,0,0,0,0,0,0,0,0,0,0,0,-2,0,0,0,0,0,0,0],[-10,0,0,0,0,0,0,0,0,0,0,0,0,0,0,0,0,0,1,0],[-7,0,0,0,0,0,0,0,0,0,0,0,0,0,0,0,0,1,0,0],[-8,0,0,0,0,0,0,0,0,0,0,0,0,0,1,0,0,0,0,0]], 3],
    [[[0,0,0,0,0,0,0,0,0,0,0,0,0,0,0,0,0,0,1,-1]], [[10,0,0,0,0,0,0,0,0,0,0,0,0,0,0,0,0,0,-1,0],[3,0,0,0,0,0,0,0,0,0,0,0,0,0,0,0,0,1,-1,0],[2,0,0,0,0,0,0,0,0,0,0,0,0,0,1,0,0,0,-1,0],[-11,0,0,0,0,0,0,0,0,0,0,0,2,0,0,0,0,0,0,0]], 4],
    [[[2,0,0,0,0,0,0,0,0,0,0,0,0,0,1,0,0,0,0,-1]], [[8,0,0,0,0,0,0,0,0,0,0,0,0,0,-1,0,0,0,0,0],[-2,0,0,0,0,0,0,0,0,0,0,0,0,0,-1,0,0,0,1,0],[1,0,0,0,0,0,0,0,0,0,0,0,0,0,-1,0,0,1,0,0],[-11,0,0,0,0,0,0,0,0,0,0,0,2,0,0,0,0,0,0,0]], 5],
    [[[3,0,0,0,0,0,0,0,0,0,0,0,0,0,0,0,0,1,0,-1]], [[7,0,0,0,0,0,0,0,0,0,0,0,0,0,0,0,0,-1,0,0],[-3,0,0,0,0,0,0,0,0,0,0,0,0,0,0,0,0,-1,1,0],[-1,0,0,0,0,0,0,0,0,0,0,0,0,0,1,0,0,-1,0,0],[-11,0,0,0,0,0,0,0,0,0,0,0,2,0,0,0,0,0,0,0]], 6],
    [[[-10,0,0,0,0,0,0,0,0,0,0,0,0,0,0,0,0,0,0,1]], [[-10,0,0,0,0,0,0,0,0,0,0,0,0,0,0,0,0,0,1,0],[-7,0,0,0,0,0,0,0,0,0,0,0,0,0,0,0,0,1,0,0],[-8,0,0,0,0,0,0,0,0,0,0,0,0,0,1,0,0,0,0,0],[-11,0,0,0,0,0,0,0,0,0,0,0,2,0,0,0,0,0,0,0]], 7]
  ]]
]
