[
  ["x1","x2","x3","x4","x5","x6","x7","x8","x9","x11","x12","x13","x14","x15","x16","x17","x18","x19","x20"],
  [
    [[[3,1,0,0,0,0,0,0,0,0,0,0,0,0,0,0,0,5,1,0],-1],[[9,1,0,0,0,0,0,0,0,0,0,0,0,0,0,0,0,5,0,0],-1],[[11,0,0,0,0,0,0,0,0,0,0,0,0,0,0,0,0,5,1,0],1],[[17,0,0,0,0,0,0,0,0,0,0,0,0,0,0,0,0,5,0,0],1],[[38,1,0,0,0,0,0,0,0,0,0,0,0,0,0,0,0,0,1,0],-1],[[44,1,0,0,0,0,0,0,0,0,0,0,0,0,0,0,0,0,0,0],-1],[[46,0,0,0,0,0,0,0,0,0,0,0,0,0,0,0,0,0,1,0],1]],
    [[[-10,0,0,1,0,0,0,1,0,0,0,0,0,0,0,0,0,0,0,0],1],[[-5,0,1,0,0,0,0,0,0,0,0,0,0,0,0,0,0,0,0,0],-1],[[-4,0,1,0,0,0,0,0,0,0,0,0,0,0,0,0,0,0,0,0],-1]],
    [[[-10,0,0,1,0,0,0,1,0,1,0,0,0,0,0,0,0,0,0,0],-1],[[-5,0,1,0,0,0,0,0,0,1,0,0,0,0,0,0,0,0,0,0],1],[[-4,0,0,1,0,0,0,1,0,0,0,0,0,0,0,0,0,0,0,0],-1],[[-4,0,1,0,0,0,0,0,0,1,0,0,0,0,0,0,0,0,0,0],1],[[1,0,1,0,0,0,0,0,0,0,0,0,0,0,0,0,0,0,0,0],1],[[2,0,1,0,0,0,0,0,0,0,0,0,0,0,0,0,0,0,0,0],1],[[5,0,0,1,0,0,0,0,0,1,0,0,0,0,0,0,0,0,0,0],-1],[[11,0,0,1,0,0,0,0,0,0,0,0,0,0,0,0,0,0,0,0],-1],[[18,0,0,0,0,0,0,0,0,0,0,0,0,0,0,0,0,0,0,0],1]],
    [[[-5,0,1,0,1,0,0,0,0,0,0,0,0,0,0,0,0,0,0,0],1],[[-5,0,1,1,0,0,0,0,0,0,0,0,0,0,0,0,0,0,0,0],1],[[-1,0,0,0,2,0,0,0,0,0,0,0,0,0,0,0,0,0,0,0],-1],[[-1,0,0,1,1,0,0,0,0,0,0,0,0,0,0,0,0,0,0,0],-1],[[5,0,0,0,2,0,0,0,0,0,0,0,0,0,0,0,0,0,0,0],-1],[[5,0,0,1,1,0,0,0,0,0,0,0,0,0,0,0,0,0,0,0],-1]],
    [[[4,0,0,0,0,1,1,0,0,0,0,0,0,0,0,0,0,0,0,0],-1],[[13,0,0,0,0,1,0,0,0,0,0,0,0,0,0,0,0,0,0,0],-1],[[14,0,0,0,0,0,1,0,0,0,0,0,0,0,0,0,0,0,0,0],1]],
    [[[-4,0,0,0,0,1,2,0,0,0,0,0,0,0,0,0,0,0,0,0],-1],[[1,0,0,0,0,1,1,0,0,0,0,0,0,0,0,0,0,0,0,0],-1],[[4,0,0,0,0,0,2,0,0,0,0,0,0,0,0,0,0,0,0,0],-1],[[8,0,0,0,0,0,2,0,0,0,0,0,0,0,0,0,0,0,0,0],1],[[9,0,0,0,0,0,1,0,0,0,0,0,0,0,0,0,0,0,0,0],-1],[[13,0,0,0,0,0,1,0,0,0,0,0,0,0,0,0,0,0,0,0],1],[[18,0,0,0,0,0,0,0,0,0,0,0,0,0,0,0,0,0,0,0],1]],
    [[[-10,0,0,1,1,0,1,1,1,0,0,0,0,0,0,0,0,0,0,0],-1],[[-10,0,0,2,0,0,1,1,1,0,0,0,0,0,0,0,0,0,0,0],-1],[[-5,0,0,1,1,0,0,1,1,0,0,0,0,0,0,0,0,0,0,0],-1],[[-5,0,0,1,1,0,1,1,0,0,0,0,0,0,0,0,0,0,0,0],-1],[[-5,0,0,2,0,0,0,1,1,0,0,0,0,0,0,0,0,0,0,0],-1],[[-5,0,0,2,0,0,1,1,0,0,0,0,0,0,0,0,0,0,0,0],-1],[[-4,0,0,0,1,1,1,0,1,0,0,0,0,0,0,0,0,0,0,0],1],[[-4,0,0,1,0,1,1,0,1,0,0,0,0,0,0,0,0,0,0,0],1],[[-4,0,1,0,1,0,1,0,1,0,0,0,0,0,0,0,0,0,0,0],1],[[-4,0,1,1,0,0,1,0,1,0,0,0,0,0,0,0,0,0,0,0],1],[[-1,0,0,0,2,0,1,0,1,0,0,0,0,0,0,0,0,0,0,0],1],[[-1,0,0,1,1,0,1,0,1,0,0,0,0,0,0,0,0,0,0,0],1],[[0,0,0,0,1,0,1,0,1,0,0,0,0,0,0,0,0,0,1,0],1],[[0,0,0,0,1,0,1,0,1,0,0,0,0,0,0,1,0,0,0,0],1],[[0,0,0,0,1,0,1,1,1,0,0,0,0,0,0,0,0,0,0,0],-1],[[0,0,0,1,0,0,1,0,1,0,0,0,0,0,0,0,0,0,1,0],1],[[0,0,0,1,0,0,1,0,1,0,0,0,0,0,0,1,0,0,0,0],1],[[0,0,0,1,0,0,1,1,1,0,0,0,0,0,0,0,0,0,0,0],-1],[[0,0,0,1,1,0,0,1,0,0,0,0,0,0,0,0,0,0,0,0],-1],[[0,0,0,2,0,0,0,1,0,0,0,0,0,0,0,0,0,0,0,0],-1],[[1,0,0,0,1,1,1,0,0,0,0,0,0,0,0,0,0,0,0,0],1],[[1,0,0,1,0,1,1,0,0,0,0,0,0,0,0,0,0,0,0,0],1],[[1,0,1,0,1,0,0,0,1,0,0,0,0,0,0,0,0,0,0,0],1],[[1,0,1,0,1,0,1,0,0,0,0,0,0,0,0,0,0,0,0,0],1],[[1,0,1,1,0,0,0,0,1,0,0,0,0,0,0,0,0,0,0,0],1],[[1,0,1,1,0,0,1,0,0,0,0,0,0,0,0,0,0,0,0,0],1],[[3,0,0,0,1,0,1,1,1,0,0,0,0,0,0,0,0,0,0,0],-1],[[3,0,0,1,0,0,1,1,1,0,0,0,0,0,0,0,0,0,0,0],-1],[[4,0,0,0,2,0,0,0,1,0,0,0,0,0,0,0,0,0,0,0],1],[[4,0,0,0,2,0,1,0,0,0,0,0,0,0,0,0,0,0,0,0],1],[[4,0,0,1,1,0,0,0,1,0,0,0,0,0,0,0,0,0,0,0],1],[[4,0,0,1,1,0,1,0,0,0,0,0,0,0,0,0,0,0,0,0],1],[[5,0,0,0,1,0,0,0,1,0,0,0,0,0,0,0,0,0,1,0],1],[[5,0,0,0,1,0,0,0,1,0,0,0,0,0,0,1,0,0,0,0],1],[[5,0,0,0,1,0,0,1,1,0,0,0,0,0,0,0,0,0,0,0],-1],[[5,0,0,0,1,0,1,0,0,0,0,0,0,0,0,0,0,0,1,0],1],[[5,0,0,0,1,0,1,0,0,0,0,0,0,0,0,1,0,0,0,0],1],[[5,0,0,0,2,0,1,0,1,0,0,0,0,0,0,0,0,0,0,0],1],[[5,0,0,1,0,0,0,0,1,0,0,0,0,0,0,0,0,0,1,0],1],[[5,0,0,1,0,0,0,0,1,0,0,0,0,0,0,1,0,0,0,0],1],[[5,0,0,1,0,0,0,1,1,0,0,0,0,0,0,0,0,0,0,0],-1],[[5,0,0,1,0,0,1,0,0,0,0,0,0,0,0,0,0,0,1,0],1],[[5,0,0,1,0,0,1,0,0,0,0,0,0,0,0,1,0,0,0,0],1],[[5,0,0,1,1,0,1,0,1,0,0,0,0,0,0,0,0,0,0,0],1],[[6,0,1,0,1,0,0,0,0,0,0,0,0,0,0,0,0,0,0,0],1],[[6,0,1,1,0,0,0,0,0,0,0,0,0,0,0,0,0,0,0,0],1],[[8,0,0,0,1,0,0,1,1,0,0,0,0,0,0,0,0,0,0,0],-1],[[8,0,0,0,1,0,1,1,0,0,0,0,0,0,0,0,0,0,0,0],-1],[[8,0,0,1,0,0,0,1,1,0,0,0,0,0,0,0,0,0,0,0],-1],[[8,0,0,1,0,0,1,1,0,0,0,0,0,0,0,0,0,0,0,0],-1],[[9,0,0,0,2,0,0,0,0,0,0,0,0,0,0,0,0,0,0,0],1],[[9,0,0,1,1,0,0,0,0,0,0,0,0,0,0,0,0,0,0,0],1],[[10,0,0,0,1,0,0,0,0,0,0,0,0,0,0,0,0,0,1,0],1],[[10,0,0,0,1,0,0,0,0,0,0,0,0,0,0,1,0,0,0,0],1],[[10,0,0,0,2,0,0,0,1,0,0,0,0,0,0,0,0,0,0,0],1],[[10,0,0,0,2,0,1,0,0,0,0,0,0,0,0,0,0,0,0,0],1],[[10,0,0,1,0,0,0,0,0,0,0,0,0,0,0,0,0,0,1,0],1],[[10,0,0,1,0,0,0,0,0,0,0,0,0,0,0,1,0,0,0,0],1],[[10,0,0,1,1,0,0,0,1,0,0,0,0,0,0,0,0,0,0,0],1],[[10,0,0,1,1,0,1,0,0,0,0,0,0,0,0,0,0,0,0,0],1],[[13,0,0,0,1,0,0,1,0,0,0,0,0,0,0,0,0,0,0,0],-1],[[13,0,0,1,0,0,0,1,0,0,0,0,0,0,0,0,0,0,0,0],-1],[[15,0,0,0,2,0,0,0,0,0,0,0,0,0,0,0,0,0,0,0],1],[[15,0,0,1,1,0,0,0,0,0,0,0,0,0,0,0,0,0,0,0],1]],
    [[[3,5,0,0,0,0,0,0,1,1,0,0,0,0,0,0,0,0,0,0],-1],[[8,5,0,0,0,0,0,0,1,0,0,0,0,0,0,0,0,0,0,0],-1],[[14,5,0,0,0,0,0,0,0,0,0,0,0,0,0,0,0,0,0,0],1],[[54,0,0,0,0,0,0,0,0,0,0,0,0,0,0,0,0,0,0,0],1]],
    [[[5,0,0,0,0,0,0,1,0,1,0,0,0,0,0,0,0,0,0,0],-1],[[11,0,0,0,0,0,0,0,0,1,0,0,0,0,0,0,0,0,0,0],-1],[[16,0,0,0,0,0,0,0,0,0,0,0,0,0,0,0,0,0,0,0],1]],
    [[[0,0,0,0,0,0,0,0,0,0,0,0,0,0,0,0,0,0,0,0],0]],
    [[[-6,0,0,0,0,0,0,0,0,1,1,0,1,0,0,0,0,0,0,0],-1],[[-1,0,0,0,0,0,0,0,0,1,1,0,0,0,0,0,0,0,0,0],-1],[[0,0,0,0,0,0,0,0,0,0,1,0,1,0,0,0,0,0,0,0],-1],[[0,0,0,0,0,0,0,0,0,1,0,0,0,0,0,1,0,0,0,0],1],[[1,0,0,0,0,0,0,0,0,1,0,0,0,1,0,0,0,0,0,0],1],[[3,0,0,0,0,0,0,0,0,1,0,1,0,0,0,0,0,0,0,0],1],[[5,0,0,0,0,0,0,0,0,0,1,0,0,0,0,0,0,0,0,0],-1],[[5,0,0,0,0,0,0,0,0,1,1,0,0,0,0,0,0,0,0,0],-1],[[6,0,0,0,0,0,0,0,0,0,0,0,0,0,0,1,0,0,0,0],1],[[7,0,0,0,0,0,0,0,0,0,0,0,0,1,0,0,0,0,0,0],1],[[9,0,0,0,0,0,0,0,0,0,0,1,0,0,0,0,0,0,0,0],1],[[11,0,0,0,0,0,0,0,0,0,1,0,0,0,0,0,0,0,0,0],-1],[[11,0,0,0,0,0,0,0,0,1,0,0,0,0,0,0,0,0,0,0],1]],
    [[[-1,0,0,0,0,0,0,0,0,0,1,0,0,0,0,0,0,0,0,0],1],[[0,0,0,0,0,0,0,0,0,0,0,1,0,0,0,0,0,0,0,0],-1],[[2,0,0,0,0,0,0,0,0,0,0,0,0,0,0,1,0,0,0,0],1],[[3,0,0,0,0,0,0,0,0,0,0,1,0,0,0,0,0,0,0,0],-1]],
    [[[-11,0,0,0,0,0,0,0,0,0,0,0,2,0,0,0,0,0,0,1],-1],[[-6,0,0,0,0,0,0,0,0,0,0,0,1,1,0,0,0,0,0,0],-1],[[-6,0,0,0,0,0,0,0,0,0,1,0,1,0,0,0,0,0,0,0],-1],[[1,0,0,0,0,0,0,0,0,0,0,0,0,0,0,0,1,0,0,0],1],[[1,0,0,0,0,0,0,0,0,0,0,0,0,1,0,0,0,0,0,0],1],[[3,0,0,0,0,0,0,0,0,0,0,0,0,0,0,0,0,1,0,0],1],[[4,0,0,0,0,0,0,0,0,0,0,0,1,0,0,0,0,0,0,0],-1],[[10,0,0,0,0,0,0,0,0,0,0,0,0,0,0,0,0,0,0,0],1]],
    [[[-6,0,0,0,0,0,0,0,0,0,0,0,1,1,0,0,0,0,0,0],-1],[[-6,0,0,0,0,0,0,0,0,0,1,0,1,0,0,0,0,0,0,0],1],[[1,0,0,0,0,0,0,0,0,0,0,0,0,0,0,0,1,0,0,0],1],[[1,0,0,0,0,0,0,0,0,0,0,0,0,1,0,0,0,0,0,0],-1]],
    [[[0,0,0,0,0,0,0,0,0,0,0,0,0,0,0,0,0,0,0,1],1],[[0,0,0,0,0,0,0,0,0,0,0,0,0,0,1,0,0,0,0,0],-1],[[2,0,0,0,0,0,0,0,0,0,0,0,0,0,0,0,0,0,1,0],1],[[2,0,0,0,0,0,0,0,0,0,0,0,0,0,1,0,0,0,0,0],-1]],
    [[[0,0,0,0,0,0,0,0,0,0,0,0,0,0,0,1,0,0,0,0],-1],[[0,0,0,0,0,0,0,0,0,0,0,1,0,0,0,0,0,0,0,0],1],[[2,0,0,0,0,0,0,0,0,0,0,0,0,0,0,1,0,0,0,0],-1]],
    [[[-6,0,0,0,0,0,0,0,0,0,0,0,1,1,0,0,0,0,0,0],1],[[1,0,0,0,0,0,0,0,0,0,0,0,0,0,0,0,1,0,0,0],-1],[[6,0,0,0,0,0,0,0,0,0,0,0,0,0,0,0,1,0,0,0],-1]],
    [[[-11,0,0,0,0,0,0,0,0,0,0,0,2,0,0,0,0,0,0,1],1],[[3,0,0,0,0,0,0,0,0,0,0,0,0,0,0,0,0,1,0,0],-1],[[4,0,0,0,0,0,0,0,0,0,0,0,0,0,0,0,0,1,0,0],-1]],
    [[[0,0,0,0,0,0,0,0,0,0,0,0,0,0,0,0,0,0,1,0],-1],[[0,0,0,0,0,0,0,0,0,0,0,0,0,0,1,0,0,0,0,0],1],[[2,0,0,0,0,0,0,0,0,0,0,0,0,0,0,0,0,0,1,0],-1]],
    [[[-11,0,0,0,0,0,0,0,0,0,0,0,2,0,0,0,0,0,0,1],-1],[[0,0,0,0,0,0,0,0,0,0,0,0,0,0,0,0,0,0,0,1],-1],[[0,0,0,0,0,0,0,0,0,0,0,0,0,0,0,0,0,0,1,0],1],[[2,0,0,0,0,0,0,0,0,0,0,0,0,0,1,0,0,0,0,0],1],[[3,0,0,0,0,0,0,0,0,0,0,0,0,0,0,0,0,1,0,0],1],[[4,0,0,0,0,0,0,0,0,0,0,0,0,0,0,0,0,0,0,1],-1],[[10,0,0,0,0,0,0,0,0,0,0,0,0,0,0,0,0,0,0,0],1]],
    [[[0,0,0,0,0,0,0,0,0,0,0,0,0,0,0,0,0,0,0,0],0]]
  ]
]
