[
  ["#0",
    [[0,0,1,1],
     [0,0,0,1],
     [1,0,0,0],
     [1,1,0,0]], [
    [[[-1,1,0,0,0,0,0,0,0]], [[1,0,1,0,0,0,0,0,0]], 0],
    [[[-2,1,-1,0,0,0,0,0,0]], [[1,-1,0,0,0,0,0,0,0],[0,1,0,0,0,0,0,0,0]], 1],
    [[[-2,2,-1,0,0,0,0,0,0]], [[1,1,0,0,0,0,0,0,0],[0,-1,0,0,0,0,0,0,0]], 2],
    [[[-3,1,-1,0,0,0,0,0,0]], [[-1,-1,0,0,0,0,0,0,0]], 3]
  ]],
  ["#1",
    [[0,0,1,1,0,0,0,0,1,1,1,1,1,1,1,1,1,1,1,1,1,1,1,1,1,1,1,1,1,1,1,1,1,1,1,1,1,1,1,1,1,1,1,1,1,1,1,1,1],
     [0,0,1,1,1,1,1,1,1,1,1,1,0,1,1,1,1,1,1,1,1,1,1,1,1,1,1,1,1,1,1,1,1,1,1,1,1,1,1,1,1,1,1,1,1,1,1,1,1],
     [1,1,0,0,1,1,1,1,0,0,0,0,1,1,1,1,1,1,1,1,1,1,1,1,1,1,1,1,1,1,1,1,1,1,1,1,1,1,1,1,1,1,1,1,1,1,1,1,1],
     [1,1,0,0,1,1,1,1,1,1,1,1,1,1,1,0,1,1,1,1,1,1,1,1,1,1,1,1,1,1,1,1,1,1,1,1,1,1,1,1,1,1,1,1,1,1,1,1,1],
     [0,1,1,1,0,0,0,0,1,1,1,1,0,0,0,1,1,1,1,1,1,1,1,1,1,1,1,1,1,1,1,1,1,1,1,1,1,1,1,1,1,1,1,1,1,1,1,1,1],
     [0,1,1,1,0,0,0,0,1,1,1,1,1,1,1,1,1,1,1,1,1,1,1,1,1,1,1,1,1,1,1,1,1,1,1,1,1,1,1,1,1,1,1,1,1,1,1,1,1],
     [0,1,1,1,0,0,0,0,1,1,1,1,1,1,1,1,1,1,1,1,1,1,1,1,1,1,1,1,1,1,1,1,1,1,1,1,1,1,1,1,1,1,0,0,1,1,1,1,1],
     [0,1,1,1,0,0,0,0,1,1,1,0,1,1,1,1,1,1,1,1,1,1,1,1,1,1,1,0,1,1,1,0,1,1,1,1,1,1,1,1,1,1,1,1,1,1,1,1,1],
     [1,1,0,1,1,1,1,1,0,0,0,0,1,1,1,0,0,0,1,1,1,1,1,1,1,1,1,1,1,1,1,1,1,1,1,1,1,1,1,1,1,1,1,1,1,1,1,1,1],
     [1,1,0,1,1,1,1,1,0,0,0,0,1,1,1,1,1,1,1,1,1,1,1,1,1,1,1,1,1,1,1,1,1,1,1,1,1,1,1,1,1,1,1,1,1,1,1,1,1],
     [1,1,0,1,1,1,1,1,0,0,0,0,1,1,1,1,1,1,1,1,1,1,1,1,1,1,1,1,1,1,1,1,1,1,1,1,1,1,1,1,1,1,1,1,0,0,1,1,1],
     [1,1,0,1,1,1,1,0,0,0,0,0,1,1,1,1,1,1,1,1,1,1,1,1,1,1,1,0,1,1,1,0,1,1,1,1,1,1,1,1,1,1,1,1,1,1,1,1,1],
     [1,0,1,1,0,1,1,1,1,1,1,1,0,0,0,1,1,1,1,1,1,1,1,1,1,1,1,1,1,1,1,1,1,1,1,1,1,1,1,1,1,1,1,1,1,1,1,1,1],
     [1,1,1,1,0,1,1,1,1,1,1,1,0,0,0,1,0,1,1,1,1,1,1,1,1,1,1,1,1,1,1,1,1,1,0,0,1,0,1,1,0,1,0,1,0,1,0,0,1],
     [1,1,1,1,0,1,1,1,1,1,1,1,0,0,0,1,1,1,1,1,1,1,1,1,1,1,1,1,1,1,1,1,1,1,1,1,1,1,1,1,1,1,1,0,1,1,1,1,1],
     [1,1,1,0,1,1,1,1,0,1,1,1,1,1,1,0,0,0,1,1,1,1,1,1,1,1,1,1,1,1,1,1,1,1,1,1,1,1,1,1,1,1,1,1,1,1,1,1,1],
     [1,1,1,1,1,1,1,1,0,1,1,1,1,0,1,0,0,0,1,1,1,1,1,1,1,1,1,1,1,1,1,1,1,1,0,0,1,0,1,1,0,1,0,1,0,1,0,0,1],
     [1,1,1,1,1,1,1,1,0,1,1,1,1,1,1,0,0,0,1,1,1,1,1,1,1,1,1,1,1,1,1,1,1,1,1,1,1,1,1,1,1,1,1,1,1,0,1,1,1],
     [1,1,1,1,1,1,1,1,1,1,1,1,1,1,1,1,1,1,0,1,1,1,1,1,0,0,0,0,1,1,1,1,1,1,1,1,1,1,1,1,1,1,1,1,1,1,1,1,1],
     [1,1,1,1,1,1,1,1,1,1,1,1,1,1,1,1,1,1,1,0,1,1,1,1,1,1,1,1,0,0,0,0,1,1,1,1,1,1,1,1,1,1,1,1,1,1,1,1,1],
     [1,1,1,1,1,1,1,1,1,1,1,1,1,1,1,1,1,1,1,1,0,0,1,1,1,1,1,1,1,1,1,1,0,1,1,1,1,1,1,1,1,1,1,1,1,1,1,1,1],
     [1,1,1,1,1,1,1,1,1,1,1,1,1,1,1,1,1,1,1,1,0,0,1,1,1,1,1,1,1,1,1,1,1,1,1,1,0,1,1,1,1,1,1,1,1,1,1,1,1],
     [1,1,1,1,1,1,1,1,1,1,1,1,1,1,1,1,1,1,1,1,1,1,0,0,1,1,1,1,1,1,1,1,1,0,1,1,1,1,1,1,1,1,1,1,1,1,1,1,1],
     [1,1,1,1,1,1,1,1,1,1,1,1,1,1,1,1,1,1,1,1,1,1,0,0,1,1,1,1,1,1,1,1,1,1,1,1,1,1,1,0,1,1,1,1,1,1,1,1,1],
     [1,1,1,1,1,1,1,1,1,1,1,1,1,1,1,1,1,1,0,1,1,1,1,1,0,0,0,0,1,1,1,1,1,1,0,1,1,1,1,1,1,1,1,1,1,1,1,1,1],
     [1,1,1,1,1,1,1,1,1,1,1,1,1,1,1,1,1,1,0,1,1,1,1,1,0,0,0,0,1,1,1,1,1,1,1,1,1,1,1,1,1,1,1,1,1,1,1,1,1],
     [1,1,1,1,1,1,1,1,1,1,1,1,1,1,1,1,1,1,0,1,1,1,1,1,0,0,0,0,1,1,1,1,1,1,1,1,1,1,1,1,1,1,1,1,1,1,0,1,1],
     [1,1,1,1,1,1,1,0,1,1,1,0,1,1,1,1,1,1,0,1,1,1,1,1,0,0,0,0,1,1,1,0,1,1,1,1,1,1,1,1,1,1,1,1,1,1,1,1,1],
     [1,1,1,1,1,1,1,1,1,1,1,1,1,1,1,1,1,1,1,0,1,1,1,1,1,1,1,1,0,0,0,0,1,1,1,0,1,1,1,1,1,1,1,1,1,1,1,1,1],
     [1,1,1,1,1,1,1,1,1,1,1,1,1,1,1,1,1,1,1,0,1,1,1,1,1,1,1,1,0,0,0,0,1,1,1,1,1,1,1,1,1,1,1,1,1,1,1,1,1],
     [1,1,1,1,1,1,1,1,1,1,1,1,1,1,1,1,1,1,1,0,1,1,1,1,1,1,1,1,0,0,0,0,1,1,1,1,1,1,1,1,1,1,1,1,1,1,1,0,0],
     [1,1,1,1,1,1,1,0,1,1,1,0,1,1,1,1,1,1,1,0,1,1,1,1,1,1,1,0,0,0,0,0,1,1,1,1,1,1,1,1,1,1,1,1,1,1,1,1,1],
     [1,1,1,1,1,1,1,1,1,1,1,1,1,1,1,1,1,1,1,1,0,1,1,1,1,1,1,1,1,1,1,1,0,1,1,1,0,0,0,1,1,1,1,1,1,1,1,1,1],
     [1,1,1,1,1,1,1,1,1,1,1,1,1,1,1,1,1,1,1,1,1,1,0,1,1,1,1,1,1,1,1,1,1,0,1,1,1,1,1,0,0,0,1,1,1,1,1,1,1],
     [1,1,1,1,1,1,1,1,1,1,1,1,1,0,1,1,0,1,1,1,1,1,1,1,0,1,1,1,1,1,1,1,1,1,0,0,1,0,1,1,0,1,0,1,0,1,0,0,1],
     [1,1,1,1,1,1,1,1,1,1,1,1,1,0,1,1,0,1,1,1,1,1,1,1,1,1,1,1,0,1,1,1,1,1,0,0,1,0,1,1,0,1,0,1,0,1,0,0,1],
     [1,1,1,1,1,1,1,1,1,1,1,1,1,1,1,1,1,1,1,1,1,0,1,1,1,1,1,1,1,1,1,1,0,1,1,1,0,0,0,1,1,1,1,1,1,1,1,1,1],
     [1,1,1,1,1,1,1,1,1,1,1,1,1,0,1,1,0,1,1,1,1,1,1,1,1,1,1,1,1,1,1,1,0,1,0,0,0,0,0,1,0,1,0,1,0,1,0,0,1],
     [1,1,1,1,1,1,1,1,1,1,1,1,1,1,1,1,1,1,1,1,1,1,1,1,1,1,1,1,1,1,1,1,0,1,1,1,0,0,0,1,1,1,1,1,1,1,1,1,1],
     [1,1,1,1,1,1,1,1,1,1,1,1,1,1,1,1,1,1,1,1,1,1,1,0,1,1,1,1,1,1,1,1,1,0,1,1,1,1,1,0,0,0,1,1,1,1,1,1,1],
     [1,1,1,1,1,1,1,1,1,1,1,1,1,0,1,1,0,1,1,1,1,1,1,1,1,1,1,1,1,1,1,1,1,0,0,0,1,0,1,0,0,0,0,1,0,1,0,0,1],
     [1,1,1,1,1,1,1,1,1,1,1,1,1,1,1,1,1,1,1,1,1,1,1,1,1,1,1,1,1,1,1,1,1,0,1,1,1,1,1,0,0,0,1,1,1,1,1,1,1],
     [1,1,1,1,1,1,0,1,1,1,1,1,1,0,1,1,0,1,1,1,1,1,1,1,1,1,1,1,1,1,1,1,1,1,0,0,1,0,1,1,0,1,0,0,0,1,0,0,1],
     [1,1,1,1,1,1,0,1,1,1,1,1,1,1,0,1,1,1,1,1,1,1,1,1,1,1,1,1,1,1,1,1,1,1,1,1,1,1,1,1,1,1,0,0,1,1,1,1,1],
     [1,1,1,1,1,1,1,1,1,1,0,1,1,0,1,1,0,1,1,1,1,1,1,1,1,1,1,1,1,1,1,1,1,1,0,0,1,0,1,1,0,1,0,1,0,0,0,0,1],
     [1,1,1,1,1,1,1,1,1,1,0,1,1,1,1,1,1,0,1,1,1,1,1,1,1,1,1,1,1,1,1,1,1,1,1,1,1,1,1,1,1,1,1,1,0,0,1,1,1],
     [1,1,1,1,1,1,1,1,1,1,1,1,1,0,1,1,0,1,1,1,1,1,1,1,1,1,0,1,1,1,1,1,1,1,0,0,1,0,1,1,0,1,0,1,0,1,0,0,1],
     [1,1,1,1,1,1,1,1,1,1,1,1,1,0,1,1,0,1,1,1,1,1,1,1,1,1,1,1,1,1,0,1,1,1,0,0,1,0,1,1,0,1,0,1,0,1,0,0,0],
     [1,1,1,1,1,1,1,1,1,1,1,1,1,1,1,1,1,1,1,1,1,1,1,1,1,1,1,1,1,1,0,1,1,1,1,1,1,1,1,1,1,1,1,1,1,1,1,0,0]], [
    [[[-1,1,0,0,0,0,0,0,0]], [[1,0,-1,1,0,0,0,0,0],[2,0,-1,0,0,0,0,0,0],[1,0,1,0,0,0,0,0,0],[1,0,1,0,0,0,0,0,-1],[0,0,0,0,0,1,0,0,0],[1,0,0,0,0,0,0,0,-1]], 0],
    [[[-2,1,-1,0,0,0,0,0,0]], [[3,-1,0,1,0,0,0,0,0],[-1,1,0,0,0,0,0,0,-1],[0,0,0,0,0,1,0,0,0],[1,-1,0,0,0,0,0,0,0]], 5],
    [[[-1,1,0,0,0,0,0,0,0]], [[1,0,-1,1,0,0,0,0,0],[0,0,0,0,0,-1,0,0,0],[2,0,-1,0,0,0,0,0,0],[1,0,1,0,0,0,0,0,0],[1,0,1,0,0,0,0,0,-1],[1,0,0,0,0,0,0,0,-1]], 11],
    [[[-2,1,-1,0,0,0,0,0,0]], [[3,-1,0,1,0,0,0,0,0],[-1,1,0,0,0,0,0,0,-1],[0,0,0,0,0,-1,0,0,0],[1,-1,0,0,0,0,0,0,0]], 17],
    [[[0,1,-1,1,0,0,0,0,0]], [[-1,1,0,0,0,0,0,0,0],[1,1,-1,0,0,0,0,0,0],[3,-1,0,0,0,0,0,0,0],[1,0,1,0,0,0,0,0,0],[0,0,0,0,0,1,0,0,0],[1,0,1,0,0,0,0,0,-1],[1,0,0,0,0,0,0,0,-1],[3,-1,1,0,0,0,0,0,0],[3,-1,1,0,0,0,0,0,-1]], 20],
    [[[1,1,-1,0,0,0,0,0,0]], [[4,-1,0,0,0,1,0,0,0],[2,-1,0,1,0,0,0,0,0],[-1,1,0,0,0,0,0,0,0],[-1,0,0,1,0,0,0,0,0],[0,0,0,0,0,1,0,0,0],[1,0,0,0,0,0,0,0,-1]], 26],
    [[[-3,0,1,-1,0,0,0,0,0]], [[5,0,-1,0,0,1,0,0,0],[1,0,0,0,0,0,0,0,-1],[0,0,1,0,0,0,0,0,0],[0,0,0,0,0,1,0,0,0],[-3,1,0,0,0,0,0,0,0],[1,1,-1,0,0,0,0,0,0],[0,0,1,0,0,0,0,0,-1]], 34],
    [[[-5,0,1,0,0,-1,0,0,0]], [[1,1,-1,0,0,0,0,0,0],[3,0,-1,1,0,0,0,0,0],[-5,0,1,0,0,0,0,0,0],[1,0,0,0,0,0,0,0,-1]], 38],
    [[[0,1,-1,1,0,0,0,0,0]], [[-1,1,0,0,0,0,0,0,0],[3,-1,1,0,0,-1,0,0,-1],[3,-1,1,0,0,0,0,0,0],[1,0,0,0,0,0,0,0,-1],[3,-1,0,0,0,0,0,0,0],[1,1,-1,0,0,0,0,0,0],[0,0,0,0,0,-1,0,0,0],[1,0,1,0,0,0,0,0,0],[1,0,1,0,0,0,0,0,-1]], 40],
    [[[1,1,-1,0,0,0,0,0,0]], [[4,-1,0,0,0,0,0,0,0],[-1,1,0,0,0,0,0,0,0],[-1,0,0,1,0,0,0,0,0],[1,0,0,0,0,0,0,0,-1],[2,-1,0,1,0,0,0,0,0],[0,0,0,0,0,-1,0,0,0]], 46],
    [[[-3,0,1,-1,0,0,0,0,0]], [[5,0,-1,0,0,0,0,0,0],[1,1,-1,0,0,0,0,0,0],[0,0,0,0,0,-1,0,0,0],[1,0,0,0,0,0,0,0,-1],[-3,1,0,0,0,0,0,0,0],[0,0,1,0,0,-1,0,0,-1],[0,0,1,0,0,0,0,0,0]], 54],
    [[[-5,0,1,0,0,0,0,0,0]], [[-4,1,0,0,0,0,0,0,0],[1,0,0,0,0,0,0,0,-1],[-2,0,0,1,0,0,0,0,0],[0,0,0,0,0,-1,0,0,0]], 58],
    [[[-1,1,-2,1,0,0,0,0,0]], [[-2,1,-1,0,0,0,0,0,0],[1,0,1,0,0,0,0,0,-1],[0,0,0,0,0,1,0,0,0],[3,-1,1,0,0,0,0,0,0],[-1,0,-1,0,0,0,0,0,0]], 62],
    [[[-3,1,-1,0,0,0,0,0,1]], [[-2,1,0,0,0,0,0,0,0],[0,0,0,0,0,1,0,0,0],[3,-1,0,0,0,0,0,0,0],[-2,1,-1,0,0,0,0,0,0],[3,-1,1,0,0,0,0,0,0],[0,-1,1,-1,0,0,0,0,0]], 67],
    [[[-3,1,-1,0,0,0,0,0,0]], [[-2,1,0,0,0,0,0,0,-1],[-5,1,0,-1,0,0,0,0,0],[3,-1,0,0,0,0,0,0,0],[0,0,0,0,0,1,0,0,0],[0,0,0,0,0,0,0,0,-1],[-3,0,0,-1,0,0,0,0,0]], 68],
    [[[-1,1,-2,1,0,0,0,0,0]], [[-2,1,-1,0,0,0,0,0,0],[1,0,1,0,0,0,0,0,-1],[0,0,0,0,0,-1,0,0,0],[3,-1,1,0,0,0,0,0,0],[-1,0,-1,0,0,0,0,0,0]], 77],
    [[[-3,1,-1,0,0,1,0,0,1]], [[-2,1,0,0,0,1,0,0,0],[-2,1,-1,0,0,1,0,0,0],[0,0,0,0,0,-1,0,0,0],[3,-1,1,0,0,0,0,0,0],[3,-1,0,0,0,0,0,0,0],[0,-1,1,-1,0,0,0,0,0]], 80],
    [[[-3,1,-1,0,0,0,0,0,0]], [[-2,1,0,0,0,0,0,0,-1],[-5,1,0,-1,0,0,0,0,0],[0,0,0,0,0,-1,0,0,0],[3,-1,0,0,0,0,0,0,0],[0,0,0,0,0,-1,0,0,-1],[-3,0,0,-1,0,0,0,0,0]], 82],
    [[[-1,1,0,0,0,0,0,0,0]], [[1,0,-1,1,0,0,0,0,0],[2,0,-1,0,0,0,0,0,0],[0,0,1,0,0,0,0,0,0],[0,0,0,0,0,1,0,0,0],[-1,0,0,0,0,0,0,0,1]], 86],
    [[[-1,1,0,0,0,0,0,0,0]], [[1,0,-1,1,0,0,0,0,0],[2,0,-1,0,0,0,0,0,0],[0,0,1,0,0,0,0,0,0],[-1,0,0,0,0,0,0,0,1],[0,0,0,0,0,-1,0,0,0]], 91],
    [[[-1,1,0,0,0,0,0,0,0]], [[1,0,-1,1,0,0,0,0,0],[1,0,1,0,0,0,0,0,0],[0,0,0,0,0,1,0,0,0],[-1,0,-1,0,0,0,0,0,1],[0,0,-1,0,0,0,0,0,0]], 96],
    [[[-2,1,-1,0,0,0,0,0,0]], [[3,-1,0,1,0,0,0,0,0],[0,0,0,0,0,1,0,0,0],[1,-1,0,0,0,0,0,0,1],[1,-1,0,0,0,0,0,0,0]], 100],
    [[[-1,1,0,0,0,0,0,0,0]], [[1,0,-1,1,0,0,0,0,0],[1,0,1,0,0,0,0,0,0],[0,0,0,0,0,-1,0,0,0],[-1,0,-1,0,0,0,0,0,1],[0,0,-1,0,0,0,0,0,0]], 106],
    [[[-2,1,-1,0,0,0,0,0,0]], [[3,-1,0,1,0,0,0,0,0],[0,0,0,0,0,-1,0,0,0],[1,-1,0,0,0,0,0,0,1],[1,-1,0,0,0,0,0,0,0]], 109],
    [[[0,1,-1,1,0,0,0,0,0]], [[-1,1,0,0,0,0,0,0,0],[3,-1,0,0,0,0,0,0,0],[1,1,-1,0,0,0,0,0,0],[0,0,1,0,0,0,0,0,0],[2,-1,1,0,0,0,0,0,0],[0,0,0,0,0,1,0,0,0],[-1,0,0,0,0,0,0,0,1]], 112],
    [[[1,1,-1,0,0,0,0,0,0]], [[3,-1,0,0,0,1,0,0,1],[2,-1,0,1,0,0,0,0,0],[0,0,0,0,0,1,0,0,0],[-1,0,0,0,0,0,0,0,1],[-1,1,0,0,0,0,0,0,0],[-1,0,0,1,0,0,0,0,0]], 116],
    [[[-3,0,1,-1,0,0,0,0,0]], [[4,0,-1,0,0,1,0,0,1],[-1,0,0,0,0,0,0,0,1],[0,0,0,0,0,1,0,0,0],[-3,1,0,0,0,0,0,0,0],[-1,0,1,0,0,0,0,0,0],[1,1,-1,0,0,0,0,0,0]], 120],
    [[[-4,0,1,0,0,-1,0,0,-1]], [[3,0,-1,1,0,0,0,0,0],[1,1,-1,0,0,0,0,0,0],[0,0,0,0,0,1,0,0,0],[-5,0,1,0,0,-1,0,0,0]], 122],
    [[[0,1,-1,1,0,0,0,0,0]], [[-1,1,0,0,0,0,0,0,0],[1,1,-1,0,0,0,0,0,0],[0,0,1,0,0,0,0,0,0],[3,-1,0,0,0,0,0,0,0],[-1,0,0,0,0,0,0,0,1],[2,-1,1,0,0,-1,0,0,0],[0,0,0,0,0,-1,0,0,0]], 126],
    [[[1,1,-1,0,0,0,0,0,0]], [[3,-1,0,0,0,0,0,0,1],[-1,1,0,0,0,0,0,0,0],[2,-1,0,1,0,0,0,0,0],[-1,0,0,1,0,0,0,0,0],[-1,0,0,0,0,0,0,0,1],[0,0,0,0,0,-1,0,0,0]], 130],
    [[[-3,0,1,-1,0,0,0,0,0]], [[4,0,-1,0,0,0,0,0,1],[0,0,0,0,0,-1,0,0,0],[0,0,1,0,0,0,0,0,0],[-1,0,0,0,0,0,0,0,1],[-3,1,0,0,0,0,0,0,0],[1,1,-1,0,0,0,0,0,0],[-1,0,1,0,0,-1,0,0,0]], 134],
    [[[-4,0,1,0,0,0,0,0,-1]], [[1,1,-1,0,0,0,0,0,0],[-5,0,1,0,0,0,0,0,0],[3,0,-1,1,0,0,0,0,0],[0,0,0,0,0,-1,0,0,0]], 136],
    [[[0,1,-1,1,0,0,0,0,0]], [[-1,1,0,0,0,0,0,0,0],[1,0,1,0,0,0,0,0,0],[0,0,0,0,0,1,0,0,0],[2,-1,0,0,0,0,0,0,0],[0,0,-1,0,0,0,0,0,0],[-1,0,-1,0,0,0,0,0,1]], 139],
    [[[0,1,-1,1,0,0,0,0,0]], [[-1,1,0,0,0,0,0,0,0],[1,0,1,0,0,0,0,0,0],[3,-1,1,0,0,0,0,0,0],[0,0,0,0,0,-1,0,0,0],[2,-1,0,0,0,-1,0,0,0],[-1,0,-1,0,0,0,0,0,1],[0,0,-1,0,0,0,0,0,0]], 146],
    [[[-2,1,-1,0,0,0,0,0,0]], [[-2,1,0,0,0,0,0,0,0],[3,-1,0,0,0,0,0,0,0],[0,0,0,0,0,1,0,0,0],[-1,0,0,0,0,0,0,0,1],[-2,0,0,-1,0,0,0,0,0]], 152],
    [[[-2,1,-1,0,0,1,0,0,0]], [[0,0,1,0,0,0,0,0,0],[-1,0,0,0,0,0,0,0,1],[-2,1,-1,0,0,0,0,0,0],[3,-1,0,0,0,0,0,0,0],[0,-1,1,-1,0,0,0,0,0]], 153],
    [[[-1,1,-2,1,0,0,0,0,0]], [[-2,1,-1,0,0,0,0,0,0],[0,0,0,0,0,1,0,0,0],[3,-1,1,0,0,0,0,0,0],[-1,0,-1,0,0,0,0,0,1],[-1,0,-1,0,0,0,0,0,0]], 157],
    [[[-2,1,0,0,0,0,0,0,0]], [[0,0,0,0,0,1,0,0,0],[-1,0,-1,0,0,0,0,0,1],[0,0,-1,0,0,0,0,0,0],[1,0,1,0,0,0,0,0,0],[-2,0,1,-1,0,0,0,0,0]], 159],
    [[[-3,1,-1,0,0,0,0,0,0]], [[-5,1,0,-1,0,0,0,0,0],[0,0,0,0,0,1,0,0,0],[2,-1,0,0,0,0,0,0,1],[2,-1,0,0,0,0,0,0,0]], 162],
    [[[-1,1,-2,1,0,0,0,0,0]], [[-2,1,-1,0,0,0,0,0,0],[0,0,0,0,0,-1,0,0,0],[3,-1,1,0,0,0,0,0,0],[-1,0,-1,0,0,0,0,0,1],[-1,0,-1,0,0,0,0,0,0]], 165],
    [[[-2,1,0,0,0,1,0,0,0]], [[-2,1,0,0,0,0,0,0,0],[-1,0,-1,0,0,0,0,0,1],[0,0,-1,0,0,0,0,0,0],[3,-1,1,0,0,0,0,0,0],[0,-1,1,-1,0,0,0,0,0]], 166],
    [[[-3,1,-1,0,0,0,0,0,0]], [[-5,1,0,-1,0,0,0,0,0],[0,0,0,0,0,-1,0,0,0],[3,-1,0,0,0,0,0,0,0],[-3,0,0,-1,0,0,0,0,0],[2,-1,0,0,0,0,0,0,1],[2,-1,0,0,0,-1,0,0,0]], 171],
    [[[0,0,1,0,0,0,0,0,-1]], [[-3,1,0,0,0,0,0,0,0],[1,0,-1,0,0,0,0,0,0],[0,0,1,0,0,0,0,0,0],[-3,0,1,-1,0,0,0,0,0],[0,0,0,0,0,1,0,0,0]], 172],
    [[[0,0,1,0,0,0,0,0,0]], [[-3,1,0,0,0,0,0,0,0],[0,0,0,0,0,0,0,0,-1],[-3,0,0,-1,0,0,0,0,0],[0,0,0,0,0,1,0,0,0]], 173],
    [[[0,0,1,0,0,-1,0,0,-1]], [[-3,1,0,0,0,0,0,0,0],[0,0,1,0,0,0,0,0,0],[0,0,0,0,0,-1,0,0,0],[1,0,-1,0,0,1,0,0,0],[-3,0,1,-1,0,0,0,0,0]], 175],
    [[[0,0,1,0,0,0,0,0,0]], [[-3,1,0,0,0,0,0,0,0],[0,0,0,0,0,-1,0,0,-1],[0,0,0,0,0,-1,0,0,0],[1,0,0,0,0,0,0,0,-1],[-3,0,0,-1,0,0,0,0,0]], 177],
    [[[-1,0,1,0,0,0,0,0,0]], [[-3,1,0,0,0,0,0,0,0],[-1,0,0,0,0,0,0,0,1],[0,0,0,0,0,1,0,0,0],[-2,0,0,-1,0,0,0,0,0]], 180],
    [[[-1,0,1,0,0,-1,0,0,0]], [[-3,1,0,0,0,0,0,0,0],[1,0,-1,0,0,0,0,0,0],[0,0,1,0,0,0,0,0,0],[-1,0,0,0,0,0,0,0,1],[-3,0,1,-1,0,0,0,0,0]], 181],
    [[[0,0,1,0,0,0,0,0,0]], [[-3,1,0,0,0,0,0,0,0],[-1,0,0,0,0,-1,0,0,0],[-3,0,0,-1,0,0,0,0,0],[-1,0,0,0,0,0,0,0,1]], 185]
  ]],
  ["#2",
    [[0,0,0,1,1,1,1,1,1,1,1,1,1,1,1,1,1],
     [0,0,0,0,0,1,1,1,1,1,1,1,1,1,1,1,1],
     [0,0,0,0,1,0,0,1,1,1,1,1,1,1,1,1,1],
     [1,0,0,0,0,0,0,1,1,1,1,1,1,1,1,1,1],
     [1,0,1,0,0,1,1,1,1,1,1,0,0,0,1,1,1],
     [1,1,0,0,1,0,0,0,1,0,0,1,1,1,1,1,1],
     [1,1,0,0,1,0,0,1,1,0,1,0,1,1,0,0,1],
     [1,1,1,1,1,0,1,0,0,0,0,1,1,1,1,1,1],
     [1,1,1,1,1,1,1,0,0,1,0,1,1,1,1,1,1],
     [1,1,1,1,1,0,0,0,1,0,0,0,1,1,0,0,1],
     [1,1,1,1,1,0,1,0,0,0,0,1,1,1,1,1,1],
     [1,1,1,1,0,1,0,1,1,0,1,0,0,0,0,0,1],
     [1,1,1,1,0,1,1,1,1,1,1,0,0,0,0,1,0],
     [1,1,1,1,0,1,1,1,1,1,1,0,0,0,1,0,0],
     [1,1,1,1,1,1,0,1,1,0,1,0,0,1,0,0,0],
     [1,1,1,1,1,1,0,1,1,0,1,0,1,0,0,0,0],
     [1,1,1,1,1,1,1,1,1,1,1,1,0,0,0,0,0]], [
    [[[-1,0,1,-1,0,0,0,0,0]], [[2,0,-1,0,1,0,0,0,0],[2,0,-1,0,0,0,0,0,0]], 0],
    [[[-1,0,0,1,0,0,0,0,0]], [[0,0,0,0,1,0,0,0,0],[2,0,-1,0,0,0,0,0,0]], 1],
    [[[-1,0,0,1,-1,0,0,0,0]], [[1,0,0,-1,0,0,0,0,0],[1,0,-1,1,0,0,0,0,0]], 2],
    [[[0,0,0,0,1,0,0,0,0]], [[-1,0,0,1,0,0,0,0,0],[2,0,-1,0,0,0,0,0,0]], 19],
    [[[-2,0,1,0,0,0,0,0,0]], [[-1,0,0,1,0,0,0,0,0],[0,0,0,0,1,0,0,0,0]], 24],
    [[[-1,0,1,-1,0,0,0,0,0]], [[2,0,-1,0,0,0,0,0,0],[-2,0,1,0,-1,0,0,0,0]], 29],
    [[[-2,0,1,0,0,0,0,0,0]], [[-1,0,0,1,0,0,0,0,0],[0,0,0,0,-1,0,0,0,0]], 32],
    [[[0,0,1,-2,1,0,0,0,0]], [[-1,0,1,-1,0,0,0,0,0],[2,0,-1,1,0,0,0,0,0],[1,0,0,-1,0,0,0,0,0]], 35],
    [[[-2,0,0,1,-1,0,0,0,0]], [[1,0,0,-1,0,0,0,0,0],[-2,0,1,-1,0,0,0,0,0]], 38],
    [[[-1,0,0,1,0,0,0,0,0]], [[3,0,-1,0,0,0,0,0,0],[2,0,-1,0,-1,0,0,0,0],[-2,0,1,0,0,0,0,0,0]], 48],
    [[[-2,0,1,-1,0,0,0,0,0]], [[3,0,-1,0,0,0,0,0,0],[-4,0,1,0,-1,0,0,0,0]], 50],
    [[[0,0,0,0,1,0,0,0,0]], [[3,0,-1,0,0,0,0,0,0],[1,0,-1,1,0,0,0,0,0],[-2,0,1,0,0,0,0,0,0]], 58],
    [[[-1,0,1,-1,0,0,0,0,0]], [[3,0,-1,0,1,0,0,0,0],[0,0,0,0,1,0,0,0,0],[-2,0,1,0,0,0,0,0,0]], 59],
    [[[-3,0,1,0,-1,0,0,0,0]], [[1,0,-1,1,0,0,0,0,0],[-3,0,1,0,0,0,0,0,0]], 60],
    [[[-1,0,1,-1,1,0,0,0,0]], [[3,0,-1,0,0,0,0,0,0],[-1,0,1,-1,0,0,0,0,0],[-1,0,0,1,0,0,0,0,0]], 61],
    [[[-3,0,1,0,0,0,0,0,0]], [[-2,0,0,1,-1,0,0,0,0],[-1,0,0,1,0,0,0,0,0],[0,0,0,0,-1,0,0,0,0]], 64],
    [[[-2,0,0,1,-1,0,0,0,0]], [[-1,0,0,1,0,0,0,0,0],[-1,0,1,-1,0,0,0,0,0],[-3,0,1,0,0,0,0,0,0]], 67]
  ]],
  ["#3",
    [[0,0,0,0,0,0,0,1,1,1],
     [0,0,0,0,1,1,1,0,1,1],
     [0,0,0,0,0,1,1,1,1,1],
     [0,0,0,0,1,0,1,0,0,1],
     [0,1,0,1,0,0,0,1,1,1],
     [0,1,1,0,0,0,0,0,0,1],
     [0,1,1,1,0,0,0,1,1,0],
     [1,0,1,0,1,0,1,0,0,1],
     [1,1,1,0,1,0,1,0,0,0],
     [1,1,1,1,1,1,0,1,0,0]], [
    [[[-1,0,0,1,0,0,0,0,0]], [[3,0,0,0,-1,1,0,0,0],[2,0,0,0,-1,0,0,0,0],[0,0,0,0,1,0,0,0,0]], 0],
    [[[-1,0,0,1,-1,0,0,0,0]], [[4,0,0,-1,0,1,0,0,0],[1,0,0,-1,0,0,0,0,0]], 1],
    [[[-2,0,0,0,1,0,0,0,0]], [[1,0,0,-1,0,0,0,0,0],[1,0,0,0,0,1,0,0,0]], 2],
    [[[-3,0,0,0,1,-1,0,0,0]], [[1,0,0,-1,0,0,0,0,0],[2,0,0,0,-1,0,0,0,0],[1,0,0,-1,1,0,0,0,0]], 3],
    [[[1,0,0,1,-1,0,0,0,0]], [[4,0,0,-1,0,1,0,0,0],[-1,0,0,1,0,0,0,0,0],[1,0,0,0,0,1,0,0,0]], 4],
    [[[2,0,0,1,-1,1,0,0,0]], [[3,0,0,-1,0,0,0,0,0],[-1,0,0,1,0,0,0,0,0],[2,0,0,-1,1,0,0,0,0],[0,0,0,0,1,0,0,0,0],[1,0,0,1,-1,0,0,0,0]], 5],
    [[[-5,0,0,0,1,-1,0,0,0]], [[-1,0,0,0,1,0,0,0,0],[1,0,0,1,-1,0,0,0,0],[-3,0,0,1,0,0,0,0,0]], 6],
    [[[2,0,0,1,-2,1,0,0,0]], [[-1,0,0,1,-1,0,0,0,0],[0,0,0,0,-1,0,0,0,0],[2,0,0,-1,1,0,0,0,0]], 7],
    [[[-2,0,0,1,-1,0,0,0,0]], [[3,0,0,-1,0,0,0,0,0],[-4,0,0,0,0,-1,0,0,0],[-6,0,0,1,0,-1,0,0,0]], 8],
    [[[-1,0,0,0,1,0,0,0,0]], [[-4,0,0,0,0,-1,0,0,0],[-3,0,0,1,0,0,0,0,0]], 9]
  ]],
  ["#4",
    [[0,0,0,0,0,0,0,0,0,0,0,1,1,1,1,1,1,1,1,1,1,1,1,1,1,1,1,1,1,1,1,1,1,1,1,1,1,1,1,1,1,1],
     [0,0,0,0,0,0,1,1,1,1,1,0,0,0,0,0,1,1,1,1,1,1,1,1,1,1,1,1,1,1,1,1,1,1,1,1,1,1,1,1,1,1],
     [0,0,0,0,0,0,1,1,1,1,1,1,0,1,1,1,1,1,1,1,0,0,0,0,1,1,1,1,1,1,1,1,1,1,1,1,1,1,1,1,1,1],
     [0,0,0,0,0,0,1,1,1,1,1,1,1,1,1,1,1,1,1,1,1,1,1,1,1,1,1,0,0,0,1,1,1,1,1,1,1,1,1,1,1,1],
     [0,0,0,0,0,0,1,1,1,1,1,1,1,1,1,1,1,1,1,1,1,1,1,1,1,1,1,0,1,1,1,1,1,1,1,1,1,1,1,1,1,1],
     [0,0,0,0,0,0,1,1,1,1,1,1,1,1,1,1,1,1,1,1,1,1,1,1,1,1,1,1,1,1,1,1,1,1,1,1,1,1,1,1,1,1],
     [0,1,1,1,1,1,0,0,0,0,0,0,1,1,1,1,0,0,0,0,1,1,1,1,1,1,1,1,1,1,1,1,1,1,1,1,1,1,1,1,1,1],
     [0,1,1,1,1,1,0,0,0,0,0,1,1,1,1,1,0,1,1,1,0,1,1,1,0,0,0,1,1,1,1,1,1,1,1,1,1,1,1,1,1,1],
     [0,1,1,1,1,1,0,0,0,0,0,1,1,1,1,1,1,1,1,1,1,1,1,1,1,1,1,1,1,1,0,1,1,1,1,1,1,1,1,1,1,1],
     [0,1,1,1,1,1,0,0,0,0,0,1,1,1,1,1,1,1,1,1,1,1,1,1,1,1,1,1,1,1,1,1,1,1,1,1,1,1,1,1,1,1],
     [0,1,1,1,1,1,0,0,0,0,0,1,1,1,1,1,1,1,1,1,1,1,1,1,1,1,1,1,1,1,1,1,1,1,1,0,1,1,1,1,1,1],
     [1,0,1,1,1,1,0,1,1,1,1,0,0,0,0,0,0,0,0,0,1,1,1,1,1,1,1,1,1,1,1,1,1,1,1,1,1,1,1,1,1,1],
     [1,0,0,1,1,1,1,1,1,1,1,0,0,0,0,0,1,1,1,1,0,0,0,0,1,1,1,1,1,1,1,1,1,1,1,1,1,1,1,1,1,1],
     [1,0,1,1,1,1,1,1,1,1,1,0,0,0,0,0,1,1,1,1,1,1,1,1,1,1,1,1,1,1,1,0,0,0,1,1,1,1,1,1,1,1],
     [1,0,1,1,1,1,1,1,1,1,1,0,0,0,0,0,1,1,1,1,1,1,1,1,1,1,1,1,1,1,1,0,1,1,1,1,1,1,1,1,1,1],
     [1,0,1,1,1,1,1,1,1,1,1,0,0,0,0,0,1,1,1,1,1,1,1,1,1,1,1,1,1,1,1,1,1,1,1,1,1,1,1,1,1,1],
     [1,1,1,1,1,1,0,0,1,1,1,0,1,1,1,1,0,0,0,0,0,1,1,1,0,0,0,1,1,1,1,1,1,1,1,1,1,1,1,1,1,1],
     [1,1,1,1,1,1,0,1,1,1,1,0,1,1,1,1,0,0,0,0,1,1,1,1,1,1,1,1,1,1,1,1,1,1,0,1,1,1,1,1,1,1],
     [1,1,1,1,1,1,0,1,1,1,1,0,1,1,1,1,0,0,0,0,1,1,1,1,1,1,1,1,1,1,1,1,1,1,1,1,1,1,1,1,1,1],
     [1,1,1,1,1,1,0,1,1,1,1,0,1,1,1,1,0,0,0,0,1,1,1,1,1,1,1,1,1,1,1,1,1,1,1,1,1,1,1,1,0,1],
     [1,1,0,1,1,1,1,0,1,1,1,1,0,1,1,1,0,1,1,1,0,0,0,0,0,0,0,1,1,1,1,1,1,1,1,1,1,1,1,1,1,1],
     [1,1,0,1,1,1,1,1,1,1,1,1,0,1,1,1,1,1,1,1,0,0,0,0,1,1,1,1,1,1,1,1,1,1,1,1,0,0,0,1,1,1],
     [1,1,0,1,1,1,1,1,1,1,1,1,0,1,1,1,1,1,1,1,0,0,0,0,1,1,1,1,1,1,1,1,1,1,1,1,0,1,1,1,1,1],
     [1,1,0,1,1,1,1,1,1,1,1,1,0,1,1,1,1,1,1,1,0,0,0,0,1,1,1,1,1,1,1,1,1,1,1,1,1,1,1,1,1,1],
     [1,1,1,1,1,1,1,0,1,1,1,1,1,1,1,1,0,1,1,1,0,1,1,1,0,0,0,1,1,1,1,1,1,1,1,1,1,1,1,0,1,1],
     [1,1,1,1,1,1,1,0,1,1,1,1,1,1,1,1,0,1,1,1,0,1,1,1,0,0,0,1,1,1,1,1,1,1,1,1,1,1,1,1,1,1],
     [1,1,1,1,1,1,1,0,1,1,1,1,1,1,1,1,0,1,1,1,0,1,1,1,0,0,0,1,1,1,1,1,1,1,1,1,1,1,1,1,1,0],
     [1,1,1,0,0,1,1,1,1,1,1,1,1,1,1,1,1,1,1,1,1,1,1,1,1,1,1,0,0,0,1,1,1,1,1,1,1,1,1,1,1,1],
     [1,1,1,0,1,1,1,1,1,1,1,1,1,1,1,1,1,1,1,1,1,1,1,1,1,1,1,0,0,0,1,1,1,1,1,1,1,1,1,1,1,1],
     [1,1,1,0,1,1,1,1,1,1,1,1,1,1,1,1,1,1,1,1,1,1,1,1,1,1,1,0,0,0,1,1,1,0,1,1,1,1,0,1,1,1],
     [1,1,1,1,1,1,1,1,0,1,1,1,1,1,1,1,1,1,1,1,1,1,1,1,1,1,1,1,1,1,0,1,1,1,1,1,1,1,1,1,1,1],
     [1,1,1,1,1,1,1,1,1,1,1,1,1,0,0,1,1,1,1,1,1,1,1,1,1,1,1,1,1,1,1,0,0,0,1,1,1,1,1,1,1,1],
     [1,1,1,1,1,1,1,1,1,1,1,1,1,0,1,1,1,1,1,1,1,1,1,1,1,1,1,1,1,1,1,0,0,0,1,1,1,1,1,1,1,1],
     [1,1,1,1,1,1,1,1,1,1,1,1,1,0,1,1,1,1,1,1,1,1,1,1,1,1,1,1,1,0,1,0,0,0,1,1,1,1,0,1,1,1],
     [1,1,1,1,1,1,1,1,1,1,1,1,1,1,1,1,1,0,1,1,1,1,1,1,1,1,1,1,1,1,1,1,1,1,0,1,1,1,1,1,1,1],
     [1,1,1,1,1,1,1,1,1,1,0,1,1,1,1,1,1,1,1,1,1,1,1,1,1,1,1,1,1,1,1,1,1,1,1,0,1,1,1,1,1,1],
     [1,1,1,1,1,1,1,1,1,1,1,1,1,1,1,1,1,1,1,1,1,0,0,1,1,1,1,1,1,1,1,1,1,1,1,1,0,0,0,1,1,1],
     [1,1,1,1,1,1,1,1,1,1,1,1,1,1,1,1,1,1,1,1,1,0,1,1,1,1,1,1,1,1,1,1,1,1,1,1,0,0,0,1,1,1],
     [1,1,1,1,1,1,1,1,1,1,1,1,1,1,1,1,1,1,1,1,1,0,1,1,1,1,1,1,1,0,1,1,1,0,1,1,0,0,0,1,1,1],
     [1,1,1,1,1,1,1,1,1,1,1,1,1,1,1,1,1,1,1,1,1,1,1,1,0,1,1,1,1,1,1,1,1,1,1,1,1,1,1,0,1,1],
     [1,1,1,1,1,1,1,1,1,1,1,1,1,1,1,1,1,1,1,0,1,1,1,1,1,1,1,1,1,1,1,1,1,1,1,1,1,1,1,1,0,1],
     [1,1,1,1,1,1,1,1,1,1,1,1,1,1,1,1,1,1,1,1,1,1,1,1,1,1,0,1,1,1,1,1,1,1,1,1,1,1,1,1,1,0]], [
    [[[0,0,0,0,0,1,0,0,0]], [[1,0,1,0,0,0,0,0,-1],[1,0,0,0,0,0,0,0,-1],[2,0,0,0,0,0,1,0,0],[2,0,0,0,-1,0,0,0,0]], 0],
    [[[-1,0,0,0,0,0,0,0,1]], [[0,0,1,0,0,0,0,0,0],[2,0,0,0,-1,0,0,0,0],[0,0,0,0,0,1,0,0,0],[2,0,0,0,0,-1,1,0,0],[2,0,0,0,0,-1,0,0,0]], 1],
    [[[1,0,1,0,0,0,0,0,-1]], [[0,0,0,0,0,1,0,0,0],[0,0,-1,0,0,0,0,0,0],[2,0,0,0,0,-1,1,0,0],[2,0,0,0,0,-1,0,0,0],[2,0,0,0,-1,0,0,0,0]], 3],
    [[[-2,0,0,0,1,0,0,0,0]], [[1,0,1,0,0,0,0,0,-1],[2,0,0,0,0,-1,1,0,0],[1,0,0,0,0,0,0,0,-1],[2,0,0,0,0,-1,0,0,0],[0,0,0,0,0,1,0,0,0]], 5],
    [[[-2,0,0,0,0,1,0,0,0]], [[1,0,1,0,0,0,0,0,-1],[0,0,0,0,0,0,1,0,0],[1,0,0,0,0,0,0,0,-1],[2,0,0,0,-1,0,0,0,0]], 7],
    [[[-2,0,0,0,0,1,-1,0,0]], [[1,0,1,0,0,0,0,0,-1],[2,0,0,0,-1,0,0,0,0],[0,0,0,0,0,1,0,0,0],[1,0,0,0,0,0,0,0,-1],[2,0,0,0,0,-1,0,0,0]], 8],
    [[[-1,0,0,0,0,0,0,0,1]], [[0,0,1,0,0,0,0,0,0],[2,0,0,0,-1,0,0,0,0],[2,0,0,0,0,-1,1,0,0],[0,0,0,0,0,-1,0,0,0],[3,0,0,0,-1,1,0,0,0]], 27],
    [[[1,0,1,0,0,0,0,0,-1]], [[0,0,-1,0,0,0,0,0,0],[2,0,0,0,0,-1,1,0,0],[2,0,0,0,-1,0,0,0,0],[0,0,0,0,0,-1,0,0,0],[3,0,0,0,-1,1,0,0,0]], 29],
    [[[-2,0,0,0,1,0,0,0,0]], [[1,0,1,0,0,0,0,0,-1],[1,0,0,0,0,1,0,0,0],[1,0,0,0,0,0,0,0,-1],[2,0,0,0,0,-1,1,0,0],[0,0,0,0,0,-1,0,0,0]], 31],
    [[[-2,0,0,0,0,1,-1,0,0]], [[1,0,1,0,0,0,0,0,-1],[1,0,0,0,0,0,0,0,-1],[0,0,0,0,0,-1,0,0,0],[3,0,0,0,-1,1,0,0,0],[2,0,0,0,-1,0,0,0,0]], 33],
    [[[-3,0,0,0,1,-1,0,0,0]], [[1,0,1,0,0,0,0,0,-1],[1,0,0,0,0,0,0,0,-1],[5,0,0,0,-1,0,1,0,0],[2,0,0,0,-1,0,0,0,0]], 36],
    [[[0,0,0,0,0,1,0,0,0]], [[0,0,1,0,0,0,0,0,0],[-1,0,0,0,0,0,0,0,1],[2,0,0,0,-1,0,0,0,0],[2,0,0,0,0,0,1,0,0]], 54],
    [[[0,0,1,0,0,0,0,0,0]], [[0,0,0,0,0,1,0,0,0],[-1,0,0,0,0,0,0,0,1],[2,0,0,0,-1,0,0,0,0],[2,0,0,0,0,-1,1,0,0],[2,0,0,0,0,-1,0,0,0]], 55],
    [[[-2,0,0,0,1,0,0,0,0]], [[2,0,0,0,0,-1,1,0,0],[0,0,1,0,0,0,0,0,0],[2,0,0,0,0,-1,0,0,0],[-1,0,0,0,0,0,0,0,1],[0,0,0,0,0,1,0,0,0]], 62],
    [[[-2,0,0,0,0,1,0,0,0]], [[0,0,1,0,0,0,0,0,0],[2,0,0,0,-1,0,0,0,0],[0,0,0,0,0,0,1,0,0],[-1,0,0,0,0,0,0,0,1]], 64],
    [[[-2,0,0,0,0,1,-1,0,0]], [[2,0,0,0,-1,0,0,0,0],[0,0,1,0,0,0,0,0,0],[0,0,0,0,0,1,0,0,0],[-1,0,0,0,0,0,0,0,1],[2,0,0,0,0,-1,0,0,0]], 65],
    [[[0,0,1,0,0,0,0,0,0]], [[-1,0,0,0,0,0,0,0,1],[2,0,0,0,-1,0,0,0,0],[2,0,0,0,0,-1,1,0,0],[0,0,0,0,0,-1,0,0,0],[3,0,0,0,-1,1,0,0,0]], 79],
    [[[-2,0,0,0,1,0,0,0,0]], [[0,0,1,0,0,0,0,0,0],[1,0,0,0,0,1,0,0,0],[0,0,0,0,0,-1,0,0,0],[-1,0,0,0,0,0,0,0,1],[2,0,0,0,0,-1,1,0,0]], 85],
    [[[-2,0,0,0,0,1,-1,0,0]], [[0,0,1,0,0,0,0,0,0],[-1,0,0,0,0,0,0,0,1],[0,0,0,0,0,-1,0,0,0],[2,0,0,0,-1,0,0,0,0],[3,0,0,0,-1,1,0,0,0]], 88],
    [[[-3,0,0,0,1,-1,0,0,0]], [[0,0,1,0,0,0,0,0,0],[-1,0,0,0,0,0,0,0,1],[5,0,0,0,-1,0,1,0,0],[2,0,0,0,-1,0,0,0,0]], 95],
    [[[0,0,0,0,0,1,0,0,0]], [[2,0,0,0,0,0,1,0,0],[2,0,0,0,-1,0,0,0,0],[-1,0,-1,0,0,0,0,0,1],[0,0,-1,0,0,0,0,0,0]], 104],
    [[[-2,0,0,0,1,0,0,0,0]], [[2,0,0,0,0,-1,0,0,0],[0,0,0,0,0,1,0,0,0],[0,0,-1,0,0,0,0,0,0],[2,0,0,0,0,-1,1,0,0],[-1,0,-1,0,0,0,0,0,1]], 115],
    [[[-2,0,0,0,0,1,0,0,0]], [[0,0,0,0,0,0,1,0,0],[2,0,0,0,-1,0,0,0,0],[-1,0,-1,0,0,0,0,0,1],[0,0,-1,0,0,0,0,0,0]], 117],
    [[[-2,0,0,0,0,1,-1,0,0]], [[0,0,0,0,0,1,0,0,0],[2,0,0,0,0,-1,0,0,0],[2,0,0,0,-1,0,0,0,0],[-1,0,-1,0,0,0,0,0,1],[0,0,-1,0,0,0,0,0,0]], 118],
    [[[-2,0,0,0,1,0,0,0,0]], [[1,0,0,0,0,1,0,0,0],[2,0,0,0,0,-1,1,0,0],[0,0,0,0,0,-1,0,0,0],[-1,0,-1,0,0,0,0,0,1],[0,0,-1,0,0,0,0,0,0]], 136],
    [[[-2,0,0,0,0,1,-1,0,0]], [[0,0,0,0,0,-1,0,0,0],[3,0,0,0,-1,1,0,0,0],[2,0,0,0,-1,0,0,0,0],[-1,0,-1,0,0,0,0,0,1],[0,0,-1,0,0,0,0,0,0]], 138],
    [[[-3,0,0,0,1,-1,0,0,0]], [[5,0,0,0,-1,0,1,0,0],[2,0,0,0,-1,0,0,0,0],[-1,0,-1,0,0,0,0,0,1],[0,0,-1,0,0,0,0,0,0]], 142],
    [[[0,0,0,0,1,-1,0,0,0]], [[-2,0,0,0,1,0,0,0,0],[2,0,0,0,-1,0,1,0,0],[1,0,0,0,0,0,0,0,-1],[1,0,1,0,0,0,0,0,-1],[4,0,1,0,-1,0,0,0,-1]], 150],
    [[[-2,0,0,0,0,1,-1,0,0]], [[1,0,0,0,0,0,0,0,-1],[1,0,1,0,0,0,0,0,-1],[4,0,1,0,0,-1,0,0,-1],[0,0,0,0,0,1,0,0,0],[-2,0,0,0,1,0,0,0,0],[0,0,0,0,1,-1,0,0,0]], 159],
    [[[4,0,1,0,0,-1,0,0,-1]], [[-3,0,0,0,0,1,0,0,0],[2,0,0,0,0,-1,1,0,0],[-3,0,-1,0,0,1,0,0,0],[0,0,0,0,1,-1,0,0,0]], 165],
    [[[-2,0,0,0,0,1,-1,0,0]], [[1,0,1,0,0,0,0,0,-1],[0,0,0,0,0,-1,0,0,0],[-2,0,0,0,1,0,0,0,0],[1,0,0,0,0,1,0,0,0],[1,0,0,0,0,0,0,0,-1]], 173],
    [[[0,0,0,0,1,-1,0,0,0]], [[2,0,0,0,-1,0,1,0,0],[-2,0,0,0,1,0,0,0,0],[-1,0,0,0,0,0,0,0,1],[0,0,1,0,0,0,0,0,0],[3,0,1,0,-1,0,0,0,0]], 194],
    [[[-2,0,0,0,0,1,-1,0,0]], [[-1,0,0,0,0,0,0,0,1],[0,0,0,0,0,1,0,0,0],[0,0,0,0,1,-1,0,0,0],[-2,0,0,0,1,0,0,0,0],[3,0,1,0,0,-1,0,0,0],[0,0,1,0,0,0,0,0,0]], 202],
    [[[3,0,1,0,0,-1,0,0,0]], [[-1,0,-1,0,0,0,1,0,0],[0,0,1,0,0,0,0,0,0],[-1,0,0,0,0,0,0,0,1],[-3,0,-1,0,1,0,0,0,0]], 206],
    [[[-2,0,0,0,0,1,-1,0,0]], [[0,0,0,0,0,-1,0,0,0],[0,0,1,0,0,0,0,0,0],[-2,0,0,0,1,0,0,0,0],[1,0,0,0,0,1,0,0,0],[-1,0,0,0,0,0,0,0,1]], 214],
    [[[-2,0,0,0,0,1,-1,0,0]], [[1,0,1,0,0,0,0,0,-1],[-3,0,0,0,1,-1,0,0,0],[1,0,0,0,0,0,0,0,-1],[-1,0,0,0,0,-1,0,0,0]], 224],
    [[[0,0,0,0,1,-1,0,0,0]], [[-2,0,0,0,1,0,0,0,0],[2,0,0,0,-1,0,1,0,0],[0,0,-1,0,0,0,0,0,0],[3,0,0,0,-1,0,0,0,0],[-1,0,-1,0,0,0,0,0,1]], 235],
    [[[-2,0,0,0,0,1,-1,0,0]], [[0,0,-1,0,0,0,0,0,0],[-1,0,-1,0,0,0,0,0,1],[-2,0,0,0,1,0,0,0,0],[0,0,0,0,1,-1,0,0,0],[0,0,0,0,0,1,0,0,0],[3,0,0,0,0,-1,0,0,0]], 242],
    [[[-3,0,0,0,0,1,0,0,0]], [[-3,0,0,0,1,0,0,0,0],[0,0,-1,0,0,0,0,0,0],[-1,0,0,0,0,0,1,0,0],[-1,0,-1,0,0,0,0,0,1]], 244],
    [[[-2,0,0,0,0,1,-1,0,0]], [[-2,0,0,0,1,0,0,0,0],[1,0,0,0,0,1,0,0,0],[0,0,0,0,0,-1,0,0,0],[-1,0,-1,0,0,0,0,0,1],[0,0,-1,0,0,0,0,0,0]], 253],
    [[[-2,0,0,0,0,1,-1,0,0]], [[0,0,1,0,0,0,0,0,0],[-3,0,0,0,1,-1,0,0,0],[-1,0,0,0,0,0,0,0,1],[-1,0,0,0,0,-1,0,0,0]], 263],
    [[[-2,0,0,0,0,1,-1,0,0]], [[-3,0,0,0,1,-1,0,0,0],[-1,0,0,0,0,-1,0,0,0],[-1,0,-1,0,0,0,0,0,1],[0,0,-1,0,0,0,0,0,0]], 269]
  ]],
  ["#5",
    [[0,0,1,1,1],
     [0,0,1,0,1],
     [1,1,0,0,1],
     [1,0,0,0,1],
     [1,1,1,1,0]], [
    [[[0,0,0,0,0,0,1,-1,0]], [[2,0,0,0,0,-1,0,0,0],[2,0,0,0,0,-1,1,0,0],[2,0,0,0,0,0,-1,0,0]], 0],
    [[[-2,0,0,0,0,0,1,0,0]], [[2,0,0,0,0,-1,0,0,0],[-2,0,0,0,0,0,0,1,0]], 5],
    [[[0,0,0,0,0,0,1,-1,0]], [[0,0,0,0,0,0,1,0,0],[0,0,0,0,0,1,-1,0,0],[-2,0,0,0,0,1,0,0,0]], 6],
    [[[0,0,0,0,0,1,-1,0,0]], [[0,0,0,0,0,-1,0,1,0],[-2,0,0,0,0,1,0,0,0]], 9],
    [[[0,0,0,0,0,0,1,-1,0]], [[0,0,0,0,0,0,-1,0,0],[-2,0,0,0,0,1,-1,0,0]], 10]
  ]],
  ["#6",
    [[0,0,1,1,1,1,0,1,1],
     [0,0,1,1,1,1,1,1,1],
     [1,1,0,0,1,1,1,0,1],
     [1,1,0,0,1,1,1,1,1],
     [1,1,1,1,0,1,1,0,0],
     [1,1,1,1,1,0,1,1,0],
     [0,1,1,1,1,1,0,1,1],
     [1,1,0,1,0,1,1,0,0],
     [1,1,1,1,0,0,1,0,0]], [
    [[[0,0,0,0,0,0,1,-1,0]], [[2,0,0,0,0,0,-1,0,0],[0,0,0,0,0,0,1,0,0],[0,0,0,0,0,0,0,0,1]], 0],
    [[[-2,0,0,0,0,0,0,1,0]], [[0,0,0,0,0,0,0,0,1],[-2,0,0,0,0,0,1,0,0]], 5],
    [[[0,0,0,0,0,0,1,-1,0]], [[0,0,0,0,0,0,1,0,0],[2,0,0,0,0,0,-1,0,0],[0,0,0,0,0,0,0,0,-1]], 8],
    [[[-2,0,0,0,0,0,0,1,0]], [[0,0,0,0,0,0,0,0,-1],[-2,0,0,0,0,0,1,0,0]], 13],
    [[[0,0,0,0,0,0,1,-1,0]], [[0,0,0,0,0,0,1,0,-1],[0,0,0,0,0,0,-1,0,0]], 22],
    [[[0,0,0,0,0,0,1,-1,0]], [[0,0,0,0,0,0,-1,0,1],[0,0,0,0,0,0,-1,0,0]], 28],
    [[[0,0,0,0,0,0,0,1,0]], [[0,0,0,0,0,0,0,0,1],[0,0,0,0,0,0,-1,0,0]], 29],
    [[[0,0,0,0,0,0,0,1,0]], [[0,0,0,0,0,0,0,0,-1],[0,0,0,0,0,0,-1,0,0]], 33],
    [[[0,0,0,0,0,0,0,1,-1]], [[0,0,0,0,0,0,0,-1,0],[0,0,0,0,0,0,-1,1,0]], 37]
  ]],
  ["#7",
    [[0,0,0,0,0,1,0,1,1,0,1,1,0,0,1,1,1,1,1,1,1,1,1],
     [0,0,0,0,1,1,1,1,1,1,1,1,0,1,0,0,1,1,1,1,1,1,1],
     [0,0,0,0,1,0,1,0,1,1,0,1,1,1,0,1,0,0,1,1,1,1,1],
     [0,0,0,0,1,1,1,1,1,1,1,1,1,1,1,1,1,1,1,0,1,1,1],
     [0,1,1,1,0,0,0,1,1,0,1,1,0,0,1,1,1,1,1,1,1,1,1],
     [1,1,0,1,0,0,1,0,1,1,0,1,1,1,0,1,0,0,1,1,1,1,1],
     [0,1,1,1,0,1,0,0,0,0,1,1,0,0,1,1,1,1,1,1,1,1,1],
     [1,1,0,1,1,0,0,0,0,1,0,1,1,1,0,1,0,0,1,1,1,1,1],
     [1,1,1,1,1,1,0,0,0,1,1,1,1,1,1,1,1,1,1,1,0,1,1],
     [0,1,1,1,0,1,0,1,1,0,0,0,0,0,1,1,1,1,1,1,1,1,1],
     [1,1,0,1,1,0,1,0,1,0,0,0,1,1,0,1,0,0,1,1,1,1,1],
     [1,1,1,1,1,1,1,1,1,0,0,0,1,1,1,1,1,1,1,1,1,0,1],
     [0,0,1,1,0,1,0,1,1,0,1,1,0,0,0,0,1,1,1,1,1,1,1],
     [0,1,1,1,0,1,0,1,1,0,1,1,0,0,1,0,0,1,0,1,1,1,1],
     [1,0,0,1,1,0,1,0,1,1,0,1,0,1,0,0,0,0,1,1,1,1,1],
     [1,0,1,1,1,1,1,1,1,1,1,1,0,0,0,0,0,1,0,1,1,1,1],
     [1,1,0,1,1,0,1,0,1,1,0,1,1,0,0,0,0,0,0,1,1,1,1],
     [1,1,0,1,1,0,1,0,1,1,0,1,1,1,0,1,0,0,1,0,0,0,0],
     [1,1,1,1,1,1,1,1,1,1,1,1,1,0,1,0,0,1,0,1,1,1,0],
     [1,1,1,0,1,1,1,1,1,1,1,1,1,1,1,1,1,0,1,0,0,0,0],
     [1,1,1,1,1,1,1,1,0,1,1,1,1,1,1,1,1,0,1,0,0,0,0],
     [1,1,1,1,1,1,1,1,1,1,1,0,1,1,1,1,1,0,1,0,0,0,0],
     [1,1,1,1,1,1,1,1,1,1,1,1,1,1,1,1,1,0,0,0,0,0,0]], [
    [[[1,0,1,0,0,0,0,0,-2]], [[1,0,-1,0,0,0,0,0,0],[0,0,0,0,0,0,0,1,0],[1,0,1,0,0,0,0,0,0],[0,0,0,0,0,1,0,0,0]], 0],
    [[[1,0,1,0,0,0,0,0,-1]], [[-1,0,-1,0,0,0,0,1,0],[-1,0,-1,0,0,0,0,0,0],[0,0,0,0,0,1,0,0,0]], 1],
    [[[1,0,1,0,0,0,0,1,-2]], [[1,0,-1,0,0,0,0,-1,0],[1,0,1,0,0,0,0,-1,0],[0,0,0,0,0,0,0,-1,0],[13,0,-1,0,0,0,0,1,0],[3,0,-1,0,0,2,0,1,0],[0,0,0,0,0,1,0,0,0]], 2],
    [[[7,0,0,0,0,0,0,1,-1]], [[-6,0,0,0,0,0,0,-1,0],[-13,0,1,0,0,0,0,-1,0],[-5,0,0,0,0,1,0,0,0]], 3],
    [[[1,0,1,0,0,-1,0,0,-2]], [[1,0,1,0,0,1,0,0,0],[0,0,0,0,0,-1,0,0,0],[0,0,0,0,0,0,0,1,0],[1,0,-1,0,0,1,0,0,0]], 5],
    [[[1,0,1,0,0,-1,0,1,-2]], [[1,0,1,0,0,1,0,-1,0],[0,0,0,0,0,-1,0,0,0],[0,0,0,0,0,0,0,-1,0],[3,0,-1,0,0,1,0,1,0],[1,0,-1,0,0,1,0,-1,0]], 7],
    [[[0,0,1,0,0,0,0,0,-1]], [[-1,0,1,0,0,0,0,0,0],[7,0,-1,0,0,0,0,1,0],[0,0,0,0,0,1,0,0,0],[0,0,0,0,0,0,0,1,0]], 8],
    [[[0,0,1,0,0,0,0,1,-1]], [[0,0,0,0,0,0,0,-1,0],[-1,0,1,0,0,0,0,1,0],[7,0,-1,0,0,0,0,0,0],[0,0,0,0,0,1,0,0,0],[1,0,0,0,0,1,0,1,0]], 9],
    [[[7,0,0,0,0,0,0,1,-1]], [[6,0,0,0,0,0,0,1,0],[0,0,0,0,0,1,0,0,0],[1,0,0,0,0,1,0,1,0],[-7,0,1,0,0,0,0,-1,0],[-7,0,1,0,0,0,0,0,0]], 11],
    [[[0,0,1,0,0,-1,0,0,-1]], [[0,0,0,0,0,-1,0,0,0],[0,0,1,0,0,0,0,0,0],[0,0,0,0,0,0,0,1,0],[7,0,-1,0,0,1,0,1,0],[-1,0,1,0,0,-1,0,0,0]], 13],
    [[[0,0,1,0,0,-1,0,1,-1]], [[0,0,0,0,0,-1,0,0,0],[0,0,1,0,0,0,0,0,0],[0,0,0,0,0,0,0,-1,0],[1,0,0,0,0,0,0,1,0],[7,0,-1,0,0,1,0,0,0],[-1,0,1,0,0,-1,0,1,0]], 14],
    [[[7,0,0,0,0,0,0,1,-1]], [[0,0,0,0,0,-1,0,0,0],[0,0,1,0,0,0,0,0,0],[-7,0,1,0,0,-1,0,0,0],[1,0,0,0,0,0,0,1,0],[-7,0,1,0,0,-1,0,-1,0]], 16],
    [[[0,0,0,0,0,0,0,0,1]], [[0,0,0,0,0,1,0,0,0],[-1,0,-1,0,0,0,0,0,0],[0,0,0,0,0,0,0,1,0]], 18],
    [[[0,0,0,0,0,1,0,0,1]], [[7,0,0,0,0,1,0,1,0],[0,0,0,0,0,0,0,1,0],[0,0,0,0,0,-1,0,0,0],[0,0,-1,0,0,0,0,0,0],[-1,0,-1,0,0,-1,0,0,0]], 19],
    [[[0,0,0,0,0,0,0,1,-1]], [[0,0,0,0,0,1,0,0,0],[-1,0,-1,0,0,0,0,1,0],[0,0,0,0,0,0,0,-1,0]], 20],
    [[[0,0,0,0,0,1,0,0,0]], [[0,0,0,0,0,0,0,1,-1],[-1,0,-1,0,0,0,0,0,1],[0,0,0,0,0,0,0,0,-1]], 21],
    [[[0,0,0,0,0,1,0,-1,1]], [[7,0,0,0,0,1,0,0,0],[0,0,0,0,0,-1,0,0,0],[0,0,0,0,0,0,0,-1,0],[1,0,-1,0,0,0,0,1,0],[0,0,-1,0,0,0,0,0,0],[-1,0,-1,0,0,-1,0,1,0]], 22],
    [[[-1,0,1,0,0,-1,0,0,-1]], [[-1,0,0,0,0,-1,0,-1,0],[-3,0,1,0,0,-2,0,-1,0],[7,0,-1,0,0,0,0,0,0],[5,0,0,0,0,-1,0,0,0],[-1,0,0,0,0,0,0,-1,0],[7,0,0,0,0,1,0,0,0],[-3,0,1,0,0,-1,0,-1,0],[-1,0,1,0,0,0,0,-1,0],[7,0,-1,0,0,1,0,0,0]], 23],
    [[[7,0,0,0,0,0,0,1,-1]], [[-7,0,0,0,0,-1,0,0,0],[0,0,-1,0,0,0,0,0,0],[-7,0,0,0,0,-1,0,-1,0],[1,0,-1,0,0,0,0,1,0]], 25],
    [[[-5,0,0,0,0,1,0,0,0]], [[-6,0,1,0,0,0,0,0,-1],[-7,0,0,0,0,0,0,-1,1],[1,0,0,0,0,0,0,0,-1]], 26],
    [[[-6,0,0,0,0,1,0,0,1]], [[-1,0,0,0,0,-1,0,-1,0],[-7,0,1,0,0,0,0,0,0],[5,0,0,0,0,-1,0,0,0],[0,0,0,0,0,1,0,0,0]], 27],
    [[[-6,0,0,0,0,0,0,0,1]], [[0,0,1,0,0,0,0,0,0],[-7,0,1,0,0,-1,0,0,0],[0,0,0,0,0,-1,0,0,0],[-1,0,0,0,0,0,0,-1,0]], 28],
    [[[6,0,1,0,0,0,0,0,-1]], [[-1,0,1,0,0,0,0,-1,0],[-7,0,0,0,0,-1,0,0,0],[0,0,-1,0,0,0,0,0,0]], 29]
  ]]
]
