
----------------------------------------------------------------------
This is SMTcut v4.6.4 by Christoph Lueders -- http://wrogn.com
Python 3.7.6 (default, Jan  8 2020, 19:59:22) 
[GCC 7.3.0] x86_64
pysmt 0.9.0, gmpy2 2.0.8
Datetime: 2020-06-25T11:49:18+02:00
Command line: --no-dump --no-comp BIOMD0000000222 --cvc4 --pp
Flags: ppone ppsmt pp2x2 no-dump justone maxadd=20 solver=cvc4


Model: BIOMD0000000222
Logfile: db/BIOMD0000000222/ep11-osx20-cvc4-Linux-smtlog.txt
Loading polyhedra...  done.
Possible combinations: 10^9.2 in 8 bags
Bag sizes: 4 49 17 10 42 5 9 23

Filtering bags...
Collecting...
Bag 1/8, 4 polyhedra
Bag 2/8, 49 polyhedra
Bag 3/8, 17 polyhedra
Bag 4/8, 10 polyhedra
Bag 5/8, 42 polyhedra
Bag 6/8, 5 polyhedra
Bag 7/8, 9 polyhedra
Bag 8/8, 23 polyhedra
Possible combinations after preprocessing: 10^9.2 in 9 bags
Bag sizes: 1 4 49 17 10 42 5 9 23
Time: 0.108 sec

Checking for superfluous polyhedra...
Bag 1/9, 49 polyhedra:
  Polyhedron 1... required, 0.033 sec
  Polyhedron 2... required, 0.019 sec
  Polyhedron 3... required, 0.015 sec
  Polyhedron 4... required, 0.018 sec
  Polyhedron 5... superfluous, 0.013 sec
  Polyhedron 6... superfluous, 0.007 sec
  Polyhedron 7... superfluous, 0.008 sec
  Polyhedron 8... superfluous, 0.014 sec
  Polyhedron 9... superfluous, 0.008 sec
  Polyhedron 10... superfluous, 0.006 sec
  Polyhedron 11... superfluous, 0.006 sec
  Polyhedron 12... superfluous, 0.010 sec
  Polyhedron 13... superfluous, 0.014 sec
  Polyhedron 14... superfluous, 0.006 sec
  Polyhedron 15... superfluous, 0.009 sec
  Polyhedron 16... superfluous, 0.022 sec
  Polyhedron 17... superfluous, 0.009 sec
  Polyhedron 18... superfluous, 0.011 sec
  Polyhedron 19... required, 0.021 sec
  Polyhedron 20... required, 0.015 sec
  Polyhedron 21... superfluous, 0.008 sec
  Polyhedron 22... required, 0.017 sec
  Polyhedron 23... required, 0.015 sec
  Polyhedron 24... required, 0.023 sec
  Polyhedron 25... superfluous, 0.010 sec
  Polyhedron 26... superfluous, 0.006 sec
  Polyhedron 27... superfluous, 0.006 sec
  Polyhedron 28... superfluous, 0.006 sec
  Polyhedron 29... superfluous, 0.007 sec
  Polyhedron 30... superfluous, 0.006 sec
  Polyhedron 31... superfluous, 0.006 sec
  Polyhedron 32... superfluous, 0.009 sec
  Polyhedron 33... superfluous, 0.012 sec
  Polyhedron 34... superfluous, 0.006 sec
  Polyhedron 35... superfluous, 0.006 sec
  Polyhedron 36... superfluous, 0.006 sec
  Polyhedron 37... superfluous, 0.008 sec
  Polyhedron 38... superfluous, 0.012 sec
  Polyhedron 39... superfluous, 0.014 sec
  Polyhedron 40... required, 0.022 sec
  Polyhedron 41... superfluous, 0.009 sec
  Polyhedron 42... required, 0.011 sec
  Polyhedron 43... superfluous, 0.009 sec
  Polyhedron 44... superfluous, 0.010 sec
  Polyhedron 45... superfluous, 0.009 sec
  Polyhedron 46... superfluous, 0.005 sec
  Polyhedron 47... superfluous, 0.009 sec
  Polyhedron 48... superfluous, 0.020 sec
  Polyhedron 49... superfluous, 0.006 sec
  => 11 polyhedra left
Bag 2/9, 42 polyhedra:
  Polyhedron 1... required, 0.012 sec
  Polyhedron 2... required, 0.014 sec
  Polyhedron 3... required, 0.020 sec
  Polyhedron 4... required, 0.020 sec
  Polyhedron 5... required, 0.011 sec
  Polyhedron 6... required, 0.030 sec
  Polyhedron 7... required, 0.033 sec
  Polyhedron 8... required, 0.014 sec
  Polyhedron 9... required, 0.020 sec
  Polyhedron 10... required, 0.023 sec
  Polyhedron 11... required, 0.033 sec
  Polyhedron 12... required, 0.026 sec
  Polyhedron 13... superfluous, 0.020 sec
  Polyhedron 14... required, 0.017 sec
  Polyhedron 15... required, 0.011 sec
  Polyhedron 16... required, 0.028 sec
  Polyhedron 17... required, 0.019 sec
  Polyhedron 18... required, 0.023 sec
  Polyhedron 19... required, 0.027 sec
  Polyhedron 20... required, 0.022 sec
  Polyhedron 21... required, 0.013 sec
  Polyhedron 22... required, 0.013 sec
  Polyhedron 23... required, 0.010 sec
  Polyhedron 24... required, 0.030 sec
  Polyhedron 25... required, 0.025 sec
  Polyhedron 26... required, 0.029 sec
  Polyhedron 27... required, 0.034 sec
  Polyhedron 28... superfluous, 0.016 sec
  Polyhedron 29... required, 0.032 sec
  Polyhedron 30... superfluous, 0.011 sec
  Polyhedron 31... superfluous, 0.032 sec
  Polyhedron 32... required, 0.018 sec
  Polyhedron 33... required, 0.021 sec
  Polyhedron 34... superfluous, 0.015 sec
  Polyhedron 35... required, 0.022 sec
  Polyhedron 36... superfluous, 0.031 sec
  Polyhedron 37... superfluous, 0.010 sec
  Polyhedron 38... superfluous, 0.014 sec
  Polyhedron 39... superfluous, 0.010 sec
  Polyhedron 40... superfluous, 0.016 sec
  Polyhedron 41... required, 0.027 sec
  Polyhedron 42... required, 0.038 sec
  => 32 polyhedra left
Bag 3/9, 23 polyhedra:
  Polyhedron 1... required, 0.031 sec
  Polyhedron 2... required, 0.019 sec
  Polyhedron 3... required, 0.029 sec
  Polyhedron 4... superfluous, 0.010 sec
  Polyhedron 5... required, 0.029 sec
  Polyhedron 6... required, 0.029 sec
  Polyhedron 7... required, 0.033 sec
  Polyhedron 8... required, 0.023 sec
  Polyhedron 9... superfluous, 0.009 sec
  Polyhedron 10... required, 0.027 sec
  Polyhedron 11... required, 0.027 sec
  Polyhedron 12... superfluous, 0.018 sec
  Polyhedron 13... required, 0.019 sec
  Polyhedron 14... required, 0.029 sec
  Polyhedron 15... required, 0.030 sec
  Polyhedron 16... required, 0.015 sec
  Polyhedron 17... required, 0.027 sec
  Polyhedron 18... required, 0.026 sec
  Polyhedron 19... superfluous, 0.025 sec
  Polyhedron 20... superfluous, 0.009 sec
  Polyhedron 21... superfluous, 0.013 sec
  Polyhedron 22... required, 0.020 sec
  Polyhedron 23... required, 0.038 sec
  => 17 polyhedra left
Bag 4/9, 17 polyhedra:
  Polyhedron 1... required, 0.029 sec
  Polyhedron 2... required, 0.021 sec
  Polyhedron 3... required, 0.030 sec
  Polyhedron 4... required, 0.018 sec
  Polyhedron 5... required, 0.028 sec
  Polyhedron 6... required, 0.032 sec
  Polyhedron 7... required, 0.017 sec
  Polyhedron 8... required, 0.038 sec
  Polyhedron 9... required, 0.012 sec
  Polyhedron 10... superfluous, 0.021 sec
  Polyhedron 11... superfluous, 0.007 sec
  Polyhedron 12... superfluous, 0.006 sec
  Polyhedron 13... superfluous, 0.005 sec
  Polyhedron 14... superfluous, 0.011 sec
  Polyhedron 15... superfluous, 0.009 sec
  Polyhedron 16... superfluous, 0.008 sec
  Polyhedron 17... superfluous, 0.006 sec
  => 9 polyhedra left
Bag 5/9, 10 polyhedra:
  Polyhedron 1... required, 0.037 sec
  Polyhedron 2... required, 0.025 sec
  Polyhedron 3... required, 0.031 sec
  Polyhedron 4... required, 0.037 sec
  Polyhedron 5... required, 0.024 sec
  Polyhedron 6... required, 0.027 sec
  Polyhedron 7... required, 0.023 sec
  Polyhedron 8... required, 0.029 sec
  Polyhedron 9... required, 0.020 sec
  Polyhedron 10... required, 0.019 sec
  => 10 polyhedra left
Bag 6/9, 9 polyhedra:
  Polyhedron 1... required, 0.024 sec
  Polyhedron 2... superfluous, 0.006 sec
  Polyhedron 3... required, 0.028 sec
  Polyhedron 4... superfluous, 0.004 sec
  Polyhedron 5... required, 0.028 sec
  Polyhedron 6... required, 0.020 sec
  Polyhedron 7... superfluous, 0.006 sec
  Polyhedron 8... superfluous, 0.004 sec
  Polyhedron 9... superfluous, 0.020 sec
  => 4 polyhedra left
Bag 7/9, 5 polyhedra:
  Polyhedron 1... required, 0.027 sec
  Polyhedron 2... superfluous, 0.006 sec
  Polyhedron 3... required, 0.025 sec
  Polyhedron 4... superfluous, 0.008 sec
  Polyhedron 5... superfluous, 0.007 sec
  => 2 polyhedra left
Bag 8/9, 4 polyhedra:
  Polyhedron 1... required, 0.027 sec
  Polyhedron 2... required, 0.021 sec
  Polyhedron 3... required, 0.038 sec
  Polyhedron 4... required, 0.015 sec
  => 4 polyhedra left
Possible combinations after preprocessing: 10^7.2 in 9 bags
Bag sizes: 11 32 17 9 10 4 2 4 1
Time: 2.898 sec

Combining small bags...
Intersecting 2x17... 24 polyhedra
Intersecting 4x4... 16 polyhedra
Possible combinations after preprocessing: 10^7.1 in 7 bags
Bag sizes: 1 9 10 11 16 24 32
Time: 0.126 sec

Checking for superfluous polyhedra...
Bag 2/7, 24 polyhedra:
  Polyhedron 1... required, 0.026 sec
  Polyhedron 2... required, 0.011 sec
  Polyhedron 3... required, 0.016 sec
  Polyhedron 4... required, 0.015 sec
  Polyhedron 5... required, 0.013 sec
  Polyhedron 6... required, 0.010 sec
  Polyhedron 7... required, 0.013 sec
  Polyhedron 8... required, 0.017 sec
  Polyhedron 9... required, 0.016 sec
  Polyhedron 10... required, 0.013 sec
  Polyhedron 11... required, 0.015 sec
  Polyhedron 12... required, 0.013 sec
  Polyhedron 13... required, 0.022 sec
  Polyhedron 14... required, 0.022 sec
  Polyhedron 15... required, 0.023 sec
  Polyhedron 16... required, 0.018 sec
  Polyhedron 17... required, 0.014 sec
  Polyhedron 18... superfluous, 0.010 sec
  Polyhedron 19... superfluous, 0.008 sec
  Polyhedron 20... superfluous, 0.010 sec
  Polyhedron 21... required, 0.011 sec
  Polyhedron 22... superfluous, 0.005 sec
  Polyhedron 23... superfluous, 0.009 sec
  Polyhedron 24... superfluous, 0.007 sec
  => 18 polyhedra left
Bag 3/7, 16 polyhedra:
  Polyhedron 1... required, 0.027 sec
  Polyhedron 2... required, 0.016 sec
  Polyhedron 3... superfluous, 0.012 sec
  Polyhedron 4... superfluous, 0.017 sec
  Polyhedron 5... superfluous, 0.010 sec
  Polyhedron 6... required, 0.011 sec
  Polyhedron 7... superfluous, 0.007 sec
  Polyhedron 8... superfluous, 0.011 sec
  Polyhedron 9... superfluous, 0.014 sec
  Polyhedron 10... required, 0.013 sec
  Polyhedron 11... superfluous, 0.006 sec
  Polyhedron 12... superfluous, 0.010 sec
  Polyhedron 13... required, 0.011 sec
  Polyhedron 14... required, 0.012 sec
  Polyhedron 15... required, 0.011 sec
  Polyhedron 16... required, 0.012 sec
  => 8 polyhedra left
Possible combinations after preprocessing: 10^6.7 in 7 bags
Bag sizes: 32 18 8 11 10 9 1
Time: 0.549 sec

Minimizing (0,0)... (0,0)


Running SMT solver (1)... 0.028 sec
Checking... Minimizing (5,17)... (5,9), 0.006 sec
Inserting... 0.000 sec
[1 ph, smt 0.028, isect 0.006, ins 0.000, tot 0.048]

Running SMT solver (2)... 0.004 sec
Checking... Minimizing (5,17)... (5,10), 0.005 sec
Inserting... 0.000 sec
[2 ph, smt 0.032, isect 0.011, ins 0.000, tot 0.060]

Running SMT solver (3)... 0.005 sec
Checking... Minimizing (5,18)... (5,10), 0.005 sec
Inserting... 0.000 sec
[3 ph, smt 0.037, isect 0.016, ins 0.000, tot 0.073]

Running SMT solver (4)... 0.002 sec
Checking... Minimizing (4,17)... (4,12), 0.005 sec
Inserting... 0.000 sec
[4 ph, smt 0.039, isect 0.021, ins 0.000, tot 0.084]

Running SMT solver (5)... 0.007 sec
Checking... Minimizing (5,18)... (5,9), 0.005 sec
Inserting... 0.000 sec
[5 ph, smt 0.046, isect 0.026, ins 0.000, tot 0.099]

Running SMT solver (6)... 0.003 sec
Checking... Minimizing (5,18)... (5,9), 0.005 sec
Inserting... 0.000 sec
[6 ph, smt 0.049, isect 0.031, ins 0.000, tot 0.111]

Running SMT solver (7)... 0.002 sec
Checking... Minimizing (4,17)... (4,12), 0.005 sec
Inserting... 0.000 sec
[7 ph, smt 0.052, isect 0.036, ins 0.000, tot 0.122]

Running SMT solver (8)... 0.003 sec
Checking... Minimizing (5,18)... (5,9), 0.005 sec
Inserting... 0.000 sec
[8 ph, smt 0.055, isect 0.041, ins 0.000, tot 0.133]

Running SMT solver (9)... 0.006 sec
Checking... Minimizing (4,17)... (4,9), 0.005 sec
Inserting... 0.000 sec
[9 ph, smt 0.060, isect 0.046, ins 0.000, tot 0.147]

Running SMT solver (10)... 0.004 sec
Checking... Minimizing (5,18)... (5,10), 0.006 sec
Inserting... 0.000 sec
[10 ph, smt 0.064, isect 0.052, ins 0.001, tot 0.159]

Running SMT solver (11)... 0.002 sec
Checking... Minimizing (4,17)... (4,11), 0.005 sec
Inserting... 0.001 sec
[10 ph, smt 0.066, isect 0.056, ins 0.002, tot 0.170]

Running SMT solver (12)... 0.003 sec
Checking... Minimizing (5,18)... (5,7), 0.004 sec
Inserting... 0.000 sec
[11 ph, smt 0.069, isect 0.061, ins 0.002, tot 0.181]

Running SMT solver (13)... 0.003 sec
Checking... Minimizing (5,18)... (5,9), 0.004 sec
Inserting... 0.000 sec
[12 ph, smt 0.072, isect 0.065, ins 0.002, tot 0.192]

Running SMT solver (14)... 0.007 sec
Checking... Minimizing (5,18)... (5,7), 0.005 sec
Inserting... 0.000 sec
[13 ph, smt 0.079, isect 0.070, ins 0.002, tot 0.206]

Running SMT solver (15)... 0.002 sec
Checking... Minimizing (4,18)... (4,9), 0.005 sec
Inserting... 0.002 sec
[13 ph, smt 0.081, isect 0.075, ins 0.003, tot 0.219]

Running SMT solver (16)... 0.003 sec
Checking... Minimizing (5,19)... (5,8), 0.005 sec
Inserting... 0.000 sec
[14 ph, smt 0.084, isect 0.080, ins 0.004, tot 0.229]

Running SMT solver (17)... 0.002 sec
Checking... Minimizing (4,18)... (4,11), 0.005 sec
Inserting... 0.000 sec
[15 ph, smt 0.086, isect 0.085, ins 0.004, tot 0.239]

Running SMT solver (18)... 0.005 sec
Checking... Minimizing (5,21)... (5,11), 0.006 sec
Inserting... 0.000 sec
[16 ph, smt 0.091, isect 0.091, ins 0.004, tot 0.254]

Running SMT solver (19)... 0.002 sec
Checking... Minimizing (6,22)... (6,8), 0.005 sec
Inserting... 0.000 sec
[17 ph, smt 0.093, isect 0.096, ins 0.004, tot 0.266]

Running SMT solver (20)... 0.002 sec
Checking... Minimizing (5,21)... (5,9), 0.006 sec
Inserting... 0.000 sec
[18 ph, smt 0.095, isect 0.102, ins 0.004, tot 0.277]

Running SMT solver (21)... 0.005 sec
Checking... Minimizing (5,17)... (5,8), 0.005 sec
Inserting... 0.000 sec
[19 ph, smt 0.101, isect 0.107, ins 0.004, tot 0.291]

Running SMT solver (22)... 0.002 sec
Checking... Minimizing (5,17)... (5,8), 0.005 sec
Inserting... 0.000 sec
[20 ph, smt 0.102, isect 0.112, ins 0.005, tot 0.301]

Running SMT solver (23)... 0.003 sec
Checking... Minimizing (5,17)... (5,7), 0.006 sec
Inserting... 0.000 sec
[21 ph, smt 0.105, isect 0.117, ins 0.005, tot 0.313]

Running SMT solver (24)... 0.003 sec
Checking... Minimizing (5,17)... (5,6), 0.005 sec
Inserting... 0.001 sec
[22 ph, smt 0.108, isect 0.122, ins 0.006, tot 0.324]

Running SMT solver (25)... 0.003 sec
Checking... Minimizing (5,20)... (5,10), 0.006 sec
Inserting... 0.000 sec
[23 ph, smt 0.111, isect 0.128, ins 0.006, tot 0.337]

Running SMT solver (26)... 0.002 sec
Checking... Minimizing (5,20)... (5,10), 0.006 sec
Inserting... 0.001 sec
[23 ph, smt 0.113, isect 0.134, ins 0.007, tot 0.350]

Running SMT solver (27)... 0.002 sec
Checking... Minimizing (5,20)... (5,11), 0.006 sec
Inserting... 0.001 sec
[24 ph, smt 0.116, isect 0.140, ins 0.008, tot 0.363]

Running SMT solver (28)... 0.004 sec
Checking... Minimizing (5,20)... (5,12), 0.007 sec
Inserting... 0.001 sec
[25 ph, smt 0.120, isect 0.147, ins 0.010, tot 0.378]

Running SMT solver (29)... 0.004 sec
Checking... Minimizing (4,17)... (4,12), 0.005 sec
Inserting... 0.000 sec
[26 ph, smt 0.124, isect 0.152, ins 0.010, tot 0.390]

Running SMT solver (30)... 0.003 sec
Checking... Minimizing (5,18)... (5,9), 0.006 sec
Inserting... 0.000 sec
[27 ph, smt 0.126, isect 0.158, ins 0.010, tot 0.402]

Running SMT solver (31)... 0.002 sec
Checking... Minimizing (4,17)... (4,11), 0.005 sec
Inserting... 0.001 sec
[28 ph, smt 0.128, isect 0.163, ins 0.011, tot 0.414]

Running SMT solver (32)... 0.009 sec
Checking... Minimizing (5,18)... (5,7), 0.005 sec
Inserting... 0.000 sec
[29 ph, smt 0.137, isect 0.168, ins 0.012, tot 0.431]

Running SMT solver (33)... 0.002 sec
Checking... Minimizing (6,19)... (6,5), 0.004 sec
Inserting... 0.000 sec
[30 ph, smt 0.139, isect 0.172, ins 0.012, tot 0.441]

Running SMT solver (34)... 0.003 sec
Checking... Minimizing (6,19)... (6,5), 0.004 sec
Inserting... 0.000 sec
[31 ph, smt 0.142, isect 0.176, ins 0.012, tot 0.451]

Running SMT solver (35)... 0.002 sec
Checking... Minimizing (5,18)... (5,8), 0.005 sec
Inserting... 0.001 sec
[31 ph, smt 0.144, isect 0.181, ins 0.013, tot 0.463]

Running SMT solver (36)... 0.005 sec
Checking... Minimizing (6,24)... (6,7), 0.005 sec
Inserting... 0.000 sec
[32 ph, smt 0.149, isect 0.186, ins 0.013, tot 0.475]

Running SMT solver (37)... 0.002 sec
Checking... Minimizing (5,23)... (5,9), 0.005 sec
Inserting... 0.001 sec
[32 ph, smt 0.151, isect 0.191, ins 0.014, tot 0.486]

Running SMT solver (38)... 0.003 sec
Checking... Minimizing (6,26)... (6,11), 0.007 sec
Inserting... 0.000 sec
[33 ph, smt 0.153, isect 0.198, ins 0.015, tot 0.500]

Running SMT solver (39)... 0.003 sec
Checking... Minimizing (6,27)... (6,11), 0.007 sec
Inserting... 0.000 sec
[34 ph, smt 0.157, isect 0.205, ins 0.015, tot 0.514]

Running SMT solver (40)... 0.003 sec
Checking... Minimizing (5,17)... (5,8), 0.004 sec
Inserting... 0.000 sec
[35 ph, smt 0.160, isect 0.210, ins 0.015, tot 0.525]

Running SMT solver (41)... 0.002 sec
Checking... Minimizing (5,19)... (5,10), 0.005 sec
Inserting... 0.001 sec
[36 ph, smt 0.162, isect 0.215, ins 0.017, tot 0.537]

Running SMT solver (42)... 0.004 sec
Checking... Minimizing (6,19)... (6,6), 0.004 sec
Inserting... 0.000 sec
[37 ph, smt 0.166, isect 0.219, ins 0.017, tot 0.548]

Running SMT solver (43)... 0.002 sec
Checking... Minimizing (5,18)... (5,9), 0.005 sec
Inserting... 0.001 sec
[37 ph, smt 0.168, isect 0.224, ins 0.018, tot 0.559]

Running SMT solver (44)... 0.003 sec
Checking... Minimizing (6,18)... (6,5), 0.004 sec
Inserting... 0.000 sec
[38 ph, smt 0.171, isect 0.228, ins 0.018, tot 0.570]

Running SMT solver (45)... 0.002 sec
Checking... Minimizing (6,18)... (6,5), 0.004 sec
Inserting... 0.000 sec
[39 ph, smt 0.173, isect 0.232, ins 0.018, tot 0.579]

Running SMT solver (46)... 0.002 sec
Checking... Minimizing (5,17)... (5,7), 0.004 sec
Inserting... 0.001 sec
[39 ph, smt 0.175, isect 0.237, ins 0.019, tot 0.590]

Running SMT solver (47)... 0.002 sec
Checking... Minimizing (5,18)... (5,8), 0.005 sec
Inserting... 0.000 sec
[40 ph, smt 0.177, isect 0.241, ins 0.020, tot 0.600]

Running SMT solver (48)... 0.003 sec
Checking... Minimizing (5,19)... (5,9), 0.005 sec
Inserting... 0.000 sec
[41 ph, smt 0.180, isect 0.247, ins 0.020, tot 0.611]

Running SMT solver (49)... 0.002 sec
Checking... Minimizing (6,20)... (6,7), 0.005 sec
Inserting... 0.000 sec
[42 ph, smt 0.183, isect 0.252, ins 0.020, tot 0.623]

Running SMT solver (50)... 0.002 sec
Checking... Minimizing (6,24)... (6,6), 0.005 sec
Inserting... 0.000 sec
[43 ph, smt 0.185, isect 0.256, ins 0.021, tot 0.633]

Running SMT solver (51)... 0.002 sec
Checking... Minimizing (5,23)... (5,8), 0.005 sec
Inserting... 0.000 sec
[44 ph, smt 0.186, isect 0.261, ins 0.021, tot 0.643]

Running SMT solver (52)... 0.005 sec
Checking... Minimizing (5,17)... (5,9), 0.004 sec
Inserting... 0.000 sec
[45 ph, smt 0.192, isect 0.266, ins 0.022, tot 0.657]

Running SMT solver (53)... 0.003 sec
Checking... Minimizing (5,17)... (5,8), 0.005 sec
Inserting... 0.000 sec
[46 ph, smt 0.195, isect 0.270, ins 0.022, tot 0.668]

Running SMT solver (54)... 0.002 sec
Checking... Minimizing (5,17)... (5,8), 0.004 sec
Inserting... 0.000 sec
[47 ph, smt 0.197, isect 0.275, ins 0.022, tot 0.679]

Running SMT solver (55)... 0.002 sec
Checking... Minimizing (5,17)... (5,8), 0.004 sec
Inserting... 0.000 sec
[48 ph, smt 0.199, isect 0.279, ins 0.023, tot 0.688]

Running SMT solver (56)... 0.002 sec
Checking... Minimizing (5,16)... (5,8), 0.004 sec
Inserting... 0.000 sec
[49 ph, smt 0.202, isect 0.283, ins 0.023, tot 0.698]

Running SMT solver (57)... 0.003 sec
Checking... Minimizing (5,16)... (5,9), 0.004 sec
Inserting... 0.000 sec
[50 ph, smt 0.205, isect 0.287, ins 0.023, tot 0.709]

Running SMT solver (58)... 0.003 sec
Checking... Minimizing (5,16)... (5,7), 0.004 sec
Inserting... 0.000 sec
[51 ph, smt 0.208, isect 0.291, ins 0.024, tot 0.719]

Running SMT solver (59)... 0.002 sec
Checking... Minimizing (5,16)... (5,8), 0.005 sec
Inserting... 0.001 sec
[51 ph, smt 0.210, isect 0.295, ins 0.025, tot 0.730]

Running SMT solver (60)... 0.003 sec
Checking... Minimizing (5,17)... (5,7), 0.005 sec
Inserting... 0.000 sec
[52 ph, smt 0.213, isect 0.301, ins 0.025, tot 0.742]

Running SMT solver (61)... 0.002 sec
Checking... Minimizing (5,17)... (5,7), 0.005 sec
Inserting... 0.001 sec
[52 ph, smt 0.215, isect 0.305, ins 0.026, tot 0.753]

Running SMT solver (62)... 0.005 sec
Checking... Minimizing (5,18)... (5,9), 0.005 sec
Inserting... 0.001 sec
[52 ph, smt 0.220, isect 0.311, ins 0.028, tot 0.768]

Running SMT solver (63)... 0.003 sec
Checking... Minimizing (5,22)... (5,12), 0.007 sec
Inserting... 0.001 sec
[52 ph, smt 0.223, isect 0.317, ins 0.029, tot 0.782]

Running SMT solver (64)... 0.002 sec
Checking... Minimizing (5,22)... (5,13), 0.007 sec
Inserting... 0.000 sec
[53 ph, smt 0.225, isect 0.324, ins 0.030, tot 0.794]

Running SMT solver (65)... 0.003 sec
Checking... Minimizing (5,17)... (5,8), 0.005 sec
Inserting... 0.000 sec
[54 ph, smt 0.228, isect 0.329, ins 0.030, tot 0.806]

Running SMT solver (66)... 0.002 sec
Checking... Minimizing (5,18)... (5,10), 0.005 sec
Inserting... 0.000 sec
[55 ph, smt 0.230, isect 0.334, ins 0.031, tot 0.817]

Running SMT solver (67)... 0.004 sec
Checking... Minimizing (6,23)... (6,11), 0.009 sec
Inserting... 0.001 sec
[56 ph, smt 0.234, isect 0.342, ins 0.031, tot 0.833]

Running SMT solver (68)... 0.002 sec
Checking... Minimizing (5,22)... (5,13), 0.007 sec
Inserting... 0.001 sec
[56 ph, smt 0.236, isect 0.350, ins 0.032, tot 0.847]

Running SMT solver (69)... 0.002 sec
Checking... Minimizing (5,18)... (5,10), 0.006 sec
Inserting... 0.000 sec
[57 ph, smt 0.238, isect 0.355, ins 0.033, tot 0.859]

Running SMT solver (70)... 0.003 sec
Checking... Minimizing (5,19)... (5,8), 0.005 sec
Inserting... 0.000 sec
[58 ph, smt 0.241, isect 0.361, ins 0.033, tot 0.871]

Running SMT solver (71)... 0.002 sec
Checking... Minimizing (5,19)... (5,9), 0.005 sec
Inserting... 0.000 sec
[59 ph, smt 0.244, isect 0.366, ins 0.034, tot 0.882]

Running SMT solver (72)... 0.004 sec
Checking... Minimizing (5,18)... (5,11), 0.006 sec
Inserting... 0.001 sec
[60 ph, smt 0.247, isect 0.372, ins 0.034, tot 0.895]

Running SMT solver (73)... 0.003 sec
Checking... Minimizing (5,22)... (5,14), 0.007 sec
Inserting... 0.000 sec
[61 ph, smt 0.250, isect 0.379, ins 0.035, tot 0.909]

Running SMT solver (74)... 0.003 sec
Checking... Minimizing (5,17)... (5,8), 0.005 sec
Inserting... 0.001 sec
[62 ph, smt 0.253, isect 0.384, ins 0.035, tot 0.922]

Running SMT solver (75)... 0.004 sec
Checking... Minimizing (6,23)... (6,5), 0.006 sec
Inserting... 0.000 sec
[63 ph, smt 0.257, isect 0.390, ins 0.036, tot 0.935]

Running SMT solver (76)... 0.002 sec
Checking... Minimizing (6,22)... (6,5), 0.005 sec
Inserting... 0.000 sec
[64 ph, smt 0.259, isect 0.395, ins 0.036, tot 0.947]

Running SMT solver (77)... 0.003 sec
Checking... Minimizing (6,21)... (6,6), 0.005 sec
Inserting... 0.000 sec
[65 ph, smt 0.262, isect 0.400, ins 0.037, tot 0.958]

Running SMT solver (78)... 0.002 sec
Checking... Minimizing (6,22)... (6,5), 0.005 sec
Inserting... 0.000 sec
[66 ph, smt 0.264, isect 0.405, ins 0.037, tot 0.969]

Running SMT solver (79)... 0.002 sec
Checking... Minimizing (6,21)... (6,6), 0.005 sec
Inserting... 0.000 sec
[67 ph, smt 0.267, isect 0.410, ins 0.038, tot 0.979]

Running SMT solver (80)... 0.003 sec
Checking... Minimizing (6,21)... (6,6), 0.005 sec
Inserting... 0.001 sec
[68 ph, smt 0.270, isect 0.415, ins 0.038, tot 0.992]

Running SMT solver (81)... 0.002 sec
Checking... Minimizing (6,22)... (6,5), 0.005 sec
Inserting... 0.000 sec
[69 ph, smt 0.272, isect 0.420, ins 0.039, tot 1.002]

Running SMT solver (82)... 0.003 sec
Checking... Minimizing (6,26)... (6,8), 0.006 sec
Inserting... 0.002 sec
[70 ph, smt 0.275, isect 0.426, ins 0.040, tot 1.016]

Running SMT solver (83)... 0.002 sec
Checking... Minimizing (6,24)... (6,7), 0.006 sec
Inserting... 0.002 sec
[71 ph, smt 0.277, isect 0.432, ins 0.042, tot 1.029]

Running SMT solver (84)... 0.003 sec
Checking... Minimizing (6,26)... (6,7), 0.006 sec
Inserting... 0.001 sec
[72 ph, smt 0.280, isect 0.439, ins 0.043, tot 1.042]

Running SMT solver (85)... 0.002 sec
Checking... Minimizing (6,26)... (6,7), 0.006 sec
Inserting... 0.001 sec
[73 ph, smt 0.282, isect 0.445, ins 0.043, tot 1.055]

Running SMT solver (86)... 0.004 sec
Checking... Minimizing (6,23)... (6,7), 0.005 sec
Inserting... 0.000 sec
[74 ph, smt 0.286, isect 0.450, ins 0.044, tot 1.068]

Running SMT solver (87)... 0.003 sec
Checking... Minimizing (6,25)... (6,6), 0.007 sec
Inserting... 0.001 sec
[75 ph, smt 0.289, isect 0.457, ins 0.044, tot 1.082]

Running SMT solver (88)... 0.002 sec
Checking... Minimizing (6,25)... (6,5), 0.006 sec
Inserting... 0.002 sec
[76 ph, smt 0.291, isect 0.464, ins 0.046, tot 1.094]

Running SMT solver (89)... 0.003 sec
Checking... Minimizing (6,17)... (6,5), 0.005 sec
Inserting... 0.001 sec
[77 ph, smt 0.294, isect 0.468, ins 0.047, tot 1.106]

Running SMT solver (90)... 0.003 sec
Checking... Minimizing (6,25)... (6,6), 0.006 sec
Inserting... 0.001 sec
[78 ph, smt 0.297, isect 0.474, ins 0.047, tot 1.119]

Running SMT solver (91)... 0.004 sec
Checking... Minimizing (6,18)... (6,7), 0.005 sec
Inserting... 0.001 sec
[79 ph, smt 0.301, isect 0.479, ins 0.048, tot 1.132]

Running SMT solver (92)... 0.002 sec
Checking... Minimizing (6,18)... (6,4), 0.005 sec
Inserting... 0.001 sec
[80 ph, smt 0.302, isect 0.484, ins 0.048, tot 1.143]

Running SMT solver (93)... 0.002 sec
Checking... Minimizing (6,26)... (6,5), 0.006 sec
Inserting... 0.001 sec
[81 ph, smt 0.304, isect 0.490, ins 0.049, tot 1.154]

Running SMT solver (94)... 0.002 sec
Checking... Minimizing (6,26)... (6,8), 0.006 sec
Inserting... 0.001 sec
[82 ph, smt 0.306, isect 0.496, ins 0.050, tot 1.166]

Running SMT solver (95)... 0.004 sec
Checking... Minimizing (6,25)... (6,5), 0.006 sec
Inserting... 0.001 sec
[83 ph, smt 0.310, isect 0.503, ins 0.050, tot 1.180]

Running SMT solver (96)... 0.002 sec
Checking... Minimizing (6,25)... (6,6), 0.006 sec
Inserting... 0.001 sec
[84 ph, smt 0.312, isect 0.509, ins 0.051, tot 1.192]

Running SMT solver (97)... 0.002 sec
Checking... Minimizing (6,17)... (6,6), 0.005 sec
Inserting... 0.001 sec
[85 ph, smt 0.314, isect 0.514, ins 0.052, tot 1.203]

Running SMT solver (98)... 0.003 sec
Checking... Minimizing (6,17)... (6,4), 0.004 sec
Inserting... 0.001 sec
[86 ph, smt 0.317, isect 0.518, ins 0.052, tot 1.214]

Running SMT solver (99)... 0.006 sec
Checking... Minimizing (5,17)... (5,9), 0.005 sec
Inserting... 0.001 sec
[87 ph, smt 0.323, isect 0.524, ins 0.053, tot 1.229]

Running SMT solver (100)... 0.003 sec
Checking... Minimizing (5,22)... (5,14), 0.007 sec
Inserting... 0.002 sec
[88 ph, smt 0.325, isect 0.531, ins 0.055, tot 1.245]

Running SMT solver (101)... 0.003 sec
Checking... Minimizing (5,22)... (5,9), 0.006 sec
Inserting... 0.001 sec
[88 ph, smt 0.328, isect 0.537, ins 0.057, tot 1.258]

Running SMT solver (102)... 0.003 sec
Checking... Minimizing (5,22)... (5,8), 0.006 sec
Inserting... 0.001 sec
[89 ph, smt 0.331, isect 0.544, ins 0.057, tot 1.272]

Running SMT solver (103)... 0.004 sec
Checking... Minimizing (6,26)... (6,8), 0.007 sec
Inserting... 0.001 sec
[90 ph, smt 0.334, isect 0.551, ins 0.058, tot 1.286]

Running SMT solver (104)... 0.002 sec
Checking... Minimizing (6,26)... (6,7), 0.007 sec
Inserting... 0.001 sec
[91 ph, smt 0.337, isect 0.558, ins 0.059, tot 1.300]

Running SMT solver (105)... 0.005 sec
Checking... Minimizing (6,28)... (6,8), 0.008 sec
Inserting... 0.001 sec
[92 ph, smt 0.342, isect 0.565, ins 0.059, tot 1.317]

Running SMT solver (106)... 0.003 sec
Checking... Minimizing (5,24)... (5,9), 0.007 sec
Inserting... 0.001 sec
[93 ph, smt 0.344, isect 0.572, ins 0.060, tot 1.331]

Running SMT solver (107)... 0.002 sec
Checking... Minimizing (5,24)... (5,13), 0.008 sec
Inserting... 0.001 sec
[94 ph, smt 0.347, isect 0.580, ins 0.061, tot 1.345]

Running SMT solver (108)... 0.004 sec
Checking... Minimizing (6,27)... (6,6), 0.007 sec
Inserting... 0.001 sec
[95 ph, smt 0.350, isect 0.587, ins 0.061, tot 1.360]

Running SMT solver (109)... 0.002 sec
Checking... Minimizing (6,19)... (6,6), 0.005 sec
Inserting... 0.001 sec
[96 ph, smt 0.353, isect 0.592, ins 0.062, tot 1.371]

Running SMT solver (110)... 0.005 sec
Checking... Minimizing (5,19)... (5,10), 0.006 sec
Inserting... 0.001 sec
[97 ph, smt 0.358, isect 0.598, ins 0.063, tot 1.387]

Running SMT solver (111)... 0.003 sec
Checking... Minimizing (5,20)... (5,11), 0.006 sec
Inserting... 0.001 sec
[98 ph, smt 0.361, isect 0.604, ins 0.064, tot 1.400]

Running SMT solver (112)... 0.004 sec
Checking... Minimizing (5,18)... (5,10), 0.006 sec
Inserting... 0.001 sec
[99 ph, smt 0.366, isect 0.610, ins 0.065, tot 1.415]

Running SMT solver (113)... 0.005 sec
Checking... Minimizing (5,20)... (5,11), 0.006 sec
Inserting... 0.001 sec
[100 ph, smt 0.371, isect 0.616, ins 0.065, tot 1.430]

Running SMT solver (114)... 0.002 sec
Checking... Minimizing (5,20)... (5,10), 0.006 sec
Inserting... 0.001 sec
[101 ph, smt 0.372, isect 0.622, ins 0.066, tot 1.443]

Running SMT solver (115)... 0.005 sec
Checking... Minimizing (5,20)... (5,12), 0.006 sec
Inserting... 0.001 sec
[102 ph, smt 0.378, isect 0.628, ins 0.067, tot 1.458]

Running SMT solver (116)... 0.002 sec
Checking... Minimizing (5,20)... (5,10), 0.005 sec
Inserting... 0.001 sec
[103 ph, smt 0.380, isect 0.633, ins 0.068, tot 1.470]

Running SMT solver (117)... 0.003 sec
Checking... Minimizing (5,20)... (5,9), 0.006 sec
Inserting... 0.002 sec
[104 ph, smt 0.383, isect 0.639, ins 0.070, tot 1.484]

Running SMT solver (118)... 0.006 sec
Checking... Minimizing (5,25)... (5,9), 0.007 sec
Inserting... 0.001 sec
[105 ph, smt 0.389, isect 0.646, ins 0.071, tot 1.502]

Running SMT solver (119)... 0.002 sec
Checking... Minimizing (5,23)... (5,8), 0.006 sec
Inserting... 0.001 sec
[106 ph, smt 0.392, isect 0.652, ins 0.071, tot 1.514]

Running SMT solver (120)... 0.002 sec
Checking... Minimizing (5,25)... (5,12), 0.008 sec
Inserting... 0.001 sec
[107 ph, smt 0.394, isect 0.660, ins 0.072, tot 1.528]

Running SMT solver (121)... 0.005 sec
Checking... Minimizing (5,18)... (5,10), 0.006 sec
Inserting... 0.001 sec
[108 ph, smt 0.399, isect 0.666, ins 0.073, tot 1.544]

Running SMT solver (122)... 0.002 sec
Checking... Minimizing (5,17)... (5,6), 0.006 sec
Inserting... 0.001 sec
[109 ph, smt 0.401, isect 0.671, ins 0.074, tot 1.555]

Running SMT solver (123)... 0.002 sec
Checking... Minimizing (5,18)... (5,9), 0.006 sec
Inserting... 0.001 sec
[110 ph, smt 0.403, isect 0.677, ins 0.075, tot 1.568]

Running SMT solver (124)... 0.003 sec
Checking... Minimizing (5,22)... (5,6), 0.005 sec
Inserting... 0.002 sec
[111 ph, smt 0.406, isect 0.683, ins 0.077, tot 1.582]

Running SMT solver (125)... 0.002 sec
Checking... Minimizing (5,23)... (5,8), 0.007 sec
Inserting... 0.002 sec
[112 ph, smt 0.408, isect 0.690, ins 0.079, tot 1.595]

Running SMT solver (126)... 0.003 sec
Checking... Minimizing (5,23)... (5,7), 0.006 sec
Inserting... 0.002 sec
[113 ph, smt 0.411, isect 0.695, ins 0.081, tot 1.609]

Running SMT solver (127)... 0.003 sec
Checking... Minimizing (5,23)... (5,16), 0.008 sec
Inserting... 0.001 sec
[114 ph, smt 0.414, isect 0.703, ins 0.082, tot 1.625]

Running SMT solver (128)... 0.003 sec
Checking... Minimizing (5,23)... (5,13), 0.007 sec
Inserting... 0.001 sec
[115 ph, smt 0.417, isect 0.711, ins 0.083, tot 1.639]

Running SMT solver (129)... 0.005 sec
Checking... Minimizing (5,17)... (5,6), 0.005 sec
Inserting... 0.001 sec
[116 ph, smt 0.422, isect 0.715, ins 0.084, tot 1.654]

Running SMT solver (130)... 0.002 sec
Checking... Minimizing (5,18)... (5,11), 0.006 sec
Inserting... 0.001 sec
[117 ph, smt 0.424, isect 0.721, ins 0.085, tot 1.666]

Running SMT solver (131)... 0.002 sec
Checking... Minimizing (5,18)... (5,9), 0.005 sec
Inserting... 0.001 sec
[118 ph, smt 0.426, isect 0.726, ins 0.086, tot 1.677]

Running SMT solver (132)... 0.003 sec
Checking... Minimizing (5,18)... (5,9), 0.006 sec
Inserting... 0.001 sec
[119 ph, smt 0.429, isect 0.732, ins 0.086, tot 1.690]

Running SMT solver (133)... 0.004 sec
Checking... Minimizing (5,17)... (5,10), 0.005 sec
Inserting... 0.001 sec
[120 ph, smt 0.433, isect 0.737, ins 0.088, tot 1.703]

Running SMT solver (134)... 0.003 sec
Checking... Minimizing (5,18)... (5,10), 0.006 sec
Inserting... 0.001 sec
[121 ph, smt 0.435, isect 0.743, ins 0.089, tot 1.716]

Running SMT solver (135)... 0.002 sec
Checking... Minimizing (5,18)... (5,9), 0.006 sec
Inserting... 0.002 sec
[122 ph, smt 0.438, isect 0.749, ins 0.091, tot 1.730]

Running SMT solver (136)... 0.004 sec
Checking... Minimizing (5,17)... (5,9), 0.005 sec
Inserting... 0.001 sec
[123 ph, smt 0.442, isect 0.753, ins 0.092, tot 1.743]

Running SMT solver (137)... 0.003 sec
Checking... Minimizing (5,23)... (5,11), 0.007 sec
Inserting... 0.001 sec
[124 ph, smt 0.445, isect 0.760, ins 0.093, tot 1.758]

Running SMT solver (138)... 0.003 sec
Checking... Minimizing (5,23)... (5,9), 0.006 sec
Inserting... 0.001 sec
[125 ph, smt 0.448, isect 0.766, ins 0.094, tot 1.771]

Running SMT solver (139)... 0.004 sec
Checking... Minimizing (5,23)... (5,10), 0.006 sec
Inserting... 0.001 sec
[126 ph, smt 0.452, isect 0.772, ins 0.095, tot 1.785]

Running SMT solver (140)... 0.004 sec
Checking... Minimizing (5,18)... (5,8), 0.005 sec
Inserting... 0.001 sec
[127 ph, smt 0.456, isect 0.778, ins 0.096, tot 1.799]

Running SMT solver (141)... 0.003 sec
Checking... Minimizing (5,18)... (5,9), 0.006 sec
Inserting... 0.001 sec
[128 ph, smt 0.459, isect 0.783, ins 0.097, tot 1.812]

Running SMT solver (142)... 0.003 sec
Checking... Minimizing (5,18)... (5,8), 0.005 sec
Inserting... 0.001 sec
[129 ph, smt 0.462, isect 0.788, ins 0.098, tot 1.825]

Running SMT solver (143)... 0.005 sec
Checking... Minimizing (5,18)... (5,7), 0.005 sec
Inserting... 0.001 sec
[130 ph, smt 0.468, isect 0.793, ins 0.099, tot 1.839]

Running SMT solver (144)... 0.002 sec
Checking... Minimizing (5,18)... (5,9), 0.008 sec
Inserting... 0.002 sec
[131 ph, smt 0.470, isect 0.801, ins 0.101, tot 1.855]

Running SMT solver (145)... 0.003 sec
Checking... Minimizing (5,17)... (5,8), 0.004 sec
Inserting... 0.001 sec
[132 ph, smt 0.473, isect 0.805, ins 0.102, tot 1.866]

Running SMT solver (146)... 0.004 sec
Checking... Minimizing (5,19)... (5,10), 0.006 sec
Inserting... 0.001 sec
[133 ph, smt 0.477, isect 0.812, ins 0.103, tot 1.881]

Running SMT solver (147)... 0.003 sec
Checking... Minimizing (5,17)... (5,9), 0.006 sec
Inserting... 0.001 sec
[134 ph, smt 0.479, isect 0.817, ins 0.105, tot 1.895]

Running SMT solver (148)... 0.003 sec
Checking... Minimizing (5,22)... (5,13), 0.007 sec
Inserting... 0.001 sec
[135 ph, smt 0.482, isect 0.824, ins 0.106, tot 1.909]

Running SMT solver (149)... 0.003 sec
Checking... Minimizing (5,24)... (5,16), 0.008 sec
Inserting... 0.001 sec
[136 ph, smt 0.485, isect 0.832, ins 0.107, tot 1.925]

Running SMT solver (150)... 0.004 sec
Checking... Minimizing (6,24)... (6,8), 0.007 sec
Inserting... 0.001 sec
[137 ph, smt 0.489, isect 0.839, ins 0.108, tot 1.941]

Running SMT solver (151)... 0.002 sec
Checking... Minimizing (5,24)... (5,11), 0.007 sec
Inserting... 0.002 sec
[137 ph, smt 0.492, isect 0.846, ins 0.110, tot 1.957]

Running SMT solver (152)... 0.003 sec
Checking... Minimizing (5,22)... (5,10), 0.007 sec
Inserting... 0.001 sec
[138 ph, smt 0.494, isect 0.853, ins 0.111, tot 1.971]

Running SMT solver (153)... 0.005 sec
Checking... Minimizing (6,24)... (6,7), 0.007 sec
Inserting... 0.001 sec
[139 ph, smt 0.500, isect 0.860, ins 0.113, tot 1.988]

Running SMT solver (154)... 0.003 sec
Checking... Minimizing (6,24)... (6,5), 0.006 sec
Inserting... 0.001 sec
[140 ph, smt 0.503, isect 0.865, ins 0.114, tot 2.001]

Running SMT solver (155)... 0.003 sec
Checking... Minimizing (6,25)... (6,6), 0.006 sec
Inserting... 0.001 sec
[141 ph, smt 0.506, isect 0.871, ins 0.115, tot 2.015]

Running SMT solver (156)... 0.005 sec
Checking... Minimizing (5,23)... (5,11), 0.007 sec
Inserting... 0.001 sec
[142 ph, smt 0.511, isect 0.878, ins 0.116, tot 2.032]

Running SMT solver (157)... 0.003 sec
Checking... Minimizing (5,23)... (5,9), 0.007 sec
Inserting... 0.002 sec
[142 ph, smt 0.514, isect 0.885, ins 0.118, tot 2.048]

Running SMT solver (158)... 0.003 sec
Checking... Minimizing (5,23)... (5,7), 0.006 sec
Inserting... 0.002 sec
[142 ph, smt 0.517, isect 0.891, ins 0.120, tot 2.062]

Running SMT solver (159)... 0.003 sec
Checking... Minimizing (5,24)... (5,9), 0.006 sec
Inserting... 0.002 sec
[142 ph, smt 0.519, isect 0.897, ins 0.122, tot 2.076]

Running SMT solver (160)... 0.003 sec
Checking... Minimizing (5,23)... (5,14), 0.008 sec
Inserting... 0.001 sec
[143 ph, smt 0.523, isect 0.905, ins 0.124, tot 2.092]

Running SMT solver (161)... 0.004 sec
Checking... Minimizing (5,22)... (5,8), 0.007 sec
Inserting... 0.001 sec
[144 ph, smt 0.527, isect 0.912, ins 0.125, tot 2.108]

Running SMT solver (162)... 0.003 sec
Checking... Minimizing (6,24)... (6,7), 0.006 sec
Inserting... 0.001 sec
[145 ph, smt 0.530, isect 0.918, ins 0.126, tot 2.122]

Running SMT solver (163)... 0.004 sec
Checking... Minimizing (5,22)... (5,8), 0.006 sec
Inserting... 0.002 sec
[146 ph, smt 0.534, isect 0.924, ins 0.128, tot 2.138]

Running SMT solver (164)... 0.003 sec
Checking... Minimizing (5,24)... (5,8), 0.006 sec
Inserting... 0.002 sec
[146 ph, smt 0.536, isect 0.931, ins 0.130, tot 2.153]

Running SMT solver (165)... 0.004 sec
Checking... Minimizing (5,24)... (5,8), 0.006 sec
Inserting... 0.001 sec
[147 ph, smt 0.540, isect 0.937, ins 0.132, tot 2.167]

Running SMT solver (166)... 0.003 sec
Checking... Minimizing (6,26)... (6,11), 0.008 sec
Inserting... 0.001 sec
[148 ph, smt 0.543, isect 0.944, ins 0.133, tot 2.182]

Running SMT solver (167)... 0.003 sec
Checking... Minimizing (5,26)... (5,12), 0.008 sec
Inserting... 0.002 sec
[148 ph, smt 0.546, isect 0.952, ins 0.135, tot 2.199]

Running SMT solver (168)... 0.003 sec
Checking... Minimizing (5,26)... (5,9), 0.007 sec
Inserting... 0.001 sec
[149 ph, smt 0.548, isect 0.959, ins 0.137, tot 2.213]

Running SMT solver (169)... 0.003 sec
Checking... Minimizing (5,25)... (5,9), 0.007 sec
Inserting... 0.001 sec
[150 ph, smt 0.551, isect 0.967, ins 0.138, tot 2.227]

Running SMT solver (170)... 0.003 sec
Checking... Minimizing (5,25)... (5,9), 0.007 sec
Inserting... 0.002 sec
[151 ph, smt 0.553, isect 0.974, ins 0.140, tot 2.243]

Running SMT solver (171)... 0.002 sec
Checking... Minimizing (5,24)... (5,8), 0.006 sec
Inserting... 0.001 sec
[152 ph, smt 0.556, isect 0.980, ins 0.142, tot 2.256]

Running SMT solver (172)... 0.002 sec
Checking... Minimizing (5,25)... (5,16), 0.008 sec
Inserting... 0.003 sec
[153 ph, smt 0.558, isect 0.989, ins 0.144, tot 2.273]

Running SMT solver (173)... 0.005 sec
Checking... Minimizing (5,21)... (5,11), 0.007 sec
Inserting... 0.001 sec
[154 ph, smt 0.563, isect 0.996, ins 0.145, tot 2.290]

Running SMT solver (174)... 0.003 sec
Checking... Minimizing (5,19)... (5,10), 0.006 sec
Inserting... 0.001 sec
[155 ph, smt 0.566, isect 1.002, ins 0.147, tot 2.304]

Running SMT solver (175)... 0.002 sec
Checking... Minimizing (6,21)... (6,8), 0.006 sec
Inserting... 0.001 sec
[156 ph, smt 0.569, isect 1.008, ins 0.148, tot 2.317]

Running SMT solver (176)... 0.004 sec
Checking... Minimizing (6,19)... (6,7), 0.006 sec
Inserting... 0.001 sec
[157 ph, smt 0.572, isect 1.014, ins 0.149, tot 2.331]

Running SMT solver (177)... 0.003 sec
Checking... Minimizing (6,19)... (6,4), 0.005 sec
Inserting... 0.001 sec
[158 ph, smt 0.576, isect 1.019, ins 0.150, tot 2.344]

Running SMT solver (178)... 0.003 sec
Checking... Minimizing (5,20)... (5,10), 0.006 sec
Inserting... 0.003 sec
[158 ph, smt 0.579, isect 1.025, ins 0.153, tot 2.359]

Running SMT solver (179)... 0.003 sec
Checking... Minimizing (5,18)... (5,9), 0.006 sec
Inserting... 0.002 sec
[158 ph, smt 0.581, isect 1.031, ins 0.156, tot 2.374]

Running SMT solver (180)... 0.003 sec
Checking... Minimizing (5,18)... (5,8), 0.006 sec
Inserting... 0.002 sec
[158 ph, smt 0.584, isect 1.036, ins 0.158, tot 2.388]

Running SMT solver (181)... 0.004 sec
Checking... Minimizing (5,19)... (5,8), 0.006 sec
Inserting... 0.001 sec
[159 ph, smt 0.588, isect 1.042, ins 0.159, tot 2.402]

Running SMT solver (182)... 0.003 sec
Checking... Minimizing (5,18)... (5,9), 0.006 sec
Inserting... 0.001 sec
[160 ph, smt 0.591, isect 1.048, ins 0.160, tot 2.416]

Running SMT solver (183)... 0.003 sec
Checking... Minimizing (5,17)... (5,8), 0.005 sec
Inserting... 0.001 sec
[161 ph, smt 0.594, isect 1.053, ins 0.161, tot 2.429]

Running SMT solver (184)... 0.002 sec
Checking... Minimizing (5,19)... (5,9), 0.006 sec
Inserting... 0.001 sec
[162 ph, smt 0.597, isect 1.059, ins 0.163, tot 2.442]

Running SMT solver (185)... 0.003 sec
Checking... Minimizing (5,17)... (5,8), 0.005 sec
Inserting... 0.001 sec
[163 ph, smt 0.599, isect 1.064, ins 0.164, tot 2.454]

Running SMT solver (186)... 0.002 sec
Checking... Minimizing (5,19)... (5,8), 0.005 sec
Inserting... 0.001 sec
[164 ph, smt 0.601, isect 1.070, ins 0.165, tot 2.467]

Running SMT solver (187)... 0.005 sec
Checking... Minimizing (5,16)... (5,9), 0.005 sec
Inserting... 0.001 sec
[165 ph, smt 0.606, isect 1.075, ins 0.166, tot 2.481]

Running SMT solver (188)... 0.002 sec
Checking... Minimizing (6,19)... (6,5), 0.004 sec
Inserting... 0.001 sec
[166 ph, smt 0.608, isect 1.079, ins 0.168, tot 2.492]

Running SMT solver (189)... 0.003 sec
Checking... Minimizing (6,19)... (6,5), 0.005 sec
Inserting... 0.001 sec
[167 ph, smt 0.611, isect 1.084, ins 0.169, tot 2.506]

Running SMT solver (190)... 0.003 sec
Checking... Minimizing (6,19)... (6,4), 0.004 sec
Inserting... 0.001 sec
[168 ph, smt 0.614, isect 1.089, ins 0.170, tot 2.518]

Running SMT solver (191)... 0.003 sec
Checking... Minimizing (5,18)... (5,8), 0.005 sec
Inserting... 0.002 sec
[168 ph, smt 0.617, isect 1.094, ins 0.172, tot 2.531]

Running SMT solver (192)... 0.002 sec
Checking... Minimizing (5,18)... (5,7), 0.005 sec
Inserting... 0.002 sec
[168 ph, smt 0.619, isect 1.098, ins 0.174, tot 2.543]

Running SMT solver (193)... 0.004 sec
Checking... Minimizing (5,18)... (5,7), 0.005 sec
Inserting... 0.002 sec
[168 ph, smt 0.623, isect 1.103, ins 0.176, tot 2.557]

Running SMT solver (194)... 0.004 sec
Checking... Minimizing (5,19)... (5,11), 0.006 sec
Inserting... 0.001 sec
[169 ph, smt 0.627, isect 1.109, ins 0.177, tot 2.572]

Running SMT solver (195)... 0.004 sec
Checking... Minimizing (5,19)... (5,10), 0.006 sec
Inserting... 0.002 sec
[170 ph, smt 0.631, isect 1.115, ins 0.180, tot 2.588]

Running SMT solver (196)... 0.002 sec
Checking... Minimizing (5,17)... (5,9), 0.006 sec
Inserting... 0.001 sec
[171 ph, smt 0.634, isect 1.120, ins 0.181, tot 2.600]

Running SMT solver (197)... 0.003 sec
Checking... Minimizing (5,17)... (5,10), 0.005 sec
Inserting... 0.001 sec
[172 ph, smt 0.637, isect 1.126, ins 0.183, tot 2.613]

Running SMT solver (198)... 0.003 sec
Checking... Minimizing (5,17)... (5,10), 0.006 sec
Inserting... 0.001 sec
[173 ph, smt 0.640, isect 1.131, ins 0.184, tot 2.626]

Running SMT solver (199)... 0.003 sec
Checking... Minimizing (5,18)... (5,9), 0.005 sec
Inserting... 0.001 sec
[174 ph, smt 0.643, isect 1.136, ins 0.185, tot 2.639]

Running SMT solver (200)... 0.002 sec
Checking... Minimizing (5,19)... (5,9), 0.006 sec
Inserting... 0.003 sec
[175 ph, smt 0.645, isect 1.142, ins 0.188, tot 2.653]

Running SMT solver (201)... 0.003 sec
Checking... Minimizing (5,17)... (5,9), 0.006 sec
Inserting... 0.002 sec
[176 ph, smt 0.648, isect 1.148, ins 0.190, tot 2.668]

Running SMT solver (202)... 0.004 sec
Checking... Minimizing (6,17)... (6,4), 0.005 sec
Inserting... 0.001 sec
[177 ph, smt 0.652, isect 1.153, ins 0.192, tot 2.681]

Running SMT solver (203)... 0.003 sec
Checking... Minimizing (6,17)... (6,5), 0.005 sec
Inserting... 0.002 sec
[178 ph, smt 0.655, isect 1.158, ins 0.194, tot 2.695]

Running SMT solver (204)... 0.003 sec
Checking... Minimizing (6,17)... (6,9), 0.006 sec
Inserting... 0.001 sec
[179 ph, smt 0.658, isect 1.164, ins 0.195, tot 2.709]

Running SMT solver (205)... 0.003 sec
Checking... Minimizing (6,25)... (6,8), 0.007 sec
Inserting... 0.001 sec
[180 ph, smt 0.661, isect 1.171, ins 0.197, tot 2.723]

Running SMT solver (206)... 0.003 sec
Checking... Minimizing (6,19)... (6,10), 0.007 sec
Inserting... 0.001 sec
[181 ph, smt 0.664, isect 1.178, ins 0.198, tot 2.738]

Running SMT solver (207)... 0.002 sec
Checking... Minimizing (6,19)... (6,6), 0.006 sec
Inserting... 0.003 sec
[182 ph, smt 0.666, isect 1.184, ins 0.201, tot 2.753]

Running SMT solver (208)... 0.002 sec
Checking... Minimizing (6,27)... (6,9), 0.009 sec
Inserting... 0.002 sec
[183 ph, smt 0.668, isect 1.193, ins 0.202, tot 2.768]

Running SMT solver (209)... 0.003 sec
Checking... Minimizing (6,20)... (6,8), 0.007 sec
Inserting... 0.001 sec
[184 ph, smt 0.671, isect 1.200, ins 0.204, tot 2.782]

Running SMT solver (210)... 0.004 sec
Checking... Minimizing (6,21)... (6,7), 0.006 sec
Inserting... 0.001 sec
[185 ph, smt 0.674, isect 1.206, ins 0.205, tot 2.797]

Running SMT solver (211)... 0.003 sec
Checking... Minimizing (5,19)... (5,10), 0.006 sec
Inserting... 0.001 sec
[186 ph, smt 0.677, isect 1.212, ins 0.207, tot 2.811]

Running SMT solver (212)... 0.003 sec
Checking... Minimizing (5,21)... (5,11), 0.006 sec
Inserting... 0.002 sec
[186 ph, smt 0.680, isect 1.219, ins 0.209, tot 2.827]

Running SMT solver (213)... 0.003 sec
Checking... Minimizing (5,21)... (5,11), 0.006 sec
Inserting... 0.001 sec
[187 ph, smt 0.683, isect 1.225, ins 0.210, tot 2.841]

Running SMT solver (214)... 0.003 sec
Checking... Minimizing (5,19)... (5,11), 0.006 sec
Inserting... 0.001 sec
[188 ph, smt 0.686, isect 1.231, ins 0.212, tot 2.854]

Running SMT solver (215)... 0.003 sec
Checking... Minimizing (5,20)... (5,11), 0.007 sec
Inserting... 0.002 sec
[189 ph, smt 0.689, isect 1.237, ins 0.213, tot 2.868]

Running SMT solver (216)... 0.003 sec
Checking... Minimizing (5,19)... (5,9), 0.006 sec
Inserting... 0.002 sec
[189 ph, smt 0.692, isect 1.243, ins 0.216, tot 2.884]

Running SMT solver (217)... 0.003 sec
Checking... Minimizing (5,20)... (5,10), 0.006 sec
Inserting... 0.002 sec
[190 ph, smt 0.694, isect 1.250, ins 0.217, tot 2.898]

Running SMT solver (218)... 0.004 sec
Checking... Minimizing (7,21)... (7,3), 0.006 sec
Inserting... 0.001 sec
[191 ph, smt 0.698, isect 1.256, ins 0.219, tot 2.913]

Running SMT solver (219)... 0.004 sec
Checking... Minimizing (7,22)... (7,2), 0.005 sec
Inserting... 0.002 sec
[192 ph, smt 0.702, isect 1.261, ins 0.220, tot 2.928]

Running SMT solver (220)... 0.002 sec
Checking... Minimizing (6,21)... (6,7), 0.006 sec
Inserting... 0.002 sec
[192 ph, smt 0.704, isect 1.267, ins 0.223, tot 2.942]

Running SMT solver (221)... 0.002 sec
Checking... Minimizing (5,21)... (5,8), 0.006 sec
Inserting... 0.002 sec
[192 ph, smt 0.707, isect 1.274, ins 0.225, tot 2.956]

Running SMT solver (222)... 0.002 sec
No more solutions found

192 polyhedra, 222 rounds, smt 0.708 sec, isect 1.274 sec, insert 0.225 sec, total 2.971 sec
Preprocessing 3.712 sec, super total 6.684 sec
