k1 = 1
k2 = 456/5
k3 = 3/100
k4 = 7/100
k5 = 114/125
k6 = 3/10
k7 = 7/10
k8 = 456/5
k9 = 17/10
k10 = 114/125
k11 = 333/100
k12 = 368/25
k13 = 1/125
k14 = 92/625
k15 = 13/100
k16 = 896/25
k17 = 1/10
k18 = 224/625
k19 = 1
k20 = 7/2
k21 = 1/50
k22 = 7/200
k23 = 5
k24 = 369/50
k25 = 1/50
k26 = 731/100
k27 = 2/5
k28 = 1116/25
k29 = 3/20
k30 = 186/5
k31 = 1/25
k32 = 8916/25
k33 = 13/5
k34 = 35311/100
k35 = 1/25
k36 = 19/10
k37 = 151/250
k38 = 19/1000
k39 = 59/100
k40 = 13/100
k41 = 19/10
k42 = 2
k43 = 1/100
k44 = 19/1000
k45 = 1
k46 = 1/10
k47 = 368/25
k48 = 1/125
k49 = 92/625
k50 = 13/100
k51 = 1/2
k52 = 1/250
k53 = 1/10000
k54 = 1/10
