k1 = 1/500
k2 = 1/10
k3 = 1/200000
k4 = 7/20000
k5 = 1/5000
k6 = 1/5000
k7 = 1/20000
k8 = 7/2000
k9 = 1/500
k10 = 1/10
k11 = 1/1000
k12 = 1/1000
k13 = 1/1000
k14 = 1/1000
k15 = 1/1000
k16 = 1/1000
k17 = 1/1000
k18 = 1/1000
k19 = 1/500
k20 = 1/10
k21 = 1/500
k22 = 1/10
k23 = 3/1000
k24 = 1/1000
k25 = 1/1000
k26 = 1/50
k27 = 1/1000
k28 = 1/50
k29 = 1/1000
k30 = 1/25
k31 = 1/1000
k32 = 1/1000
k33 = 1/1000
k34 = 1/1000
k35 = 1/5
k36 = 1/1000
k37 = 1/1000
k38 = 1/1000
k39 = 1/1000
k40 = 1/1000
k41 = 1/1000
k42 = 1
