((-1) * (k17 * (k1*x1*x4 - k2*x6)) + 1 * (k17 * (k15*x11 - k16*x1*x5))) / k17
(1 * (k17*k3*x6) + (-1) * (k17 * (k4*x2*x4 - k5*x7)) + 1 * (k10*x9 - k11*x2*x5) + (-1) * (k17 * (k12*x2*x5 - k13*x10))) / k17
(1 * (k17*k6*x7) + (-1) * (k17 * (k7*x3*x5 - k8*x8))) / k17
((-1) * (k17 * (k1*x1*x4 - k2*x6)) + 1 * (k17*k3*x6) + (-1) * (k17 * (k4*x2*x4 - k5*x7)) + 1 * (k17*k6*x7)) / k17
((-1) * (k17 * (k7*x3*x5 - k8*x8)) + 1 * (k10*x9 - k11*x2*x5) + (-1) * (k17 * (k12*x2*x5 - k13*x10)) + 1 * (k17 * (k15*x11 - k16*x1*x5))) / k17
(1 * (k17 * (k1*x1*x4 - k2*x6)) + (-1) * (k17*k3*x6)) / k17
(1 * (k17 * (k4*x2*x4 - k5*x7)) + (-1) * (k17*k6*x7)) / k17
(1 * (k17 * (k7*x3*x5 - k8*x8)) + (-1) * (k17*k9*x8)) / k17
(1 * (k17*k9*x8) + (-1) * (k10*x9 - k11*x2*x5)) / k17
(1 * (k17 * (k12*x2*x5 - k13*x10)) + (-1) * (k17*k14*x10)) / k17
(1 * (k17*k14*x10) + (-1) * (k17 * (k15*x11 - k16*x1*x5))) / k17
