
----------------------------------------------------------------------
This is ptcut v3.5.1
Python 3.7.4 (default, Aug  9 2019, 18:34:13) [MSC v.1915 64 bit (AMD64)]
numpy 1.16.5, sympy 1.4, gmpy2 2.1.0a5
It is now 2020-04-09T19:14:42+02:00
Command line: ..\trop\ptcut.py BIOMD0000000560 -e11 --rat --no-cache=n --maxruntime 86400 --maxmem 14710M --comment "concurrent=4, timeout=86400"

----------------------------------------------------------------------
Solving BIOMD0000000560 with ep=1/11, round=0, complex=False, sumup=False, keep_coeff=False, paramwise=True, complete=False, filter=0, fusion=False, algorithm 3, resort=False, bbox=False, common=9, qdisjoint=False, nonewton=False, mul_denom=True, convexhull=(False, 2, 4, 0.5, 2), likeness 14, backend PPL_C_Polyhedron
Comment: concurrent=4, timeout=86400
Random seed: 22CPYFFRI11LE
Effective epsilon: 1/11.0

Loading tropical system... done.
Loading polyhedra... done.

Sorting ascending...
Dimension: 59
Formulas: 69
Order: 0 1 19 21 24 25 27 31 34 35 38 39 41 44 46 50 52 53 54 56 8 9 17 18 20 22 23 28 29 30 32 36 47 62 63 64 66 59 60 61 65 2 3 11 12 40 42 45 49 51 55 68 5 26 37 57 58 67 4 13 14 33 6 7 15 16 43 48 10
Possible combinations: 1 * 1 * 1 * 1 * 1 * 1 * 1 * 1 * 1 * 1 * 1 * 1 * 1 * 1 * 1 * 1 * 1 * 1 * 1 * 1 * 2 * 2 * 2 * 2 * 2 * 2 * 2 * 2 * 2 * 2 * 2 * 2 * 2 * 2 * 2 * 2 * 2 * 3 * 3 * 3 * 3 * 4 * 4 * 4 * 4 * 4 * 4 * 4 * 4 * 4 * 4 * 4 * 6 * 6 * 6 * 6 * 6 * 6 * 7 * 8 * 8 * 8 * 9 * 9 * 9 * 9 * 9 * 12 * 24 = 126,629,644,611,979,015,721,890,873,344 (10^29)
 Applying common planes (codim=20, hs=58)...
 [1/49 (#8)]: 2 => 2 (-), dim=38.0, hs=57.0
 [2/49 (#9)]: 2 => 2 (-), dim=38.0, hs=57.0
 [3/49 (#17)]: 2 => 2 (-), dim=38.0, hs=58.0
 [4/49 (#18)]: 2 => 2 (-), dim=38.0, hs=59.0
 [5/49 (#20)]: 2 => 1 (1 empty), dim=38.0, hs=59.0
  Removed: 20.1
 [6/49 (#22)]: 2 => 2 (-), dim=39.0, hs=59.0
 [7/49 (#23)]: 2 => 2 (-), dim=39.0, hs=59.0
 [8/49 (#28)]: 2 => 1 (1 empty), dim=38.0, hs=59.0
  Removed: 28.1
 [9/49 (#29)]: 2 => 1 (1 empty), dim=38.0, hs=59.0
  Removed: 29.1
 [10/49 (#30)]: 2 => 2 (-), dim=38.0, hs=58.5
 [11/49 (#32)]: 2 => 2 (-), dim=38.0, hs=60.0
 [12/49 (#36)]: 2 => 2 (-), dim=38.0, hs=57.0
 [13/49 (#47)]: 2 => 2 (-), dim=38.0, hs=60.0
 [14/49 (#62)]: 2 => 2 (-), dim=38.0, hs=56.5
 [15/49 (#63)]: 2 => 2 (-), dim=38.0, hs=57.5
 [16/49 (#64)]: 2 => 1 (1 empty), dim=38.0, hs=58.0
  Removed: 64.1
 [17/49 (#66)]: 2 => 2 (-), dim=38.0, hs=58.0
 [18/49 (#59)]: 3 => 2 (1 incl), dim=38.0, hs=57.0
  Removed: 59.1
 [19/49 (#60)]: 3 => 3 (-), dim=38.0, hs=56.7
 [20/49 (#61)]: 3 => 3 (-), dim=38.0, hs=56.7
 [21/49 (#65)]: 3 => 3 (-), dim=38.0, hs=57.7
 [22/49 (#2)]: 4 => 4 (-), dim=38.0, hs=61.0
 [23/49 (#3)]: 4 => 2 (2 empty), dim=38.0, hs=60.0
  Removed: 3.2,3.3
 [24/49 (#11)]: 4 => 4 (-), dim=38.0, hs=59.2
 [25/49 (#12)]: 4 => 4 (-), dim=38.0, hs=59.2
 [26/49 (#40)]: 4 => 2 (2 incl), dim=39.0, hs=57.0
  Removed: 40.0,40.3
 [27/49 (#42)]: 4 => 2 (2 incl), dim=39.0, hs=56.5
  Removed: 42.1,42.2
 [28/49 (#45)]: 4 => 2 (2 incl), dim=38.5, hs=59.5
  Removed: 45.1,45.2
 [29/49 (#49)]: 4 => 2 (2 incl), dim=38.5, hs=59.0
  Removed: 49.1,49.2
 [30/49 (#51)]: 4 => 2 (2 empty), dim=38.0, hs=59.0
  Removed: 51.2,51.3
 [31/49 (#55)]: 4 => 2 (2 incl), dim=38.5, hs=59.5
  Removed: 55.0,55.3
 [32/49 (#68)]: 4 => 4 (-), dim=38.0, hs=56.5
 [33/49 (#5)]: 6 => 6 (-), dim=38.0, hs=60.7
 [34/49 (#26)]: 6 => 1 (4 empty, 1 incl), dim=39.0, hs=59.0
  Removed: 26.0,26.1,26.2,26.4,26.5
 [35/49 (#37)]: 6 => 3 (3 incl), dim=38.3, hs=57.7
  Removed: 37.0,37.1,37.5
 [36/49 (#57)]: 6 => 6 (-), dim=38.0, hs=58.2
 [37/49 (#58)]: 6 => 6 (-), dim=38.0, hs=57.7
 [38/49 (#67)]: 6 => 6 (-), dim=38.0, hs=57.0
 [39/49 (#4)]: 7 => 7 (-), dim=38.0, hs=62.4
 [40/49 (#13)]: 8 => 7 (1 incl), dim=38.0, hs=59.1
  Removed: 13.5
 [41/49 (#14)]: 8 => 5 (3 incl), dim=38.0, hs=60.2
  Removed: 14.3,14.6,14.7
 [42/49 (#33)]: 8 => 8 (-), dim=38.0, hs=61.6
 [43/49 (#6)]: 9 => 9 (-), dim=38.0, hs=58.6
 [44/49 (#7)]: 9 => 3 (6 incl), dim=38.0, hs=57.0
  Removed: 7.1,7.2,7.4,7.5,7.7,7.8
 [45/49 (#15)]: 9 => 9 (-), dim=38.0, hs=60.0
 [46/49 (#16)]: 9 => 9 (-), dim=38.0, hs=60.0
 [47/49 (#43)]: 9 => 2 (5 empty, 2 incl), dim=38.5, hs=58.5
  Removed: 43.1,43.2,43.3,43.5,43.6,43.7,43.8
 [48/49 (#48)]: 12 => 12 (-), dim=38.0, hs=61.0
 [49/49 (#10)]: 24 => 24 (-), dim=38.0, hs=62.8
 Applying common planes (codim=23, hs=61)...
 [1/44 (#8)]: 2 => 2 (-), dim=35.0, hs=61.0
 [2/44 (#9)]: 2 => 2 (-), dim=35.0, hs=61.0
 [3/44 (#17)]: 2 => 2 (-), dim=35.0, hs=61.0
 [4/44 (#18)]: 2 => 2 (-), dim=35.0, hs=61.0
 [5/44 (#22)]: 2 => 2 (-), dim=36.0, hs=61.0
 [6/44 (#23)]: 2 => 2 (-), dim=36.0, hs=61.0
 [7/44 (#30)]: 2 => 2 (-), dim=35.0, hs=61.5
 [8/44 (#32)]: 2 => 2 (-), dim=35.0, hs=63.0
 [9/44 (#36)]: 2 => 2 (-), dim=35.0, hs=60.0
 [10/44 (#47)]: 2 => 2 (-), dim=35.0, hs=63.0
 [11/44 (#62)]: 2 => 2 (-), dim=35.0, hs=59.5
 [12/44 (#63)]: 2 => 2 (-), dim=35.0, hs=59.5
 [13/44 (#66)]: 2 => 2 (-), dim=35.0, hs=61.0
 [14/44 (#59)]: 2 => 2 (-), dim=35.0, hs=60.0
 [15/44 (#60)]: 3 => 3 (-), dim=35.0, hs=59.7
 [16/44 (#61)]: 3 => 3 (-), dim=35.0, hs=59.7
 [17/44 (#65)]: 3 => 3 (-), dim=35.0, hs=60.0
 [18/44 (#2)]: 4 => 3 (1 incl), dim=35.0, hs=62.7
  Removed: 2.2
 [19/44 (#3)]: 2 => 2 (-), dim=35.0, hs=61.0
 [20/44 (#11)]: 4 => 3 (1 empty), dim=35.0, hs=60.7
  Removed: 11.3
 [21/44 (#12)]: 4 => 3 (1 empty), dim=35.0, hs=60.7
  Removed: 12.3
 [22/44 (#40)]: 2 => 2 (-), dim=36.0, hs=60.0
 [23/44 (#42)]: 2 => 2 (-), dim=36.0, hs=59.5
 [24/44 (#45)]: 2 => 2 (-), dim=35.5, hs=62.5
 [25/44 (#49)]: 2 => 2 (-), dim=35.5, hs=61.5
 [26/44 (#51)]: 2 => 2 (-), dim=35.0, hs=62.0
 [27/44 (#55)]: 2 => 2 (-), dim=35.5, hs=62.5
 [28/44 (#68)]: 4 => 2 (2 empty), dim=35.0, hs=60.0
  Removed: 68.0,68.1
 [29/44 (#5)]: 6 => 6 (-), dim=35.0, hs=63.7
 [30/44 (#37)]: 3 => 3 (-), dim=35.3, hs=60.7
 [31/44 (#57)]: 6 => 6 (-), dim=35.0, hs=60.7
 [32/44 (#58)]: 6 => 6 (-), dim=35.0, hs=60.7
 [33/44 (#67)]: 6 => 4 (2 empty), dim=34.5, hs=60.5
  Removed: 67.4,67.5
 [34/44 (#4)]: 7 => 4 (3 incl), dim=35.0, hs=63.8
  Removed: 4.3,4.5,4.6
 [35/44 (#13)]: 7 => 7 (-), dim=35.0, hs=62.4
 [36/44 (#14)]: 5 => 5 (-), dim=35.0, hs=62.4
 [37/44 (#33)]: 8 => 5 (3 empty), dim=35.0, hs=63.0
  Removed: 33.1,33.3,33.6
 [38/44 (#6)]: 9 => 3 (6 empty), dim=34.3, hs=60.3
  Removed: 6.0,6.1,6.3,6.4,6.5,6.6
 [39/44 (#7)]: 3 => 3 (-), dim=35.0, hs=61.0
 [40/44 (#15)]: 9 => 9 (-), dim=35.0, hs=63.3
 [41/44 (#16)]: 9 => 9 (-), dim=35.0, hs=63.3
 [42/44 (#43)]: 2 => 2 (-), dim=35.5, hs=61.5
 [43/44 (#48)]: 12 => 12 (-), dim=35.0, hs=63.4
 [44/44 (#10)]: 24 => 21 (3 incl), dim=35.0, hs=63.4
  Removed: 10.0,10.1,10.2
 Savings: factor 62,123,634 (10^8), 25 formulas
[1/43 (#8, #9)]: 2 * 2 = 4 => 4 (-), dim=34.0, hs=61.0
[2/43 (w1, #17)]: 4 * 2 = 8 => 8 (-), dim=33.0, hs=61.0
[3/43 (w2, #18)]: 8 * 2 = 16 => 16 (-), dim=32.0, hs=61.0
[4/43 (w3, #22)]: 16 * 2 = 32 => 16 (16 incl), dim=32.0, hs=61.0
[5/43 (w4, #23)]: 16 * 2 = 32 => 16 (16 incl), dim=32.0, hs=61.0
[6/43 (w5, #30)]: 16 * 2 = 32 => 32 (-), dim=31.0, hs=61.5
[7/43 (w6, #32)]: 32 * 2 = 64 => 64 (-), dim=30.0, hs=63.5
[8/43 (w7, #36)]: 64 * 2 = 128 => 128 (-), dim=29.0, hs=62.5
[9/43 (w8, #47)]: 128 * 2 = 256 => 256 (-), dim=28.0, hs=64.2
[10/43 (w9, #62)]: 256 * 2 = 512 => 448 (64 empty), dim=27.0, hs=63.6
[11/43 (w10, #63)]: 448 * 2 = 896 => 704 (192 empty), dim=26.0, hs=62.2
[12/43 (w11, #66)]: 704 * 2 = 1408 => 1408 (-), dim=25.0, hs=62.2
[13/43 (w12, #59)]: 1408 * 2 = 2816 => 1984 (592 empty, 240 incl), dim=24.0, hs=61.7
[14/43 (w13, #3)]: 1984 * 2 = 3968 => 3968 (-), dim=23.0, hs=61.7
[15/43 (w14, #40)]: 3968 * 2 = 7936 => 6624 (1312 incl), dim=23.0, hs=61.7
[16/43 (w15, #42)]: 6624 * 2 = 13248 => 6624 (1184 empty, 5440 incl), dim=23.0, hs=61.7
[17/43 (w16, #45)]: 6624 * 2 = 13248 => 5824 (6944 empty, 480 incl), dim=22.8, hs=62.0
[18/43 (w17, #49)]: 5824 * 2 = 11648 => 7520 (4128 empty), dim=22.5, hs=62.8
[19/43 (w18, #51)]: 7520 * 2 = 15040 => 10432 (4128 empty, 480 incl), dim=21.6, hs=63.8
[20/43 (w19, #55)]: 10432 * 2 = 20864 => 14912 (3328 empty, 2624 incl), dim=21.3, hs=64.9
[21/43 (w20, #68)]: 14912 * 2 = 29824
****** Out of time - Computation aborted! ******
Total time: 86518.362 sec, total intersections: 95,897, total inclusion tests: 324,219,103 (aborted)
Common plane time: 12478.010 sec
Completed: 34.16 log%, 10^9.94 combinations
