
----------------------------------------------------------------------
This is ptcut v3.5.1
Python 3.7.4 (default, Aug  9 2019, 18:34:13) [MSC v.1915 64 bit (AMD64)]
numpy 1.16.5, sympy 1.4, gmpy2 2.1.0a5
It is now 2020-04-04T21:36:01+02:00
Command line: ..\trop\ptcut.py BIOMD0000000396 -e11 --rat --no-cache=n --maxruntime 10800 --maxmem 11513M --comment "concurrent=6, timeout=10800"

----------------------------------------------------------------------
Solving BIOMD0000000396 with ep=1/11, round=0, complex=False, sumup=False, keep_coeff=False, paramwise=True, complete=False, filter=0, fusion=False, algorithm 3, resort=False, bbox=False, common=9, qdisjoint=False, nonewton=False, mul_denom=True, convexhull=(False, 2, 4, 0.5, 2), likeness 14, backend PPL_C_Polyhedron
Comment: concurrent=6, timeout=10800
Random seed: 1G9T9W7KG0MO7
Effective epsilon: 1/11.0

Reading db\BIOMD0000000396\vector_field_q.txt
Reading db\BIOMD0000000396\conservation_laws_q.txt
Computing tropical system... 
Multiplying equation 2 with: k28*k29 + k28*x2 + k28*x21 + k29*x23 + x2*x21

Multiplying equation 3 with: k44*k45*k7*k9 + k44*k45*k7*x7 + k44*k45*k9*x3 + k44*k7*k9*x23 + k44*k7*k9*x3 + k44*k7*x23*x7 + k44*k7*x3*x7 + k44*k9*x23*x3 + k44*k9*x3**2 + k45*k7*k9*x31 + k45*k7*x31*x7 + k45*k9*x3*x31 + k7*k9*x23*x3 + k7*x23*x3*x7 + k9*x23*x3**2

Multiplying equation 4 with: k2*k34*k36*k37*k4*k47*k49*k5*k50 + k2*k34*k36*k37*k4*k47*k49*k5*x4 + k2*k34*k36*k37*k4*k47*k49*k50*x28 + k2*k34*k36*k37*k4*k47*k49*x28*x4 + k2*k34*k36*k37*k4*k47*k5*k50*x22 + k2*k34*k36*k37*k4*k47*k5*x22*x4 + k2*k34*k36*k37*k4*k47*k50*x22*x28 + k2*k34*k36*k37*k4*k47*x22*x28*x4 + k2*k34*k36*k37*k4*k49*k5*k50*x31 + k2*k34*k36*k37*k4*k49*k50*x28*x31 + k2*k34*k36*k37*k47*k49*k5*k50*x5 + k2*k34*k36*k37*k47*k49*k5*x4*x5 + k2*k34*k36*k37*k47*k49*k50*x28*x5 + k2*k34*k36*k37*k47*k49*x28*x4*x5 + k2*k34*k36*k37*k47*k5*k50*x22*x5 + k2*k34*k36*k37*k47*k5*x22*x4*x5 + k2*k34*k36*k37*k47*k50*x22*x28*x5 + k2*k34*k36*k37*k47*x22*x28*x4*x5 + k2*k34*k36*k37*k49*k5*k50*x31*x5 + k2*k34*k36*k37*k49*k50*x28*x31*x5 + k2*k34*k36*k4*k47*k49*k5*k50*x4 + k2*k34*k36*k4*k47*k49*k5*x4**2 + k2*k34*k36*k4*k47*k49*k50*x28*x4 + k2*k34*k36*k4*k47*k49*x28*x4**2 + k2*k34*k36*k4*k47*k5*k50*x22*x4 + k2*k34*k36*k4*k47*k5*x22*x4**2 + k2*k34*k36*k4*k47*k50*x22*x28*x4 + k2*k34*k36*k4*k47*x22*x28*x4**2 + k2*k34*k36*k4*k49*k5*k50*x31*x4 + k2*k34*k36*k4*k49*k50*x28*x31*x4 + k2*k34*k36*k47*k49*k5*k50*x4*x5 + k2*k34*k36*k47*k49*k5*x4**2*x5 + k2*k34*k36*k47*k49*k50*x28*x4*x5 + k2*k34*k36*k47*k49*x28*x4**2*x5 + k2*k34*k36*k47*k5*k50*x22*x4*x5 + k2*k34*k36*k47*k5*x22*x4**2*x5 + k2*k34*k36*k47*k50*x22*x28*x4*x5 + k2*k34*k36*k47*x22*x28*x4**2*x5 + k2*k34*k36*k49*k5*k50*x31*x4*x5 + k2*k34*k36*k49*k50*x28*x31*x4*x5 + k2*k34*k37*k4*k47*k49*k5*k50*x27 + k2*k34*k37*k4*k47*k49*k5*x27*x4 + k2*k34*k37*k4*k47*k49*k50*x27*x28 + k2*k34*k37*k4*k47*k49*x27*x28*x4 + k2*k34*k37*k4*k47*k5*k50*x22*x27 + k2*k34*k37*k4*k47*k5*x22*x27*x4 + k2*k34*k37*k4*k47*k50*x22*x27*x28 + k2*k34*k37*k4*k47*x22*x27*x28*x4 + k2*k34*k37*k4*k49*k5*k50*x27*x31 + k2*k34*k37*k4*k49*k50*x27*x28*x31 + k2*k34*k37*k47*k49*k5*k50*x27*x5 + k2*k34*k37*k47*k49*k5*x27*x4*x5 + k2*k34*k37*k47*k49*k50*x27*x28*x5 + k2*k34*k37*k47*k49*x27*x28*x4*x5 + k2*k34*k37*k47*k5*k50*x22*x27*x5 + k2*k34*k37*k47*k5*x22*x27*x4*x5 + k2*k34*k37*k47*k50*x22*x27*x28*x5 + k2*k34*k37*k47*x22*x27*x28*x4*x5 + k2*k34*k37*k49*k5*k50*x27*x31*x5 + k2*k34*k37*k49*k50*x27*x28*x31*x5 + k2*k34*k4*k47*k49*k5*k50*x27*x4 + k2*k34*k4*k47*k49*k5*x27*x4**2 + k2*k34*k4*k47*k49*k50*x27*x28*x4 + k2*k34*k4*k47*k49*x27*x28*x4**2 + k2*k34*k4*k47*k5*k50*x22*x27*x4 + k2*k34*k4*k47*k5*x22*x27*x4**2 + k2*k34*k4*k47*k50*x22*x27*x28*x4 + k2*k34*k4*k47*x22*x27*x28*x4**2 + k2*k34*k4*k49*k5*k50*x27*x31*x4 + k2*k34*k4*k49*k50*x27*x28*x31*x4 + k2*k34*k47*k49*k5*k50*x27*x4*x5 + k2*k34*k47*k49*k5*x27*x4**2*x5 + k2*k34*k47*k49*k50*x27*x28*x4*x5 + k2*k34*k47*k49*x27*x28*x4**2*x5 + k2*k34*k47*k5*k50*x22*x27*x4*x5 + k2*k34*k47*k5*x22*x27*x4**2*x5 + k2*k34*k47*k50*x22*x27*x28*x4*x5 + k2*k34*k47*x22*x27*x28*x4**2*x5 + k2*k34*k49*k5*k50*x27*x31*x4*x5 + k2*k34*k49*k50*x27*x28*x31*x4*x5 + k2*k36*k37*k4*k47*k49*k5*k50*x26 + k2*k36*k37*k4*k47*k49*k5*x26*x4 + k2*k36*k37*k4*k47*k49*k50*x26*x28 + k2*k36*k37*k4*k47*k49*x26*x28*x4 + k2*k36*k37*k4*k47*k5*k50*x22*x26 + k2*k36*k37*k4*k47*k5*x22*x26*x4 + k2*k36*k37*k4*k47*k50*x22*x26*x28 + k2*k36*k37*k4*k47*x22*x26*x28*x4 + k2*k36*k37*k4*k49*k5*k50*x26*x31 + k2*k36*k37*k4*k49*k50*x26*x28*x31 + k2*k36*k37*k47*k49*k5*k50*x26*x5 + k2*k36*k37*k47*k49*k5*x26*x4*x5 + k2*k36*k37*k47*k49*k50*x26*x28*x5 + k2*k36*k37*k47*k49*x26*x28*x4*x5 + k2*k36*k37*k47*k5*k50*x22*x26*x5 + k2*k36*k37*k47*k5*x22*x26*x4*x5 + k2*k36*k37*k47*k50*x22*x26*x28*x5 + k2*k36*k37*k47*x22*x26*x28*x4*x5 + k2*k36*k37*k49*k5*k50*x26*x31*x5 + k2*k36*k37*k49*k50*x26*x28*x31*x5 + k34*k36*k37*k4*k47*k49*k5*k50*x4 + k34*k36*k37*k4*k47*k49*k5*x4**2 + k34*k36*k37*k4*k47*k5*k50*x22*x4 + k34*k36*k37*k4*k47*k5*x22*x4**2 + k34*k36*k37*k4*k49*k5*k50*x31*x4 + k34*k36*k4*k47*k49*k5*k50*x4**2 + k34*k36*k4*k47*k49*k5*x4**3 + k34*k36*k4*k47*k5*k50*x22*x4**2 + k34*k36*k4*k47*k5*x22*x4**3 + k34*k36*k4*k49*k5*k50*x31*x4**2 + k34*k37*k4*k47*k49*k5*k50*x27*x4 + k34*k37*k4*k47*k49*k5*x27*x4**2 + k34*k37*k4*k47*k5*k50*x22*x27*x4 + k34*k37*k4*k47*k5*x22*x27*x4**2 + k34*k37*k4*k49*k5*k50*x27*x31*x4 + k34*k4*k47*k49*k5*k50*x27*x4**2 + k34*k4*k47*k49*k5*x27*x4**3 + k34*k4*k47*k5*k50*x22*x27*x4**2 + k34*k4*k47*k5*x22*x27*x4**3 + k34*k4*k49*k5*k50*x27*x31*x4**2 + k36*k37*k4*k47*k49*k5*k50*x26*x4 + k36*k37*k4*k47*k49*k5*x26*x4**2 + k36*k37*k4*k47*k5*k50*x22*x26*x4 + k36*k37*k4*k47*k5*x22*x26*x4**2 + k36*k37*k4*k49*k5*k50*x26*x31*x4

Multiplying equation 5 with: k2*k4*k5 + k2*k4*x28 + k2*k5*x5 + k2*x28*x5 + k4*k5*x4

Multiplying equation 7 with: k7*k9 + k7*x7 + k9*x3

Multiplying equation 9 with: k39*k41 + k39*x29 + k41*x9

Multiplying equation 11 with: k14*k16*k17 + k14*k16*x12 + k14*k17*x11 + k14*x11*x12 + k16*k17*x13

Multiplying equation 12 with: k14*k16*k17 + k14*k16*x12 + k14*k17*x11 + k14*x11*x12 + k16*k17*x13

Multiplying equation 13 with: k14*k16*k17 + k14*k16*x12 + k14*k17*x11 + k14*x11*x12 + k16*k17*x13

Multiplying equation 15 with: k12*k22*k23 + k12*k22*x15 + k12*k22*x19 + k12*k23*x17 + k12*x15*x19 + k22*k23*x9 + k22*x15*x9 + k22*x19*x9 + k23*x17*x9 + x15*x19*x9

Multiplying equation 17 with: k22*k23 + k22*x15 + k22*x19 + k23*x17 + x15*x19

Multiplying equation 19 with: k22*k23 + k22*x15 + k22*x19 + k23*x17 + x15*x19

Multiplying equation 21 with: k28*k29 + k28*x2 + k28*x21 + k29*x23 + x2*x21

Multiplying equation 22 with: k47*k49*k50 + k47*k49*x4 + k47*k50*x22 + k47*x22*x4 + k49*k50*x31

Multiplying equation 23 with: k28*k29*k32*k44*k45 + k28*k29*k32*k44*x23 + k28*k29*k32*k44*x3 + k28*k29*k32*k45*x31 + k28*k29*k32*x23*x3 + k28*k29*k44*k45*x1 + k28*k29*k44*x1*x23 + k28*k29*k44*x1*x3 + k28*k29*k45*x1*x31 + k28*k29*x1*x23*x3 + k28*k32*k44*k45*x2 + k28*k32*k44*k45*x21 + k28*k32*k44*x2*x23 + k28*k32*k44*x2*x3 + k28*k32*k44*x21*x23 + k28*k32*k44*x21*x3 + k28*k32*k45*x2*x31 + k28*k32*k45*x21*x31 + k28*k32*x2*x23*x3 + k28*k32*x21*x23*x3 + k28*k44*k45*x1*x2 + k28*k44*k45*x1*x21 + k28*k44*x1*x2*x23 + k28*k44*x1*x2*x3 + k28*k44*x1*x21*x23 + k28*k44*x1*x21*x3 + k28*k45*x1*x2*x31 + k28*k45*x1*x21*x31 + k28*x1*x2*x23*x3 + k28*x1*x21*x23*x3 + k29*k32*k44*k45*x23 + k29*k32*k44*x23**2 + k29*k32*k44*x23*x3 + k29*k32*k45*x23*x31 + k29*k32*x23**2*x3 + k29*k44*k45*x1*x23 + k29*k44*x1*x23**2 + k29*k44*x1*x23*x3 + k29*k45*x1*x23*x31 + k29*x1*x23**2*x3 + k32*k44*k45*x2*x21 + k32*k44*x2*x21*x23 + k32*k44*x2*x21*x3 + k32*k45*x2*x21*x31 + k32*x2*x21*x23*x3 + k44*k45*x1*x2*x21 + k44*x1*x2*x21*x23 + k44*x1*x2*x21*x3 + k45*x1*x2*x21*x31 + x1*x2*x21*x23*x3

Multiplying equation 25 with: k32 + x1

Multiplying equation 26 with: k32*k34*k36*k37 + k32*k34*k36*x4 + k32*k34*k37*x27 + k32*k34*x27*x4 + k32*k36*k37*x26 + k34*k36*k37*x1 + k34*k36*x1*x4 + k34*k37*x1*x27 + k34*x1*x27*x4 + k36*k37*x1*x26

Multiplying equation 27 with: k34*k36*k37 + k34*k36*x4 + k34*k37*x27 + k34*x27*x4 + k36*k37*x26

Multiplying equation 28 with: k12*k2*k4*k5 + k12*k2*k4*x28 + k12*k2*k5*x5 + k12*k2*x28*x5 + k12*k4*k5*x4 + k2*k4*k5*x9 + k2*k4*x28*x9 + k2*k5*x5*x9 + k2*x28*x5*x9 + k4*k5*x4*x9

Multiplying equation 29 with: k39*k41 + k39*x29 + k41*x9

Multiplying equation 31 with: k44*k45*k47*k49*k50 + k44*k45*k47*k49*x4 + k44*k45*k47*k50*x22 + k44*k45*k47*x22*x4 + k44*k45*k49*k50*x31 + k44*k47*k49*k50*x23 + k44*k47*k49*k50*x3 + k44*k47*k49*x23*x4 + k44*k47*k49*x3*x4 + k44*k47*k50*x22*x23 + k44*k47*k50*x22*x3 + k44*k47*x22*x23*x4 + k44*k47*x22*x3*x4 + k44*k49*k50*x23*x31 + k44*k49*k50*x3*x31 + k45*k47*k49*k50*x31 + k45*k47*k49*x31*x4 + k45*k47*k50*x22*x31 + k45*k47*x22*x31*x4 + k45*k49*k50*x31**2 + k47*k49*k50*x23*x3 + k47*k49*x23*x3*x4 + k47*k50*x22*x23*x3 + k47*x22*x23*x3*x4 + k49*k50*x23*x3*x31

Multiplying equation 33 with: k56 + x35

Multiplying equation 34 with: k56 + x35

Multiplying equation 36 with: k56 + x35

System is rational in variable x1,x2,x3,x4,x5,x7,x9,x11,x12,x13,x15,x17,x19,x21,x22,x23,x26,x27,x28,x29,x31,x35.
System is rational in parameter k2,k4,k5,k7,k9,k12,k14,k16,k17,k22,k23,k28,k29,k32,k34,k36,k37,k39,k41,k44,k45,k47,k49,k50,k56,k57,k58,k59.
Term in equation 37 is zero since k60=0
Tropicalization time: 137.531 sec
Variables: x1-x36
Saving tropical system...
Creating polyhedra... 
Warning: formula defines no polyhedron!  Ignored.

Warning: formula defines no polyhedron!  Ignored.

Warning: formula defines no polyhedron!  Ignored.

Warning: formula defines no polyhedron!  Ignored.

Warning: formula defines no polyhedron!  Ignored.

Warning: formula defines no polyhedron!  Ignored.

Warning: formula defines no polyhedron!  Ignored.

Warning: formula defines no polyhedron!  Ignored.

Creation time: 152.181 sec
Saving polyhedra...

Sorting ascending...
Dimension: 36
Formulas: 52
Order: 0 3 4 5 6 8 10 14 15 16 17 19 21 23 26 27 28 31 33 35 41 42 51 12 25 29 30 40 32 36 38 45 9 37 39 34 44 48 50 47 43 49 7 13 46 1 20 22 24 11 2 18
Possible combinations: 1 * 1 * 1 * 1 * 1 * 1 * 1 * 1 * 1 * 1 * 1 * 1 * 1 * 1 * 1 * 1 * 1 * 1 * 1 * 1 * 1 * 1 * 1 * 2 * 2 * 2 * 2 * 2 * 3 * 3 * 4 * 4 * 5 * 5 * 5 * 6 * 6 * 6 * 6 * 7 * 13 * 13 * 14 * 14 * 14 * 23 * 23 * 23 * 40 * 69 * 214 * 229 = 3,987,844,198,066,171,719,843,840,000 (10^28)
 Applying common planes (codim=18, hs=43)...
 [1/29 (#12)]: 2 => 1 (1 incl), dim=18.0, hs=43.0
  Removed: 12.0
 [2/29 (#25)]: 2 => 2 (-), dim=17.0, hs=43.5
 [3/29 (#29)]: 2 => 1 (1 empty), dim=17.0, hs=43.0
  Removed: 29.0
 [4/29 (#30)]: 2 => 1 (1 empty), dim=17.0, hs=43.0
  Removed: 30.0
 [5/29 (#40)]: 2 => 1 (1 incl), dim=17.0, hs=43.0
  Removed: 40.1
 [6/29 (#32)]: 3 => 3 (-), dim=17.0, hs=42.0
 [7/29 (#36)]: 3 => 2 (1 incl), dim=17.0, hs=42.5
  Removed: 36.2
 [8/29 (#38)]: 4 => 4 (-), dim=17.0, hs=42.8
 [9/29 (#45)]: 4 => 3 (1 incl), dim=17.0, hs=42.3
  Removed: 45.3
 [10/29 (#9)]: 5 => 1 (4 incl), dim=18.0, hs=43.0
  Removed: 9.0,9.3,9.4,9.5
 [11/29 (#37)]: 5 => 5 (-), dim=17.0, hs=42.8
 [12/29 (#39)]: 5 => 5 (-), dim=17.0, hs=42.8
 [13/29 (#34)]: 6 => 6 (-), dim=17.0, hs=42.0
 [14/29 (#44)]: 6 => 6 (-), dim=17.0, hs=42.0
 [15/29 (#48)]: 6 => 6 (-), dim=17.0, hs=42.0
 [16/29 (#50)]: 6 => 6 (-), dim=17.0, hs=42.0
 [17/29 (#47)]: 7 => 6 (1 incl), dim=17.0, hs=42.2
  Removed: 47.6
 [18/29 (#43)]: 13 => 11 (2 empty), dim=17.0, hs=42.3
  Removed: 43.6,43.7
 [19/29 (#49)]: 13 => 11 (2 empty), dim=17.0, hs=42.3
  Removed: 49.5,49.6
 [20/29 (#7)]: 14 => 5 (9 incl), dim=18.0, hs=44.0
  Removed: 7.0,7.35,7.13,7.14,7.15,7.16,7.18,7.24,7.30
 [21/29 (#13)]: 14 => 2 (12 incl), dim=18.0, hs=42.5
  Removed: 13.33,13.2,13.34,13.35,13.7,13.8,13.15,13.17,13.18,13.23,13.24,13.26
 [22/29 (#46)]: 14 => 11 (2 empty, 1 incl), dim=17.0, hs=42.4
  Removed: 46.13,46.5,46.6
 [23/29 (#1)]: 23 => 4 (13 empty, 6 incl), dim=17.5, hs=44.5
  Removed: 1.1,1.2,1.3,1.4,1.8,1.10,1.11,1.12,1.20,1.22,1.28,1.31,1.34,1.38,1.39,1.42,1.47,1.49,1.55
 [24/29 (#20)]: 23 => 1 (12 empty, 10 incl), dim=18.0, hs=43.0
  Removed: 20.0,20.5,20.6,20.8,20.12,20.13,20.16,20.21,20.24,20.25,20.28,20.29,20.32,20.33,20.35,20.37,20.39,20.40,20.42,20.43,20.44,20.45
 [25/29 (#22)]: 23 => 3 (7 empty, 13 incl), dim=16.7, hs=42.0
  Removed: 22.0,22.1,22.7,22.8,22.10,22.15,22.21,22.23,22.24,22.25,22.26,22.33,22.36,22.37,22.38,22.39,22.40,22.42,22.43,22.48
 [26/29 (#24)]: 40 => 6 (17 empty, 17 incl), dim=17.0, hs=42.0
  Removed: 24.0,24.1,24.2,24.7,24.9,24.10,24.11,24.13,24.19,24.20,24.21,24.27,24.29,24.30,24.31,24.37,24.39,24.46,24.60,24.62,24.63,24.64,24.76,24.78,24.82,24.83,24.84,24.85,24.86,24.87,24.88,24.89,24.90,24.95
 [27/29 (#11)]: 69 => 5 (13 empty, 51 incl), dim=17.6, hs=42.8
  Removed: 11.0,11.1,11.259,11.6,11.7,11.264,11.267,11.268,11.272,11.17,11.19,11.277,11.23,11.25,11.283,11.30,11.288,11.37,11.43,11.48,11.52,11.53,11.54,11.55,11.63,11.64,11.65,11.66,11.68,11.80,11.85,11.87,11.98,11.105,11.116,11.119,11.123,11.125,11.129,11.136,11.141,11.142,11.147,11.152,11.153,11.154,11.175,11.181,11.192,11.223,11.224,11.225,11.226,11.227,11.229,11.230,11.231,11.232,11.234,11.235,11.240,11.245,11.247,11.252
 [28/29 (#2)]: 214 => 20 (194 incl), dim=18.0, hs=43.4
  Removed: 2.0,2.1,2.2,2.3,2.2563,2.2565,2.7,2.2567,2.2569,2.2065,2.2069,2.2585,2.3097,2.3103,2.3109,2.3112,2.2613,2.2617,2.58,2.59,2.60,2.1082,2.62,2.1083,2.1086,2.66,2.1594,2.2107,2.2621,2.2623,2.585,2.589,2.2641,2.2153,2.2669,2.116,2.1140,2.119,2.120,2.1150,2.125,2.126,2.3197,2.642,2.644,2.3204,2.2697,2.3210,2.3214,2.3215,2.1691,2.2719,2.2720,2.1190,2.2729,2.1197,2.175,2.1202,2.179,2.180,2.693,2.3251,2.185,2.186,2.1721,2.3266,2.2758,2.1736,2.3272,2.2775,2.2776,2.2783,2.1248,2.2784,2.3297,2.234,2.749,2.2291,2.2293,2.1788,2.2812,2.2813,2.3327,2.3329,2.3333,2.2827,2.2829,2.2831,2.1299,2.1814,2.3351,2.2337,2.290,2.291,2.292,2.2341,2.2342,2.3361,2.3365,2.299,2.2347,2.2859,2.303,2.1327,2.2865,2.1330,2.1842,2.1843,2.3372,2.3374,2.1335,2.3380,2.1338,2.3390,2.2368,2.2369,2.2376,2.3404,2.2893,2.3410,2.1365,2.3414,2.1879,2.3419,2.2397,2.2398,2.2401,2.2402,2.358,2.360,2.2921,2.362,2.1903,2.3441,2.1394,2.1911,2.888,2.1912,2.2424,2.1915,2.2425,2.2619,2.894,2.2430,2.2431,2.897,2.3455,2.899,2.902,2.3461,2.1424,2.2449,2.1426,2.2451,2.2453,2.920,2.3482,2.1948,2.1949,2.1951,2.416,2.417,2.3493,2.3499,2.1452,2.430,2.3503,2.2481,2.3507,2.949,2.3509,2.3447,2.3522,2.3524,2.3525,2.2503,2.1480,2.2505,2.3528,2.2507,2.3530,2.3531,2.3532,2.3536,2.3537,2.3539,2.473,2.474,2.2019,2.487,2.2024,2.2535,2.2539,2.3055
 [29/29 (#18)]: 229 => 7 (172 empty, 50 incl), dim=17.7, hs=44.7
  Removed: 18.0,18.1537,18.2,18.515,18.1030,18.519,18.1031,18.1542,18.1543,18.1036,18.1548,18.1552,18.1553,18.1554,18.1561,18.539,18.28,18.1051,18.31,18.1056,18.546,18.1571,18.38,18.551,18.1062,18.1576,18.1066,18.555,18.44,18.46,18.1582,18.1586,18.1592,18.1593,18.1083,18.575,18.1601,18.1602,18.1603,18.1093,18.72,18.1099,18.591,18.1618,18.1109,18.1627,18.1117,18.1122,18.611,18.1125,18.616,18.1644,18.621,18.1135,18.634,18.1662,18.1151,18.1664,18.1665,18.132,18.134,18.646,18.649,18.1161,18.1675,18.1676,18.1677,18.1678,18.1167,18.656,18.1172,18.1176,18.1689,18.1690,18.1691,18.158,18.670,18.1697,18.1189,18.1191,18.681,18.685,18.1199,18.691,18.1204,18.186,18.1724,18.1726,18.1727,18.1216,18.707,18.196,18.1219,18.201,18.1226,18.716,18.206,18.721,18.1233,18.726,18.729,18.730,18.1243,18.1247,18.226,18.1253,18.1765,18.1255,18.235,18.749,18.750,18.1773,18.241,18.756,18.245,18.1781,18.1271,18.1783,18.1784,18.1785,18.251,18.1276,18.1278,18.259,18.1797,18.1798,18.1799,18.264,18.1808,18.274,18.1299,18.276,18.277,18.1810,18.1811,18.1812,18.1309,18.1821,18.1822,18.1823,18.1313,18.1314,18.291,18.1315,18.1824,18.1830,18.808,18.1322,18.299,18.811,18.304,18.819,18.821,18.1848,18.313,18.314,18.315,18.316,18.827,18.1345,18.838,18.841,18.330,18.331,18.844,18.846,18.847,18.1359,18.1364,18.860,18.861,18.1376,18.1377,18.354,18.357,18.1386,18.363,18.879,18.880,18.885,18.1398,18.1400,18.1408,18.1409,18.1421,18.1422,18.1423,18.922,18.1439,18.1442,18.933,18.937,18.1449,18.1450,18.429,18.1458,18.1462,18.439,18.1467,18.445,18.1470,18.453,18.1479,18.1481,18.459,18.1486,18.1489,18.467,18.468,18.469,18.1495,18.985,18.1500,18.1505,18.1510,18.1001,18.1004,18.1520,18.1009,18.1013,18.1526,18.505
 Applying common planes (codim=21, hs=43)...
 [1/23 (#25)]: 2 => 2 (-), dim=14.0, hs=44.0
 [2/23 (#32)]: 3 => 3 (-), dim=14.0, hs=42.0
 [3/23 (#36)]: 2 => 1 (1 incl), dim=14.0, hs=43.0
  Removed: 36.1
 [4/23 (#38)]: 4 => 3 (1 incl), dim=13.3, hs=42.0
  Removed: 38.0
 [5/23 (#45)]: 3 => 3 (-), dim=14.0, hs=42.3
 [6/23 (#37)]: 5 => 4 (1 incl), dim=13.5, hs=42.2
  Removed: 37.0
 [7/23 (#39)]: 5 => 4 (1 incl), dim=13.5, hs=42.2
  Removed: 39.0
 [8/23 (#34)]: 6 => 6 (-), dim=14.0, hs=42.0
 [9/23 (#44)]: 6 => 5 (1 incl), dim=14.0, hs=42.0
  Removed: 44.5
 [10/23 (#48)]: 6 => 6 (-), dim=14.0, hs=42.0
 [11/23 (#50)]: 6 => 5 (1 incl), dim=14.0, hs=42.0
  Removed: 50.4
 [12/23 (#47)]: 6 => 5 (1 incl), dim=14.0, hs=42.2
  Removed: 47.5
 [13/23 (#43)]: 11 => 7 (1 empty, 3 incl), dim=13.9, hs=41.9
  Removed: 43.0,43.11,43.2,43.10
 [14/23 (#49)]: 11 => 7 (1 empty, 3 incl), dim=13.9, hs=41.9
  Removed: 49.0,49.9,49.2,49.10
 [15/23 (#7)]: 5 => 5 (-), dim=15.0, hs=43.4
 [16/23 (#13)]: 2 => 1 (1 incl), dim=15.0, hs=43.0
  Removed: 13.0
 [17/23 (#46)]: 11 => 7 (1 empty, 3 incl), dim=13.9, hs=42.0
  Removed: 46.0,46.9,46.2,46.10
 [18/23 (#1)]: 4 => 4 (-), dim=14.5, hs=44.5
 [19/23 (#22)]: 3 => 2 (1 incl), dim=14.5, hs=42.0
  Removed: 22.18
 [20/23 (#24)]: 6 => 6 (-), dim=14.0, hs=42.5
 [21/23 (#11)]: 5 => 3 (2 incl), dim=14.7, hs=42.7
  Removed: 11.12,11.69
 [22/23 (#2)]: 20 => 11 (9 incl), dim=15.0, hs=43.4
  Removed: 2.64,2.901,2.3269,2.1420,2.2061,2.2511,2.3473,2.1716,2.637
 [23/23 (#18)]: 7 => 7 (-), dim=14.7, hs=44.7
 Applying common planes (codim=22, hs=44)...
 [1/21 (#25)]: 2 => 2 (-), dim=13.0, hs=44.0
 [2/21 (#32)]: 3 => 3 (-), dim=13.0, hs=43.0
 [3/21 (#38)]: 3 => 2 (1 incl), dim=12.5, hs=42.0
  Removed: 38.2
 [4/21 (#45)]: 3 => 3 (-), dim=13.0, hs=43.3
 [5/21 (#37)]: 4 => 3 (1 incl), dim=12.7, hs=42.7
  Removed: 37.3
 [6/21 (#39)]: 4 => 3 (1 incl), dim=12.7, hs=42.7
  Removed: 39.2
 [7/21 (#34)]: 6 => 6 (-), dim=13.0, hs=43.0
 [8/21 (#44)]: 5 => 5 (-), dim=13.0, hs=43.0
 [9/21 (#48)]: 6 => 6 (-), dim=13.0, hs=43.0
 [10/21 (#50)]: 5 => 5 (-), dim=13.0, hs=43.0
 [11/21 (#47)]: 5 => 5 (-), dim=13.0, hs=43.2
 [12/21 (#43)]: 7 => 7 (-), dim=12.9, hs=42.6
 [13/21 (#49)]: 7 => 7 (-), dim=12.9, hs=42.6
 [14/21 (#7)]: 5 => 5 (-), dim=14.0, hs=42.8
 [15/21 (#46)]: 7 => 7 (-), dim=12.9, hs=42.7
 [16/21 (#1)]: 4 => 4 (-), dim=13.5, hs=45.5
 [17/21 (#22)]: 2 => 2 (-), dim=13.5, hs=43.0
 [18/21 (#24)]: 6 => 6 (-), dim=13.0, hs=43.5
 [19/21 (#11)]: 3 => 2 (1 incl), dim=14.0, hs=44.0
  Removed: 11.134
 [20/21 (#2)]: 11 => 11 (-), dim=14.0, hs=44.4
 [21/21 (#18)]: 7 => 7 (-), dim=13.7, hs=45.7
 Savings: factor 215,751,873,608,052 (10^14), 31 formulas
[1/20 (#25, #38)]: 2 * 2 = 4 => 4 (-), dim=11.5, hs=42.2
[2/20 (w1, #22)]: 4 * 2 = 8 => 8 (-), dim=11.0, hs=41.0
[3/20 (w2, #11)]: 8 * 2 = 16 => 12 (4 empty), dim=10.7, hs=40.7
[4/20 (w3, #32)]: 12 * 3 = 36 => 28 (6 empty, 2 incl), dim=9.8, hs=40.0
[5/20 (w4, #45)]: 28 * 3 = 84 => 60 (4 empty, 20 incl), dim=8.9, hs=40.0
[6/20 (w5, #37)]: 60 * 3 = 180 => 60 (52 empty, 68 incl), dim=8.3, hs=39.4
[7/20 (w6, #39)]: 60 * 3 = 180 => 24 (88 empty, 68 incl), dim=9.7, hs=40.9
 Applying common planes (codim=1, hs=1)...
 [1/14 (w7)]: 24 => 24 (-), dim=9.7, hs=40.9
 [2/14 (#34)]: 6 => 6 (-), dim=12.0, hs=42.0
 [3/14 (#44)]: 5 => 5 (-), dim=12.0, hs=42.0
 [4/14 (#48)]: 6 => 6 (-), dim=12.0, hs=42.0
 [5/14 (#50)]: 5 => 5 (-), dim=12.0, hs=42.0
 [6/14 (#47)]: 5 => 5 (-), dim=12.0, hs=42.2
 [7/14 (#43)]: 7 => 1 (6 incl), dim=13.0, hs=43.0
  Removed: 43.1,43.3,43.4,43.5,43.9,43.12
 [8/14 (#49)]: 7 => 1 (6 incl), dim=13.0, hs=43.0
  Removed: 49.1,49.3,49.4,49.8,49.11,49.12
 [9/14 (#7)]: 5 => 4 (1 incl), dim=13.0, hs=42.0
  Removed: 7.12
 [10/14 (#46)]: 7 => 1 (6 incl), dim=13.0, hs=43.0
  Removed: 46.1,46.3,46.4,46.8,46.11,46.12
 [11/14 (#1)]: 4 => 4 (-), dim=12.5, hs=44.5
 [12/14 (#24)]: 6 => 6 (-), dim=12.0, hs=42.5
 [13/14 (#2)]: 11 => 11 (-), dim=13.0, hs=43.4
 [14/14 (#18)]: 7 => 7 (-), dim=12.7, hs=44.7
 Applying common planes (codim=23, hs=43)...
 [1/11 (w7)]: 24 => 24 (-), dim=9.7, hs=40.9
 [2/11 (#34)]: 6 => 6 (-), dim=12.0, hs=42.0
 [3/11 (#44)]: 5 => 5 (-), dim=12.0, hs=42.0
 [4/11 (#48)]: 6 => 6 (-), dim=12.0, hs=42.0
 [5/11 (#50)]: 5 => 5 (-), dim=12.0, hs=42.0
 [6/11 (#47)]: 5 => 5 (-), dim=12.0, hs=42.2
 [7/11 (#7)]: 4 => 4 (-), dim=13.0, hs=42.0
 [8/11 (#1)]: 4 => 4 (-), dim=12.5, hs=44.5
 [9/11 (#24)]: 6 => 6 (-), dim=12.0, hs=42.5
 [10/11 (#2)]: 11 => 11 (-), dim=13.0, hs=43.4
 [11/11 (#18)]: 7 => 7 (-), dim=12.7, hs=44.7
 Savings: factor 428 (10^3), 3 formulas
[8/17 (w7, #7)]: 24 * 4 = 96 => 72 (24 incl), dim=9.7, hs=39.9
[9/17 (w8, #1)]: 72 * 4 = 288 => 96 (168 empty, 24 incl), dim=8.8, hs=40.1
[10/17 (w9, #44)]: 96 * 5 = 480 => 132 (252 empty, 96 incl), dim=7.9, hs=39.1
[11/17 (w10, #50)]: 132 * 5 = 660 => 48 (402 empty, 210 incl), dim=8.1, hs=39.4
[12/17 (w11, #47)]: 48 * 5 = 240 => 30 (84 empty, 126 incl), dim=8.6, hs=40.0
 Applying common planes (codim=0, hs=1)...
 [1/6 (w12)]: 30 => 30 (-), dim=8.6, hs=40.0
 [2/6 (#34)]: 6 => 6 (-), dim=12.0, hs=43.0
 [3/6 (#48)]: 6 => 6 (-), dim=12.0, hs=43.0
 [4/6 (#24)]: 6 => 5 (1 empty), dim=12.0, hs=42.6
  Removed: 24.24
 [5/6 (#2)]: 11 => 11 (-), dim=13.0, hs=44.4
 [6/6 (#18)]: 7 => 5 (2 incl), dim=12.6, hs=43.6
  Removed: 18.1657,18.1685
 Savings: factor 1.68, 0 formulas
[13/17 (w12, #24)]: 30 * 5 = 150 => 54 (54 empty, 42 incl), dim=8.3, hs=39.3
[14/17 (w13, #18)]: 54 * 5 = 270 => 162 (36 empty, 72 incl), dim=8.2, hs=39.0
[15/17 (w14, #34)]: 162 * 6 = 972 => 90 (528 empty, 354 incl), dim=8.0, hs=38.7
[16/17 (w15, #48)]: 90 * 6 = 540 => 54 (228 empty, 258 incl), dim=8.7, hs=39.2
[17/17 (w16, #2)]: 54 * 11 = 594 => 54 (396 empty, 144 incl), dim=8.7, hs=39.2
Total time: 21.668 sec, total intersections: 6,055, total inclusion tests: 55,888
Common plane time: 9.633 sec
Solutions: 54, dim=8.7, hs=39.2, max=162, maxin=972
f-vector: [0, 0, 0, 0, 0, 0, 0, 0, 18, 36]
Canonicalizing...
Saving solutions... 
Calculation done.
Peak memory: working set 0.245 GiB, pagefile 0.247 GiB
Memory: pmem(rss=85110784, vms=79101952, num_page_faults=97754, peak_wset=262881280, wset=85110784, peak_paged_pool=538552, paged_pool=538376, peak_nonpaged_pool=58288, nonpaged_pool=41840, pagefile=79101952, peak_pagefile=264744960, private=79101952)
