k1*x30 + k1*x31 + k1*x32 + k1*x34 + k1*x35 + k1*x37 + k1*x38 + k1*x39 + k1*x41 + k1*x43 + k1*x45 - k107
k1*x19 + k1*x20 + k1*x21 - k108
k1*x14 + k1*x15 + k1*x32 + k1*x35 + k1*x38 + k1*x49 + k1*x50 + k1*x51 - k109
k1*x9 + k1*x11 + k1*x13 - k110
