
\\\\\\\\\\\\\\\\\\\\\\\\\\\\\\\\\\\\\\\\ file 0

\ combo: 2-0-1-1-3-2-0-0-3-0-1-0-0-0-0-0-0-0-0-0-0-0-3-0-3-0-1-0-1-0-1-0-1-0-1-0-1-0-1-0-1-0-1-0-1-1-1-1-1-0-0-0-49
\ dimension 0; is compact
MAXIMIZE
Subject To
  eq0: +1 x52 = -2    \ x52 = 121.0
  eq1: +1 x51 = -2    \ x51 = 121.0
  eq2: +1 x50 = -2    \ x50 = 121.0
  eq3: +1 x49 = -2    \ x49 = 121.0
  eq4: +1 x48 = -2    \ x48 = 121.0
  eq5: +1 x47 = -2    \ x47 = 121.0
  eq6: +1 x46 = -2    \ x46 = 121.0
  eq7: +1 x45 = -2    \ x45 = 121.0
  eq8: +1 x44 = -2    \ x44 = 121.0
  eq9: +1 x43 = -2    \ x43 = 121.0
  eq10: +1 x42 = -2   \ x42 = 121.0
  eq11: +1 x41 = -2   \ x41 = 121.0
  eq12: +1 x40 = -2   \ x40 = 121.0
  eq13: +1 x39 = -2   \ x39 = 121.0
  eq14: +1 x38 = -2   \ x38 = 121.0
  eq15: +1 x37 = -2   \ x37 = 121.0
  eq16: +1 x36 = -2   \ x36 = 121.0
  eq17: +1 x35 = -2   \ x35 = 121.0
  eq18: +1 x34 = -2   \ x34 = 121.0
  eq19: +1 x33 = -2   \ x33 = 121.0
  eq20: +1 x32 = -2   \ x32 = 121.0
  eq21: +1 x31 = -2   \ x31 = 121.0
  eq22: +1 x30 = -2   \ x30 = 121.0
  eq23: +1 x29 = -2   \ x29 = 121.0
  eq24: +1 x28 = -2   \ x28 = 121.0
  eq25: +1 x27 = -2   \ x27 = 121.0
  eq26: +1 x26 = -2   \ x26 = 121.0
  eq27: +1 x25 = -2   \ x25 = 121.0
  eq28: +1 x24 = -2   \ x24 = 121.0
  eq29: +1 x23 = -2   \ x23 = 121.0
  eq30: +1 x22 = -2   \ x22 = 121.0
  eq31: +1 x21 = -2   \ x21 = 121.0
  eq32: +1 x20 = -2   \ x20 = 121.0
  eq33: +1 x19 = -2   \ x19 = 121.0
  eq34: +1 x18 = -2   \ x18 = 121.0
  eq35: +1 x17 = -2   \ x17 = 121.0
  eq36: +1 x16 = -2   \ x16 = 121.0
  eq37: +1 x15 = -2   \ x15 = 121.0
  eq38: +1 x14 = -2   \ x14 = 121.0
  eq39: +1 x13 = -2   \ x13 = 121.0
  eq40: +1 x12 = -2   \ x12 = 121.0
  eq41: +1 x11 = -2   \ x11 = 121.0
  eq42: +1 x10 = -2   \ x10 = 121.0
  eq43: +1 x9 = -2    \ x9 = 121.0
  eq44: +1 x8 = -2    \ x8 = 121.0
  eq45: +1 x7 = -2    \ x7 = 121.0
  eq46: +1 x6 = -2    \ x6 = 121.0
  eq47: +1 x5 = -2    \ x5 = 121.0
  eq48: +1 x4 = -2    \ x4 = 121.0
  eq49: +1 x3 = -2    \ x3 = 121.0
  eq50: +1 x2 = -2    \ x2 = 121.0
  eq51: +1 x1 = -2    \ x1 = 121.0
END

\\\\\\\\\\\\\\\\\\\\\\\\\\\\\\\\\\\\\\\\ end

