k1*x23 + k1*x24 + k1*x25 + k1*x26 + k1*x27 + k1*x28 + k1*x29 + k1*x30 + k1*x31 + k1*x32 + k1*x33 + k1*x34 + k1*x35 + k1*x36 + k1*x37 + k1*x38 + k1*x39 + k1*x40 + k1*x41 + k1*x42 + k1*x43 + k1*x44 + k1*x45 + k1*x46 + k1*x47 + k1*x48 + k1*x49 + k1*x50 + k1*x51 + k1*x52 + k1*x53 + k1*x54 + k1*x55 + k1*x56 + k1*x57 + k1*x58 + k1*x59 + k1*x60 + k1*x61 + k1*x62 + k1*x63 + k1*x64 + k1*x65 + k1*x66 + k1*x67 + k1*x68 + k1*x69 + k1*x70 + k1*x71 + k1*x72 + k1*x73 + k1*x74 + k1*x75 + k1*x76 + k1*x77 + k1*x78 + k1*x79 + k1*x80 + k1*x81 + k1*x82 + k1*x83 + k1*x84 + k1*x85 + k1*x86 - k302
k1*x11 + k1*x12 + k1*x15 + k1*x16 + k1*x21 + k1*x22 + k1*x24 + k1*x25 + k1*x27 + k1*x28 + k1*x30 + k1*x31 + k1*x33 + k1*x34 + k1*x36 + k1*x37 + k1*x39 + k1*x40 + k1*x42 + k1*x43 + k1*x45 + k1*x46 + k1*x48 + k1*x49 + k1*x51 + k1*x52 + k1*x54 + k1*x55 + k1*x57 + k1*x58 + k1*x60 + k1*x61 + k1*x63 + k1*x64 + k1*x66 + k1*x67 + k1*x69 + k1*x70 + k1*x71 + k1*x72 + k1*x73 + k1*x74 + k1*x75 + k1*x76 + k1*x77 + k1*x78 + k1*x79 + k1*x80 + k1*x81 + k1*x82 + k1*x83 + k1*x84 + k1*x85 + k1*x86 - k303
k1*x8 + k1*x9 + k1*x10 + k1*x13 + k1*x14 + k1*x15 + k1*x16 + k1*x19 + k1*x20 + k1*x26 + k1*x27 + k1*x28 + k1*x29 + k1*x30 + k1*x31 + k1*x32 + k1*x33 + k1*x34 + k1*x38 + k1*x39 + k1*x40 + k1*x41 + k1*x42 + k1*x43 + k1*x44 + k1*x45 + k1*x46 + k1*x50 + k1*x51 + k1*x52 + k1*x53 + k1*x54 + k1*x55 + k1*x56 + k1*x57 + k1*x58 + k1*x62 + k1*x63 + k1*x64 + k1*x65 + k1*x66 + k1*x67 + k1*x68 + k1*x69 + k1*x70 + k1*x72 + k1*x73 + k1*x74 + k1*x76 + k1*x77 + k1*x78 + k1*x80 + k1*x81 + k1*x82 + k1*x84 + k1*x85 + k1*x86 - k304
k1*x5 + k1*x6 + k1*x7 + k1*x13 + k1*x14 + k1*x17 + k1*x18 + k1*x35 + k1*x36 + k1*x37 + k1*x38 + k1*x39 + k1*x40 + k1*x41 + k1*x42 + k1*x43 + k1*x44 + k1*x45 + k1*x46 + k1*x47 + k1*x48 + k1*x49 + k1*x50 + k1*x51 + k1*x52 + k1*x53 + k1*x54 + k1*x55 + k1*x56 + k1*x57 + k1*x58 + k1*x59 + k1*x60 + k1*x61 + k1*x62 + k1*x63 + k1*x64 + k1*x65 + k1*x66 + k1*x67 + k1*x68 + k1*x69 + k1*x70 + k1*x75 + k1*x76 + k1*x77 + k1*x78 + k1*x79 + k1*x80 + k1*x81 + k1*x82 + k1*x83 + k1*x84 + k1*x85 + k1*x86 - k305
k1*x4 + k1*x22 - k306
k1*x3 + k1*x21 + k1*x71 + k1*x72 + k1*x73 + k1*x74 + k1*x75 + k1*x76 + k1*x77 + k1*x78 + k1*x79 + k1*x80 + k1*x81 + k1*x82 + k1*x83 + k1*x84 + k1*x85 + k1*x86 - k307
k1*x2 + k1*x19 + k1*x20 - k308
k1*x1 + k1*x17 + k1*x18 - k309
