k1 = 1
k2 = 1
k3 = 2/5
k4 = 1/10
k5 = 1/2
k6 = 1/2
k7 = 1/10
k8 = 33/10
k9 = 21/50
k10 = 1/10
k11 = 10
k12 = 4/5
k13 = 1/10
k14 = 33/10
k15 = 2/5
k16 = 1/10
k17 = 10
k18 = 4/5
k19 = 1/10
k20 = 20
k21 = 3/5
k22 = 1/10
k23 = 5
k24 = 2/5
k25 = 1/10
k26 = 20
k27 = 3/5
k28 = 1/10
k29 = 5
k30 = 2/5
k31 = 1/10
k32 = 10
k33 = 1/2
k34 = 10
k35 = 1/2
k36 = 10
k37 = 1/2
k38 = 10
k39 = 1/2
k40 = 10
k41 = 1/2
k42 = 10
k43 = 1/2
k44 = 10
k45 = 1/2
k46 = 10
k47 = 1/2
k48 = 10
k49 = 1/2
k50 = 10
k51 = 1/2
k52 = 10
k53 = 1/2
k54 = 10
k55 = 1/2
k56 = 0
k57 = 1/20
k58 = 0
k59 = 1/20
k60 = 0
k61 = 1/20
k62 = 0
k63 = 1/20
k64 = 0
k65 = 1/20
k66 = 0
k67 = 1/20
k68 = 0
k69 = 1/20
k70 = 0
k71 = 1/20
k72 = 0
k73 = 1/20
k74 = 0
k75 = 1/20
k76 = 0
k77 = 1/20
k78 = 0
k79 = 1/20
k80 = 0
k81 = 1/20
k82 = 0
k83 = 1/20
k84 = 0
k85 = 1/20
k86 = 0
k87 = 1/20
k88 = 0
k89 = 1/20
k90 = 0
k91 = 1/20
k92 = 0
k93 = 1/20
k94 = 0
k95 = 1/20
k96 = 0
k97 = 1/20
k98 = 0
k99 = 1/20
k100 = 0
k101 = 1/20
k102 = 0
k103 = 1/20
k104 = 10
k105 = 1/2
k106 = 10
k107 = 1/2
k108 = 10
k109 = 1/2
k110 = 0
k111 = 1/20
k112 = 0
k113 = 1/20
k114 = 0
k115 = 1/20
k116 = 0
k117 = 1/20
k118 = 0
k119 = 1/20
k120 = 0
k121 = 1/20
k122 = 10
k123 = 1/2
k124 = 10
k125 = 1/2
k126 = 10
k127 = 1/2
k128 = 0
k129 = 1/20
k130 = 0
k131 = 1/20
k132 = 0
k133 = 1/20
k134 = 0
k135 = 1/20
k136 = 0
k137 = 1/20
k138 = 0
k139 = 1/20
k140 = 10
k141 = 1/2
k142 = 10
k143 = 1/2
k144 = 10
k145 = 1/2
k146 = 0
k147 = 1/20
k148 = 0
k149 = 1/20
k150 = 0
k151 = 1/20
k152 = 0
k153 = 1/20
k154 = 0
k155 = 1/20
k156 = 0
k157 = 1/20
k158 = 10
k159 = 1/2
k160 = 10
k161 = 1/2
k162 = 10
k163 = 1/2
k164 = 0
k165 = 1/20
k166 = 0
k167 = 1/20
k168 = 0
k169 = 1/20
k170 = 0
k171 = 1/20
k172 = 0
k173 = 1/20
k174 = 0
k175 = 1/20
k176 = 10
k177 = 1/2
k178 = 0
k179 = 1/20
k180 = 10
k181 = 1/2
k182 = 0
k183 = 1/20
k184 = 10
k185 = 1/2
k186 = 0
k187 = 1/20
k188 = 10
k189 = 1/2
k190 = 0
k191 = 1/20
k192 = 10
k193 = 1/2
k194 = 0
k195 = 1/20
k196 = 10
k197 = 1/2
k198 = 0
k199 = 1/20
k200 = 10
k201 = 1/2
k202 = 0
k203 = 1/20
k204 = 10
k205 = 1/2
k206 = 0
k207 = 1/20
k208 = 10
k209 = 1/2
k210 = 0
k211 = 1/20
k212 = 10
k213 = 1/2
k214 = 0
k215 = 1/20
k216 = 10
k217 = 1/2
k218 = 0
k219 = 1/20
k220 = 10
k221 = 1/2
k222 = 0
k223 = 1/20
k224 = 10
k225 = 1/2
k226 = 0
k227 = 1/20
k228 = 10
k229 = 1/2
k230 = 0
k231 = 1/20
k232 = 10
k233 = 1/2
k234 = 0
k235 = 1/20
k236 = 10
k237 = 1/2
k238 = 0
k239 = 1/20
k240 = 1/10
k241 = 1/10
k242 = 1/10
k243 = 1/10
k244 = 1/10
k245 = 1/10
k246 = 1/10
k247 = 1/10
k248 = 1/10
k249 = 1/10
k250 = 1/10
k251 = 1/10
k252 = 1/10
k253 = 1/10
k254 = 100
k255 = 0
k256 = 1/10
k257 = 100
k258 = 0
k259 = 1/10
k260 = 100
k261 = 0
k262 = 1/10
k263 = 100
k264 = 0
k265 = 1/10
k266 = 100
k267 = 0
k268 = 1/10
k269 = 100
k270 = 0
k271 = 1/10
k272 = 100
k273 = 0
k274 = 1/10
k275 = 100
k276 = 0
k277 = 1/10
k278 = 100
k279 = 0
k280 = 1/10
k281 = 100
k282 = 0
k283 = 1/10
k284 = 100
k285 = 0
k286 = 1/10
k287 = 100
k288 = 0
k289 = 1/10
k290 = 100
k291 = 0
k292 = 1/10
k293 = 100
k294 = 0
k295 = 1/10
k296 = 100
k297 = 0
k298 = 1/10
k299 = 100
k300 = 0
k301 = 1/10
k302 = 1/10
k303 = 3/10
k304 = 1/5
k305 = 2/5
k306 = 3/10
k307 = 1/10
k308 = 1/5
k309 = 3/10
