
----------------------------------------------------------------------
This is SMTcut v4.6.4 by Christoph Lueders -- http://wrogn.com
Python 3.7.6 (default, Jan  8 2020, 19:59:22) 
[GCC 7.3.0] x86_64
pysmt 0.9.0, gmpy2 2.0.8
Datetime: 2020-06-23T20:11:51+02:00
Command line: BIOMD0000000200 --cvc4
Flags: no-ppone no-ppsmt no-pp2x2 dump justone solver=cvc4


Model: BIOMD0000000200
Logfile: db/BIOMD0000000200/ep11-cvc4-Linux-smtlog.txt
Loading polyhedra...  done.
Possible combinations: 10^20.4 in 27 bags
Bag sizes: 30 2 32 24 2 8 2 16 16 4 12 2 8 2 6 2 14 14 6 6 1 2 1 2 9 11 12

Minimizing (2,0)... (2,0)


Running SMT solver (1)... 0.185 sec
Found point (7,41/4,7,5,33/4,5,33/4,8,6,5,10,53/4,11,57/4,5,21/4,23/4,5,4,27/4,5,5)
Checking... Minimizing (20,87)... (19,12), 0.030 sec
Inserting... 

MAXIMIZE
Subject To
  eq0: +1 x4 +1 x8 -1 x11 = 3
  eq1: -1 x1 +1 x2 +1 x17 = 9
  eq2: +1 x19 = 4
  eq3: +1 x16 +1 x20 -1 x21 = 7
  eq4: +1 x1 +1 x8 -1 x13 = 4
  eq5: +1 x1 +1 x10 -1 x15 = 7
  eq6: +1 x4 +1 x9 -1 x15 = 6
  eq7: -1 x6 +1 x7 +1 x17 = 9
  eq8: +1 x16 +1 x17 -1 x18 -1 x19 = 2
  eq9: +1 x18 = 5
  eq10: +1 x3 +1 x4 -1 x10 = 7
  eq11: -1 x15 +1 x16 +1 x17 = 6
  eq12: -1 x11 +1 x12 +1 x17 = 9
  eq13: -1 x4 +1 x5 +1 x17 = 9
  eq14: -1 x13 +1 x14 +1 x17 = 9
  eq15: +1 x21 = 5
  eq16: +1 x6 +1 x8 -1 x15 = 8
  eq17: +1 x22 = 5
  eq18: +1 x3 +1 x4 -1 x6 = 7
  ie0: -1 x6 -1 x8 +1 x11 >= -4
  ie1: -1 x1 >= -7
  ie2: +1 x4 -1 x6 >= 0
  ie3: +1 x7 -1 x16 >= 0
  ie4: +1 x3 -1 x4 -1 x8 +1 x13 >= 0
  ie5: +1 x4 >= 5
  ie6: +1 x9 >= 5
  ie7: +1 x17 >= 5
  ie8: +1 x16 >= 5
  ie9: +1 x1 -1 x4 -1 x8 +1 x9 >= 0
  ie10: -1 x4 +1 x9 >= 0
  ie11: +1 x3 -1 x9 >= 0
END

0.000 sec
[1 ph, smt 0.185, isect 0.030, ins 0.000, tot 0.288]

Running SMT solver (2)... 0.011 sec
Found point (77/12,125/12,91/12,5,9,67/12,115/12,8,6,67/12,113/12,161/12,125/12,173/12,5,6,5,5,4,6,5,5)
Checking... Minimizing (20,85)... (19,15), 0.025 sec
Inserting... 

MAXIMIZE
Subject To
  eq0: +1 x1 +1 x9 -1 x11 = 3
  eq1: -1 x1 +1 x2 +1 x17 = 9
  eq2: +1 x19 = 4
  eq3: +1 x16 +1 x20 -1 x21 = 7
  eq4: +1 x1 +1 x8 -1 x13 = 4
  eq5: +1 x1 +1 x10 -1 x15 = 7
  eq6: +1 x4 +1 x9 -1 x15 = 6
  eq7: -1 x6 +1 x7 +1 x17 = 9
  eq8: +1 x16 +1 x17 -1 x18 -1 x19 = 2
  eq9: +1 x18 = 5
  eq10: +1 x3 +1 x4 -1 x10 = 7
  eq11: -1 x15 +1 x16 +1 x17 = 6
  eq12: -1 x11 +1 x12 +1 x17 = 9
  eq13: -1 x4 +1 x5 +1 x17 = 9
  eq14: -1 x13 +1 x14 +1 x17 = 9
  eq15: +1 x21 = 5
  eq16: +1 x4 +1 x8 -1 x15 = 8
  eq17: +1 x22 = 5
  eq18: +1 x3 +1 x4 -1 x6 = 7
  ie0: -1 x1 >= -7
  ie1: +1 x7 -1 x16 >= 0
  ie2: -1 x4 +1 x13 >= 0
  ie3: +1 x4 >= 5
  ie4: +1 x3 -1 x4 +1 x8 -1 x9 >= 0
  ie5: -1 x1 -1 x10 +1 x11 >= -3
  ie6: +1 x8 >= 5
  ie7: +1 x13 >= 5
  ie8: +1 x9 >= 5
  ie9: +1 x16 >= 5
  ie10: +1 x17 >= 5
  ie11: -1 x4 +1 x9 >= 0
  ie12: -1 x3 >= -8
  ie13: +1 x3 -1 x9 >= 0
  ie14: -1 x4 +1 x6 >= 0
END

0.002 sec
[1 ph, smt 0.196, isect 0.055, ins 0.002, tot 0.330]

Running SMT solver (3)... 0.030 sec
Found point (111/20,191/20,8,5,9,6,10,151/20,6,129/20,171/20,251/20,91/10,131/10,5,6,5,5,4,6,5,5)
Checking... Minimizing (19,82)... (18,22), 0.026 sec
Inserting... 

MAXIMIZE
Subject To
  eq0: +1 x1 +1 x9 -1 x11 = 3
  eq1: +1 x4 +1 x8 -1 x11 = 4
  eq2: -1 x1 +1 x2 +1 x17 = 9
  eq3: +1 x19 = 4
  eq4: +1 x16 +1 x20 -1 x21 = 7
  eq5: +1 x1 +1 x8 -1 x13 = 4
  eq6: +1 x1 +1 x10 -1 x15 = 7
  eq7: +1 x4 +1 x9 -1 x15 = 6
  eq8: -1 x6 +1 x7 +1 x17 = 9
  eq9: +1 x16 +1 x17 -1 x18 -1 x19 = 2
  eq10: +1 x18 = 5
  eq11: -1 x15 +1 x16 +1 x17 = 6
  eq12: -1 x11 +1 x12 +1 x17 = 9
  eq13: -1 x4 +1 x5 +1 x17 = 9
  eq14: -1 x13 +1 x14 +1 x17 = 9
  eq15: +1 x21 = 5
  eq16: +1 x22 = 5
  eq17: +1 x3 +1 x4 -1 x6 = 7
  ie0: +1 x7 -1 x16 >= 0
  ie1: +1 x8 >= 7
  ie2: -1 x4 -1 x9 +1 x11 >= -3
  ie3: +1 x3 -1 x4 +1 x8 -1 x9 >= 0
  ie4: -1 x3 -1 x4 +1 x15 >= -8
  ie5: +1 x8 >= 5
  ie6: -1 x3 -1 x4 +1 x10 >= -7
  ie7: +1 x13 >= 5
  ie8: +1 x9 >= 5
  ie9: +1 x1 +1 x3 -1 x4 -1 x9 >= 0
  ie10: +1 x16 >= 5
  ie11: -1 x4 +1 x13 >= 0
  ie12: -1 x4 +1 x9 >= 0
  ie13: -1 x3 -1 x4 +1 x11 >= -7
  ie14: -1 x4 +1 x8 >= 0
  ie15: -1 x9 +1 x10 >= 0
  ie16: +1 x4 >= 5
  ie17: +1 x6 >= 5
  ie18: +1 x17 >= 5
  ie19: +1 x3 -1 x4 >= 0
  ie20: +1 x3 -1 x9 >= 0
  ie21: -1 x4 +1 x6 >= 0
END

0.000 sec
[2 ph, smt 0.225, isect 0.081, ins 0.002, tot 0.389]

Running SMT solver (4)... 0.014 sec
Found point (37/6,61/6,7,5,9,5,9,8,6,35/6,55/6,79/6,61/6,85/6,5,6,5,5,4,6,5,5)
Checking... Minimizing (19,87)... (18,15), 0.024 sec
Inserting... 

MAXIMIZE
Subject To
  eq0: +1 x1 +1 x9 -1 x11 = 3
  eq1: -1 x1 +1 x2 +1 x17 = 9
  eq2: +1 x19 = 4
  eq3: +1 x16 +1 x20 -1 x21 = 7
  eq4: +1 x1 +1 x8 -1 x13 = 4
  eq5: +1 x1 +1 x10 -1 x15 = 7
  eq6: +1 x4 +1 x9 -1 x15 = 6
  eq7: -1 x6 +1 x7 +1 x17 = 9
  eq8: +1 x16 +1 x17 -1 x18 -1 x19 = 2
  eq9: +1 x18 = 5
  eq10: -1 x15 +1 x16 +1 x17 = 6
  eq11: -1 x11 +1 x12 +1 x17 = 9
  eq12: -1 x4 +1 x5 +1 x17 = 9
  eq13: -1 x13 +1 x14 +1 x17 = 9
  eq14: +1 x21 = 5
  eq15: +1 x6 +1 x8 -1 x15 = 8
  eq16: +1 x22 = 5
  eq17: +1 x3 +1 x4 -1 x6 = 7
  ie0: -1 x6 -1 x8 +1 x11 >= -4
  ie1: -1 x1 >= -7
  ie2: +1 x4 -1 x6 >= 0
  ie3: +1 x7 -1 x16 >= 0
  ie4: +1 x4 >= 5
  ie5: +1 x3 -1 x4 +1 x8 -1 x9 >= 0
  ie6: +1 x8 >= 5
  ie7: +1 x6 >= 5
  ie8: -1 x3 -1 x4 +1 x10 >= -7
  ie9: +1 x9 >= 5
  ie10: +1 x17 >= 5
  ie11: +1 x1 +1 x3 -1 x4 -1 x9 >= 0
  ie12: +1 x16 >= 5
  ie13: -1 x4 +1 x9 >= 0
  ie14: +1 x3 -1 x9 >= 0
END

0.000 sec
[3 ph, smt 0.239, isect 0.106, ins 0.002, tot 0.431]

Running SMT solver (5)... 0.005 sec
Found point (37/6,61/6,85/12,5,9,61/12,109/12,8,6,35/6,55/6,79/6,61/6,85/6,5,6,5,5,4,6,5,5)
Checking... Minimizing (19,85)... (18,20), 0.026 sec
Inserting... 

MAXIMIZE
Subject To
  eq0: +1 x1 +1 x9 -1 x11 = 3
  eq1: -1 x1 +1 x2 +1 x17 = 9
  eq2: +1 x19 = 4
  eq3: +1 x16 +1 x20 -1 x21 = 7
  eq4: +1 x1 +1 x8 -1 x13 = 4
  eq5: +1 x1 +1 x10 -1 x15 = 7
  eq6: +1 x4 +1 x9 -1 x15 = 6
  eq7: -1 x6 +1 x7 +1 x17 = 9
  eq8: +1 x16 +1 x17 -1 x18 -1 x19 = 2
  eq9: +1 x18 = 5
  eq10: -1 x15 +1 x16 +1 x17 = 6
  eq11: -1 x11 +1 x12 +1 x17 = 9
  eq12: -1 x4 +1 x5 +1 x17 = 9
  eq13: -1 x13 +1 x14 +1 x17 = 9
  eq14: +1 x21 = 5
  eq15: +1 x4 +1 x8 -1 x15 = 8
  eq16: +1 x22 = 5
  eq17: +1 x3 +1 x4 -1 x6 = 7
  ie0: -1 x1 >= -7
  ie1: +1 x7 -1 x16 >= 0
  ie2: -1 x1 -1 x10 +1 x11 >= -3
  ie3: +1 x3 -1 x4 +1 x8 -1 x9 >= 0
  ie4: -1 x3 -1 x4 +1 x15 >= -8
  ie5: +1 x8 >= 5
  ie6: -1 x3 -1 x4 +1 x10 >= -7
  ie7: +1 x13 >= 5
  ie8: +1 x9 >= 5
  ie9: +1 x1 +1 x3 -1 x4 -1 x9 >= 0
  ie10: +1 x16 >= 5
  ie11: -1 x4 +1 x13 >= 0
  ie12: -1 x4 +1 x9 >= 0
  ie13: +1 x4 >= 5
  ie14: +1 x6 >= 5
  ie15: +1 x17 >= 5
  ie16: +1 x3 -1 x10 >= 0
  ie17: -1 x3 >= -8
  ie18: +1 x3 -1 x9 >= 0
  ie19: -1 x4 +1 x6 >= 0
END

0.004 sec
[3 ph, smt 0.245, isect 0.132, ins 0.006, tot 0.471]

Running SMT solver (6)... 0.027 sec
Found point (5,9,8,5,9,37/6,61/6,41/6,6,7,8,12,47/6,71/6,5,6,5,5,4,6,5,5)
Checking... Minimizing (21,81)... (19,16), 0.023 sec
Inserting... 

MAXIMIZE
Subject To
  eq0: +1 x1 +1 x9 -1 x11 = 3
  eq1: -1 x3 -1 x4 +1 x6 +1 x8 = 0
  eq2: +1 x4 +1 x9 -1 x11 = 3
  eq3: +1 x4 +1 x8 -1 x13 = 4
  eq4: -1 x1 +1 x2 +1 x17 = 9
  eq5: +1 x19 = 4
  eq6: +1 x16 +1 x20 -1 x21 = 7
  eq7: +1 x1 +1 x10 -1 x15 = 7
  eq8: +1 x3 = 8
  eq9: +1 x4 +1 x9 -1 x15 = 6
  eq10: -1 x6 +1 x7 +1 x17 = 9
  eq11: +1 x16 +1 x17 -1 x18 -1 x19 = 2
  eq12: +1 x18 = 5
  eq13: -1 x15 +1 x16 +1 x17 = 6
  eq14: -1 x11 +1 x12 +1 x17 = 9
  eq15: -1 x4 +1 x5 +1 x17 = 9
  eq16: -1 x13 +1 x14 +1 x17 = 9
  eq17: +1 x21 = 5
  eq18: +1 x22 = 5
  ie0: +1 x7 -1 x16 >= 0
  ie1: -1 x4 -1 x8 +1 x11 >= -4
  ie2: +1 x3 -1 x4 +1 x8 -1 x9 >= 0
  ie3: -1 x3 -1 x4 +1 x15 >= -8
  ie4: +1 x8 >= 5
  ie5: +1 x9 >= 5
  ie6: +1 x13 >= 5
  ie7: +1 x1 +1 x3 -1 x4 -1 x9 >= 0
  ie8: +1 x16 >= 5
  ie9: -1 x4 +1 x9 >= 0
  ie10: -1 x4 +1 x8 >= 0
  ie11: -1 x1 -1 x9 +1 x13 >= -4
  ie12: +1 x4 >= 5
  ie13: +1 x17 >= 5
  ie14: -1 x4 +1 x6 >= 1
  ie15: -1 x3 -1 x4 +1 x7 +1 x20 >= 1
END

0.000 sec
[4 ph, smt 0.272, isect 0.155, ins 0.006, tot 0.524]

Running SMT solver (7)... 0.104 sec
Found point (41/8,65/8,8,41/8,65/8,57/8,81/8,47/8,47/8,55/8,8,11,7,10,5,5,6,5,4,7,5,5)
Checking... Minimizing (22,81)... (21,6), 0.017 sec
Inserting... 

MAXIMIZE
Subject To
  eq0: +1 x1 +1 x9 -1 x11 = 3
  eq1: +1 x4 +1 x8 -1 x11 = 3
  eq2: +1 x4 +1 x9 -1 x11 = 3
  eq3: +1 x4 +1 x8 -1 x13 = 4
  eq4: -1 x1 +1 x2 +1 x17 = 9
  eq5: +1 x16 = 5
  eq6: +1 x19 = 4
  eq7: +1 x16 +1 x20 -1 x21 = 7
  eq8: +1 x1 +1 x10 -1 x15 = 7
  eq9: +1 x3 = 8
  eq10: +1 x4 +1 x9 -1 x15 = 6
  eq11: -1 x6 +1 x7 +1 x17 = 9
  eq12: +1 x16 +1 x17 -1 x18 -1 x19 = 2
  eq13: +1 x18 = 5
  eq14: -1 x15 +1 x16 +1 x17 = 6
  eq15: -1 x11 +1 x12 +1 x17 = 9
  eq16: -1 x4 +1 x5 +1 x17 = 9
  eq17: -1 x13 +1 x14 +1 x17 = 9
  eq18: +1 x21 = 5
  eq19: +1 x6 +1 x8 -1 x15 = 8
  eq20: +1 x22 = 5
  ie0: +1 x7 -1 x16 >= 0
  ie1: +1 x1 +1 x3 -1 x4 -1 x9 >= 0
  ie2: -1 x4 +1 x9 >= 0
  ie3: +1 x4 >= 5
  ie4: +1 x3 -1 x4 +1 x8 -1 x9 >= 0
  ie5: +1 x8 >= 5
END

0.000 sec
[5 ph, smt 0.376, isect 0.172, ins 0.006, tot 0.648]

Running SMT solver (8)... 0.004 sec
Found point (41/8,33/4,8,41/8,33/4,57/8,41/4,47/8,47/8,55/8,8,89/8,7,81/8,5,41/8,47/8,5,4,55/8,5,5)
Checking... Minimizing (22,81)... (20,8), 0.018 sec
Inserting... 

MAXIMIZE
Subject To
  eq0: +1 x1 +1 x9 -1 x11 = 3
  eq1: +1 x4 +1 x8 -1 x11 = 3
  eq2: +1 x4 +1 x9 -1 x11 = 3
  eq3: +1 x4 +1 x8 -1 x13 = 4
  eq4: -1 x1 +1 x2 +1 x17 = 9
  eq5: +1 x19 = 4
  eq6: +1 x16 +1 x20 -1 x21 = 7
  eq7: +1 x1 +1 x10 -1 x15 = 7
  eq8: +1 x3 = 8
  eq9: +1 x4 +1 x9 -1 x15 = 6
  eq10: -1 x6 +1 x7 +1 x17 = 9
  eq11: +1 x16 +1 x17 -1 x18 -1 x19 = 2
  eq12: +1 x18 = 5
  eq13: -1 x15 +1 x16 +1 x17 = 6
  eq14: -1 x11 +1 x12 +1 x17 = 9
  eq15: -1 x4 +1 x5 +1 x17 = 9
  eq16: -1 x13 +1 x14 +1 x17 = 9
  eq17: +1 x21 = 5
  eq18: +1 x6 +1 x8 -1 x15 = 8
  eq19: +1 x22 = 5
  ie0: +1 x7 -1 x16 >= 0
  ie1: +1 x4 >= 5
  ie2: +1 x3 -1 x4 +1 x8 -1 x9 >= 0
  ie3: +1 x8 >= 5
  ie4: +1 x17 >= 5
  ie5: +1 x16 >= 5
  ie6: +1 x1 +1 x3 -1 x4 -1 x9 >= 0
  ie7: -1 x4 +1 x9 >= 0
END

0.001 sec
[5 ph, smt 0.380, isect 0.189, ins 0.007, tot 0.675]

Running SMT solver (9)... 0.025 sec
Found point (5,9,103/12,67/12,115/12,91/12,139/12,65/12,6,7,8,12,77/12,125/12,5,6,5,5,4,6,5,5)
Checking... Minimizing (20,82)... (19,12), 0.023 sec
Inserting... 

MAXIMIZE
Subject To
  eq0: +1 x1 +1 x9 -1 x11 = 3
  eq1: +1 x4 +1 x8 -1 x11 = 3
  eq2: +1 x1 +1 x3 -1 x4 = 8
  eq3: -1 x1 +1 x2 +1 x17 = 9
  eq4: +1 x19 = 4
  eq5: +1 x16 +1 x20 -1 x21 = 7
  eq6: +1 x1 +1 x8 -1 x13 = 4
  eq7: +1 x1 +1 x10 -1 x15 = 7
  eq8: -1 x6 +1 x7 +1 x17 = 9
  eq9: +1 x16 +1 x17 -1 x18 -1 x19 = 2
  eq10: +1 x18 = 5
  eq11: +1 x4 +1 x8 -1 x15 = 6
  eq12: -1 x15 +1 x16 +1 x17 = 6
  eq13: -1 x11 +1 x12 +1 x17 = 9
  eq14: -1 x4 +1 x5 +1 x17 = 9
  eq15: -1 x13 +1 x14 +1 x17 = 9
  eq16: +1 x21 = 5
  eq17: +1 x6 +1 x8 -1 x15 = 8
  eq18: +1 x22 = 5
  ie0: +1 x7 -1 x16 >= 0
  ie1: +1 x1 +1 x3 -1 x4 -1 x8 >= 0
  ie2: +1 x4 >= 5
  ie3: -1 x1 -1 x8 +1 x11 >= -3
  ie4: +1 x8 >= 5
  ie5: -1 x8 +1 x10 >= 0
  ie6: +1 x13 >= 5
  ie7: +1 x9 >= 5
  ie8: +1 x16 >= 5
  ie9: +1 x17 >= 5
  ie10: +1 x1 >= 5
  ie11: -1 x1 +1 x8 >= 0
END

0.002 sec
[5 ph, smt 0.405, isect 0.213, ins 0.009, tot 0.728]

Running SMT solver (10)... 0.016 sec
Found point (5,9,71/8,47/8,79/8,63/8,95/8,41/8,95/16,7,127/16,191/16,49/8,81/8,5,6,5,5,4,6,5,5)
Checking... Minimizing (19,82)... (18,16), 0.024 sec
Inserting... 

MAXIMIZE
Subject To
  eq0: +1 x1 +1 x9 -1 x11 = 3
  eq1: +1 x1 +1 x3 -1 x4 = 8
  eq2: -1 x1 +1 x2 +1 x17 = 9
  eq3: +1 x19 = 4
  eq4: +1 x16 +1 x20 -1 x21 = 7
  eq5: +1 x1 +1 x8 -1 x13 = 4
  eq6: +1 x1 +1 x10 -1 x15 = 7
  eq7: -1 x6 +1 x7 +1 x17 = 9
  eq8: +1 x16 +1 x17 -1 x18 -1 x19 = 2
  eq9: +1 x18 = 5
  eq10: +1 x4 +1 x8 -1 x15 = 6
  eq11: -1 x15 +1 x16 +1 x17 = 6
  eq12: -1 x11 +1 x12 +1 x17 = 9
  eq13: -1 x4 +1 x5 +1 x17 = 9
  eq14: -1 x13 +1 x14 +1 x17 = 9
  eq15: +1 x21 = 5
  eq16: +1 x6 +1 x8 -1 x15 = 8
  eq17: +1 x22 = 5
  ie0: -1 x1 -1 x9 +1 x15 >= -6
  ie1: +1 x7 -1 x16 >= 0
  ie2: +1 x1 +1 x3 -1 x4 -1 x8 >= 0
  ie3: -1 x1 -1 x8 +1 x11 >= -3
  ie4: +1 x8 >= 5
  ie5: -1 x8 +1 x10 >= 0
  ie6: +1 x13 >= 5
  ie7: +1 x9 >= 5
  ie8: +1 x16 >= 5
  ie9: +1 x4 +1 x9 -1 x15 >= 5
  ie10: -1 x1 -1 x3 +1 x11 >= -7
  ie11: +1 x4 >= 5
  ie12: -1 x1 +1 x8 >= 0
  ie13: +1 x17 >= 5
  ie14: +1 x1 >= 5
  ie15: -1 x1 -1 x3 +1 x9 >= -8
END

0.002 sec
[5 ph, smt 0.420, isect 0.237, ins 0.011, tot 0.773]

Running SMT solver (11)... 0.059 sec
Found point (99/14,155/14,181/28,155/28,267/28,5,9,113/14,155/28,5,269/28,381/28,78/7,106/7,71/14,85/14,5,71/14,4,83/14,5,5)
Checking... Minimizing (21,87)... (21,4), 0.022 sec
Inserting... 

MAXIMIZE
Subject To
  eq0: +1 x1 +1 x9 -1 x11 = 3
  eq1: -1 x1 +1 x2 +1 x17 = 9
  eq2: +1 x19 = 4
  eq3: +1 x16 +1 x20 -1 x21 = 7
  eq4: +1 x1 +1 x8 -1 x13 = 4
  eq5: +1 x10 = 5
  eq6: +1 x1 +1 x10 -1 x15 = 7
  eq7: +1 x4 +1 x9 -1 x15 = 6
  eq8: -1 x6 +1 x7 +1 x17 = 9
  eq9: +1 x16 +1 x17 -1 x18 -1 x19 = 2
  eq10: +1 x3 +1 x9 -1 x10 = 7
  eq11: -1 x15 +1 x16 +1 x17 = 6
  eq12: -1 x11 +1 x12 +1 x17 = 9
  eq13: +1 x6 = 5
  eq14: -1 x4 +1 x5 +1 x17 = 9
  eq15: -1 x13 +1 x14 +1 x17 = 9
  eq16: +1 x21 = 5
  eq17: +1 x17 = 5
  eq18: +1 x6 +1 x8 -1 x15 = 8
  eq19: +1 x22 = 5
  eq20: +1 x3 +1 x4 -1 x6 = 7
  ie0: -1 x6 -1 x8 +1 x11 >= -4
  ie1: -1 x1 +1 x2 +1 x20 >= 9
  ie2: +1 x7 -1 x16 >= 0
  ie3: +1 x18 >= 5
END

0.000 sec
[6 ph, smt 0.480, isect 0.259, ins 0.011, tot 0.858]

Running SMT solver (12)... 0.011 sec
Found point (41/5,61/5,59/10,61/10,101/10,5,9,91/10,61/10,5,113/10,153/10,133/10,173/10,31/5,36/5,5,31/5,4,5,26/5,5)
Checking... Minimizing (20,85)... (20,9), 0.022 sec
Inserting... 

MAXIMIZE
Subject To
  eq0: +1 x1 +1 x9 -1 x11 = 3
  eq1: -1 x1 +1 x2 +1 x20 = 9
  eq2: +1 x19 = 4
  eq3: +1 x16 +1 x20 -1 x21 = 7
  eq4: +1 x1 +1 x8 -1 x13 = 4
  eq5: -1 x6 +1 x7 +1 x20 = 9
  eq6: +1 x10 = 5
  eq7: +1 x1 +1 x10 -1 x15 = 7
  eq8: +1 x16 +1 x17 -1 x18 -1 x19 = 2
  eq9: -1 x11 +1 x12 +1 x20 = 9
  eq10: +1 x3 +1 x9 -1 x10 = 7
  eq11: -1 x4 +1 x5 +1 x20 = 9
  eq12: -1 x13 +1 x14 +1 x20 = 9
  eq13: +1 x6 +1 x8 -1 x9 = 8
  eq14: +1 x6 = 5
  eq15: +1 x17 = 5
  eq16: -1 x15 +1 x16 +1 x20 = 6
  eq17: +1 x20 = 5
  eq18: +1 x22 = 5
  eq19: +1 x3 +1 x4 -1 x6 = 7
  ie0: -1 x6 -1 x8 +1 x11 >= -4
  ie1: +1 x4 -1 x6 >= 0
  ie2: +1 x7 -1 x16 >= 0
  ie3: -1 x3 -1 x9 +1 x15 >= -6
  ie4: -1 x3 +1 x4 >= 0
  ie5: +1 x4 +1 x9 -1 x15 >= 5
  ie6: -1 x1 +1 x4 -1 x10 >= -8
  ie7: +1 x3 -1 x10 >= 0
  ie8: -1 x6 -1 x8 +1 x15 >= -8
END

0.000 sec
[7 ph, smt 0.491, isect 0.282, ins 0.011, tot 0.896]

Running SMT solver (13)... 0.048 sec
Found point (8,12,111/20,129/20,209/20,5,9,9,129/20,5,229/20,309/20,13,17,6,7,5,6,4,5,5,5)
Checking... Minimizing (22,85)... (20,8), 0.020 sec
Inserting... 

MAXIMIZE
Subject To
  eq0: +1 x1 +1 x9 -1 x11 = 3
  eq1: +1 x3 +1 x4 -1 x15 = 6
  eq2: -1 x1 +1 x2 +1 x20 = 9
  eq3: +1 x19 = 4
  eq4: +1 x16 +1 x20 -1 x21 = 7
  eq5: +1 x3 +1 x9 -1 x15 = 6
  eq6: +1 x1 +1 x8 -1 x13 = 4
  eq7: -1 x6 +1 x7 +1 x20 = 9
  eq8: +1 x10 = 5
  eq9: +1 x1 +1 x10 -1 x15 = 7
  eq10: +1 x16 +1 x17 -1 x18 -1 x19 = 2
  eq11: -1 x11 +1 x12 +1 x20 = 9
  eq12: +1 x3 +1 x9 -1 x10 = 7
  eq13: -1 x4 +1 x5 +1 x20 = 9
  eq14: -1 x13 +1 x14 +1 x20 = 9
  eq15: +1 x6 = 5
  eq16: +1 x17 = 5
  eq17: -1 x15 +1 x16 +1 x20 = 6
  eq18: +1 x6 +1 x8 -1 x15 = 8
  eq19: +1 x22 = 5
  ie0: -1 x6 -1 x8 +1 x11 >= -4
  ie1: -1 x6 -1 x8 +1 x9 >= -8
  ie2: +1 x18 >= 5
  ie3: -1 x15 +1 x16 +1 x17 >= 6
  ie4: +1 x16 >= 5
  ie5: +1 x4 +1 x9 -1 x15 >= 5
  ie6: +1 x20 >= 5
  ie7: +1 x3 -1 x10 >= 0
END

0.000 sec
[8 ph, smt 0.539, isect 0.301, ins 0.011, tot 0.968]

Running SMT solver (14)... 0.007 sec
Found point (145/18,217/18,199/36,233/36,377/36,5,9,163/18,233/36,5,415/36,559/36,118/9,154/9,109/18,127/18,5,109/18,4,5,91/18,5)
Checking... Minimizing (20,85)... (20,8), 0.020 sec
Inserting... 

MAXIMIZE
Subject To
  eq0: +1 x1 +1 x9 -1 x11 = 3
  eq1: -1 x1 +1 x2 +1 x20 = 9
  eq2: +1 x19 = 4
  eq3: +1 x16 +1 x20 -1 x21 = 7
  eq4: +1 x1 +1 x8 -1 x13 = 4
  eq5: -1 x6 +1 x7 +1 x20 = 9
  eq6: +1 x10 = 5
  eq7: +1 x1 +1 x10 -1 x15 = 7
  eq8: +1 x16 +1 x17 -1 x18 -1 x19 = 2
  eq9: -1 x11 +1 x12 +1 x20 = 9
  eq10: +1 x3 +1 x9 -1 x10 = 7
  eq11: -1 x4 +1 x5 +1 x20 = 9
  eq12: -1 x13 +1 x14 +1 x20 = 9
  eq13: +1 x6 = 5
  eq14: +1 x17 = 5
  eq15: -1 x15 +1 x16 +1 x20 = 6
  eq16: +1 x6 +1 x8 -1 x15 = 8
  eq17: +1 x20 = 5
  eq18: +1 x22 = 5
  eq19: +1 x3 +1 x4 -1 x6 = 7
  ie0: -1 x6 -1 x8 +1 x11 >= -4
  ie1: +1 x7 -1 x16 >= 0
  ie2: -1 x6 -1 x8 +1 x9 >= -8
  ie3: -1 x3 -1 x9 +1 x15 >= -6
  ie4: +1 x8 >= 5
  ie5: +1 x16 >= 5
  ie6: +1 x4 +1 x9 -1 x15 >= 5
  ie7: +1 x3 -1 x10 >= 0
END

0.002 sec
[8 ph, smt 0.547, isect 0.322, ins 0.013, tot 1.000]

Running SMT solver (15)... 0.018 sec
Found point (7,11,7,6,10,6,10,7,5,5,9,13,10,14,5,6,5,5,4,6,5,5)
Checking... Minimizing (21,87)... (20,6), 0.019 sec
Inserting... 

MAXIMIZE
Subject To
  eq0: +1 x1 +1 x9 -1 x11 = 3
  eq1: -1 x3 -1 x4 +1 x6 +1 x8 = 0
  eq2: +1 x1 +1 x10 -1 x11 = 3
  eq3: +1 x6 +1 x8 -1 x11 = 4
  eq4: -1 x1 +1 x2 +1 x17 = 9
  eq5: +1 x19 = 4
  eq6: +1 x16 +1 x20 -1 x21 = 7
  eq7: +1 x1 +1 x8 -1 x13 = 4
  eq8: +1 x22 = 5
  eq9: +1 x4 +1 x9 -1 x15 = 6
  eq10: -1 x6 +1 x7 +1 x17 = 9
  eq11: +1 x16 +1 x17 -1 x18 -1 x19 = 2
  eq12: +1 x3 +1 x9 -1 x10 = 7
  eq13: +1 x18 = 5
  eq14: -1 x15 +1 x16 +1 x17 = 6
  eq15: -1 x11 +1 x12 +1 x17 = 9
  eq16: -1 x4 +1 x5 +1 x17 = 9
  eq17: -1 x13 +1 x14 +1 x17 = 9
  eq18: +1 x21 = 5
  eq19: -1 x1 +1 x3 +1 x9 -1 x10 = 0
  ie0: +1 x4 -1 x6 >= 0
  ie1: +1 x7 -1 x16 >= 0
  ie2: +1 x17 >= 5
  ie3: +1 x16 >= 5
  ie4: -1 x3 -1 x4 +1 x7 +1 x20 >= 1
  ie5: -1 x3 -1 x4 +1 x6 >= -7
END

0.000 sec
[9 ph, smt 0.564, isect 0.341, ins 0.013, tot 1.041]

Running SMT solver (16)... 0.006 sec
Found point (7,11,83/12,71/12,119/12,35/6,59/6,43/6,61/12,5,109/12,157/12,61/6,85/6,5,6,5,5,4,6,5,5)
Checking... Minimizing (21,87)... (20,4), 0.020 sec
Inserting... 

MAXIMIZE
Subject To
  eq0: +1 x1 +1 x9 -1 x11 = 3
  eq1: -1 x1 +1 x2 +1 x17 = 9
  eq2: +1 x19 = 4
  eq3: +1 x16 +1 x20 -1 x21 = 7
  eq4: +1 x1 +1 x8 -1 x13 = 4
  eq5: +1 x1 +1 x10 -1 x15 = 7
  eq6: +1 x4 +1 x9 -1 x15 = 6
  eq7: -1 x6 +1 x7 +1 x17 = 9
  eq8: +1 x16 +1 x17 -1 x18 -1 x19 = 2
  eq9: +1 x3 +1 x9 -1 x10 = 7
  eq10: +1 x18 = 5
  eq11: -1 x15 +1 x16 +1 x17 = 6
  eq12: -1 x11 +1 x12 +1 x17 = 9
  eq13: -1 x1 +1 x3 +1 x9 -1 x10 = 0
  eq14: -1 x4 +1 x5 +1 x17 = 9
  eq15: -1 x13 +1 x14 +1 x17 = 9
  eq16: +1 x21 = 5
  eq17: +1 x6 +1 x8 -1 x15 = 8
  eq18: +1 x22 = 5
  eq19: +1 x3 +1 x4 -1 x6 = 7
  ie0: -1 x6 -1 x8 +1 x11 >= -4
  ie1: +1 x4 -1 x9 >= 0
  ie2: +1 x17 >= 5
  ie3: +1 x16 >= 5
END

0.002 sec
[9 ph, smt 0.570, isect 0.361, ins 0.015, tot 1.072]

Running SMT solver (17)... 0.149 sec
Found point (65/12,113/12,8,65/12,113/12,77/12,125/12,79/12,67/12,79/12,8,12,8,12,5,6,5,5,4,6,5,5)
Checking... Minimizing (21,82)... (19,16), 0.023 sec
Inserting... 

MAXIMIZE
Subject To
  eq0: +1 x1 +1 x9 -1 x11 = 3
  eq1: +1 x4 +1 x9 -1 x11 = 3
  eq2: +1 x4 +1 x8 -1 x13 = 4
  eq3: -1 x1 +1 x2 +1 x17 = 9
  eq4: +1 x19 = 4
  eq5: +1 x16 +1 x20 -1 x21 = 7
  eq6: +1 x1 +1 x10 -1 x15 = 7
  eq7: +1 x4 +1 x9 -1 x15 = 6
  eq8: -1 x6 +1 x7 +1 x17 = 9
  eq9: +1 x16 +1 x17 -1 x18 -1 x19 = 2
  eq10: +1 x18 = 5
  eq11: -1 x15 +1 x16 +1 x17 = 6
  eq12: -1 x11 +1 x12 +1 x17 = 9
  eq13: -1 x4 +1 x5 +1 x17 = 9
  eq14: -1 x13 +1 x14 +1 x17 = 9
  eq15: +1 x21 = 5
  eq16: +1 x6 +1 x8 -1 x15 = 8
  eq17: +1 x22 = 5
  eq18: +1 x3 +1 x4 -1 x6 = 7
  ie0: -1 x8 >= -7
  ie1: +1 x7 -1 x16 >= 0
  ie2: -1 x4 -1 x8 +1 x11 >= -4
  ie3: +1 x3 -1 x4 +1 x8 -1 x9 >= 0
  ie4: +1 x8 >= 5
  ie5: -1 x3 -1 x4 +1 x10 >= -7
  ie6: +1 x9 >= 5
  ie7: +1 x13 >= 5
  ie8: +1 x1 +1 x3 -1 x4 -1 x9 >= 0
  ie9: +1 x16 >= 5
  ie10: -1 x4 +1 x9 >= 0
  ie11: -1 x1 -1 x9 +1 x13 >= -4
  ie12: -1 x4 +1 x8 >= 0
  ie13: +1 x4 >= 5
  ie14: +1 x17 >= 5
  ie15: -1 x3 >= -8
END

0.000 sec
[10 ph, smt 0.719, isect 0.383, ins 0.015, tot 1.248]

Running SMT solver (18)... 0.006 sec
Found point (65/12,113/12,145/18,197/36,341/36,233/36,377/36,235/36,199/36,79/12,143/18,215/18,143/18,215/18,5,6,5,5,4,6,5,5)
Checking... Minimizing (19,83)... (18,19), 0.027 sec
Inserting... 

MAXIMIZE
Subject To
  eq0: +1 x1 +1 x9 -1 x11 = 3
  eq1: -1 x1 +1 x2 +1 x17 = 9
  eq2: +1 x19 = 4
  eq3: +1 x16 +1 x20 -1 x21 = 7
  eq4: +1 x1 +1 x8 -1 x13 = 4
  eq5: +1 x1 +1 x3 -1 x6 = 7
  eq6: +1 x4 +1 x9 -1 x15 = 6
  eq7: -1 x6 +1 x7 +1 x17 = 9
  eq8: +1 x1 +1 x10 -1 x15 = 7
  eq9: +1 x16 +1 x17 -1 x18 -1 x19 = 2
  eq10: +1 x18 = 5
  eq11: -1 x15 +1 x16 +1 x17 = 6
  eq12: -1 x11 +1 x12 +1 x17 = 9
  eq13: -1 x4 +1 x5 +1 x17 = 9
  eq14: -1 x13 +1 x14 +1 x17 = 9
  eq15: +1 x21 = 5
  eq16: +1 x6 +1 x8 -1 x15 = 8
  eq17: +1 x22 = 5
  ie0: -1 x8 >= -7
  ie1: -1 x1 -1 x9 +1 x15 >= -6
  ie2: +1 x7 -1 x16 >= 0
  ie3: +1 x8 >= 5
  ie4: +1 x13 >= 5
  ie5: +1 x9 >= 5
  ie6: +1 x1 +1 x3 -1 x4 -1 x9 >= 0
  ie7: -1 x1 -1 x8 +1 x9 >= -8
  ie8: +1 x16 >= 5
  ie9: -1 x1 -1 x3 +1 x11 >= -7
  ie10: -1 x1 -1 x9 +1 x13 >= -4
  ie11: -1 x1 -1 x3 +1 x4 >= -8
  ie12: +1 x4 >= 5
  ie13: -1 x1 +1 x9 >= 0
  ie14: -1 x1 -1 x8 +1 x15 >= -8
  ie15: +1 x17 >= 5
  ie16: +1 x1 >= 5
  ie17: -1 x1 -1 x8 +1 x11 >= -4
  ie18: -1 x1 -1 x3 +1 x9 >= -8
END

0.003 sec
[10 ph, smt 0.726, isect 0.410, ins 0.018, tot 1.287]

Running SMT solver (19)... 0.011 sec
Found point (293/56,517/56,461/56,153/28,265/28,13/2,21/2,13/2,155/28,379/56,435/56,659/56,433/56,657/56,5,6,5,5,4,6,5,5)
Checking... Minimizing (19,82)... (18,19), 0.027 sec
Inserting... 

MAXIMIZE
Subject To
  eq0: +1 x1 +1 x9 -1 x11 = 3
  eq1: +1 x1 +1 x3 -1 x4 = 8
  eq2: -1 x1 +1 x2 +1 x17 = 9
  eq3: +1 x19 = 4
  eq4: +1 x16 +1 x20 -1 x21 = 7
  eq5: +1 x1 +1 x8 -1 x13 = 4
  eq6: +1 x1 +1 x10 -1 x15 = 7
  eq7: +1 x4 +1 x9 -1 x15 = 6
  eq8: -1 x6 +1 x7 +1 x17 = 9
  eq9: +1 x16 +1 x17 -1 x18 -1 x19 = 2
  eq10: +1 x18 = 5
  eq11: -1 x15 +1 x16 +1 x17 = 6
  eq12: -1 x11 +1 x12 +1 x17 = 9
  eq13: -1 x4 +1 x5 +1 x17 = 9
  eq14: -1 x13 +1 x14 +1 x17 = 9
  eq15: +1 x21 = 5
  eq16: +1 x6 +1 x8 -1 x15 = 8
  eq17: +1 x22 = 5
  ie0: -1 x8 >= -7
  ie1: -1 x1 -1 x9 +1 x15 >= -6
  ie2: +1 x7 -1 x16 >= 0
  ie3: +1 x8 >= 5
  ie4: +1 x13 >= 5
  ie5: +1 x9 >= 5
  ie6: +1 x1 +1 x3 -1 x4 -1 x9 >= 0
  ie7: -1 x1 -1 x8 +1 x9 >= -8
  ie8: +1 x16 >= 5
  ie9: -1 x1 -1 x3 +1 x6 >= -7
  ie10: -1 x1 -1 x3 +1 x11 >= -7
  ie11: -1 x1 -1 x9 +1 x13 >= -4
  ie12: -1 x6 +1 x7 -1 x8 +1 x20 >= 1
  ie13: +1 x4 >= 5
  ie14: -1 x1 -1 x8 +1 x15 >= -8
  ie15: -1 x1 +1 x8 >= 0
  ie16: +1 x17 >= 5
  ie17: +1 x1 >= 5
  ie18: -1 x1 -1 x3 +1 x9 >= -8
END

0.005 sec
[9 ph, smt 0.737, isect 0.437, ins 0.022, tot 1.333]

Running SMT solver (20)... 0.027 sec
Found point (5,9,169/20,111/20,191/20,131/20,211/20,129/20,109/20,7,149/20,229/20,149/20,229/20,5,6,5,5,4,6,5,5)
Checking... Minimizing (19,82)... (18,20), 0.028 sec
Inserting... 

MAXIMIZE
Subject To
  eq0: +1 x1 +1 x9 -1 x11 = 3
  eq1: -1 x1 +1 x2 +1 x17 = 9
  eq2: +1 x19 = 4
  eq3: +1 x16 +1 x20 -1 x21 = 7
  eq4: +1 x1 +1 x3 -1 x9 = 8
  eq5: +1 x1 +1 x8 -1 x13 = 4
  eq6: +1 x1 +1 x10 -1 x15 = 7
  eq7: +1 x4 +1 x9 -1 x15 = 6
  eq8: -1 x6 +1 x7 +1 x17 = 9
  eq9: +1 x16 +1 x17 -1 x18 -1 x19 = 2
  eq10: +1 x18 = 5
  eq11: -1 x15 +1 x16 +1 x17 = 6
  eq12: -1 x11 +1 x12 +1 x17 = 9
  eq13: -1 x4 +1 x5 +1 x17 = 9
  eq14: -1 x13 +1 x14 +1 x17 = 9
  eq15: +1 x21 = 5
  eq16: +1 x6 +1 x8 -1 x15 = 8
  eq17: +1 x22 = 5
  ie0: -1 x8 >= -7
  ie1: -1 x1 -1 x9 +1 x15 >= -6
  ie2: +1 x7 -1 x16 >= 0
  ie3: +1 x8 >= 5
  ie4: +1 x13 >= 5
  ie5: +1 x9 >= 5
  ie6: +1 x16 >= 5
  ie7: -1 x1 -1 x8 +1 x9 >= -8
  ie8: -1 x1 -1 x3 +1 x6 >= -7
  ie9: -1 x1 -1 x3 +1 x11 >= -7
  ie10: -1 x1 -1 x9 +1 x13 >= -4
  ie11: -1 x6 +1 x7 -1 x8 +1 x20 >= 1
  ie12: +1 x3 >= 8
  ie13: -1 x1 -1 x3 +1 x4 >= -8
  ie14: +1 x4 >= 5
  ie15: -1 x1 -1 x8 +1 x15 >= -8
  ie16: -1 x1 +1 x8 >= 0
  ie17: +1 x17 >= 5
  ie18: +1 x1 >= 5
  ie19: -1 x1 -1 x8 +1 x11 >= -4
END

0.000 sec
[10 ph, smt 0.764, isect 0.465, ins 0.023, tot 1.392]

Running SMT solver (21)... 0.032 sec
Found point (113/22,201/22,8,6,10,78/11,122/11,65/11,5,151/22,157/22,245/22,155/22,243/22,5,6,5,5,4,6,5,5)
Checking... Minimizing (19,81)... (18,17), 0.026 sec
Inserting... 

MAXIMIZE
Subject To
  eq0: +1 x1 +1 x9 -1 x11 = 3
  eq1: -1 x1 +1 x2 +1 x17 = 9
  eq2: +1 x19 = 4
  eq3: +1 x16 +1 x20 -1 x21 = 7
  eq4: +1 x1 +1 x8 -1 x13 = 4
  eq5: +1 x3 = 8
  eq6: +1 x4 +1 x9 -1 x15 = 6
  eq7: -1 x6 +1 x7 +1 x17 = 9
  eq8: +1 x1 +1 x10 -1 x15 = 7
  eq9: +1 x16 +1 x17 -1 x18 -1 x19 = 2
  eq10: +1 x18 = 5
  eq11: -1 x15 +1 x16 +1 x17 = 6
  eq12: -1 x11 +1 x12 +1 x17 = 9
  eq13: -1 x4 +1 x5 +1 x17 = 9
  eq14: -1 x13 +1 x14 +1 x17 = 9
  eq15: +1 x21 = 5
  eq16: +1 x6 +1 x8 -1 x15 = 8
  eq17: +1 x22 = 5
  ie0: -1 x8 >= -7
  ie1: +1 x6 -1 x9 >= 1
  ie2: +1 x7 -1 x16 >= 0
  ie3: +1 x4 -1 x9 >= 0
  ie4: -1 x1 -1 x9 +1 x15 >= -6
  ie5: +1 x1 -1 x9 >= 0
  ie6: +1 x8 >= 5
  ie7: +1 x13 >= 5
  ie8: +1 x9 >= 5
  ie9: +1 x1 +1 x3 -1 x4 -1 x9 >= 0
  ie10: -1 x1 -1 x8 +1 x9 >= -8
  ie11: +1 x16 >= 5
  ie12: -1 x1 -1 x9 +1 x13 >= -4
  ie13: -1 x6 +1 x7 -1 x8 +1 x20 >= 1
  ie14: -1 x1 -1 x8 +1 x15 >= -8
  ie15: +1 x17 >= 5
  ie16: -1 x1 -1 x8 +1 x11 >= -4
END

0.000 sec
[11 ph, smt 0.795, isect 0.491, ins 0.023, tot 1.453]

Running SMT solver (22)... 0.057 sec
Found point (271/48,463/48,111/16,257/48,449/48,127/24,223/24,7,271/48,305/48,199/24,295/24,415/48,607/48,5,6,5,5,4,6,5,5)
Checking... Minimizing (20,84)... (19,11), 0.024 sec
Inserting... 

MAXIMIZE
Subject To
  eq0: +1 x1 +1 x9 -1 x11 = 3
  eq1: -1 x3 -1 x4 +1 x6 +1 x8 = 0
  eq2: +1 x6 +1 x8 -1 x11 = 4
  eq3: -1 x1 +1 x2 +1 x17 = 9
  eq4: +1 x19 = 4
  eq5: +1 x16 +1 x20 -1 x21 = 7
  eq6: +1 x1 +1 x8 -1 x13 = 4
  eq7: +1 x1 +1 x10 -1 x15 = 7
  eq8: +1 x4 +1 x9 -1 x15 = 6
  eq9: -1 x6 +1 x7 +1 x17 = 9
  eq10: +1 x16 +1 x17 -1 x18 -1 x19 = 2
  eq11: +1 x18 = 5
  eq12: -1 x15 +1 x16 +1 x17 = 6
  eq13: -1 x11 +1 x12 +1 x17 = 9
  eq14: -1 x4 +1 x5 +1 x17 = 9
  eq15: -1 x13 +1 x14 +1 x17 = 9
  eq16: +1 x21 = 5
  eq17: +1 x22 = 5
  eq18: +1 x3 +1 x4 -1 x6 = 7
  ie0: +1 x4 -1 x6 >= 0
  ie1: +1 x7 -1 x16 >= 0
  ie2: +1 x4 >= 5
  ie3: -1 x4 -1 x9 +1 x11 >= -3
  ie4: +1 x3 -1 x4 +1 x8 -1 x9 >= 0
  ie5: +1 x13 >= 5
  ie6: +1 x9 >= 5
  ie7: +1 x1 +1 x3 -1 x4 -1 x9 >= 0
  ie8: +1 x16 >= 5
  ie9: +1 x17 >= 5
  ie10: -1 x4 +1 x9 >= 0
END

0.000 sec
[12 ph, smt 0.852, isect 0.514, ins 0.023, tot 1.538]

Running SMT solver (23)... 0.011 sec
Found point (17/3,29/3,125/18,16/3,28/3,95/18,167/18,127/18,17/3,19/3,25/3,37/3,157/18,229/18,5,6,5,5,4,6,5,5)
Checking... Minimizing (19,84)... (18,18), 0.028 sec
Inserting... 

MAXIMIZE
Subject To
  eq0: +1 x1 +1 x9 -1 x11 = 3
  eq1: +1 x6 +1 x8 -1 x11 = 4
  eq2: -1 x1 +1 x2 +1 x17 = 9
  eq3: +1 x19 = 4
  eq4: +1 x16 +1 x20 -1 x21 = 7
  eq5: +1 x1 +1 x8 -1 x13 = 4
  eq6: +1 x1 +1 x10 -1 x15 = 7
  eq7: +1 x4 +1 x9 -1 x15 = 6
  eq8: -1 x6 +1 x7 +1 x17 = 9
  eq9: +1 x16 +1 x17 -1 x18 -1 x19 = 2
  eq10: +1 x18 = 5
  eq11: -1 x15 +1 x16 +1 x17 = 6
  eq12: -1 x11 +1 x12 +1 x17 = 9
  eq13: -1 x4 +1 x5 +1 x17 = 9
  eq14: -1 x13 +1 x14 +1 x17 = 9
  eq15: +1 x21 = 5
  eq16: +1 x22 = 5
  eq17: +1 x3 +1 x4 -1 x6 = 7
  ie0: +1 x4 -1 x6 >= 0
  ie1: +1 x7 -1 x16 >= 0
  ie2: +1 x8 >= 7
  ie3: -1 x4 -1 x9 +1 x11 >= -3
  ie4: +1 x3 -1 x4 +1 x8 -1 x9 >= 0
  ie5: +1 x8 >= 5
  ie6: +1 x13 >= 5
  ie7: +1 x9 >= 5
  ie8: +1 x1 +1 x3 -1 x4 -1 x9 >= 0
  ie9: +1 x16 >= 5
  ie10: -1 x4 +1 x13 >= 0
  ie11: -1 x4 +1 x9 >= 0
  ie12: -1 x4 +1 x8 >= 0
  ie13: -1 x9 +1 x10 >= 0
  ie14: +1 x4 >= 5
  ie15: +1 x6 >= 5
  ie16: +1 x17 >= 5
  ie17: +1 x3 -1 x9 >= 0
END

0.002 sec
[12 ph, smt 0.863, isect 0.542, ins 0.026, tot 1.582]

Running SMT solver (24)... 0.011 sec
Found point (11/2,19/2,191/24,131/24,227/24,77/12,125/12,79/12,133/24,13/2,193/24,289/24,97/12,145/12,5,6,5,5,4,6,5,5)
Checking... Minimizing (20,82)... (19,16), 0.024 sec
Inserting... 

MAXIMIZE
Subject To
  eq0: +1 x1 +1 x9 -1 x11 = 3
  eq1: +1 x4 +1 x8 -1 x11 = 4
  eq2: -1 x1 +1 x2 +1 x17 = 9
  eq3: +1 x19 = 4
  eq4: +1 x16 +1 x20 -1 x21 = 7
  eq5: +1 x1 +1 x8 -1 x13 = 4
  eq6: +1 x1 +1 x10 -1 x15 = 7
  eq7: +1 x4 +1 x9 -1 x15 = 6
  eq8: -1 x6 +1 x7 +1 x17 = 9
  eq9: +1 x16 +1 x17 -1 x18 -1 x19 = 2
  eq10: +1 x18 = 5
  eq11: -1 x15 +1 x16 +1 x17 = 6
  eq12: -1 x11 +1 x12 +1 x17 = 9
  eq13: -1 x4 +1 x5 +1 x17 = 9
  eq14: -1 x13 +1 x14 +1 x17 = 9
  eq15: +1 x21 = 5
  eq16: +1 x6 +1 x8 -1 x15 = 8
  eq17: +1 x22 = 5
  eq18: +1 x3 +1 x4 -1 x6 = 7
  ie0: -1 x8 >= -7
  ie1: +1 x7 -1 x16 >= 0
  ie2: -1 x4 -1 x9 +1 x11 >= -3
  ie3: +1 x3 -1 x4 +1 x8 -1 x9 >= 0
  ie4: +1 x8 >= 5
  ie5: +1 x13 >= 5
  ie6: +1 x9 >= 5
  ie7: +1 x1 +1 x3 -1 x4 -1 x9 >= 0
  ie8: +1 x16 >= 5
  ie9: -1 x4 +1 x13 >= 0
  ie10: -1 x4 +1 x9 >= 0
  ie11: -1 x4 +1 x8 >= 0
  ie12: -1 x9 +1 x10 >= 0
  ie13: -1 x6 +1 x7 -1 x8 +1 x20 >= 1
  ie14: +1 x4 >= 5
  ie15: +1 x17 >= 5
END

0.000 sec
[13 ph, smt 0.875, isect 0.566, ins 0.026, tot 1.621]

Running SMT solver (25)... 0.029 sec
Found point (95/16,159/16,185/24,271/48,463/48,305/48,497/48,319/48,257/48,97/16,199/24,295/24,103/12,151/12,5,6,5,5,4,6,5,5)
Checking... Minimizing (20,82)... (19,10), 0.023 sec
Inserting... 

MAXIMIZE
Subject To
  eq0: +1 x1 +1 x9 -1 x11 = 3
  eq1: +1 x4 +1 x8 -1 x11 = 4
  eq2: -1 x1 +1 x2 +1 x17 = 9
  eq3: +1 x19 = 4
  eq4: +1 x16 +1 x20 -1 x21 = 7
  eq5: +1 x1 +1 x8 -1 x13 = 4
  eq6: +1 x1 +1 x10 -1 x15 = 7
  eq7: +1 x4 +1 x9 -1 x15 = 6
  eq8: -1 x6 +1 x7 +1 x17 = 9
  eq9: +1 x16 +1 x17 -1 x18 -1 x19 = 2
  eq10: +1 x3 +1 x9 -1 x10 = 7
  eq11: +1 x18 = 5
  eq12: -1 x15 +1 x16 +1 x17 = 6
  eq13: -1 x11 +1 x12 +1 x17 = 9
  eq14: -1 x4 +1 x5 +1 x17 = 9
  eq15: -1 x13 +1 x14 +1 x17 = 9
  eq16: +1 x21 = 5
  eq17: +1 x6 +1 x8 -1 x15 = 8
  eq18: +1 x22 = 5
  ie0: -1 x8 >= -7
  ie1: +1 x4 -1 x9 >= 0
  ie2: +1 x7 -1 x16 >= 0
  ie3: -1 x4 -1 x9 +1 x11 >= -3
  ie4: +1 x3 -1 x4 +1 x8 -1 x9 >= 0
  ie5: +1 x8 >= 5
  ie6: +1 x9 >= 5
  ie7: +1 x17 >= 5
  ie8: +1 x16 >= 5
  ie9: -1 x9 +1 x10 >= 0
END

0.001 sec
[14 ph, smt 0.903, isect 0.589, ins 0.026, tot 1.678]

Running SMT solver (26)... 0.008 sec
Found point (79/13,259/26,387/52,287/52,489/52,155/26,128/13,183/26,285/52,77/13,445/52,647/52,237/26,13,5,153/26,133/26,5,4,159/26,5,5)
Checking... Minimizing (20,82)... (19,10), 0.023 sec
Inserting... 

MAXIMIZE
Subject To
  eq0: +1 x1 +1 x9 -1 x11 = 3
  eq1: +1 x4 +1 x8 -1 x11 = 4
  eq2: -1 x1 +1 x2 +1 x17 = 9
  eq3: +1 x19 = 4
  eq4: +1 x16 +1 x20 -1 x21 = 7
  eq5: +1 x1 +1 x8 -1 x13 = 4
  eq6: +1 x1 +1 x10 -1 x15 = 7
  eq7: +1 x4 +1 x9 -1 x15 = 6
  eq8: -1 x6 +1 x7 +1 x17 = 9
  eq9: +1 x16 +1 x17 -1 x18 -1 x19 = 2
  eq10: +1 x3 +1 x9 -1 x10 = 7
  eq11: +1 x18 = 5
  eq12: -1 x15 +1 x16 +1 x17 = 6
  eq13: -1 x11 +1 x12 +1 x17 = 9
  eq14: -1 x4 +1 x5 +1 x17 = 9
  eq15: -1 x13 +1 x14 +1 x17 = 9
  eq16: +1 x21 = 5
  eq17: +1 x22 = 5
  eq18: +1 x3 +1 x4 -1 x6 = 7
  ie0: +1 x4 -1 x9 >= 0
  ie1: +1 x7 -1 x16 >= 0
  ie2: +1 x8 >= 7
  ie3: -1 x4 -1 x9 +1 x11 >= -3
  ie4: +1 x3 -1 x4 +1 x8 -1 x9 >= 0
  ie5: +1 x8 >= 5
  ie6: +1 x9 >= 5
  ie7: +1 x17 >= 5
  ie8: +1 x16 >= 5
  ie9: -1 x9 +1 x10 >= 0
END

0.001 sec
[15 ph, smt 0.911, isect 0.612, ins 0.027, tot 1.712]

Running SMT solver (27)... 0.008 sec
Found point (90/13,259/26,181/26,153/26,116/13,76/13,231/26,93/13,133/26,66/13,235/26,157/13,131/13,341/26,5,131/26,155/26,5,4,181/26,5,5)
Checking... Minimizing (20,87)... (19,11), 0.025 sec
Inserting... 

MAXIMIZE
Subject To
  eq0: +1 x1 +1 x9 -1 x11 = 3
  eq1: -1 x1 +1 x2 +1 x17 = 9
  eq2: +1 x19 = 4
  eq3: +1 x16 +1 x20 -1 x21 = 7
  eq4: +1 x1 +1 x8 -1 x13 = 4
  eq5: +1 x1 +1 x10 -1 x15 = 7
  eq6: +1 x4 +1 x9 -1 x15 = 6
  eq7: -1 x6 +1 x7 +1 x17 = 9
  eq8: +1 x16 +1 x17 -1 x18 -1 x19 = 2
  eq9: +1 x3 +1 x9 -1 x10 = 7
  eq10: +1 x18 = 5
  eq11: -1 x15 +1 x16 +1 x17 = 6
  eq12: -1 x11 +1 x12 +1 x17 = 9
  eq13: -1 x4 +1 x5 +1 x17 = 9
  eq14: -1 x13 +1 x14 +1 x17 = 9
  eq15: +1 x21 = 5
  eq16: +1 x6 +1 x8 -1 x15 = 8
  eq17: +1 x22 = 5
  eq18: +1 x3 +1 x4 -1 x6 = 7
  ie0: -1 x6 -1 x8 +1 x11 >= -4
  ie1: -1 x1 >= -7
  ie2: +1 x4 -1 x9 >= 0
  ie3: +1 x7 -1 x16 >= 0
  ie4: +1 x3 -1 x4 +1 x8 -1 x9 >= 0
  ie5: +1 x8 >= 5
  ie6: +1 x9 >= 5
  ie7: +1 x17 >= 5
  ie8: +1 x16 >= 5
  ie9: +1 x3 -1 x4 >= 0
  ie10: +1 x3 -1 x9 >= 0
END

0.003 sec
[15 ph, smt 0.919, isect 0.637, ins 0.030, tot 1.751]

Running SMT solver (28)... 0.052 sec
Found point (79/8,111/8,41/8,55/8,87/8,5,9,79/8,55/8,5,55/4,71/4,63/4,79/4,35/4,39/4,5,8,4,5,7,5)
Checking... Minimizing (20,84)... (20,7), 0.023 sec
Inserting... 

MAXIMIZE
Subject To
  eq0: +1 x4 +1 x8 -1 x11 = 3
  eq1: +1 x7 +1 x20 -1 x21 = 7
  eq2: -1 x1 +1 x2 +1 x20 = 9
  eq3: +1 x7 +1 x17 -1 x18 -1 x19 = 2
  eq4: +1 x19 = 4
  eq5: +1 x1 +1 x8 -1 x13 = 4
  eq6: -1 x6 +1 x7 +1 x20 = 9
  eq7: +1 x10 = 5
  eq8: -1 x11 +1 x12 +1 x20 = 9
  eq9: +1 x3 +1 x9 -1 x10 = 7
  eq10: -1 x4 +1 x5 +1 x20 = 9
  eq11: -1 x13 +1 x14 +1 x20 = 9
  eq12: +1 x6 +1 x8 -1 x9 = 8
  eq13: +1 x6 = 5
  eq14: +1 x17 = 5
  eq15: -1 x15 +1 x16 +1 x20 = 6
  eq16: +1 x20 = 5
  eq17: +1 x1 -1 x4 +1 x10 = 8
  eq18: +1 x22 = 5
  eq19: +1 x3 +1 x4 -1 x6 = 7
  ie0: -1 x6 -1 x8 +1 x11 >= -4
  ie1: +1 x4 -1 x6 >= 0
  ie2: +1 x3 -1 x4 -1 x8 +1 x13 >= 0
  ie3: +1 x16 >= 5
  ie4: +1 x4 +1 x9 -1 x15 >= 5
  ie5: -1 x7 +1 x16 >= 0
  ie6: +1 x3 -1 x6 >= 0
END

0.000 sec
[16 ph, smt 0.971, isect 0.660, ins 0.030, tot 1.830]

Running SMT solver (29)... 0.009 sec
Found point (73/8,105/8,47/8,49/8,81/8,5,9,73/8,49/8,5,49/4,65/4,57/4,73/4,29/4,33/4,5,29/4,4,5,25/4,5)
Checking... Minimizing (20,84)... (20,10), 0.021 sec
Inserting... 

MAXIMIZE
Subject To
  eq0: +1 x4 +1 x8 -1 x11 = 3
  eq1: -1 x1 +1 x2 +1 x20 = 9
  eq2: +1 x19 = 4
  eq3: +1 x16 +1 x20 -1 x21 = 7
  eq4: +1 x1 +1 x8 -1 x13 = 4
  eq5: -1 x6 +1 x7 +1 x20 = 9
  eq6: +1 x10 = 5
  eq7: +1 x16 +1 x17 -1 x18 -1 x19 = 2
  eq8: -1 x11 +1 x12 +1 x20 = 9
  eq9: +1 x3 +1 x9 -1 x10 = 7
  eq10: -1 x4 +1 x5 +1 x20 = 9
  eq11: -1 x13 +1 x14 +1 x20 = 9
  eq12: +1 x6 +1 x8 -1 x9 = 8
  eq13: +1 x6 = 5
  eq14: +1 x17 = 5
  eq15: -1 x15 +1 x16 +1 x20 = 6
  eq16: +1 x20 = 5
  eq17: +1 x1 -1 x4 +1 x10 = 8
  eq18: +1 x22 = 5
  eq19: +1 x3 +1 x4 -1 x6 = 7
  ie0: -1 x6 -1 x8 +1 x11 >= -4
  ie1: +1 x4 -1 x6 >= 0
  ie2: +1 x7 -1 x16 >= 0
  ie3: +1 x3 -1 x4 -1 x8 +1 x13 >= 0
  ie4: -1 x3 -1 x9 +1 x15 >= -6
  ie5: -1 x4 +1 x15 >= 1
  ie6: +1 x16 >= 5
  ie7: +1 x4 +1 x9 -1 x15 >= 5
  ie8: +1 x3 -1 x6 >= 0
  ie9: -1 x6 -1 x8 +1 x15 >= -8
END

0.000 sec
[17 ph, smt 0.980, isect 0.681, ins 0.030, tot 1.864]

Running SMT solver (30)... 0.089 sec
Found point (5,9,8,6,10,9,13,5,5,8,7,11,6,10,6,7,5,6,4,5,5,5)
Checking... Minimizing (20,80)... (20,9), 0.020 sec
Inserting... 

MAXIMIZE
Subject To
  eq0: +1 x1 +1 x9 -1 x11 = 3
  eq1: -1 x3 -1 x4 +1 x6 +1 x8 = 0
  eq2: +1 x4 +1 x9 -1 x11 = 4
  eq3: -1 x1 +1 x2 +1 x20 = 9
  eq4: +1 x9 = 5
  eq5: +1 x19 = 4
  eq6: +1 x16 +1 x20 -1 x21 = 7
  eq7: +1 x1 +1 x8 -1 x13 = 4
  eq8: -1 x6 +1 x7 +1 x20 = 9
  eq9: +1 x22 = 5
  eq10: +1 x3 = 8
  eq11: +1 x16 +1 x17 -1 x18 -1 x19 = 2
  eq12: -1 x11 +1 x12 +1 x20 = 9
  eq13: -1 x4 +1 x5 +1 x20 = 9
  eq14: -1 x13 +1 x14 +1 x20 = 9
  eq15: +1 x21 = 5
  eq16: +1 x17 = 5
  eq17: -1 x15 +1 x16 +1 x20 = 6
  eq18: +1 x1 = 5
  eq19: -1 x1 +1 x3 +1 x9 -1 x10 = 0
  ie0: +1 x7 -1 x16 >= 0
  ie1: +1 x20 >= 5
  ie2: +1 x18 >= 5
  ie3: +1 x8 >= 5
  ie4: -1 x15 +1 x16 +1 x17 >= 6
  ie5: -1 x1 -1 x8 +1 x11 >= -4
  ie6: +1 x16 >= 5
  ie7: -1 x1 -1 x8 +1 x9 >= -8
  ie8: -1 x3 -1 x4 +1 x6 >= -7
END

0.000 sec
[18 ph, smt 1.069, isect 0.700, ins 0.030, tot 1.977]

Running SMT solver (31)... 0.007 sec
Found point (5,9,8,6,10,53/6,77/6,5,5,47/6,7,11,6,10,35/6,41/6,5,35/6,4,31/6,5,5)
Checking... Minimizing (20,80)... (20,9), 0.021 sec
Inserting... 

MAXIMIZE
Subject To
  eq0: +1 x1 +1 x9 -1 x11 = 3
  eq1: +1 x4 +1 x9 -1 x11 = 4
  eq2: +1 x9 = 5
  eq3: -1 x1 +1 x2 +1 x17 = 9
  eq4: +1 x19 = 4
  eq5: +1 x16 +1 x20 -1 x21 = 7
  eq6: +1 x1 +1 x8 -1 x13 = 4
  eq7: +1 x1 +1 x10 -1 x15 = 7
  eq8: +1 x3 = 8
  eq9: -1 x6 +1 x7 +1 x17 = 9
  eq10: +1 x16 +1 x17 -1 x18 -1 x19 = 2
  eq11: -1 x15 +1 x16 +1 x17 = 6
  eq12: -1 x11 +1 x12 +1 x17 = 9
  eq13: -1 x4 +1 x5 +1 x17 = 9
  eq14: -1 x13 +1 x14 +1 x17 = 9
  eq15: +1 x21 = 5
  eq16: +1 x17 = 5
  eq17: +1 x1 = 5
  eq18: +1 x6 +1 x8 -1 x15 = 8
  eq19: +1 x22 = 5
  ie0: -1 x8 >= -7
  ie1: -1 x1 -1 x9 +1 x15 >= -6
  ie2: +1 x7 -1 x16 >= 0
  ie3: +1 x18 >= 5
  ie4: +1 x8 >= 5
  ie5: -1 x1 +1 x2 +1 x20 >= 9
  ie6: -1 x1 -1 x8 +1 x15 >= -8
  ie7: -1 x1 -1 x8 +1 x11 >= -4
  ie8: -1 x1 -1 x8 +1 x9 >= -8
END

0.002 sec
[18 ph, smt 1.076, isect 0.721, ins 0.032, tot 2.010]

Running SMT solver (32)... 0.043 sec
Found point (5,9,373/44,503/88,855/88,679/88,1031/88,465/88,241/44,7,329/44,505/44,553/88,905/88,5,6,5,5,4,6,5,5)
Checking... Minimizing (19,82)... (18,18), 0.026 sec
Inserting... 

MAXIMIZE
Subject To
  eq0: +1 x1 +1 x9 -1 x11 = 3
  eq1: -1 x1 +1 x2 +1 x17 = 9
  eq2: +1 x19 = 4
  eq3: +1 x16 +1 x20 -1 x21 = 7
  eq4: +1 x1 +1 x3 -1 x9 = 8
  eq5: +1 x1 +1 x8 -1 x13 = 4
  eq6: +1 x1 +1 x10 -1 x15 = 7
  eq7: -1 x6 +1 x7 +1 x17 = 9
  eq8: +1 x16 +1 x17 -1 x18 -1 x19 = 2
  eq9: +1 x18 = 5
  eq10: +1 x4 +1 x8 -1 x15 = 6
  eq11: -1 x15 +1 x16 +1 x17 = 6
  eq12: -1 x11 +1 x12 +1 x17 = 9
  eq13: -1 x4 +1 x5 +1 x17 = 9
  eq14: -1 x13 +1 x14 +1 x17 = 9
  eq15: +1 x21 = 5
  eq16: +1 x6 +1 x8 -1 x15 = 8
  eq17: +1 x22 = 5
  ie0: -1 x1 -1 x9 +1 x15 >= -6
  ie1: +1 x7 -1 x16 >= 0
  ie2: +1 x1 +1 x3 -1 x4 -1 x8 >= 0
  ie3: -1 x1 -1 x8 +1 x11 >= -3
  ie4: +1 x8 >= 5
  ie5: -1 x8 +1 x10 >= 0
  ie6: +1 x13 >= 5
  ie7: +1 x9 >= 5
  ie8: +1 x16 >= 5
  ie9: +1 x4 +1 x9 -1 x15 >= 5
  ie10: -1 x1 -1 x3 +1 x6 >= -7
  ie11: -1 x1 -1 x3 +1 x11 >= -7
  ie12: -1 x6 +1 x7 -1 x8 +1 x20 >= 1
  ie13: -1 x1 -1 x3 +1 x4 >= -8
  ie14: +1 x4 >= 5
  ie15: -1 x1 +1 x8 >= 0
  ie16: +1 x17 >= 5
  ie17: +1 x1 >= 5
END

0.001 sec
[19 ph, smt 1.118, isect 0.747, ins 0.033, tot 2.082]

Running SMT solver (33)... 0.016 sec
Found point (16/3,28/3,121/15,57/10,97/10,77/10,117/10,53/10,161/30,20/3,77/10,117/10,199/30,319/30,5,6,5,5,4,6,5,5)
Checking... Minimizing (19,82)... (18,13), 0.025 sec
Inserting... 

MAXIMIZE
Subject To
  eq0: +1 x1 +1 x9 -1 x11 = 3
  eq1: -1 x1 +1 x2 +1 x17 = 9
  eq2: +1 x19 = 4
  eq3: +1 x16 +1 x20 -1 x21 = 7
  eq4: +1 x1 +1 x8 -1 x13 = 4
  eq5: +1 x3 +1 x8 -1 x9 = 8
  eq6: +1 x1 +1 x10 -1 x15 = 7
  eq7: -1 x6 +1 x7 +1 x17 = 9
  eq8: +1 x16 +1 x17 -1 x18 -1 x19 = 2
  eq9: +1 x18 = 5
  eq10: +1 x4 +1 x8 -1 x15 = 6
  eq11: -1 x15 +1 x16 +1 x17 = 6
  eq12: -1 x11 +1 x12 +1 x17 = 9
  eq13: -1 x4 +1 x5 +1 x17 = 9
  eq14: -1 x13 +1 x14 +1 x17 = 9
  eq15: +1 x21 = 5
  eq16: +1 x6 +1 x8 -1 x15 = 8
  eq17: +1 x22 = 5
  ie0: -1 x1 -1 x9 +1 x15 >= -6
  ie1: +1 x7 -1 x16 >= 0
  ie2: +1 x1 +1 x3 -1 x4 -1 x8 >= 0
  ie3: +1 x4 >= 5
  ie4: -1 x1 -1 x8 +1 x11 >= -3
  ie5: +1 x1 -1 x8 >= 0
  ie6: +1 x8 >= 5
  ie7: -1 x8 +1 x10 >= 0
  ie8: +1 x13 >= 5
  ie9: +1 x9 >= 5
  ie10: +1 x16 >= 5
  ie11: +1 x4 +1 x9 -1 x15 >= 5
  ie12: +1 x17 >= 5
END

0.001 sec
[20 ph, smt 1.135, isect 0.772, ins 0.033, tot 2.128]

Running SMT solver (34)... 0.002 sec
No more solutions found



Solution:

\\\\\\\\\\\\\\\\\\\\\\\\\\\\\\\\\\\\\\\\ file 0

MAXIMIZE
Subject To
  eq0: +1 x1 +1 x9 -1 x11 = 3
  eq1: -1 x1 +1 x2 +1 x17 = 9
  eq2: +1 x19 = 4
  eq3: +1 x16 +1 x20 -1 x21 = 7
  eq4: +1 x1 +1 x8 -1 x13 = 4
  eq5: +1 x3 +1 x8 -1 x9 = 8
  eq6: +1 x1 +1 x10 -1 x15 = 7
  eq7: -1 x6 +1 x7 +1 x17 = 9
  eq8: +1 x16 +1 x17 -1 x18 -1 x19 = 2
  eq9: +1 x18 = 5
  eq10: +1 x4 +1 x8 -1 x15 = 6
  eq11: -1 x15 +1 x16 +1 x17 = 6
  eq12: -1 x11 +1 x12 +1 x17 = 9
  eq13: -1 x4 +1 x5 +1 x17 = 9
  eq14: -1 x13 +1 x14 +1 x17 = 9
  eq15: +1 x21 = 5
  eq16: +1 x6 +1 x8 -1 x15 = 8
  eq17: +1 x22 = 5
  ie0: -1 x1 -1 x9 +1 x15 >= -6
  ie1: +1 x7 -1 x16 >= 0
  ie2: +1 x1 +1 x3 -1 x4 -1 x8 >= 0
  ie3: +1 x4 >= 5
  ie4: -1 x1 -1 x8 +1 x11 >= -3
  ie5: +1 x1 -1 x8 >= 0
  ie6: +1 x8 >= 5
  ie7: -1 x8 +1 x10 >= 0
  ie8: +1 x13 >= 5
  ie9: +1 x9 >= 5
  ie10: +1 x16 >= 5
  ie11: +1 x4 +1 x9 -1 x15 >= 5
  ie12: +1 x17 >= 5
END

\\\\\\\\\\\\\\\\\\\\\\\\\\\\\\\\\\\\\\\\ file 1

MAXIMIZE
Subject To
  eq0: +1 x1 +1 x9 -1 x11 = 3
  eq1: -1 x1 +1 x2 +1 x17 = 9
  eq2: +1 x19 = 4
  eq3: +1 x16 +1 x20 -1 x21 = 7
  eq4: +1 x1 +1 x3 -1 x9 = 8
  eq5: +1 x1 +1 x8 -1 x13 = 4
  eq6: +1 x1 +1 x10 -1 x15 = 7
  eq7: -1 x6 +1 x7 +1 x17 = 9
  eq8: +1 x16 +1 x17 -1 x18 -1 x19 = 2
  eq9: +1 x18 = 5
  eq10: +1 x4 +1 x8 -1 x15 = 6
  eq11: -1 x15 +1 x16 +1 x17 = 6
  eq12: -1 x11 +1 x12 +1 x17 = 9
  eq13: -1 x4 +1 x5 +1 x17 = 9
  eq14: -1 x13 +1 x14 +1 x17 = 9
  eq15: +1 x21 = 5
  eq16: +1 x6 +1 x8 -1 x15 = 8
  eq17: +1 x22 = 5
  ie0: -1 x1 -1 x9 +1 x15 >= -6
  ie1: +1 x7 -1 x16 >= 0
  ie2: +1 x1 +1 x3 -1 x4 -1 x8 >= 0
  ie3: -1 x1 -1 x8 +1 x11 >= -3
  ie4: +1 x8 >= 5
  ie5: -1 x8 +1 x10 >= 0
  ie6: +1 x13 >= 5
  ie7: +1 x9 >= 5
  ie8: +1 x16 >= 5
  ie9: +1 x4 +1 x9 -1 x15 >= 5
  ie10: -1 x1 -1 x3 +1 x6 >= -7
  ie11: -1 x1 -1 x3 +1 x11 >= -7
  ie12: -1 x6 +1 x7 -1 x8 +1 x20 >= 1
  ie13: -1 x1 -1 x3 +1 x4 >= -8
  ie14: +1 x4 >= 5
  ie15: -1 x1 +1 x8 >= 0
  ie16: +1 x17 >= 5
  ie17: +1 x1 >= 5
END

\\\\\\\\\\\\\\\\\\\\\\\\\\\\\\\\\\\\\\\\ file 2

MAXIMIZE
Subject To
  eq0: +1 x1 +1 x9 -1 x11 = 3
  eq1: +1 x4 +1 x9 -1 x11 = 4
  eq2: +1 x9 = 5
  eq3: -1 x1 +1 x2 +1 x17 = 9
  eq4: +1 x19 = 4
  eq5: +1 x16 +1 x20 -1 x21 = 7
  eq6: +1 x1 +1 x8 -1 x13 = 4
  eq7: +1 x1 +1 x10 -1 x15 = 7
  eq8: +1 x3 = 8
  eq9: -1 x6 +1 x7 +1 x17 = 9
  eq10: +1 x16 +1 x17 -1 x18 -1 x19 = 2
  eq11: -1 x15 +1 x16 +1 x17 = 6
  eq12: -1 x11 +1 x12 +1 x17 = 9
  eq13: -1 x4 +1 x5 +1 x17 = 9
  eq14: -1 x13 +1 x14 +1 x17 = 9
  eq15: +1 x21 = 5
  eq16: +1 x17 = 5
  eq17: +1 x1 = 5
  eq18: +1 x6 +1 x8 -1 x15 = 8
  eq19: +1 x22 = 5
  ie0: -1 x8 >= -7
  ie1: -1 x1 -1 x9 +1 x15 >= -6
  ie2: +1 x7 -1 x16 >= 0
  ie3: +1 x18 >= 5
  ie4: +1 x8 >= 5
  ie5: -1 x1 +1 x2 +1 x20 >= 9
  ie6: -1 x1 -1 x8 +1 x15 >= -8
  ie7: -1 x1 -1 x8 +1 x11 >= -4
  ie8: -1 x1 -1 x8 +1 x9 >= -8
END

\\\\\\\\\\\\\\\\\\\\\\\\\\\\\\\\\\\\\\\\ file 3

MAXIMIZE
Subject To
  eq0: +1 x4 +1 x8 -1 x11 = 3
  eq1: -1 x1 +1 x2 +1 x20 = 9
  eq2: +1 x19 = 4
  eq3: +1 x16 +1 x20 -1 x21 = 7
  eq4: +1 x1 +1 x8 -1 x13 = 4
  eq5: -1 x6 +1 x7 +1 x20 = 9
  eq6: +1 x10 = 5
  eq7: +1 x16 +1 x17 -1 x18 -1 x19 = 2
  eq8: -1 x11 +1 x12 +1 x20 = 9
  eq9: +1 x3 +1 x9 -1 x10 = 7
  eq10: -1 x4 +1 x5 +1 x20 = 9
  eq11: -1 x13 +1 x14 +1 x20 = 9
  eq12: +1 x6 +1 x8 -1 x9 = 8
  eq13: +1 x6 = 5
  eq14: +1 x17 = 5
  eq15: -1 x15 +1 x16 +1 x20 = 6
  eq16: +1 x20 = 5
  eq17: +1 x1 -1 x4 +1 x10 = 8
  eq18: +1 x22 = 5
  eq19: +1 x3 +1 x4 -1 x6 = 7
  ie0: -1 x6 -1 x8 +1 x11 >= -4
  ie1: +1 x4 -1 x6 >= 0
  ie2: +1 x7 -1 x16 >= 0
  ie3: +1 x3 -1 x4 -1 x8 +1 x13 >= 0
  ie4: -1 x3 -1 x9 +1 x15 >= -6
  ie5: -1 x4 +1 x15 >= 1
  ie6: +1 x16 >= 5
  ie7: +1 x4 +1 x9 -1 x15 >= 5
  ie8: +1 x3 -1 x6 >= 0
  ie9: -1 x6 -1 x8 +1 x15 >= -8
END

\\\\\\\\\\\\\\\\\\\\\\\\\\\\\\\\\\\\\\\\ file 4

MAXIMIZE
Subject To
  eq0: +1 x4 +1 x8 -1 x11 = 3
  eq1: +1 x7 +1 x20 -1 x21 = 7
  eq2: -1 x1 +1 x2 +1 x20 = 9
  eq3: +1 x7 +1 x17 -1 x18 -1 x19 = 2
  eq4: +1 x19 = 4
  eq5: +1 x1 +1 x8 -1 x13 = 4
  eq6: -1 x6 +1 x7 +1 x20 = 9
  eq7: +1 x10 = 5
  eq8: -1 x11 +1 x12 +1 x20 = 9
  eq9: +1 x3 +1 x9 -1 x10 = 7
  eq10: -1 x4 +1 x5 +1 x20 = 9
  eq11: -1 x13 +1 x14 +1 x20 = 9
  eq12: +1 x6 +1 x8 -1 x9 = 8
  eq13: +1 x6 = 5
  eq14: +1 x17 = 5
  eq15: -1 x15 +1 x16 +1 x20 = 6
  eq16: +1 x20 = 5
  eq17: +1 x1 -1 x4 +1 x10 = 8
  eq18: +1 x22 = 5
  eq19: +1 x3 +1 x4 -1 x6 = 7
  ie0: -1 x6 -1 x8 +1 x11 >= -4
  ie1: +1 x4 -1 x6 >= 0
  ie2: +1 x3 -1 x4 -1 x8 +1 x13 >= 0
  ie3: +1 x16 >= 5
  ie4: +1 x4 +1 x9 -1 x15 >= 5
  ie5: -1 x7 +1 x16 >= 0
  ie6: +1 x3 -1 x6 >= 0
END

\\\\\\\\\\\\\\\\\\\\\\\\\\\\\\\\\\\\\\\\ file 5

MAXIMIZE
Subject To
  eq0: +1 x1 +1 x9 -1 x11 = 3
  eq1: -1 x1 +1 x2 +1 x17 = 9
  eq2: +1 x19 = 4
  eq3: +1 x16 +1 x20 -1 x21 = 7
  eq4: +1 x1 +1 x8 -1 x13 = 4
  eq5: +1 x1 +1 x10 -1 x15 = 7
  eq6: +1 x4 +1 x9 -1 x15 = 6
  eq7: -1 x6 +1 x7 +1 x17 = 9
  eq8: +1 x16 +1 x17 -1 x18 -1 x19 = 2
  eq9: +1 x3 +1 x9 -1 x10 = 7
  eq10: +1 x18 = 5
  eq11: -1 x15 +1 x16 +1 x17 = 6
  eq12: -1 x11 +1 x12 +1 x17 = 9
  eq13: -1 x4 +1 x5 +1 x17 = 9
  eq14: -1 x13 +1 x14 +1 x17 = 9
  eq15: +1 x21 = 5
  eq16: +1 x6 +1 x8 -1 x15 = 8
  eq17: +1 x22 = 5
  eq18: +1 x3 +1 x4 -1 x6 = 7
  ie0: -1 x6 -1 x8 +1 x11 >= -4
  ie1: -1 x1 >= -7
  ie2: +1 x4 -1 x9 >= 0
  ie3: +1 x7 -1 x16 >= 0
  ie4: +1 x3 -1 x4 +1 x8 -1 x9 >= 0
  ie5: +1 x8 >= 5
  ie6: +1 x9 >= 5
  ie7: +1 x17 >= 5
  ie8: +1 x16 >= 5
  ie9: +1 x3 -1 x4 >= 0
  ie10: +1 x3 -1 x9 >= 0
END

\\\\\\\\\\\\\\\\\\\\\\\\\\\\\\\\\\\\\\\\ file 6

MAXIMIZE
Subject To
  eq0: +1 x1 +1 x9 -1 x11 = 3
  eq1: +1 x4 +1 x8 -1 x11 = 4
  eq2: -1 x1 +1 x2 +1 x17 = 9
  eq3: +1 x19 = 4
  eq4: +1 x16 +1 x20 -1 x21 = 7
  eq5: +1 x1 +1 x8 -1 x13 = 4
  eq6: +1 x1 +1 x10 -1 x15 = 7
  eq7: +1 x4 +1 x9 -1 x15 = 6
  eq8: -1 x6 +1 x7 +1 x17 = 9
  eq9: +1 x16 +1 x17 -1 x18 -1 x19 = 2
  eq10: +1 x3 +1 x9 -1 x10 = 7
  eq11: +1 x18 = 5
  eq12: -1 x15 +1 x16 +1 x17 = 6
  eq13: -1 x11 +1 x12 +1 x17 = 9
  eq14: -1 x4 +1 x5 +1 x17 = 9
  eq15: -1 x13 +1 x14 +1 x17 = 9
  eq16: +1 x21 = 5
  eq17: +1 x22 = 5
  eq18: +1 x3 +1 x4 -1 x6 = 7
  ie0: +1 x4 -1 x9 >= 0
  ie1: +1 x7 -1 x16 >= 0
  ie2: +1 x8 >= 7
  ie3: -1 x4 -1 x9 +1 x11 >= -3
  ie4: +1 x3 -1 x4 +1 x8 -1 x9 >= 0
  ie5: +1 x8 >= 5
  ie6: +1 x9 >= 5
  ie7: +1 x17 >= 5
  ie8: +1 x16 >= 5
  ie9: -1 x9 +1 x10 >= 0
END

\\\\\\\\\\\\\\\\\\\\\\\\\\\\\\\\\\\\\\\\ file 7

MAXIMIZE
Subject To
  eq0: +1 x1 +1 x9 -1 x11 = 3
  eq1: +1 x4 +1 x8 -1 x11 = 4
  eq2: -1 x1 +1 x2 +1 x17 = 9
  eq3: +1 x19 = 4
  eq4: +1 x16 +1 x20 -1 x21 = 7
  eq5: +1 x1 +1 x8 -1 x13 = 4
  eq6: +1 x1 +1 x10 -1 x15 = 7
  eq7: +1 x4 +1 x9 -1 x15 = 6
  eq8: -1 x6 +1 x7 +1 x17 = 9
  eq9: +1 x16 +1 x17 -1 x18 -1 x19 = 2
  eq10: +1 x3 +1 x9 -1 x10 = 7
  eq11: +1 x18 = 5
  eq12: -1 x15 +1 x16 +1 x17 = 6
  eq13: -1 x11 +1 x12 +1 x17 = 9
  eq14: -1 x4 +1 x5 +1 x17 = 9
  eq15: -1 x13 +1 x14 +1 x17 = 9
  eq16: +1 x21 = 5
  eq17: +1 x6 +1 x8 -1 x15 = 8
  eq18: +1 x22 = 5
  ie0: -1 x8 >= -7
  ie1: +1 x4 -1 x9 >= 0
  ie2: +1 x7 -1 x16 >= 0
  ie3: -1 x4 -1 x9 +1 x11 >= -3
  ie4: +1 x3 -1 x4 +1 x8 -1 x9 >= 0
  ie5: +1 x8 >= 5
  ie6: +1 x9 >= 5
  ie7: +1 x17 >= 5
  ie8: +1 x16 >= 5
  ie9: -1 x9 +1 x10 >= 0
END

\\\\\\\\\\\\\\\\\\\\\\\\\\\\\\\\\\\\\\\\ file 8

MAXIMIZE
Subject To
  eq0: +1 x1 +1 x9 -1 x11 = 3
  eq1: +1 x4 +1 x8 -1 x11 = 4
  eq2: -1 x1 +1 x2 +1 x17 = 9
  eq3: +1 x19 = 4
  eq4: +1 x16 +1 x20 -1 x21 = 7
  eq5: +1 x1 +1 x8 -1 x13 = 4
  eq6: +1 x1 +1 x10 -1 x15 = 7
  eq7: +1 x4 +1 x9 -1 x15 = 6
  eq8: -1 x6 +1 x7 +1 x17 = 9
  eq9: +1 x16 +1 x17 -1 x18 -1 x19 = 2
  eq10: +1 x18 = 5
  eq11: -1 x15 +1 x16 +1 x17 = 6
  eq12: -1 x11 +1 x12 +1 x17 = 9
  eq13: -1 x4 +1 x5 +1 x17 = 9
  eq14: -1 x13 +1 x14 +1 x17 = 9
  eq15: +1 x21 = 5
  eq16: +1 x6 +1 x8 -1 x15 = 8
  eq17: +1 x22 = 5
  eq18: +1 x3 +1 x4 -1 x6 = 7
  ie0: -1 x8 >= -7
  ie1: +1 x7 -1 x16 >= 0
  ie2: -1 x4 -1 x9 +1 x11 >= -3
  ie3: +1 x3 -1 x4 +1 x8 -1 x9 >= 0
  ie4: +1 x8 >= 5
  ie5: +1 x13 >= 5
  ie6: +1 x9 >= 5
  ie7: +1 x1 +1 x3 -1 x4 -1 x9 >= 0
  ie8: +1 x16 >= 5
  ie9: -1 x4 +1 x13 >= 0
  ie10: -1 x4 +1 x9 >= 0
  ie11: -1 x4 +1 x8 >= 0
  ie12: -1 x9 +1 x10 >= 0
  ie13: -1 x6 +1 x7 -1 x8 +1 x20 >= 1
  ie14: +1 x4 >= 5
  ie15: +1 x17 >= 5
END

\\\\\\\\\\\\\\\\\\\\\\\\\\\\\\\\\\\\\\\\ file 9

MAXIMIZE
Subject To
  eq0: +1 x1 +1 x9 -1 x11 = 3
  eq1: +1 x6 +1 x8 -1 x11 = 4
  eq2: -1 x1 +1 x2 +1 x17 = 9
  eq3: +1 x19 = 4
  eq4: +1 x16 +1 x20 -1 x21 = 7
  eq5: +1 x1 +1 x8 -1 x13 = 4
  eq6: +1 x1 +1 x10 -1 x15 = 7
  eq7: +1 x4 +1 x9 -1 x15 = 6
  eq8: -1 x6 +1 x7 +1 x17 = 9
  eq9: +1 x16 +1 x17 -1 x18 -1 x19 = 2
  eq10: +1 x18 = 5
  eq11: -1 x15 +1 x16 +1 x17 = 6
  eq12: -1 x11 +1 x12 +1 x17 = 9
  eq13: -1 x4 +1 x5 +1 x17 = 9
  eq14: -1 x13 +1 x14 +1 x17 = 9
  eq15: +1 x21 = 5
  eq16: +1 x22 = 5
  eq17: +1 x3 +1 x4 -1 x6 = 7
  ie0: +1 x4 -1 x6 >= 0
  ie1: +1 x7 -1 x16 >= 0
  ie2: +1 x8 >= 7
  ie3: -1 x4 -1 x9 +1 x11 >= -3
  ie4: +1 x3 -1 x4 +1 x8 -1 x9 >= 0
  ie5: +1 x8 >= 5
  ie6: +1 x13 >= 5
  ie7: +1 x9 >= 5
  ie8: +1 x1 +1 x3 -1 x4 -1 x9 >= 0
  ie9: +1 x16 >= 5
  ie10: -1 x4 +1 x13 >= 0
  ie11: -1 x4 +1 x9 >= 0
  ie12: -1 x4 +1 x8 >= 0
  ie13: -1 x9 +1 x10 >= 0
  ie14: +1 x4 >= 5
  ie15: +1 x6 >= 5
  ie16: +1 x17 >= 5
  ie17: +1 x3 -1 x9 >= 0
END

\\\\\\\\\\\\\\\\\\\\\\\\\\\\\\\\\\\\\\\\ file 10

MAXIMIZE
Subject To
  eq0: +1 x1 +1 x9 -1 x11 = 3
  eq1: -1 x1 +1 x2 +1 x17 = 9
  eq2: +1 x19 = 4
  eq3: +1 x16 +1 x20 -1 x21 = 7
  eq4: +1 x1 +1 x8 -1 x13 = 4
  eq5: +1 x3 = 8
  eq6: +1 x4 +1 x9 -1 x15 = 6
  eq7: -1 x6 +1 x7 +1 x17 = 9
  eq8: +1 x1 +1 x10 -1 x15 = 7
  eq9: +1 x16 +1 x17 -1 x18 -1 x19 = 2
  eq10: +1 x18 = 5
  eq11: -1 x15 +1 x16 +1 x17 = 6
  eq12: -1 x11 +1 x12 +1 x17 = 9
  eq13: -1 x4 +1 x5 +1 x17 = 9
  eq14: -1 x13 +1 x14 +1 x17 = 9
  eq15: +1 x21 = 5
  eq16: +1 x6 +1 x8 -1 x15 = 8
  eq17: +1 x22 = 5
  ie0: -1 x8 >= -7
  ie1: +1 x6 -1 x9 >= 1
  ie2: +1 x7 -1 x16 >= 0
  ie3: +1 x4 -1 x9 >= 0
  ie4: -1 x1 -1 x9 +1 x15 >= -6
  ie5: +1 x1 -1 x9 >= 0
  ie6: +1 x8 >= 5
  ie7: +1 x13 >= 5
  ie8: +1 x9 >= 5
  ie9: +1 x1 +1 x3 -1 x4 -1 x9 >= 0
  ie10: -1 x1 -1 x8 +1 x9 >= -8
  ie11: +1 x16 >= 5
  ie12: -1 x1 -1 x9 +1 x13 >= -4
  ie13: -1 x6 +1 x7 -1 x8 +1 x20 >= 1
  ie14: -1 x1 -1 x8 +1 x15 >= -8
  ie15: +1 x17 >= 5
  ie16: -1 x1 -1 x8 +1 x11 >= -4
END

\\\\\\\\\\\\\\\\\\\\\\\\\\\\\\\\\\\\\\\\ file 11

MAXIMIZE
Subject To
  eq0: +1 x1 +1 x9 -1 x11 = 3
  eq1: -1 x1 +1 x2 +1 x17 = 9
  eq2: +1 x19 = 4
  eq3: +1 x16 +1 x20 -1 x21 = 7
  eq4: +1 x1 +1 x3 -1 x9 = 8
  eq5: +1 x1 +1 x8 -1 x13 = 4
  eq6: +1 x1 +1 x10 -1 x15 = 7
  eq7: +1 x4 +1 x9 -1 x15 = 6
  eq8: -1 x6 +1 x7 +1 x17 = 9
  eq9: +1 x16 +1 x17 -1 x18 -1 x19 = 2
  eq10: +1 x18 = 5
  eq11: -1 x15 +1 x16 +1 x17 = 6
  eq12: -1 x11 +1 x12 +1 x17 = 9
  eq13: -1 x4 +1 x5 +1 x17 = 9
  eq14: -1 x13 +1 x14 +1 x17 = 9
  eq15: +1 x21 = 5
  eq16: +1 x6 +1 x8 -1 x15 = 8
  eq17: +1 x22 = 5
  ie0: -1 x8 >= -7
  ie1: -1 x1 -1 x9 +1 x15 >= -6
  ie2: +1 x7 -1 x16 >= 0
  ie3: +1 x8 >= 5
  ie4: +1 x13 >= 5
  ie5: +1 x9 >= 5
  ie6: +1 x16 >= 5
  ie7: -1 x1 -1 x8 +1 x9 >= -8
  ie8: -1 x1 -1 x3 +1 x6 >= -7
  ie9: -1 x1 -1 x3 +1 x11 >= -7
  ie10: -1 x1 -1 x9 +1 x13 >= -4
  ie11: -1 x6 +1 x7 -1 x8 +1 x20 >= 1
  ie12: +1 x3 >= 8
  ie13: -1 x1 -1 x3 +1 x4 >= -8
  ie14: +1 x4 >= 5
  ie15: -1 x1 -1 x8 +1 x15 >= -8
  ie16: -1 x1 +1 x8 >= 0
  ie17: +1 x17 >= 5
  ie18: +1 x1 >= 5
  ie19: -1 x1 -1 x8 +1 x11 >= -4
END

\\\\\\\\\\\\\\\\\\\\\\\\\\\\\\\\\\\\\\\\ file 12

MAXIMIZE
Subject To
  eq0: +1 x1 +1 x9 -1 x11 = 3
  eq1: +1 x1 +1 x3 -1 x4 = 8
  eq2: -1 x1 +1 x2 +1 x17 = 9
  eq3: +1 x19 = 4
  eq4: +1 x16 +1 x20 -1 x21 = 7
  eq5: +1 x1 +1 x8 -1 x13 = 4
  eq6: +1 x1 +1 x10 -1 x15 = 7
  eq7: +1 x4 +1 x9 -1 x15 = 6
  eq8: -1 x6 +1 x7 +1 x17 = 9
  eq9: +1 x16 +1 x17 -1 x18 -1 x19 = 2
  eq10: +1 x18 = 5
  eq11: -1 x15 +1 x16 +1 x17 = 6
  eq12: -1 x11 +1 x12 +1 x17 = 9
  eq13: -1 x4 +1 x5 +1 x17 = 9
  eq14: -1 x13 +1 x14 +1 x17 = 9
  eq15: +1 x21 = 5
  eq16: +1 x6 +1 x8 -1 x15 = 8
  eq17: +1 x22 = 5
  ie0: -1 x8 >= -7
  ie1: -1 x1 -1 x9 +1 x15 >= -6
  ie2: +1 x7 -1 x16 >= 0
  ie3: +1 x8 >= 5
  ie4: +1 x13 >= 5
  ie5: +1 x9 >= 5
  ie6: +1 x1 +1 x3 -1 x4 -1 x9 >= 0
  ie7: -1 x1 -1 x8 +1 x9 >= -8
  ie8: +1 x16 >= 5
  ie9: -1 x1 -1 x3 +1 x6 >= -7
  ie10: -1 x1 -1 x3 +1 x11 >= -7
  ie11: -1 x1 -1 x9 +1 x13 >= -4
  ie12: -1 x6 +1 x7 -1 x8 +1 x20 >= 1
  ie13: +1 x4 >= 5
  ie14: -1 x1 -1 x8 +1 x15 >= -8
  ie15: -1 x1 +1 x8 >= 0
  ie16: +1 x17 >= 5
  ie17: +1 x1 >= 5
  ie18: -1 x1 -1 x3 +1 x9 >= -8
END

\\\\\\\\\\\\\\\\\\\\\\\\\\\\\\\\\\\\\\\\ file 13

MAXIMIZE
Subject To
  eq0: +1 x1 +1 x9 -1 x11 = 3
  eq1: -1 x1 +1 x2 +1 x20 = 9
  eq2: +1 x19 = 4
  eq3: +1 x16 +1 x20 -1 x21 = 7
  eq4: +1 x1 +1 x8 -1 x13 = 4
  eq5: -1 x6 +1 x7 +1 x20 = 9
  eq6: +1 x10 = 5
  eq7: +1 x1 +1 x10 -1 x15 = 7
  eq8: +1 x16 +1 x17 -1 x18 -1 x19 = 2
  eq9: -1 x11 +1 x12 +1 x20 = 9
  eq10: +1 x3 +1 x9 -1 x10 = 7
  eq11: -1 x4 +1 x5 +1 x20 = 9
  eq12: -1 x13 +1 x14 +1 x20 = 9
  eq13: +1 x6 = 5
  eq14: +1 x17 = 5
  eq15: -1 x15 +1 x16 +1 x20 = 6
  eq16: +1 x6 +1 x8 -1 x15 = 8
  eq17: +1 x20 = 5
  eq18: +1 x22 = 5
  eq19: +1 x3 +1 x4 -1 x6 = 7
  ie0: -1 x6 -1 x8 +1 x11 >= -4
  ie1: +1 x7 -1 x16 >= 0
  ie2: -1 x6 -1 x8 +1 x9 >= -8
  ie3: -1 x3 -1 x9 +1 x15 >= -6
  ie4: +1 x8 >= 5
  ie5: +1 x16 >= 5
  ie6: +1 x4 +1 x9 -1 x15 >= 5
  ie7: +1 x3 -1 x10 >= 0
END

\\\\\\\\\\\\\\\\\\\\\\\\\\\\\\\\\\\\\\\\ file 14

MAXIMIZE
Subject To
  eq0: +1 x1 +1 x9 -1 x11 = 3
  eq1: -1 x1 +1 x2 +1 x20 = 9
  eq2: +1 x19 = 4
  eq3: +1 x16 +1 x20 -1 x21 = 7
  eq4: +1 x1 +1 x8 -1 x13 = 4
  eq5: -1 x6 +1 x7 +1 x20 = 9
  eq6: +1 x10 = 5
  eq7: +1 x1 +1 x10 -1 x15 = 7
  eq8: +1 x16 +1 x17 -1 x18 -1 x19 = 2
  eq9: -1 x11 +1 x12 +1 x20 = 9
  eq10: +1 x3 +1 x9 -1 x10 = 7
  eq11: -1 x4 +1 x5 +1 x20 = 9
  eq12: -1 x13 +1 x14 +1 x20 = 9
  eq13: +1 x6 +1 x8 -1 x9 = 8
  eq14: +1 x6 = 5
  eq15: +1 x17 = 5
  eq16: -1 x15 +1 x16 +1 x20 = 6
  eq17: +1 x20 = 5
  eq18: +1 x22 = 5
  eq19: +1 x3 +1 x4 -1 x6 = 7
  ie0: -1 x6 -1 x8 +1 x11 >= -4
  ie1: +1 x4 -1 x6 >= 0
  ie2: +1 x7 -1 x16 >= 0
  ie3: -1 x3 -1 x9 +1 x15 >= -6
  ie4: -1 x3 +1 x4 >= 0
  ie5: +1 x4 +1 x9 -1 x15 >= 5
  ie6: -1 x1 +1 x4 -1 x10 >= -8
  ie7: +1 x3 -1 x10 >= 0
  ie8: -1 x6 -1 x8 +1 x15 >= -8
END

\\\\\\\\\\\\\\\\\\\\\\\\\\\\\\\\\\\\\\\\ file 15

MAXIMIZE
Subject To
  eq0: +1 x1 +1 x9 -1 x11 = 3
  eq1: -1 x1 +1 x2 +1 x17 = 9
  eq2: +1 x19 = 4
  eq3: +1 x16 +1 x20 -1 x21 = 7
  eq4: +1 x1 +1 x8 -1 x13 = 4
  eq5: +1 x10 = 5
  eq6: +1 x1 +1 x10 -1 x15 = 7
  eq7: +1 x4 +1 x9 -1 x15 = 6
  eq8: -1 x6 +1 x7 +1 x17 = 9
  eq9: +1 x16 +1 x17 -1 x18 -1 x19 = 2
  eq10: +1 x3 +1 x9 -1 x10 = 7
  eq11: -1 x15 +1 x16 +1 x17 = 6
  eq12: -1 x11 +1 x12 +1 x17 = 9
  eq13: +1 x6 = 5
  eq14: -1 x4 +1 x5 +1 x17 = 9
  eq15: -1 x13 +1 x14 +1 x17 = 9
  eq16: +1 x21 = 5
  eq17: +1 x17 = 5
  eq18: +1 x6 +1 x8 -1 x15 = 8
  eq19: +1 x22 = 5
  eq20: +1 x3 +1 x4 -1 x6 = 7
  ie0: -1 x6 -1 x8 +1 x11 >= -4
  ie1: -1 x1 +1 x2 +1 x20 >= 9
  ie2: +1 x7 -1 x16 >= 0
  ie3: +1 x18 >= 5
END

\\\\\\\\\\\\\\\\\\\\\\\\\\\\\\\\\\\\\\\\ file 16

MAXIMIZE
Subject To
  eq0: +1 x1 +1 x9 -1 x11 = 3
  eq1: +1 x1 +1 x3 -1 x4 = 8
  eq2: -1 x1 +1 x2 +1 x17 = 9
  eq3: +1 x19 = 4
  eq4: +1 x16 +1 x20 -1 x21 = 7
  eq5: +1 x1 +1 x8 -1 x13 = 4
  eq6: +1 x1 +1 x10 -1 x15 = 7
  eq7: -1 x6 +1 x7 +1 x17 = 9
  eq8: +1 x16 +1 x17 -1 x18 -1 x19 = 2
  eq9: +1 x18 = 5
  eq10: +1 x4 +1 x8 -1 x15 = 6
  eq11: -1 x15 +1 x16 +1 x17 = 6
  eq12: -1 x11 +1 x12 +1 x17 = 9
  eq13: -1 x4 +1 x5 +1 x17 = 9
  eq14: -1 x13 +1 x14 +1 x17 = 9
  eq15: +1 x21 = 5
  eq16: +1 x6 +1 x8 -1 x15 = 8
  eq17: +1 x22 = 5
  ie0: -1 x1 -1 x9 +1 x15 >= -6
  ie1: +1 x7 -1 x16 >= 0
  ie2: +1 x1 +1 x3 -1 x4 -1 x8 >= 0
  ie3: -1 x1 -1 x8 +1 x11 >= -3
  ie4: +1 x8 >= 5
  ie5: -1 x8 +1 x10 >= 0
  ie6: +1 x13 >= 5
  ie7: +1 x9 >= 5
  ie8: +1 x16 >= 5
  ie9: +1 x4 +1 x9 -1 x15 >= 5
  ie10: -1 x1 -1 x3 +1 x11 >= -7
  ie11: +1 x4 >= 5
  ie12: -1 x1 +1 x8 >= 0
  ie13: +1 x17 >= 5
  ie14: +1 x1 >= 5
  ie15: -1 x1 -1 x3 +1 x9 >= -8
END

\\\\\\\\\\\\\\\\\\\\\\\\\\\\\\\\\\\\\\\\ file 17

MAXIMIZE
Subject To
  eq0: +1 x1 +1 x9 -1 x11 = 3
  eq1: -1 x1 +1 x2 +1 x17 = 9
  eq2: +1 x19 = 4
  eq3: +1 x16 +1 x20 -1 x21 = 7
  eq4: +1 x1 +1 x8 -1 x13 = 4
  eq5: +1 x1 +1 x10 -1 x15 = 7
  eq6: +1 x4 +1 x9 -1 x15 = 6
  eq7: -1 x6 +1 x7 +1 x17 = 9
  eq8: +1 x16 +1 x17 -1 x18 -1 x19 = 2
  eq9: +1 x18 = 5
  eq10: -1 x15 +1 x16 +1 x17 = 6
  eq11: -1 x11 +1 x12 +1 x17 = 9
  eq12: -1 x4 +1 x5 +1 x17 = 9
  eq13: -1 x13 +1 x14 +1 x17 = 9
  eq14: +1 x21 = 5
  eq15: +1 x4 +1 x8 -1 x15 = 8
  eq16: +1 x22 = 5
  eq17: +1 x3 +1 x4 -1 x6 = 7
  ie0: -1 x1 >= -7
  ie1: +1 x7 -1 x16 >= 0
  ie2: -1 x1 -1 x10 +1 x11 >= -3
  ie3: +1 x3 -1 x4 +1 x8 -1 x9 >= 0
  ie4: -1 x3 -1 x4 +1 x15 >= -8
  ie5: +1 x8 >= 5
  ie6: -1 x3 -1 x4 +1 x10 >= -7
  ie7: +1 x13 >= 5
  ie8: +1 x9 >= 5
  ie9: +1 x1 +1 x3 -1 x4 -1 x9 >= 0
  ie10: +1 x16 >= 5
  ie11: -1 x4 +1 x13 >= 0
  ie12: -1 x4 +1 x9 >= 0
  ie13: +1 x4 >= 5
  ie14: +1 x6 >= 5
  ie15: +1 x17 >= 5
  ie16: +1 x3 -1 x10 >= 0
  ie17: -1 x3 >= -8
  ie18: +1 x3 -1 x9 >= 0
  ie19: -1 x4 +1 x6 >= 0
END

\\\\\\\\\\\\\\\\\\\\\\\\\\\\\\\\\\\\\\\\ file 18

MAXIMIZE
Subject To
  eq0: +1 x1 +1 x9 -1 x11 = 3
  eq1: -1 x1 +1 x2 +1 x17 = 9
  eq2: +1 x19 = 4
  eq3: +1 x16 +1 x20 -1 x21 = 7
  eq4: +1 x1 +1 x8 -1 x13 = 4
  eq5: +1 x1 +1 x10 -1 x15 = 7
  eq6: +1 x4 +1 x9 -1 x15 = 6
  eq7: -1 x6 +1 x7 +1 x17 = 9
  eq8: +1 x16 +1 x17 -1 x18 -1 x19 = 2
  eq9: +1 x18 = 5
  eq10: -1 x15 +1 x16 +1 x17 = 6
  eq11: -1 x11 +1 x12 +1 x17 = 9
  eq12: -1 x4 +1 x5 +1 x17 = 9
  eq13: -1 x13 +1 x14 +1 x17 = 9
  eq14: +1 x21 = 5
  eq15: +1 x6 +1 x8 -1 x15 = 8
  eq16: +1 x22 = 5
  eq17: +1 x3 +1 x4 -1 x6 = 7
  ie0: -1 x6 -1 x8 +1 x11 >= -4
  ie1: -1 x1 >= -7
  ie2: +1 x4 -1 x6 >= 0
  ie3: +1 x7 -1 x16 >= 0
  ie4: +1 x4 >= 5
  ie5: +1 x3 -1 x4 +1 x8 -1 x9 >= 0
  ie6: +1 x8 >= 5
  ie7: +1 x6 >= 5
  ie8: -1 x3 -1 x4 +1 x10 >= -7
  ie9: +1 x9 >= 5
  ie10: +1 x17 >= 5
  ie11: +1 x1 +1 x3 -1 x4 -1 x9 >= 0
  ie12: +1 x16 >= 5
  ie13: -1 x4 +1 x9 >= 0
  ie14: +1 x3 -1 x9 >= 0
END

\\\\\\\\\\\\\\\\\\\\\\\\\\\\\\\\\\\\\\\\ file 19

MAXIMIZE
Subject To
  eq0: +1 x1 +1 x9 -1 x11 = 3
  eq1: +1 x4 +1 x8 -1 x11 = 4
  eq2: -1 x1 +1 x2 +1 x17 = 9
  eq3: +1 x19 = 4
  eq4: +1 x16 +1 x20 -1 x21 = 7
  eq5: +1 x1 +1 x8 -1 x13 = 4
  eq6: +1 x1 +1 x10 -1 x15 = 7
  eq7: +1 x4 +1 x9 -1 x15 = 6
  eq8: -1 x6 +1 x7 +1 x17 = 9
  eq9: +1 x16 +1 x17 -1 x18 -1 x19 = 2
  eq10: +1 x18 = 5
  eq11: -1 x15 +1 x16 +1 x17 = 6
  eq12: -1 x11 +1 x12 +1 x17 = 9
  eq13: -1 x4 +1 x5 +1 x17 = 9
  eq14: -1 x13 +1 x14 +1 x17 = 9
  eq15: +1 x21 = 5
  eq16: +1 x22 = 5
  eq17: +1 x3 +1 x4 -1 x6 = 7
  ie0: +1 x7 -1 x16 >= 0
  ie1: +1 x8 >= 7
  ie2: -1 x4 -1 x9 +1 x11 >= -3
  ie3: +1 x3 -1 x4 +1 x8 -1 x9 >= 0
  ie4: -1 x3 -1 x4 +1 x15 >= -8
  ie5: +1 x8 >= 5
  ie6: -1 x3 -1 x4 +1 x10 >= -7
  ie7: +1 x13 >= 5
  ie8: +1 x9 >= 5
  ie9: +1 x1 +1 x3 -1 x4 -1 x9 >= 0
  ie10: +1 x16 >= 5
  ie11: -1 x4 +1 x13 >= 0
  ie12: -1 x4 +1 x9 >= 0
  ie13: -1 x3 -1 x4 +1 x11 >= -7
  ie14: -1 x4 +1 x8 >= 0
  ie15: -1 x9 +1 x10 >= 0
  ie16: +1 x4 >= 5
  ie17: +1 x6 >= 5
  ie18: +1 x17 >= 5
  ie19: +1 x3 -1 x4 >= 0
  ie20: +1 x3 -1 x9 >= 0
  ie21: -1 x4 +1 x6 >= 0
END

\\\\\\\\\\\\\\\\\\\\\\\\\\\\\\\\\\\\\\\\ end



20 polyhedra, 34 rounds, smt 1.137 sec, isect 0.772 sec, insert 0.033 sec, total 2.153 sec
Preprocessing 0.002 sec, super total 2.157 sec
Comparing... 0.520 sec.  Solution matches input.
