
----------------------------------------------------------------------
This is SMTcut v4.6.4 by Christoph Lueders -- http://wrogn.com
Python 3.7.6 (default, Jan  8 2020, 19:59:22) 
[GCC 7.3.0] x86_64
pysmt 0.9.0, gmpy2 2.0.8
Datetime: 2020-06-23T20:11:54+02:00
Command line: BIOMD0000000200 --yices
Flags: no-ppone no-ppsmt no-pp2x2 dump justone solver=yices


Model: BIOMD0000000200
Logfile: db/BIOMD0000000200/ep11-yices-Linux-smtlog.txt
Loading polyhedra...  done.
Possible combinations: 10^20.4 in 27 bags
Bag sizes: 30 2 32 24 2 8 2 16 16 4 12 2 8 2 6 2 14 14 6 6 1 2 1 2 9 11 12

Minimizing (2,0)... (2,0)


Running SMT solver (1)... 0.036 sec
Found point (7,21/2,7,6,19/2,6,19/2,7,5,5,9,25/2,10,27/2,5,11/2,11/2,5,4,13/2,5,5)
Checking... Minimizing (21,87)... (20,6), 0.028 sec
Inserting... 

MAXIMIZE
Subject To
  eq0: +1 x1 +1 x9 -1 x11 = 3
  eq1: -1 x3 -1 x4 +1 x6 +1 x8 = 0
  eq2: +1 x1 +1 x10 -1 x11 = 3
  eq3: +1 x6 +1 x8 -1 x11 = 4
  eq4: -1 x1 +1 x2 +1 x17 = 9
  eq5: +1 x19 = 4
  eq6: +1 x16 +1 x20 -1 x21 = 7
  eq7: +1 x1 +1 x8 -1 x13 = 4
  eq8: +1 x22 = 5
  eq9: +1 x4 +1 x9 -1 x15 = 6
  eq10: -1 x6 +1 x7 +1 x17 = 9
  eq11: +1 x16 +1 x17 -1 x18 -1 x19 = 2
  eq12: +1 x3 +1 x9 -1 x10 = 7
  eq13: +1 x18 = 5
  eq14: -1 x15 +1 x16 +1 x17 = 6
  eq15: -1 x11 +1 x12 +1 x17 = 9
  eq16: -1 x4 +1 x5 +1 x17 = 9
  eq17: -1 x13 +1 x14 +1 x17 = 9
  eq18: +1 x21 = 5
  eq19: -1 x1 +1 x3 +1 x9 -1 x10 = 0
  ie0: +1 x4 -1 x6 >= 0
  ie1: +1 x7 -1 x16 >= 0
  ie2: +1 x17 >= 5
  ie3: +1 x16 >= 5
  ie4: -1 x3 -1 x4 +1 x7 +1 x20 >= 1
  ie5: -1 x3 -1 x4 +1 x6 >= -7
END

0.000 sec
[1 ph, smt 0.036, isect 0.028, ins 0.000, tot 0.136]

Running SMT solver (2)... 0.034 sec
Found point (10,14,5,7,11,5,9,10,7,5,14,18,16,20,17/2,19/2,5,8,4,5,7,5)
Checking... Minimizing (20,84)... (20,7), 0.025 sec
Inserting... 

MAXIMIZE
Subject To
  eq0: +1 x4 +1 x8 -1 x11 = 3
  eq1: +1 x7 +1 x20 -1 x21 = 7
  eq2: -1 x1 +1 x2 +1 x20 = 9
  eq3: +1 x7 +1 x17 -1 x18 -1 x19 = 2
  eq4: +1 x19 = 4
  eq5: +1 x1 +1 x8 -1 x13 = 4
  eq6: -1 x6 +1 x7 +1 x20 = 9
  eq7: +1 x10 = 5
  eq8: -1 x11 +1 x12 +1 x20 = 9
  eq9: +1 x3 +1 x9 -1 x10 = 7
  eq10: -1 x4 +1 x5 +1 x20 = 9
  eq11: -1 x13 +1 x14 +1 x20 = 9
  eq12: +1 x6 +1 x8 -1 x9 = 8
  eq13: +1 x6 = 5
  eq14: +1 x17 = 5
  eq15: -1 x15 +1 x16 +1 x20 = 6
  eq16: +1 x20 = 5
  eq17: +1 x1 -1 x4 +1 x10 = 8
  eq18: +1 x22 = 5
  eq19: +1 x3 +1 x4 -1 x6 = 7
  ie0: -1 x6 -1 x8 +1 x11 >= -4
  ie1: +1 x4 -1 x6 >= 0
  ie2: +1 x3 -1 x4 -1 x8 +1 x13 >= 0
  ie3: +1 x16 >= 5
  ie4: +1 x4 +1 x9 -1 x15 >= 5
  ie5: -1 x7 +1 x16 >= 0
  ie6: +1 x3 -1 x6 >= 0
END

0.000 sec
[2 ph, smt 0.070, isect 0.053, ins 0.000, tot 0.198]

Running SMT solver (3)... 0.005 sec
Found point (8,12,21/4,27/4,43/4,5,9,9,27/4,5,47/4,63/4,13,17,6,7,5,6,4,5,5,5)
Checking... Minimizing (22,85)... (20,8), 0.020 sec
Inserting... 

MAXIMIZE
Subject To
  eq0: +1 x1 +1 x9 -1 x11 = 3
  eq1: +1 x3 +1 x4 -1 x15 = 6
  eq2: -1 x1 +1 x2 +1 x20 = 9
  eq3: +1 x19 = 4
  eq4: +1 x16 +1 x20 -1 x21 = 7
  eq5: +1 x3 +1 x9 -1 x15 = 6
  eq6: +1 x1 +1 x8 -1 x13 = 4
  eq7: -1 x6 +1 x7 +1 x20 = 9
  eq8: +1 x10 = 5
  eq9: +1 x1 +1 x10 -1 x15 = 7
  eq10: +1 x16 +1 x17 -1 x18 -1 x19 = 2
  eq11: -1 x11 +1 x12 +1 x20 = 9
  eq12: +1 x3 +1 x9 -1 x10 = 7
  eq13: -1 x4 +1 x5 +1 x20 = 9
  eq14: -1 x13 +1 x14 +1 x20 = 9
  eq15: +1 x6 = 5
  eq16: +1 x17 = 5
  eq17: -1 x15 +1 x16 +1 x20 = 6
  eq18: +1 x6 +1 x8 -1 x15 = 8
  eq19: +1 x22 = 5
  ie0: -1 x6 -1 x8 +1 x11 >= -4
  ie1: -1 x6 -1 x8 +1 x9 >= -8
  ie2: +1 x18 >= 5
  ie3: -1 x15 +1 x16 +1 x17 >= 6
  ie4: +1 x16 >= 5
  ie5: +1 x4 +1 x9 -1 x15 >= 5
  ie6: +1 x20 >= 5
  ie7: +1 x3 -1 x10 >= 0
END

0.000 sec
[3 ph, smt 0.074, isect 0.072, ins 0.000, tot 0.226]

Running SMT solver (4)... 0.022 sec
Found point (6,19/2,8,5,17/2,6,19/2,8,6,6,9,25/2,10,27/2,5,11/2,11/2,5,4,13/2,5,5)
Checking... Minimizing (21,85)... (20,7), 0.021 sec
Inserting... 

MAXIMIZE
Subject To
  eq0: +1 x1 +1 x9 -1 x11 = 3
  eq1: +1 x1 +1 x10 -1 x11 = 3
  eq2: +1 x4 +1 x8 -1 x11 = 4
  eq3: -1 x1 +1 x2 +1 x17 = 9
  eq4: +1 x19 = 4
  eq5: +1 x16 +1 x20 -1 x21 = 7
  eq6: +1 x1 +1 x8 -1 x13 = 4
  eq7: +1 x1 +1 x10 -1 x15 = 7
  eq8: +1 x4 +1 x9 -1 x15 = 6
  eq9: -1 x6 +1 x7 +1 x17 = 9
  eq10: +1 x16 +1 x17 -1 x18 -1 x19 = 2
  eq11: +1 x18 = 5
  eq12: +1 x3 +1 x4 -1 x6 = 7
  eq13: -1 x15 +1 x16 +1 x17 = 6
  eq14: -1 x11 +1 x12 +1 x17 = 9
  eq15: -1 x4 +1 x5 +1 x17 = 9
  eq16: -1 x13 +1 x14 +1 x17 = 9
  eq17: +1 x21 = 5
  eq18: +1 x22 = 5
  eq19: +1 x3 +1 x4 -1 x10 = 7
  ie0: +1 x7 -1 x16 >= 0
  ie1: +1 x9 >= 5
  ie2: +1 x17 >= 5
  ie3: +1 x16 >= 5
  ie4: -1 x4 +1 x9 >= 0
  ie5: -1 x3 >= -8
  ie6: +1 x3 -1 x4 +1 x8 -1 x9 >= 0
END

0.000 sec
[4 ph, smt 0.096, isect 0.093, ins 0.000, tot 0.272]

Running SMT solver (5)... 0.015 sec
Found point (11/2,19/2,8,11/2,19/2,15/2,23/2,11/2,11/2,13/2,8,12,7,11,5,6,5,5,4,6,5,5)
Checking... Minimizing (22,82)... (20,5), 0.019 sec
Inserting... 

MAXIMIZE
Subject To
  eq0: +1 x1 +1 x9 -1 x11 = 3
  eq1: +1 x4 +1 x8 -1 x11 = 3
  eq2: +1 x4 +1 x9 -1 x11 = 3
  eq3: +1 x4 +1 x8 -1 x13 = 4
  eq4: -1 x1 +1 x2 +1 x17 = 9
  eq5: +1 x19 = 4
  eq6: +1 x16 +1 x20 -1 x21 = 7
  eq7: +1 x1 +1 x10 -1 x15 = 7
  eq8: +1 x4 +1 x9 -1 x15 = 6
  eq9: -1 x6 +1 x7 +1 x17 = 9
  eq10: +1 x16 +1 x17 -1 x18 -1 x19 = 2
  eq11: +1 x3 +1 x9 -1 x10 = 7
  eq12: +1 x18 = 5
  eq13: -1 x15 +1 x16 +1 x17 = 6
  eq14: -1 x11 +1 x12 +1 x17 = 9
  eq15: -1 x4 +1 x5 +1 x17 = 9
  eq16: -1 x13 +1 x14 +1 x17 = 9
  eq17: +1 x21 = 5
  eq18: +1 x6 +1 x8 -1 x15 = 8
  eq19: +1 x22 = 5
  ie0: +1 x4 -1 x9 >= 0
  ie1: +1 x17 >= 5
  ie2: +1 x16 >= 5
  ie3: +1 x3 -1 x4 +1 x8 -1 x9 >= 0
  ie4: +1 x8 >= 5
END

0.000 sec
[5 ph, smt 0.111, isect 0.112, ins 0.000, tot 0.310]

Running SMT solver (6)... 0.009 sec
Found point (16/3,28/3,8,16/3,28/3,22/3,34/3,17/3,17/3,20/3,8,12,7,11,5,6,5,5,4,6,5,5)
Checking... Minimizing (22,81)... (20,8), 0.018 sec
Inserting... 

MAXIMIZE
Subject To
  eq0: +1 x1 +1 x9 -1 x11 = 3
  eq1: +1 x4 +1 x8 -1 x11 = 3
  eq2: +1 x4 +1 x9 -1 x11 = 3
  eq3: +1 x4 +1 x8 -1 x13 = 4
  eq4: -1 x1 +1 x2 +1 x17 = 9
  eq5: +1 x19 = 4
  eq6: +1 x16 +1 x20 -1 x21 = 7
  eq7: +1 x1 +1 x10 -1 x15 = 7
  eq8: +1 x3 = 8
  eq9: +1 x4 +1 x9 -1 x15 = 6
  eq10: -1 x6 +1 x7 +1 x17 = 9
  eq11: +1 x16 +1 x17 -1 x18 -1 x19 = 2
  eq12: +1 x18 = 5
  eq13: -1 x15 +1 x16 +1 x17 = 6
  eq14: -1 x11 +1 x12 +1 x17 = 9
  eq15: -1 x4 +1 x5 +1 x17 = 9
  eq16: -1 x13 +1 x14 +1 x17 = 9
  eq17: +1 x21 = 5
  eq18: +1 x6 +1 x8 -1 x15 = 8
  eq19: +1 x22 = 5
  ie0: +1 x7 -1 x16 >= 0
  ie1: +1 x4 >= 5
  ie2: +1 x3 -1 x4 +1 x8 -1 x9 >= 0
  ie3: +1 x8 >= 5
  ie4: +1 x17 >= 5
  ie5: +1 x16 >= 5
  ie6: +1 x1 +1 x3 -1 x4 -1 x9 >= 0
  ie7: -1 x4 +1 x9 >= 0
END

0.002 sec
[6 ph, smt 0.120, isect 0.130, ins 0.002, tot 0.342]

Running SMT solver (7)... 0.003 sec
Found point (5,26/3,25/3,16/3,9,22/3,11,17/3,6,7,8,35/3,20/3,31/3,5,17/3,16/3,5,4,19/3,5,5)
Checking... Minimizing (20,82)... (19,12), 0.023 sec
Inserting... 

MAXIMIZE
Subject To
  eq0: +1 x1 +1 x9 -1 x11 = 3
  eq1: +1 x4 +1 x8 -1 x11 = 3
  eq2: +1 x1 +1 x3 -1 x4 = 8
  eq3: -1 x1 +1 x2 +1 x17 = 9
  eq4: +1 x19 = 4
  eq5: +1 x16 +1 x20 -1 x21 = 7
  eq6: +1 x1 +1 x8 -1 x13 = 4
  eq7: +1 x1 +1 x10 -1 x15 = 7
  eq8: -1 x6 +1 x7 +1 x17 = 9
  eq9: +1 x16 +1 x17 -1 x18 -1 x19 = 2
  eq10: +1 x18 = 5
  eq11: +1 x4 +1 x8 -1 x15 = 6
  eq12: -1 x15 +1 x16 +1 x17 = 6
  eq13: -1 x11 +1 x12 +1 x17 = 9
  eq14: -1 x4 +1 x5 +1 x17 = 9
  eq15: -1 x13 +1 x14 +1 x17 = 9
  eq16: +1 x21 = 5
  eq17: +1 x6 +1 x8 -1 x15 = 8
  eq18: +1 x22 = 5
  ie0: +1 x7 -1 x16 >= 0
  ie1: +1 x1 +1 x3 -1 x4 -1 x8 >= 0
  ie2: +1 x4 >= 5
  ie3: -1 x1 -1 x8 +1 x11 >= -3
  ie4: +1 x8 >= 5
  ie5: -1 x8 +1 x10 >= 0
  ie6: +1 x13 >= 5
  ie7: +1 x9 >= 5
  ie8: +1 x16 >= 5
  ie9: +1 x17 >= 5
  ie10: +1 x1 >= 5
  ie11: -1 x1 +1 x8 >= 0
END

0.003 sec
[6 ph, smt 0.123, isect 0.154, ins 0.005, tot 0.375]

Running SMT solver (8)... 0.004 sec
Found point (7,32/3,20/3,17/3,28/3,16/3,9,23/3,16/3,5,28/3,13,32/3,43/3,5,17/3,16/3,5,4,19/3,5,5)
Checking... Minimizing (21,87)... (20,4), 0.021 sec
Inserting... 

MAXIMIZE
Subject To
  eq0: +1 x1 +1 x9 -1 x11 = 3
  eq1: -1 x1 +1 x2 +1 x17 = 9
  eq2: +1 x19 = 4
  eq3: +1 x16 +1 x20 -1 x21 = 7
  eq4: +1 x1 +1 x8 -1 x13 = 4
  eq5: +1 x1 +1 x10 -1 x15 = 7
  eq6: +1 x4 +1 x9 -1 x15 = 6
  eq7: -1 x6 +1 x7 +1 x17 = 9
  eq8: +1 x16 +1 x17 -1 x18 -1 x19 = 2
  eq9: +1 x3 +1 x9 -1 x10 = 7
  eq10: +1 x18 = 5
  eq11: -1 x15 +1 x16 +1 x17 = 6
  eq12: -1 x11 +1 x12 +1 x17 = 9
  eq13: -1 x1 +1 x3 +1 x9 -1 x10 = 0
  eq14: -1 x4 +1 x5 +1 x17 = 9
  eq15: -1 x13 +1 x14 +1 x17 = 9
  eq16: +1 x21 = 5
  eq17: +1 x6 +1 x8 -1 x15 = 8
  eq18: +1 x22 = 5
  eq19: +1 x3 +1 x4 -1 x6 = 7
  ie0: -1 x6 -1 x8 +1 x11 >= -4
  ie1: +1 x4 -1 x9 >= 0
  ie2: +1 x17 >= 5
  ie3: +1 x16 >= 5
END

0.002 sec
[6 ph, smt 0.127, isect 0.174, ins 0.007, tot 0.404]

Running SMT solver (9)... 0.021 sec
Found point (9,13,6,6,10,5,9,9,6,5,12,16,14,18,7,8,5,7,4,5,6,5)
Checking... Minimizing (22,88)... (21,6), 0.018 sec
Inserting... 

MAXIMIZE
Subject To
  eq0: +1 x4 +1 x8 -1 x11 = 3
  eq1: -1 x1 +1 x2 +1 x20 = 9
  eq2: +1 x4 -1 x6 +1 x9 = 7
  eq3: +1 x19 = 4
  eq4: +1 x16 +1 x20 -1 x21 = 7
  eq5: +1 x1 +1 x8 -1 x13 = 4
  eq6: +1 x4 +1 x9 -1 x10 = 7
  eq7: -1 x6 +1 x7 +1 x20 = 9
  eq8: +1 x10 = 5
  eq9: +1 x1 +1 x10 -1 x15 = 7
  eq10: +1 x16 +1 x17 -1 x18 -1 x19 = 2
  eq11: -1 x11 +1 x12 +1 x20 = 9
  eq12: +1 x3 +1 x9 -1 x10 = 7
  eq13: -1 x4 +1 x5 +1 x20 = 9
  eq14: -1 x13 +1 x14 +1 x20 = 9
  eq15: +1 x6 +1 x8 -1 x9 = 8
  eq16: +1 x17 = 5
  eq17: -1 x15 +1 x16 +1 x20 = 6
  eq18: +1 x20 = 5
  eq19: +1 x22 = 5
  eq20: +1 x3 +1 x4 -1 x6 = 7
  ie0: +1 x7 -1 x16 >= 0
  ie1: +1 x1 -1 x4 -1 x8 +1 x9 >= 0
  ie2: +1 x3 -1 x4 -1 x8 +1 x13 >= 0
  ie3: +1 x16 >= 5
  ie4: +1 x4 +1 x9 -1 x15 >= 5
  ie5: -1 x6 -1 x8 +1 x15 >= -8
END

0.000 sec
[7 ph, smt 0.148, isect 0.193, ins 0.007, tot 0.447]

Running SMT solver (10)... 0.004 sec
Found point (6,10,31/4,23/4,39/4,13/2,21/2,13/2,21/4,6,33/4,49/4,17/2,25/2,5,6,5,5,4,6,5,5)
Checking... Minimizing (20,82)... (19,10), 0.022 sec
Inserting... 

MAXIMIZE
Subject To
  eq0: +1 x1 +1 x9 -1 x11 = 3
  eq1: +1 x4 +1 x8 -1 x11 = 4
  eq2: -1 x1 +1 x2 +1 x17 = 9
  eq3: +1 x19 = 4
  eq4: +1 x16 +1 x20 -1 x21 = 7
  eq5: +1 x1 +1 x8 -1 x13 = 4
  eq6: +1 x1 +1 x10 -1 x15 = 7
  eq7: +1 x4 +1 x9 -1 x15 = 6
  eq8: -1 x6 +1 x7 +1 x17 = 9
  eq9: +1 x16 +1 x17 -1 x18 -1 x19 = 2
  eq10: +1 x3 +1 x9 -1 x10 = 7
  eq11: +1 x18 = 5
  eq12: -1 x15 +1 x16 +1 x17 = 6
  eq13: -1 x11 +1 x12 +1 x17 = 9
  eq14: -1 x4 +1 x5 +1 x17 = 9
  eq15: -1 x13 +1 x14 +1 x17 = 9
  eq16: +1 x21 = 5
  eq17: +1 x6 +1 x8 -1 x15 = 8
  eq18: +1 x22 = 5
  ie0: -1 x8 >= -7
  ie1: +1 x4 -1 x9 >= 0
  ie2: +1 x7 -1 x16 >= 0
  ie3: -1 x4 -1 x9 +1 x11 >= -3
  ie4: +1 x3 -1 x4 +1 x8 -1 x9 >= 0
  ie5: +1 x8 >= 5
  ie6: +1 x9 >= 5
  ie7: +1 x17 >= 5
  ie8: +1 x16 >= 5
  ie9: -1 x9 +1 x10 >= 0
END

0.000 sec
[8 ph, smt 0.152, isect 0.215, ins 0.008, tot 0.477]

Running SMT solver (11)... 0.011 sec
Found point (5,9,8,6,10,17/2,25/2,5,5,15/2,7,11,6,10,11/2,13/2,5,11/2,4,11/2,5,5)
Checking... Minimizing (20,80)... (20,9), 0.020 sec
Inserting... 

MAXIMIZE
Subject To
  eq0: +1 x1 +1 x9 -1 x11 = 3
  eq1: +1 x4 +1 x9 -1 x11 = 4
  eq2: +1 x9 = 5
  eq3: -1 x1 +1 x2 +1 x17 = 9
  eq4: +1 x19 = 4
  eq5: +1 x16 +1 x20 -1 x21 = 7
  eq6: +1 x1 +1 x8 -1 x13 = 4
  eq7: +1 x1 +1 x10 -1 x15 = 7
  eq8: +1 x3 = 8
  eq9: -1 x6 +1 x7 +1 x17 = 9
  eq10: +1 x16 +1 x17 -1 x18 -1 x19 = 2
  eq11: -1 x15 +1 x16 +1 x17 = 6
  eq12: -1 x11 +1 x12 +1 x17 = 9
  eq13: -1 x4 +1 x5 +1 x17 = 9
  eq14: -1 x13 +1 x14 +1 x17 = 9
  eq15: +1 x21 = 5
  eq16: +1 x17 = 5
  eq17: +1 x1 = 5
  eq18: +1 x6 +1 x8 -1 x15 = 8
  eq19: +1 x22 = 5
  ie0: -1 x8 >= -7
  ie1: -1 x1 -1 x9 +1 x15 >= -6
  ie2: +1 x7 -1 x16 >= 0
  ie3: +1 x18 >= 5
  ie4: +1 x8 >= 5
  ie5: -1 x1 +1 x2 +1 x20 >= 9
  ie6: -1 x1 -1 x8 +1 x15 >= -8
  ie7: -1 x1 -1 x8 +1 x11 >= -4
  ie8: -1 x1 -1 x8 +1 x9 >= -8
END

0.000 sec
[9 ph, smt 0.163, isect 0.235, ins 0.008, tot 0.511]

Running SMT solver (12)... 0.002 sec
Found point (5,8,8,6,9,8,11,5,5,7,7,10,6,9,5,5,6,5,4,7,5,5)
Checking... Minimizing (19,81)... (19,14), 0.022 sec
Inserting... 

MAXIMIZE
Subject To
  eq0: +1 x1 +1 x9 -1 x11 = 3
  eq1: +1 x4 +1 x9 -1 x11 = 4
  eq2: +1 x16 = 5
  eq3: -1 x1 +1 x2 +1 x17 = 9
  eq4: +1 x19 = 4
  eq5: +1 x16 +1 x20 -1 x21 = 7
  eq6: +1 x1 +1 x8 -1 x13 = 4
  eq7: +1 x1 +1 x10 -1 x15 = 7
  eq8: +1 x3 = 8
  eq9: -1 x6 +1 x7 +1 x17 = 9
  eq10: +1 x16 +1 x17 -1 x18 -1 x19 = 2
  eq11: +1 x18 = 5
  eq12: -1 x15 +1 x16 +1 x17 = 6
  eq13: -1 x11 +1 x12 +1 x17 = 9
  eq14: -1 x4 +1 x5 +1 x17 = 9
  eq15: -1 x13 +1 x14 +1 x17 = 9
  eq16: +1 x21 = 5
  eq17: +1 x6 +1 x8 -1 x15 = 8
  eq18: +1 x22 = 5
  ie0: -1 x8 >= -7
  ie1: +1 x6 -1 x9 >= 1
  ie2: +1 x7 -1 x16 >= 0
  ie3: +1 x4 -1 x9 >= 0
  ie4: -1 x1 -1 x9 +1 x15 >= -6
  ie5: +1 x1 -1 x9 >= 0
  ie6: +1 x8 >= 5
  ie7: -1 x1 -1 x8 +1 x15 >= -8
  ie8: +1 x13 >= 5
  ie9: +1 x9 >= 5
  ie10: -1 x1 -1 x8 +1 x11 >= -4
  ie11: -1 x1 -1 x8 +1 x9 >= -8
  ie12: -1 x4 -1 x9 +1 x15 >= -6
  ie13: -1 x1 -1 x9 +1 x13 >= -4
END

0.000 sec
[10 ph, smt 0.165, isect 0.258, ins 0.008, tot 0.539]

Running SMT solver (13)... 0.002 sec
Found point (5,17/2,8,6,19/2,7,21/2,6,5,7,7,21/2,7,21/2,5,11/2,11/2,5,4,13/2,5,5)
Checking... Minimizing (19,81)... (18,16), 0.024 sec
Inserting... 

MAXIMIZE
Subject To
  eq0: +1 x1 +1 x9 -1 x11 = 3
  eq1: +1 x4 +1 x9 -1 x11 = 4
  eq2: -1 x1 +1 x2 +1 x17 = 9
  eq3: +1 x19 = 4
  eq4: +1 x16 +1 x20 -1 x21 = 7
  eq5: +1 x1 +1 x8 -1 x13 = 4
  eq6: +1 x3 = 8
  eq7: +1 x1 +1 x10 -1 x15 = 7
  eq8: -1 x6 +1 x7 +1 x17 = 9
  eq9: +1 x16 +1 x17 -1 x18 -1 x19 = 2
  eq10: +1 x18 = 5
  eq11: -1 x15 +1 x16 +1 x17 = 6
  eq12: -1 x11 +1 x12 +1 x17 = 9
  eq13: -1 x4 +1 x5 +1 x17 = 9
  eq14: -1 x13 +1 x14 +1 x17 = 9
  eq15: +1 x21 = 5
  eq16: +1 x6 +1 x8 -1 x15 = 8
  eq17: +1 x22 = 5
  ie0: -1 x8 >= -7
  ie1: +1 x6 -1 x9 >= 1
  ie2: +1 x7 -1 x16 >= 0
  ie3: +1 x4 -1 x9 >= 0
  ie4: -1 x1 -1 x9 +1 x15 >= -6
  ie5: +1 x1 -1 x9 >= 0
  ie6: +1 x8 >= 5
  ie7: +1 x13 >= 5
  ie8: +1 x9 >= 5
  ie9: +1 x16 >= 5
  ie10: -1 x1 -1 x8 +1 x9 >= -8
  ie11: -1 x4 -1 x9 +1 x15 >= -6
  ie12: -1 x1 -1 x9 +1 x13 >= -4
  ie13: -1 x1 -1 x8 +1 x15 >= -8
  ie14: +1 x17 >= 5
  ie15: -1 x1 -1 x8 +1 x11 >= -4
END

0.002 sec
[10 ph, smt 0.167, isect 0.282, ins 0.009, tot 0.571]

Running SMT solver (14)... 0.004 sec
Found point (6,10,8,6,10,22/3,34/3,17/3,5,6,8,12,23/3,35/3,5,6,5,5,4,6,5,5)
Checking... Minimizing (21,82)... (19,11), 0.020 sec
Inserting... 

MAXIMIZE
Subject To
  eq0: +1 x1 +1 x9 -1 x11 = 3
  eq1: +1 x4 +1 x9 -1 x11 = 3
  eq2: +1 x4 +1 x8 -1 x13 = 4
  eq3: -1 x1 +1 x2 +1 x17 = 9
  eq4: +1 x19 = 4
  eq5: +1 x16 +1 x20 -1 x21 = 7
  eq6: +1 x1 +1 x10 -1 x15 = 7
  eq7: +1 x4 +1 x9 -1 x15 = 6
  eq8: -1 x6 +1 x7 +1 x17 = 9
  eq9: +1 x16 +1 x17 -1 x18 -1 x19 = 2
  eq10: +1 x3 +1 x9 -1 x10 = 7
  eq11: +1 x18 = 5
  eq12: -1 x15 +1 x16 +1 x17 = 6
  eq13: -1 x11 +1 x12 +1 x17 = 9
  eq14: -1 x4 +1 x5 +1 x17 = 9
  eq15: -1 x13 +1 x14 +1 x17 = 9
  eq16: +1 x21 = 5
  eq17: +1 x6 +1 x8 -1 x15 = 8
  eq18: +1 x22 = 5
  ie0: -1 x8 >= -7
  ie1: -1 x6 +1 x7 -1 x8 +1 x20 >= 1
  ie2: +1 x4 -1 x9 >= 0
  ie3: +1 x7 -1 x16 >= 0
  ie4: -1 x4 -1 x8 +1 x11 >= -4
  ie5: +1 x3 -1 x4 +1 x8 -1 x9 >= 0
  ie6: +1 x8 >= 5
  ie7: +1 x9 >= 5
  ie8: +1 x17 >= 5
  ie9: +1 x16 >= 5
  ie10: -1 x1 -1 x9 +1 x13 >= -4
END

0.002 sec
[10 ph, smt 0.171, isect 0.302, ins 0.011, tot 0.600]

Running SMT solver (15)... 0.004 sec
Found point (6,9,7,5,8,5,8,8,6,6,9,12,10,13,5,5,6,5,4,7,5,5)
Checking... Minimizing (20,87)... (20,10), 0.021 sec
Inserting... 

MAXIMIZE
Subject To
  eq0: +1 x1 +1 x9 -1 x11 = 3
  eq1: +1 x1 +1 x10 -1 x11 = 3
  eq2: +1 x16 = 5
  eq3: +1 x6 +1 x8 -1 x11 = 4
  eq4: -1 x1 +1 x2 +1 x17 = 9
  eq5: +1 x19 = 4
  eq6: +1 x16 +1 x20 -1 x21 = 7
  eq7: +1 x1 +1 x8 -1 x13 = 4
  eq8: +1 x1 +1 x10 -1 x15 = 7
  eq9: +1 x4 +1 x9 -1 x15 = 6
  eq10: -1 x6 +1 x7 +1 x17 = 9
  eq11: +1 x16 +1 x17 -1 x18 -1 x19 = 2
  eq12: +1 x18 = 5
  eq13: -1 x15 +1 x16 +1 x17 = 6
  eq14: -1 x11 +1 x12 +1 x17 = 9
  eq15: -1 x4 +1 x5 +1 x17 = 9
  eq16: -1 x13 +1 x14 +1 x17 = 9
  eq17: +1 x21 = 5
  eq18: +1 x22 = 5
  eq19: +1 x3 +1 x4 -1 x6 = 7
  ie0: +1 x4 -1 x6 >= 0
  ie1: +1 x7 -1 x16 >= 0
  ie2: +1 x4 >= 5
  ie3: +1 x3 -1 x4 +1 x8 -1 x9 >= 0
  ie4: +1 x8 >= 5
  ie5: +1 x6 >= 5
  ie6: +1 x9 >= 5
  ie7: +1 x1 +1 x3 -1 x4 -1 x9 >= 0
  ie8: -1 x4 +1 x9 >= 0
  ie9: +1 x3 -1 x9 >= 0
END

0.000 sec
[11 ph, smt 0.175, isect 0.323, ins 0.011, tot 0.629]

Running SMT solver (16)... 0.003 sec
Found point (37/7,65/7,57/7,39/7,67/7,7,11,6,38/7,47/7,54/7,82/7,51/7,79/7,5,6,5,5,4,6,5,5)
Checking... Minimizing (19,82)... (18,20), 0.027 sec
Inserting... 

MAXIMIZE
Subject To
  eq0: +1 x1 +1 x9 -1 x11 = 3
  eq1: -1 x1 +1 x2 +1 x17 = 9
  eq2: +1 x19 = 4
  eq3: +1 x16 +1 x20 -1 x21 = 7
  eq4: +1 x1 +1 x3 -1 x9 = 8
  eq5: +1 x1 +1 x8 -1 x13 = 4
  eq6: +1 x1 +1 x10 -1 x15 = 7
  eq7: +1 x4 +1 x9 -1 x15 = 6
  eq8: -1 x6 +1 x7 +1 x17 = 9
  eq9: +1 x16 +1 x17 -1 x18 -1 x19 = 2
  eq10: +1 x18 = 5
  eq11: -1 x15 +1 x16 +1 x17 = 6
  eq12: -1 x11 +1 x12 +1 x17 = 9
  eq13: -1 x4 +1 x5 +1 x17 = 9
  eq14: -1 x13 +1 x14 +1 x17 = 9
  eq15: +1 x21 = 5
  eq16: +1 x6 +1 x8 -1 x15 = 8
  eq17: +1 x22 = 5
  ie0: -1 x8 >= -7
  ie1: -1 x1 -1 x9 +1 x15 >= -6
  ie2: +1 x7 -1 x16 >= 0
  ie3: +1 x8 >= 5
  ie4: +1 x13 >= 5
  ie5: +1 x9 >= 5
  ie6: +1 x16 >= 5
  ie7: -1 x1 -1 x8 +1 x9 >= -8
  ie8: -1 x1 -1 x3 +1 x6 >= -7
  ie9: -1 x1 -1 x3 +1 x11 >= -7
  ie10: -1 x1 -1 x9 +1 x13 >= -4
  ie11: -1 x6 +1 x7 -1 x8 +1 x20 >= 1
  ie12: +1 x3 >= 8
  ie13: -1 x1 -1 x3 +1 x4 >= -8
  ie14: +1 x4 >= 5
  ie15: -1 x1 -1 x8 +1 x15 >= -8
  ie16: -1 x1 +1 x8 >= 0
  ie17: +1 x17 >= 5
  ie18: +1 x1 >= 5
  ie19: -1 x1 -1 x8 +1 x11 >= -4
END

0.003 sec
[11 ph, smt 0.178, isect 0.350, ins 0.014, tot 0.665]

Running SMT solver (17)... 0.003 sec
Found point (16/3,28/3,26/3,6,10,8,12,5,17/3,20/3,8,12,19/3,31/3,5,6,5,5,4,6,5,5)
Checking... Minimizing (20,83)... (19,9), 0.023 sec
Inserting... 

MAXIMIZE
Subject To
  eq0: +1 x1 +1 x9 -1 x11 = 3
  eq1: +1 x4 +1 x8 -1 x11 = 3
  eq2: -1 x1 +1 x2 +1 x17 = 9
  eq3: +1 x19 = 4
  eq4: +1 x16 +1 x20 -1 x21 = 7
  eq5: +1 x1 +1 x8 -1 x13 = 4
  eq6: +1 x3 +1 x8 -1 x10 = 7
  eq7: +1 x1 +1 x10 -1 x15 = 7
  eq8: -1 x6 +1 x7 +1 x17 = 9
  eq9: +1 x16 +1 x17 -1 x18 -1 x19 = 2
  eq10: +1 x18 = 5
  eq11: +1 x4 +1 x8 -1 x15 = 6
  eq12: -1 x15 +1 x16 +1 x17 = 6
  eq13: -1 x11 +1 x12 +1 x17 = 9
  eq14: -1 x4 +1 x5 +1 x17 = 9
  eq15: -1 x13 +1 x14 +1 x17 = 9
  eq16: +1 x21 = 5
  eq17: +1 x6 +1 x8 -1 x15 = 8
  eq18: +1 x22 = 5
  ie0: +1 x4 -1 x8 >= 0
  ie1: -1 x1 -1 x8 +1 x11 >= -3
  ie2: +1 x1 -1 x8 >= 0
  ie3: +1 x8 >= 5
  ie4: -1 x8 +1 x10 >= 0
  ie5: +1 x13 >= 5
  ie6: +1 x9 >= 5
  ie7: +1 x16 >= 5
  ie8: +1 x17 >= 5
END

0.000 sec
[12 ph, smt 0.181, isect 0.372, ins 0.014, tot 0.694]

Running SMT solver (18)... 0.011 sec
Found point (60/11,94/11,89/11,63/11,97/11,85/11,119/11,58/11,59/11,72/11,86/11,120/11,74/11,108/11,5,56/11,65/11,5,4,76/11,5,5)
Checking... Minimizing (19,82)... (18,13), 0.026 sec
Inserting... 

MAXIMIZE
Subject To
  eq0: +1 x1 +1 x9 -1 x11 = 3
  eq1: -1 x1 +1 x2 +1 x17 = 9
  eq2: +1 x19 = 4
  eq3: +1 x16 +1 x20 -1 x21 = 7
  eq4: +1 x1 +1 x8 -1 x13 = 4
  eq5: +1 x3 +1 x8 -1 x9 = 8
  eq6: +1 x1 +1 x10 -1 x15 = 7
  eq7: -1 x6 +1 x7 +1 x17 = 9
  eq8: +1 x16 +1 x17 -1 x18 -1 x19 = 2
  eq9: +1 x18 = 5
  eq10: +1 x4 +1 x8 -1 x15 = 6
  eq11: -1 x15 +1 x16 +1 x17 = 6
  eq12: -1 x11 +1 x12 +1 x17 = 9
  eq13: -1 x4 +1 x5 +1 x17 = 9
  eq14: -1 x13 +1 x14 +1 x17 = 9
  eq15: +1 x21 = 5
  eq16: +1 x6 +1 x8 -1 x15 = 8
  eq17: +1 x22 = 5
  ie0: -1 x1 -1 x9 +1 x15 >= -6
  ie1: +1 x7 -1 x16 >= 0
  ie2: +1 x1 +1 x3 -1 x4 -1 x8 >= 0
  ie3: +1 x4 >= 5
  ie4: -1 x1 -1 x8 +1 x11 >= -3
  ie5: +1 x1 -1 x8 >= 0
  ie6: +1 x8 >= 5
  ie7: -1 x8 +1 x10 >= 0
  ie8: +1 x13 >= 5
  ie9: +1 x9 >= 5
  ie10: +1 x16 >= 5
  ie11: +1 x4 +1 x9 -1 x15 >= 5
  ie12: +1 x17 >= 5
END

0.002 sec
[12 ph, smt 0.192, isect 0.399, ins 0.017, tot 0.737]

Running SMT solver (19)... 0.003 sec
Found point (26/5,46/5,41/5,27/5,47/5,37/5,57/5,28/5,28/5,34/5,39/5,59/5,34/5,54/5,5,6,5,5,4,6,5,5)
Checking... Minimizing (19,82)... (18,19), 0.026 sec
Inserting... 

MAXIMIZE
Subject To
  eq0: +1 x1 +1 x9 -1 x11 = 3
  eq1: +1 x1 +1 x3 -1 x4 = 8
  eq2: -1 x1 +1 x2 +1 x17 = 9
  eq3: +1 x19 = 4
  eq4: +1 x16 +1 x20 -1 x21 = 7
  eq5: +1 x1 +1 x8 -1 x13 = 4
  eq6: +1 x1 +1 x10 -1 x15 = 7
  eq7: +1 x4 +1 x9 -1 x15 = 6
  eq8: -1 x6 +1 x7 +1 x17 = 9
  eq9: +1 x16 +1 x17 -1 x18 -1 x19 = 2
  eq10: +1 x18 = 5
  eq11: -1 x15 +1 x16 +1 x17 = 6
  eq12: -1 x11 +1 x12 +1 x17 = 9
  eq13: -1 x4 +1 x5 +1 x17 = 9
  eq14: -1 x13 +1 x14 +1 x17 = 9
  eq15: +1 x21 = 5
  eq16: +1 x6 +1 x8 -1 x15 = 8
  eq17: +1 x22 = 5
  ie0: -1 x8 >= -7
  ie1: -1 x1 -1 x9 +1 x15 >= -6
  ie2: +1 x7 -1 x16 >= 0
  ie3: +1 x8 >= 5
  ie4: +1 x13 >= 5
  ie5: +1 x9 >= 5
  ie6: +1 x1 +1 x3 -1 x4 -1 x9 >= 0
  ie7: -1 x1 -1 x8 +1 x9 >= -8
  ie8: +1 x16 >= 5
  ie9: -1 x1 -1 x3 +1 x6 >= -7
  ie10: -1 x1 -1 x3 +1 x11 >= -7
  ie11: -1 x1 -1 x9 +1 x13 >= -4
  ie12: -1 x6 +1 x7 -1 x8 +1 x20 >= 1
  ie13: +1 x4 >= 5
  ie14: -1 x1 -1 x8 +1 x15 >= -8
  ie15: -1 x1 +1 x8 >= 0
  ie16: +1 x17 >= 5
  ie17: +1 x1 >= 5
  ie18: -1 x1 -1 x3 +1 x9 >= -8
END

0.001 sec
[13 ph, smt 0.195, isect 0.425, ins 0.017, tot 0.770]

Running SMT solver (20)... 0.003 sec
Found point (11/2,19/2,13/2,11/2,19/2,5,9,7,11/2,13/2,8,12,17/2,25/2,5,6,5,5,4,6,5,5)
Checking... Minimizing (21,85)... (20,7), 0.021 sec
Inserting... 

MAXIMIZE
Subject To
  eq0: +1 x1 +1 x9 -1 x11 = 3
  eq1: -1 x3 -1 x4 +1 x6 +1 x8 = 0
  eq2: +1 x4 +1 x9 -1 x11 = 3
  eq3: +1 x6 +1 x8 -1 x11 = 4
  eq4: -1 x1 +1 x2 +1 x17 = 9
  eq5: +1 x19 = 4
  eq6: +1 x16 +1 x20 -1 x21 = 7
  eq7: +1 x3 -1 x6 +1 x9 = 7
  eq8: +1 x1 +1 x8 -1 x13 = 4
  eq9: +1 x22 = 5
  eq10: +1 x4 +1 x9 -1 x15 = 6
  eq11: -1 x6 +1 x7 +1 x17 = 9
  eq12: +1 x16 +1 x17 -1 x18 -1 x19 = 2
  eq13: +1 x18 = 5
  eq14: -1 x15 +1 x16 +1 x17 = 6
  eq15: -1 x11 +1 x12 +1 x17 = 9
  eq16: -1 x4 +1 x5 +1 x17 = 9
  eq17: -1 x13 +1 x14 +1 x17 = 9
  eq18: +1 x21 = 5
  eq19: -1 x1 +1 x3 +1 x9 -1 x10 = 0
  ie0: +1 x4 -1 x6 >= 0
  ie1: +1 x7 -1 x16 >= 0
  ie2: +1 x9 >= 5
  ie3: +1 x17 >= 5
  ie4: +1 x16 >= 5
  ie5: -1 x3 -1 x4 +1 x6 >= -7
  ie6: +1 x3 +1 x4 -1 x6 >= 7
END

0.000 sec
[14 ph, smt 0.198, isect 0.446, ins 0.017, tot 0.798]

Running SMT solver (21)... 0.002 sec
Found point (28/5,48/5,8,29/5,49/5,34/5,54/5,31/5,26/5,32/5,39/5,59/5,39/5,59/5,5,6,5,5,4,6,5,5)
Checking... Minimizing (19,81)... (18,17), 0.024 sec
Inserting... 

MAXIMIZE
Subject To
  eq0: +1 x1 +1 x9 -1 x11 = 3
  eq1: -1 x1 +1 x2 +1 x17 = 9
  eq2: +1 x19 = 4
  eq3: +1 x16 +1 x20 -1 x21 = 7
  eq4: +1 x1 +1 x8 -1 x13 = 4
  eq5: +1 x3 = 8
  eq6: +1 x4 +1 x9 -1 x15 = 6
  eq7: -1 x6 +1 x7 +1 x17 = 9
  eq8: +1 x1 +1 x10 -1 x15 = 7
  eq9: +1 x16 +1 x17 -1 x18 -1 x19 = 2
  eq10: +1 x18 = 5
  eq11: -1 x15 +1 x16 +1 x17 = 6
  eq12: -1 x11 +1 x12 +1 x17 = 9
  eq13: -1 x4 +1 x5 +1 x17 = 9
  eq14: -1 x13 +1 x14 +1 x17 = 9
  eq15: +1 x21 = 5
  eq16: +1 x6 +1 x8 -1 x15 = 8
  eq17: +1 x22 = 5
  ie0: -1 x8 >= -7
  ie1: +1 x6 -1 x9 >= 1
  ie2: +1 x7 -1 x16 >= 0
  ie3: +1 x4 -1 x9 >= 0
  ie4: -1 x1 -1 x9 +1 x15 >= -6
  ie5: +1 x1 -1 x9 >= 0
  ie6: +1 x8 >= 5
  ie7: +1 x13 >= 5
  ie8: +1 x9 >= 5
  ie9: +1 x1 +1 x3 -1 x4 -1 x9 >= 0
  ie10: -1 x1 -1 x8 +1 x9 >= -8
  ie11: +1 x16 >= 5
  ie12: -1 x1 -1 x9 +1 x13 >= -4
  ie13: -1 x6 +1 x7 -1 x8 +1 x20 >= 1
  ie14: -1 x1 -1 x8 +1 x15 >= -8
  ie15: +1 x17 >= 5
  ie16: -1 x1 -1 x8 +1 x11 >= -4
END

0.002 sec
[14 ph, smt 0.200, isect 0.470, ins 0.020, tot 0.829]

Running SMT solver (22)... 0.002 sec
Found point (16/3,28/3,20/3,16/3,28/3,5,9,7,17/3,20/3,8,12,25/3,37/3,5,6,5,5,4,6,5,5)
Checking... Minimizing (21,84)... (20,6), 0.019 sec
Inserting... 

MAXIMIZE
Subject To
  eq0: +1 x1 +1 x9 -1 x11 = 3
  eq1: -1 x3 -1 x4 +1 x6 +1 x8 = 0
  eq2: +1 x4 +1 x9 -1 x11 = 3
  eq3: +1 x6 +1 x8 -1 x11 = 4
  eq4: -1 x1 +1 x2 +1 x17 = 9
  eq5: +1 x19 = 4
  eq6: +1 x16 +1 x20 -1 x21 = 7
  eq7: +1 x1 +1 x8 -1 x13 = 4
  eq8: +1 x1 +1 x10 -1 x15 = 7
  eq9: +1 x4 +1 x9 -1 x15 = 6
  eq10: -1 x6 +1 x7 +1 x17 = 9
  eq11: +1 x16 +1 x17 -1 x18 -1 x19 = 2
  eq12: +1 x18 = 5
  eq13: -1 x15 +1 x16 +1 x17 = 6
  eq14: -1 x11 +1 x12 +1 x17 = 9
  eq15: -1 x4 +1 x5 +1 x17 = 9
  eq16: -1 x13 +1 x14 +1 x17 = 9
  eq17: +1 x21 = 5
  eq18: +1 x22 = 5
  eq19: +1 x3 +1 x4 -1 x6 = 7
  ie0: +1 x4 -1 x6 >= 0
  ie1: +1 x9 >= 5
  ie2: +1 x17 >= 5
  ie3: +1 x16 >= 5
  ie4: -1 x4 +1 x9 >= 0
  ie5: +1 x3 -1 x4 +1 x8 -1 x9 >= 0
END

0.002 sec
[14 ph, smt 0.201, isect 0.489, ins 0.022, tot 0.855]

Running SMT solver (23)... 0.003 sec
Found point (5,9,15/2,5,9,11/2,19/2,7,6,7,8,12,8,12,5,6,5,5,4,6,5,5)
Checking... Minimizing (21,82)... (19,13), 0.022 sec
Inserting... 

MAXIMIZE
Subject To
  eq0: +1 x1 +1 x9 -1 x11 = 3
  eq1: -1 x3 -1 x4 +1 x6 +1 x8 = 0
  eq2: +1 x4 +1 x9 -1 x11 = 3
  eq3: +1 x4 +1 x8 -1 x13 = 4
  eq4: -1 x1 +1 x2 +1 x17 = 9
  eq5: +1 x19 = 4
  eq6: +1 x16 +1 x20 -1 x21 = 7
  eq7: +1 x1 +1 x10 -1 x15 = 7
  eq8: +1 x4 +1 x9 -1 x15 = 6
  eq9: -1 x6 +1 x7 +1 x17 = 9
  eq10: +1 x16 +1 x17 -1 x18 -1 x19 = 2
  eq11: +1 x18 = 5
  eq12: -1 x15 +1 x16 +1 x17 = 6
  eq13: -1 x11 +1 x12 +1 x17 = 9
  eq14: -1 x4 +1 x5 +1 x17 = 9
  eq15: -1 x13 +1 x14 +1 x17 = 9
  eq16: +1 x21 = 5
  eq17: +1 x22 = 5
  eq18: +1 x3 +1 x4 -1 x6 = 7
  ie0: +1 x7 -1 x16 >= 0
  ie1: -1 x4 -1 x8 +1 x11 >= -4
  ie2: +1 x4 >= 5
  ie3: +1 x3 -1 x4 +1 x8 -1 x9 >= 0
  ie4: -1 x3 -1 x4 +1 x15 >= -8
  ie5: +1 x6 >= 5
  ie6: +1 x13 >= 5
  ie7: +1 x9 >= 5
  ie8: +1 x1 +1 x3 -1 x4 -1 x9 >= 0
  ie9: +1 x16 >= 5
  ie10: +1 x17 >= 5
  ie11: -1 x4 +1 x9 >= 0
  ie12: -1 x3 -1 x4 +1 x11 >= -7
END

0.000 sec
[15 ph, smt 0.204, isect 0.510, ins 0.022, tot 0.883]

Running SMT solver (24)... 0.005 sec
Found point (28/5,48/5,39/5,27/5,47/5,31/5,51/5,34/5,28/5,32/5,41/5,61/5,42/5,62/5,5,6,5,5,4,6,5,5)
Checking... Minimizing (20,82)... (19,16), 0.024 sec
Inserting... 

MAXIMIZE
Subject To
  eq0: +1 x1 +1 x9 -1 x11 = 3
  eq1: +1 x4 +1 x8 -1 x11 = 4
  eq2: -1 x1 +1 x2 +1 x17 = 9
  eq3: +1 x19 = 4
  eq4: +1 x16 +1 x20 -1 x21 = 7
  eq5: +1 x1 +1 x8 -1 x13 = 4
  eq6: +1 x1 +1 x10 -1 x15 = 7
  eq7: +1 x4 +1 x9 -1 x15 = 6
  eq8: -1 x6 +1 x7 +1 x17 = 9
  eq9: +1 x16 +1 x17 -1 x18 -1 x19 = 2
  eq10: +1 x18 = 5
  eq11: -1 x15 +1 x16 +1 x17 = 6
  eq12: -1 x11 +1 x12 +1 x17 = 9
  eq13: -1 x4 +1 x5 +1 x17 = 9
  eq14: -1 x13 +1 x14 +1 x17 = 9
  eq15: +1 x21 = 5
  eq16: +1 x6 +1 x8 -1 x15 = 8
  eq17: +1 x22 = 5
  eq18: +1 x3 +1 x4 -1 x6 = 7
  ie0: -1 x8 >= -7
  ie1: +1 x7 -1 x16 >= 0
  ie2: -1 x4 -1 x9 +1 x11 >= -3
  ie3: +1 x3 -1 x4 +1 x8 -1 x9 >= 0
  ie4: +1 x8 >= 5
  ie5: +1 x13 >= 5
  ie6: +1 x9 >= 5
  ie7: +1 x1 +1 x3 -1 x4 -1 x9 >= 0
  ie8: +1 x16 >= 5
  ie9: -1 x4 +1 x13 >= 0
  ie10: -1 x4 +1 x9 >= 0
  ie11: -1 x4 +1 x8 >= 0
  ie12: -1 x9 +1 x10 >= 0
  ie13: -1 x6 +1 x7 -1 x8 +1 x20 >= 1
  ie14: +1 x4 >= 5
  ie15: +1 x17 >= 5
END

0.001 sec
[16 ph, smt 0.209, isect 0.534, ins 0.023, tot 0.915]

Running SMT solver (25)... 0.010 sec
Found point (7,21/2,7,5,17/2,5,17/2,8,6,5,10,27/2,11,29/2,5,11/2,11/2,5,4,13/2,5,5)
Checking... Minimizing (20,87)... (19,12), 0.025 sec
Inserting... 

MAXIMIZE
Subject To
  eq0: +1 x4 +1 x8 -1 x11 = 3
  eq1: -1 x1 +1 x2 +1 x17 = 9
  eq2: +1 x19 = 4
  eq3: +1 x16 +1 x20 -1 x21 = 7
  eq4: +1 x1 +1 x8 -1 x13 = 4
  eq5: +1 x1 +1 x10 -1 x15 = 7
  eq6: +1 x4 +1 x9 -1 x15 = 6
  eq7: -1 x6 +1 x7 +1 x17 = 9
  eq8: +1 x16 +1 x17 -1 x18 -1 x19 = 2
  eq9: +1 x18 = 5
  eq10: +1 x3 +1 x4 -1 x10 = 7
  eq11: -1 x15 +1 x16 +1 x17 = 6
  eq12: -1 x11 +1 x12 +1 x17 = 9
  eq13: -1 x4 +1 x5 +1 x17 = 9
  eq14: -1 x13 +1 x14 +1 x17 = 9
  eq15: +1 x21 = 5
  eq16: +1 x6 +1 x8 -1 x15 = 8
  eq17: +1 x22 = 5
  eq18: +1 x3 +1 x4 -1 x6 = 7
  ie0: -1 x6 -1 x8 +1 x11 >= -4
  ie1: -1 x1 >= -7
  ie2: +1 x4 -1 x6 >= 0
  ie3: +1 x7 -1 x16 >= 0
  ie4: +1 x3 -1 x4 -1 x8 +1 x13 >= 0
  ie5: +1 x4 >= 5
  ie6: +1 x9 >= 5
  ie7: +1 x17 >= 5
  ie8: +1 x16 >= 5
  ie9: +1 x1 -1 x4 -1 x8 +1 x9 >= 0
  ie10: -1 x4 +1 x9 >= 0
  ie11: +1 x3 -1 x9 >= 0
END

0.000 sec
[17 ph, smt 0.219, isect 0.559, ins 0.023, tot 0.955]

Running SMT solver (26)... 0.003 sec
Found point (22/3,34/3,19/3,17/3,29/3,5,9,25/3,17/3,5,10,14,35/3,47/3,16/3,19/3,5,16/3,4,17/3,5,5)
Checking... Minimizing (21,87)... (21,4), 0.019 sec
Inserting... 

MAXIMIZE
Subject To
  eq0: +1 x1 +1 x9 -1 x11 = 3
  eq1: -1 x1 +1 x2 +1 x17 = 9
  eq2: +1 x19 = 4
  eq3: +1 x16 +1 x20 -1 x21 = 7
  eq4: +1 x1 +1 x8 -1 x13 = 4
  eq5: +1 x10 = 5
  eq6: +1 x1 +1 x10 -1 x15 = 7
  eq7: +1 x4 +1 x9 -1 x15 = 6
  eq8: -1 x6 +1 x7 +1 x17 = 9
  eq9: +1 x16 +1 x17 -1 x18 -1 x19 = 2
  eq10: +1 x3 +1 x9 -1 x10 = 7
  eq11: -1 x15 +1 x16 +1 x17 = 6
  eq12: -1 x11 +1 x12 +1 x17 = 9
  eq13: +1 x6 = 5
  eq14: -1 x4 +1 x5 +1 x17 = 9
  eq15: -1 x13 +1 x14 +1 x17 = 9
  eq16: +1 x21 = 5
  eq17: +1 x17 = 5
  eq18: +1 x6 +1 x8 -1 x15 = 8
  eq19: +1 x22 = 5
  eq20: +1 x3 +1 x4 -1 x6 = 7
  ie0: -1 x6 -1 x8 +1 x11 >= -4
  ie1: -1 x1 +1 x2 +1 x20 >= 9
  ie2: +1 x7 -1 x16 >= 0
  ie3: +1 x18 >= 5
END

0.001 sec
[18 ph, smt 0.222, isect 0.579, ins 0.024, tot 0.981]

Running SMT solver (27)... 0.003 sec
Found point (19/2,27/2,11/2,13/2,21/2,5,9,19/2,13/2,5,13,17,15,19,15/2,17/2,5,15/2,4,5,13/2,5)
Checking... Minimizing (20,85)... (20,12), 0.022 sec
Inserting... 

MAXIMIZE
Subject To
  eq0: +1 x4 +1 x8 -1 x11 = 3
  eq1: -1 x1 +1 x2 +1 x20 = 9
  eq2: +1 x19 = 4
  eq3: +1 x16 +1 x20 -1 x21 = 7
  eq4: +1 x1 +1 x8 -1 x13 = 4
  eq5: -1 x6 +1 x7 +1 x20 = 9
  eq6: +1 x10 = 5
  eq7: +1 x1 +1 x10 -1 x15 = 7
  eq8: +1 x16 +1 x17 -1 x18 -1 x19 = 2
  eq9: -1 x11 +1 x12 +1 x20 = 9
  eq10: +1 x3 +1 x9 -1 x10 = 7
  eq11: -1 x4 +1 x5 +1 x20 = 9
  eq12: -1 x13 +1 x14 +1 x20 = 9
  eq13: +1 x6 +1 x8 -1 x9 = 8
  eq14: +1 x6 = 5
  eq15: +1 x17 = 5
  eq16: -1 x15 +1 x16 +1 x20 = 6
  eq17: +1 x20 = 5
  eq18: +1 x22 = 5
  eq19: +1 x3 +1 x4 -1 x6 = 7
  ie0: -1 x6 -1 x8 +1 x11 >= -4
  ie1: +1 x4 -1 x6 >= 0
  ie2: +1 x7 -1 x16 >= 0
  ie3: +1 x3 -1 x4 -1 x8 +1 x13 >= 0
  ie4: -1 x3 -1 x9 +1 x15 >= -6
  ie5: -1 x3 +1 x4 >= 0
  ie6: +1 x1 -1 x4 -1 x8 +1 x9 >= 0
  ie7: +1 x16 >= 5
  ie8: +1 x4 +1 x9 -1 x15 >= 5
  ie9: -1 x1 +1 x4 -1 x10 >= -8
  ie10: +1 x3 -1 x10 >= 0
  ie11: -1 x6 -1 x8 +1 x15 >= -8
END

0.002 sec
[18 ph, smt 0.225, isect 0.601, ins 0.026, tot 1.012]

Running SMT solver (28)... 0.002 sec
Found point (9,13,5,7,11,5,9,10,7,5,13,17,15,19,7,8,5,7,4,5,6,5)
Checking... Minimizing (20,85)... (20,8), 0.022 sec
Inserting... 

MAXIMIZE
Subject To
  eq0: +1 x1 +1 x9 -1 x11 = 3
  eq1: -1 x1 +1 x2 +1 x20 = 9
  eq2: +1 x19 = 4
  eq3: +1 x16 +1 x20 -1 x21 = 7
  eq4: +1 x1 +1 x8 -1 x13 = 4
  eq5: -1 x6 +1 x7 +1 x20 = 9
  eq6: +1 x10 = 5
  eq7: +1 x1 +1 x10 -1 x15 = 7
  eq8: +1 x16 +1 x17 -1 x18 -1 x19 = 2
  eq9: -1 x11 +1 x12 +1 x20 = 9
  eq10: +1 x3 +1 x9 -1 x10 = 7
  eq11: -1 x4 +1 x5 +1 x20 = 9
  eq12: -1 x13 +1 x14 +1 x20 = 9
  eq13: +1 x6 = 5
  eq14: +1 x17 = 5
  eq15: -1 x15 +1 x16 +1 x20 = 6
  eq16: +1 x6 +1 x8 -1 x15 = 8
  eq17: +1 x20 = 5
  eq18: +1 x22 = 5
  eq19: +1 x3 +1 x4 -1 x6 = 7
  ie0: -1 x6 -1 x8 +1 x11 >= -4
  ie1: +1 x7 -1 x16 >= 0
  ie2: -1 x6 -1 x8 +1 x9 >= -8
  ie3: -1 x3 -1 x9 +1 x15 >= -6
  ie4: +1 x8 >= 5
  ie5: +1 x16 >= 5
  ie6: +1 x4 +1 x9 -1 x15 >= 5
  ie7: +1 x3 -1 x10 >= 0
END

0.002 sec
[18 ph, smt 0.227, isect 0.622, ins 0.028, tot 1.040]

Running SMT solver (29)... 0.001 sec
Found point (19/2,27/2,5,7,11,5,9,10,7,5,27/2,35/2,31/2,39/2,15/2,17/2,5,15/2,4,5,13/2,5)
Checking... Minimizing (20,85)... (20,9), 0.022 sec
Inserting... 

MAXIMIZE
Subject To
  eq0: +1 x1 +1 x9 -1 x11 = 3
  eq1: -1 x1 +1 x2 +1 x20 = 9
  eq2: +1 x19 = 4
  eq3: +1 x16 +1 x20 -1 x21 = 7
  eq4: +1 x1 +1 x8 -1 x13 = 4
  eq5: -1 x6 +1 x7 +1 x20 = 9
  eq6: +1 x10 = 5
  eq7: +1 x1 +1 x10 -1 x15 = 7
  eq8: +1 x16 +1 x17 -1 x18 -1 x19 = 2
  eq9: -1 x11 +1 x12 +1 x20 = 9
  eq10: +1 x3 +1 x9 -1 x10 = 7
  eq11: -1 x4 +1 x5 +1 x20 = 9
  eq12: -1 x13 +1 x14 +1 x20 = 9
  eq13: +1 x6 +1 x8 -1 x9 = 8
  eq14: +1 x6 = 5
  eq15: +1 x17 = 5
  eq16: -1 x15 +1 x16 +1 x20 = 6
  eq17: +1 x20 = 5
  eq18: +1 x22 = 5
  eq19: +1 x3 +1 x4 -1 x6 = 7
  ie0: -1 x6 -1 x8 +1 x11 >= -4
  ie1: +1 x4 -1 x6 >= 0
  ie2: +1 x7 -1 x16 >= 0
  ie3: -1 x3 -1 x9 +1 x15 >= -6
  ie4: -1 x3 +1 x4 >= 0
  ie5: +1 x4 +1 x9 -1 x15 >= 5
  ie6: -1 x1 +1 x4 -1 x10 >= -8
  ie7: +1 x3 -1 x10 >= 0
  ie8: -1 x6 -1 x8 +1 x15 >= -8
END

0.004 sec
[18 ph, smt 0.228, isect 0.644, ins 0.032, tot 1.070]

Running SMT solver (30)... 0.001 sec
Found point (7,11,20/3,16/3,28/3,5,9,8,17/3,5,29/3,41/3,11,15,5,6,5,5,4,6,5,5)
Checking... Minimizing (20,87)... (19,10), 0.025 sec
Inserting... 

MAXIMIZE
Subject To
  eq0: +1 x1 +1 x9 -1 x11 = 3
  eq1: -1 x1 +1 x2 +1 x17 = 9
  eq2: +1 x19 = 4
  eq3: +1 x16 +1 x20 -1 x21 = 7
  eq4: +1 x1 +1 x8 -1 x13 = 4
  eq5: +1 x1 +1 x10 -1 x15 = 7
  eq6: +1 x4 +1 x9 -1 x15 = 6
  eq7: -1 x6 +1 x7 +1 x17 = 9
  eq8: +1 x16 +1 x17 -1 x18 -1 x19 = 2
  eq9: +1 x18 = 5
  eq10: +1 x3 +1 x4 -1 x10 = 7
  eq11: -1 x15 +1 x16 +1 x17 = 6
  eq12: -1 x11 +1 x12 +1 x17 = 9
  eq13: -1 x4 +1 x5 +1 x17 = 9
  eq14: -1 x13 +1 x14 +1 x17 = 9
  eq15: +1 x21 = 5
  eq16: +1 x6 +1 x8 -1 x15 = 8
  eq17: +1 x22 = 5
  eq18: +1 x3 +1 x4 -1 x6 = 7
  ie0: -1 x6 -1 x8 +1 x11 >= -4
  ie1: -1 x1 >= -7
  ie2: +1 x4 -1 x6 >= 0
  ie3: +1 x7 -1 x16 >= 0
  ie4: +1 x4 >= 5
  ie5: +1 x9 >= 5
  ie6: +1 x17 >= 5
  ie7: +1 x16 >= 5
  ie8: -1 x4 +1 x9 >= 0
  ie9: +1 x3 -1 x9 >= 0
END

0.003 sec
[18 ph, smt 0.229, isect 0.669, ins 0.035, tot 1.102]

Running SMT solver (31)... 0.003 sec
Found point (19/2,27/2,11/2,13/2,21/2,5,9,19/2,13/2,5,13,17,15,19,31/4,35/4,5,31/4,4,5,27/4,5)
Checking... Minimizing (20,84)... (20,10), 0.022 sec
Inserting... 

MAXIMIZE
Subject To
  eq0: +1 x4 +1 x8 -1 x11 = 3
  eq1: -1 x1 +1 x2 +1 x20 = 9
  eq2: +1 x19 = 4
  eq3: +1 x16 +1 x20 -1 x21 = 7
  eq4: +1 x1 +1 x8 -1 x13 = 4
  eq5: -1 x6 +1 x7 +1 x20 = 9
  eq6: +1 x10 = 5
  eq7: +1 x16 +1 x17 -1 x18 -1 x19 = 2
  eq8: -1 x11 +1 x12 +1 x20 = 9
  eq9: +1 x3 +1 x9 -1 x10 = 7
  eq10: -1 x4 +1 x5 +1 x20 = 9
  eq11: -1 x13 +1 x14 +1 x20 = 9
  eq12: +1 x6 +1 x8 -1 x9 = 8
  eq13: +1 x6 = 5
  eq14: +1 x17 = 5
  eq15: -1 x15 +1 x16 +1 x20 = 6
  eq16: +1 x20 = 5
  eq17: +1 x1 -1 x4 +1 x10 = 8
  eq18: +1 x22 = 5
  eq19: +1 x3 +1 x4 -1 x6 = 7
  ie0: -1 x6 -1 x8 +1 x11 >= -4
  ie1: +1 x4 -1 x6 >= 0
  ie2: +1 x7 -1 x16 >= 0
  ie3: +1 x3 -1 x4 -1 x8 +1 x13 >= 0
  ie4: -1 x3 -1 x9 +1 x15 >= -6
  ie5: -1 x4 +1 x15 >= 1
  ie6: +1 x16 >= 5
  ie7: +1 x4 +1 x9 -1 x15 >= 5
  ie8: +1 x3 -1 x6 >= 0
  ie9: -1 x6 -1 x8 +1 x15 >= -8
END

0.000 sec
[19 ph, smt 0.232, isect 0.691, ins 0.035, tot 1.130]

Running SMT solver (32)... 0.006 sec
Found point (13/2,39/4,27/4,21/4,17/2,5,33/4,8,23/4,11/2,37/4,25/2,21/2,55/4,5,21/4,23/4,5,4,27/4,5,5)
Checking... Minimizing (19,87)... (18,15), 0.027 sec
Inserting... 

MAXIMIZE
Subject To
  eq0: +1 x1 +1 x9 -1 x11 = 3
  eq1: -1 x1 +1 x2 +1 x17 = 9
  eq2: +1 x19 = 4
  eq3: +1 x16 +1 x20 -1 x21 = 7
  eq4: +1 x1 +1 x8 -1 x13 = 4
  eq5: +1 x1 +1 x10 -1 x15 = 7
  eq6: +1 x4 +1 x9 -1 x15 = 6
  eq7: -1 x6 +1 x7 +1 x17 = 9
  eq8: +1 x16 +1 x17 -1 x18 -1 x19 = 2
  eq9: +1 x18 = 5
  eq10: -1 x15 +1 x16 +1 x17 = 6
  eq11: -1 x11 +1 x12 +1 x17 = 9
  eq12: -1 x4 +1 x5 +1 x17 = 9
  eq13: -1 x13 +1 x14 +1 x17 = 9
  eq14: +1 x21 = 5
  eq15: +1 x6 +1 x8 -1 x15 = 8
  eq16: +1 x22 = 5
  eq17: +1 x3 +1 x4 -1 x6 = 7
  ie0: -1 x6 -1 x8 +1 x11 >= -4
  ie1: -1 x1 >= -7
  ie2: +1 x4 -1 x6 >= 0
  ie3: +1 x7 -1 x16 >= 0
  ie4: +1 x4 >= 5
  ie5: +1 x3 -1 x4 +1 x8 -1 x9 >= 0
  ie6: +1 x8 >= 5
  ie7: +1 x6 >= 5
  ie8: -1 x3 -1 x4 +1 x10 >= -7
  ie9: +1 x9 >= 5
  ie10: +1 x17 >= 5
  ie11: +1 x1 +1 x3 -1 x4 -1 x9 >= 0
  ie12: +1 x16 >= 5
  ie13: -1 x4 +1 x9 >= 0
  ie14: +1 x3 -1 x9 >= 0
END

0.004 sec
[18 ph, smt 0.238, isect 0.717, ins 0.039, tot 1.170]

Running SMT solver (33)... 0.003 sec
Found point (5,73/9,76/9,17/3,79/9,23/3,97/9,16/3,49/9,7,67/9,95/9,19/3,85/9,5,46/9,53/9,5,4,62/9,5,5)
Checking... Minimizing (19,82)... (18,18), 0.027 sec
Inserting... 

MAXIMIZE
Subject To
  eq0: +1 x1 +1 x9 -1 x11 = 3
  eq1: -1 x1 +1 x2 +1 x17 = 9
  eq2: +1 x19 = 4
  eq3: +1 x16 +1 x20 -1 x21 = 7
  eq4: +1 x1 +1 x3 -1 x9 = 8
  eq5: +1 x1 +1 x8 -1 x13 = 4
  eq6: +1 x1 +1 x10 -1 x15 = 7
  eq7: -1 x6 +1 x7 +1 x17 = 9
  eq8: +1 x16 +1 x17 -1 x18 -1 x19 = 2
  eq9: +1 x18 = 5
  eq10: +1 x4 +1 x8 -1 x15 = 6
  eq11: -1 x15 +1 x16 +1 x17 = 6
  eq12: -1 x11 +1 x12 +1 x17 = 9
  eq13: -1 x4 +1 x5 +1 x17 = 9
  eq14: -1 x13 +1 x14 +1 x17 = 9
  eq15: +1 x21 = 5
  eq16: +1 x6 +1 x8 -1 x15 = 8
  eq17: +1 x22 = 5
  ie0: -1 x1 -1 x9 +1 x15 >= -6
  ie1: +1 x7 -1 x16 >= 0
  ie2: +1 x1 +1 x3 -1 x4 -1 x8 >= 0
  ie3: -1 x1 -1 x8 +1 x11 >= -3
  ie4: +1 x8 >= 5
  ie5: -1 x8 +1 x10 >= 0
  ie6: +1 x13 >= 5
  ie7: +1 x9 >= 5
  ie8: +1 x16 >= 5
  ie9: +1 x4 +1 x9 -1 x15 >= 5
  ie10: -1 x1 -1 x3 +1 x6 >= -7
  ie11: -1 x1 -1 x3 +1 x11 >= -7
  ie12: -1 x6 +1 x7 -1 x8 +1 x20 >= 1
  ie13: -1 x1 -1 x3 +1 x4 >= -8
  ie14: +1 x4 >= 5
  ie15: -1 x1 +1 x8 >= 0
  ie16: +1 x17 >= 5
  ie17: +1 x1 >= 5
END

0.001 sec
[19 ph, smt 0.241, isect 0.744, ins 0.040, tot 1.204]

Running SMT solver (34)... 0.002 sec
Found point (21/4,9,29/4,5,35/4,21/4,9,29/4,6,27/4,33/4,12,17/2,49/4,5,23/4,21/4,5,4,25/4,5,5)
Checking... Minimizing (19,82)... (18,22), 0.029 sec
Inserting... 

MAXIMIZE
Subject To
  eq0: +1 x1 +1 x9 -1 x11 = 3
  eq1: +1 x4 +1 x8 -1 x11 = 4
  eq2: -1 x1 +1 x2 +1 x17 = 9
  eq3: +1 x19 = 4
  eq4: +1 x16 +1 x20 -1 x21 = 7
  eq5: +1 x1 +1 x8 -1 x13 = 4
  eq6: +1 x1 +1 x10 -1 x15 = 7
  eq7: +1 x4 +1 x9 -1 x15 = 6
  eq8: -1 x6 +1 x7 +1 x17 = 9
  eq9: +1 x16 +1 x17 -1 x18 -1 x19 = 2
  eq10: +1 x18 = 5
  eq11: -1 x15 +1 x16 +1 x17 = 6
  eq12: -1 x11 +1 x12 +1 x17 = 9
  eq13: -1 x4 +1 x5 +1 x17 = 9
  eq14: -1 x13 +1 x14 +1 x17 = 9
  eq15: +1 x21 = 5
  eq16: +1 x22 = 5
  eq17: +1 x3 +1 x4 -1 x6 = 7
  ie0: +1 x7 -1 x16 >= 0
  ie1: +1 x8 >= 7
  ie2: -1 x4 -1 x9 +1 x11 >= -3
  ie3: +1 x3 -1 x4 +1 x8 -1 x9 >= 0
  ie4: -1 x3 -1 x4 +1 x15 >= -8
  ie5: +1 x8 >= 5
  ie6: -1 x3 -1 x4 +1 x10 >= -7
  ie7: +1 x13 >= 5
  ie8: +1 x9 >= 5
  ie9: +1 x1 +1 x3 -1 x4 -1 x9 >= 0
  ie10: +1 x16 >= 5
  ie11: -1 x4 +1 x13 >= 0
  ie12: -1 x4 +1 x9 >= 0
  ie13: -1 x3 -1 x4 +1 x11 >= -7
  ie14: -1 x4 +1 x8 >= 0
  ie15: -1 x9 +1 x10 >= 0
  ie16: +1 x4 >= 5
  ie17: +1 x6 >= 5
  ie18: +1 x17 >= 5
  ie19: +1 x3 -1 x4 >= 0
  ie20: +1 x3 -1 x9 >= 0
  ie21: -1 x4 +1 x6 >= 0
END

0.005 sec
[18 ph, smt 0.243, isect 0.773, ins 0.044, tot 1.244]

Running SMT solver (35)... 0.003 sec
Found point (20/3,31/3,7,17/3,28/3,17/3,28/3,22/3,16/3,16/3,9,38/3,10,41/3,5,17/3,16/3,5,4,19/3,5,5)
Checking... Minimizing (21,87)... (20,6), 0.020 sec
Inserting... 

MAXIMIZE
Subject To
  eq0: +1 x1 +1 x9 -1 x11 = 3
  eq1: +1 x1 +1 x10 -1 x11 = 3
  eq2: +1 x6 +1 x8 -1 x11 = 4
  eq3: -1 x1 +1 x2 +1 x17 = 9
  eq4: +1 x19 = 4
  eq5: +1 x16 +1 x20 -1 x21 = 7
  eq6: +1 x1 +1 x8 -1 x13 = 4
  eq7: +1 x1 +1 x10 -1 x15 = 7
  eq8: +1 x4 +1 x9 -1 x15 = 6
  eq9: -1 x6 +1 x7 +1 x17 = 9
  eq10: +1 x16 +1 x17 -1 x18 -1 x19 = 2
  eq11: +1 x3 +1 x9 -1 x10 = 7
  eq12: +1 x18 = 5
  eq13: -1 x15 +1 x16 +1 x17 = 6
  eq14: -1 x11 +1 x12 +1 x17 = 9
  eq15: -1 x4 +1 x5 +1 x17 = 9
  eq16: -1 x13 +1 x14 +1 x17 = 9
  eq17: +1 x21 = 5
  eq18: +1 x22 = 5
  eq19: +1 x3 +1 x4 -1 x6 = 7
  ie0: +1 x4 -1 x9 >= 0
  ie1: +1 x9 >= 5
  ie2: +1 x17 >= 5
  ie3: +1 x16 >= 5
  ie4: +1 x3 -1 x4 +1 x8 -1 x9 >= 0
  ie5: +1 x8 >= 5
END

0.000 sec
[19 ph, smt 0.246, isect 0.792, ins 0.045, tot 1.270]

Running SMT solver (36)... 0.001 sec
Found point (35/6,59/6,41/6,11/2,19/2,16/3,28/3,7,11/2,37/6,25/3,37/3,53/6,77/6,5,6,5,5,4,6,5,5)
Checking... Minimizing (20,85)... (19,13), 0.028 sec
Inserting... 

MAXIMIZE
Subject To
  eq0: +1 x1 +1 x9 -1 x11 = 3
  eq1: -1 x3 -1 x4 +1 x6 +1 x8 = 0
  eq2: +1 x6 +1 x8 -1 x11 = 4
  eq3: -1 x1 +1 x2 +1 x17 = 9
  eq4: +1 x19 = 4
  eq5: +1 x16 +1 x20 -1 x21 = 7
  eq6: +1 x3 -1 x6 +1 x9 = 7
  eq7: +1 x1 +1 x8 -1 x13 = 4
  eq8: +1 x1 +1 x10 -1 x15 = 7
  eq9: +1 x4 +1 x9 -1 x15 = 6
  eq10: -1 x6 +1 x7 +1 x17 = 9
  eq11: +1 x16 +1 x17 -1 x18 -1 x19 = 2
  eq12: +1 x18 = 5
  eq13: -1 x15 +1 x16 +1 x17 = 6
  eq14: -1 x11 +1 x12 +1 x17 = 9
  eq15: -1 x4 +1 x5 +1 x17 = 9
  eq16: -1 x13 +1 x14 +1 x17 = 9
  eq17: +1 x21 = 5
  eq18: +1 x22 = 5
  ie0: +1 x4 -1 x6 >= 0
  ie1: +1 x7 -1 x16 >= 0
  ie2: -1 x4 -1 x9 +1 x11 >= -3
  ie3: +1 x3 +1 x4 -1 x6 >= 7
  ie4: +1 x3 -1 x4 +1 x8 -1 x9 >= 0
  ie5: +1 x13 >= 5
  ie6: +1 x9 >= 5
  ie7: +1 x1 +1 x3 -1 x4 -1 x9 >= 0
  ie8: +1 x16 >= 5
  ie9: +1 x17 >= 5
  ie10: -1 x3 -1 x4 +1 x6 >= -7
  ie11: +1 x3 -1 x4 >= 0
  ie12: -1 x9 +1 x10 >= 0
END

0.000 sec
[20 ph, smt 0.248, isect 0.820, ins 0.045, tot 1.303]

Running SMT solver (37)... 0.001 sec
Found point (17/3,29/3,13/2,11/2,19/2,5,9,43/6,11/2,19/3,49/6,73/6,53/6,77/6,5,6,5,5,4,6,5,5)
Checking... Minimizing (20,85)... (19,16), 0.025 sec
Inserting... 

MAXIMIZE
Subject To
  eq0: +1 x1 +1 x9 -1 x11 = 3
  eq1: +1 x6 +1 x8 -1 x11 = 4
  eq2: -1 x1 +1 x2 +1 x17 = 9
  eq3: +1 x19 = 4
  eq4: +1 x16 +1 x20 -1 x21 = 7
  eq5: +1 x3 -1 x6 +1 x9 = 7
  eq6: +1 x1 +1 x8 -1 x13 = 4
  eq7: +1 x4 +1 x9 -1 x15 = 6
  eq8: -1 x6 +1 x7 +1 x17 = 9
  eq9: +1 x16 +1 x17 -1 x18 -1 x19 = 2
  eq10: +1 x18 = 5
  eq11: -1 x15 +1 x16 +1 x17 = 6
  eq12: -1 x11 +1 x12 +1 x17 = 9
  eq13: -1 x1 +1 x3 +1 x9 -1 x10 = 0
  eq14: -1 x4 +1 x5 +1 x17 = 9
  eq15: -1 x13 +1 x14 +1 x17 = 9
  eq16: +1 x21 = 5
  eq17: +1 x22 = 5
  eq18: +1 x3 +1 x4 -1 x6 = 7
  ie0: +1 x4 -1 x6 >= 0
  ie1: +1 x7 -1 x16 >= 0
  ie2: +1 x8 >= 7
  ie3: -1 x4 -1 x9 +1 x11 >= -3
  ie4: +1 x3 -1 x4 +1 x8 -1 x9 >= 0
  ie5: +1 x8 >= 5
  ie6: +1 x13 >= 5
  ie7: +1 x1 +1 x3 -1 x4 -1 x9 >= 0
  ie8: +1 x16 >= 5
  ie9: +1 x3 -1 x6 +1 x13 >= 7
  ie10: -1 x9 +1 x10 >= 0
  ie11: +1 x3 -1 x6 +1 x8 >= 7
  ie12: -1 x3 -1 x9 +1 x15 >= -7
  ie13: +1 x6 >= 5
  ie14: +1 x17 >= 5
  ie15: -1 x6 -1 x8 +1 x15 >= -8
END

0.000 sec
[21 ph, smt 0.249, isect 0.846, ins 0.045, tot 1.333]

Running SMT solver (38)... 0.001 sec
Found point (23/4,39/4,53/8,11/2,19/2,41/8,73/8,57/8,11/2,25/4,33/4,49/4,71/8,103/8,5,6,5,5,4,6,5,5)
Checking... Minimizing (20,85)... (19,15), 0.025 sec
Inserting... 

MAXIMIZE
Subject To
  eq0: +1 x1 +1 x9 -1 x11 = 3
  eq1: +1 x6 +1 x8 -1 x11 = 4
  eq2: -1 x1 +1 x2 +1 x17 = 9
  eq3: +1 x19 = 4
  eq4: +1 x16 +1 x20 -1 x21 = 7
  eq5: +1 x3 -1 x6 +1 x9 = 7
  eq6: +1 x1 +1 x8 -1 x13 = 4
  eq7: +1 x1 +1 x10 -1 x15 = 7
  eq8: +1 x4 +1 x9 -1 x15 = 6
  eq9: -1 x6 +1 x7 +1 x17 = 9
  eq10: +1 x16 +1 x17 -1 x18 -1 x19 = 2
  eq11: +1 x18 = 5
  eq12: -1 x15 +1 x16 +1 x17 = 6
  eq13: -1 x11 +1 x12 +1 x17 = 9
  eq14: -1 x4 +1 x5 +1 x17 = 9
  eq15: -1 x13 +1 x14 +1 x17 = 9
  eq16: +1 x21 = 5
  eq17: +1 x22 = 5
  eq18: +1 x3 +1 x4 -1 x6 = 7
  ie0: +1 x4 -1 x6 >= 0
  ie1: +1 x7 -1 x16 >= 0
  ie2: +1 x3 -1 x6 +1 x8 >= 7
  ie3: +1 x8 >= 7
  ie4: -1 x4 -1 x9 +1 x11 >= -3
  ie5: +1 x3 -1 x4 +1 x8 -1 x9 >= 0
  ie6: +1 x8 >= 5
  ie7: +1 x6 >= 5
  ie8: +1 x13 >= 5
  ie9: +1 x17 >= 5
  ie10: +1 x1 +1 x3 -1 x4 -1 x9 >= 0
  ie11: +1 x16 >= 5
  ie12: +1 x3 -1 x9 >= 0
  ie13: +1 x3 -1 x6 +1 x13 >= 7
  ie14: -1 x9 +1 x10 >= 0
END

0.004 sec
[20 ph, smt 0.250, isect 0.870, ins 0.049, tot 1.367]

Running SMT solver (39)... 0.001 sec
Found point (28/5,48/5,33/5,27/5,47/5,5,9,36/5,28/5,32/5,41/5,61/5,44/5,64/5,5,6,5,5,4,6,5,5)
Checking... Minimizing (19,84)... (18,18), 0.029 sec
Inserting... 

MAXIMIZE
Subject To
  eq0: +1 x1 +1 x9 -1 x11 = 3
  eq1: +1 x6 +1 x8 -1 x11 = 4
  eq2: -1 x1 +1 x2 +1 x17 = 9
  eq3: +1 x19 = 4
  eq4: +1 x16 +1 x20 -1 x21 = 7
  eq5: +1 x1 +1 x8 -1 x13 = 4
  eq6: +1 x1 +1 x10 -1 x15 = 7
  eq7: +1 x4 +1 x9 -1 x15 = 6
  eq8: -1 x6 +1 x7 +1 x17 = 9
  eq9: +1 x16 +1 x17 -1 x18 -1 x19 = 2
  eq10: +1 x18 = 5
  eq11: -1 x15 +1 x16 +1 x17 = 6
  eq12: -1 x11 +1 x12 +1 x17 = 9
  eq13: -1 x4 +1 x5 +1 x17 = 9
  eq14: -1 x13 +1 x14 +1 x17 = 9
  eq15: +1 x21 = 5
  eq16: +1 x22 = 5
  eq17: +1 x3 +1 x4 -1 x6 = 7
  ie0: +1 x4 -1 x6 >= 0
  ie1: +1 x7 -1 x16 >= 0
  ie2: +1 x8 >= 7
  ie3: -1 x4 -1 x9 +1 x11 >= -3
  ie4: +1 x3 -1 x4 +1 x8 -1 x9 >= 0
  ie5: +1 x8 >= 5
  ie6: +1 x13 >= 5
  ie7: +1 x9 >= 5
  ie8: +1 x1 +1 x3 -1 x4 -1 x9 >= 0
  ie9: +1 x16 >= 5
  ie10: -1 x4 +1 x13 >= 0
  ie11: -1 x4 +1 x9 >= 0
  ie12: -1 x4 +1 x8 >= 0
  ie13: -1 x9 +1 x10 >= 0
  ie14: +1 x4 >= 5
  ie15: +1 x6 >= 5
  ie16: +1 x17 >= 5
  ie17: +1 x3 -1 x9 >= 0
END

0.003 sec
[19 ph, smt 0.251, isect 0.899, ins 0.053, tot 1.404]

Running SMT solver (40)... 0.002 sec
Found point (56/9,92/9,22/3,50/9,86/9,53/9,89/9,64/9,49/9,52/9,26/3,38/3,28/3,40/3,5,6,5,5,4,6,5,5)
Checking... Minimizing (20,82)... (19,10), 0.023 sec
Inserting... 

MAXIMIZE
Subject To
  eq0: +1 x1 +1 x9 -1 x11 = 3
  eq1: +1 x4 +1 x8 -1 x11 = 4
  eq2: -1 x1 +1 x2 +1 x17 = 9
  eq3: +1 x19 = 4
  eq4: +1 x16 +1 x20 -1 x21 = 7
  eq5: +1 x1 +1 x8 -1 x13 = 4
  eq6: +1 x1 +1 x10 -1 x15 = 7
  eq7: +1 x4 +1 x9 -1 x15 = 6
  eq8: -1 x6 +1 x7 +1 x17 = 9
  eq9: +1 x16 +1 x17 -1 x18 -1 x19 = 2
  eq10: +1 x3 +1 x9 -1 x10 = 7
  eq11: +1 x18 = 5
  eq12: -1 x15 +1 x16 +1 x17 = 6
  eq13: -1 x11 +1 x12 +1 x17 = 9
  eq14: -1 x4 +1 x5 +1 x17 = 9
  eq15: -1 x13 +1 x14 +1 x17 = 9
  eq16: +1 x21 = 5
  eq17: +1 x22 = 5
  eq18: +1 x3 +1 x4 -1 x6 = 7
  ie0: +1 x4 -1 x9 >= 0
  ie1: +1 x7 -1 x16 >= 0
  ie2: +1 x8 >= 7
  ie3: -1 x4 -1 x9 +1 x11 >= -3
  ie4: +1 x3 -1 x4 +1 x8 -1 x9 >= 0
  ie5: +1 x8 >= 5
  ie6: +1 x9 >= 5
  ie7: +1 x17 >= 5
  ie8: +1 x16 >= 5
  ie9: -1 x9 +1 x10 >= 0
END

0.003 sec
[19 ph, smt 0.253, isect 0.923, ins 0.055, tot 1.435]

Running SMT solver (41)... 0.003 sec
Found point (13/2,31/3,43/6,16/3,55/6,11/2,28/3,23/3,17/3,11/2,55/6,13,61/6,14,5,35/6,31/6,5,4,37/6,5,5)
Checking... Minimizing (20,85)... (19,15), 0.027 sec
Inserting... 

MAXIMIZE
Subject To
  eq0: +1 x1 +1 x9 -1 x11 = 3
  eq1: -1 x1 +1 x2 +1 x17 = 9
  eq2: +1 x19 = 4
  eq3: +1 x16 +1 x20 -1 x21 = 7
  eq4: +1 x1 +1 x8 -1 x13 = 4
  eq5: +1 x1 +1 x10 -1 x15 = 7
  eq6: +1 x4 +1 x9 -1 x15 = 6
  eq7: -1 x6 +1 x7 +1 x17 = 9
  eq8: +1 x16 +1 x17 -1 x18 -1 x19 = 2
  eq9: +1 x18 = 5
  eq10: +1 x3 +1 x4 -1 x10 = 7
  eq11: -1 x15 +1 x16 +1 x17 = 6
  eq12: -1 x11 +1 x12 +1 x17 = 9
  eq13: -1 x4 +1 x5 +1 x17 = 9
  eq14: -1 x13 +1 x14 +1 x17 = 9
  eq15: +1 x21 = 5
  eq16: +1 x4 +1 x8 -1 x15 = 8
  eq17: +1 x22 = 5
  eq18: +1 x3 +1 x4 -1 x6 = 7
  ie0: -1 x1 >= -7
  ie1: +1 x7 -1 x16 >= 0
  ie2: -1 x4 +1 x13 >= 0
  ie3: +1 x4 >= 5
  ie4: +1 x3 -1 x4 +1 x8 -1 x9 >= 0
  ie5: -1 x1 -1 x10 +1 x11 >= -3
  ie6: +1 x8 >= 5
  ie7: +1 x13 >= 5
  ie8: +1 x9 >= 5
  ie9: +1 x16 >= 5
  ie10: +1 x17 >= 5
  ie11: -1 x4 +1 x9 >= 0
  ie12: -1 x3 >= -8
  ie13: +1 x3 -1 x9 >= 0
  ie14: -1 x4 +1 x6 >= 0
END

0.001 sec
[20 ph, smt 0.256, isect 0.950, ins 0.056, tot 1.468]

Running SMT solver (42)... 0.002 sec
Found point (5,35/4,17/2,11/2,37/4,15/2,45/4,11/2,23/4,7,31/4,23/2,13/2,41/4,5,23/4,21/4,5,4,25/4,5,5)
Checking... Minimizing (19,82)... (18,16), 0.026 sec
Inserting... 

MAXIMIZE
Subject To
  eq0: +1 x1 +1 x9 -1 x11 = 3
  eq1: +1 x1 +1 x3 -1 x4 = 8
  eq2: -1 x1 +1 x2 +1 x17 = 9
  eq3: +1 x19 = 4
  eq4: +1 x16 +1 x20 -1 x21 = 7
  eq5: +1 x1 +1 x8 -1 x13 = 4
  eq6: +1 x1 +1 x10 -1 x15 = 7
  eq7: -1 x6 +1 x7 +1 x17 = 9
  eq8: +1 x16 +1 x17 -1 x18 -1 x19 = 2
  eq9: +1 x18 = 5
  eq10: +1 x4 +1 x8 -1 x15 = 6
  eq11: -1 x15 +1 x16 +1 x17 = 6
  eq12: -1 x11 +1 x12 +1 x17 = 9
  eq13: -1 x4 +1 x5 +1 x17 = 9
  eq14: -1 x13 +1 x14 +1 x17 = 9
  eq15: +1 x21 = 5
  eq16: +1 x6 +1 x8 -1 x15 = 8
  eq17: +1 x22 = 5
  ie0: -1 x1 -1 x9 +1 x15 >= -6
  ie1: +1 x7 -1 x16 >= 0
  ie2: +1 x1 +1 x3 -1 x4 -1 x8 >= 0
  ie3: -1 x1 -1 x8 +1 x11 >= -3
  ie4: +1 x8 >= 5
  ie5: -1 x8 +1 x10 >= 0
  ie6: +1 x13 >= 5
  ie7: +1 x9 >= 5
  ie8: +1 x16 >= 5
  ie9: +1 x4 +1 x9 -1 x15 >= 5
  ie10: -1 x1 -1 x3 +1 x11 >= -7
  ie11: +1 x4 >= 5
  ie12: -1 x1 +1 x8 >= 0
  ie13: +1 x17 >= 5
  ie14: +1 x1 >= 5
  ie15: -1 x1 -1 x3 +1 x9 >= -8
END

0.005 sec
[20 ph, smt 0.258, isect 0.975, ins 0.061, tot 1.504]

Running SMT solver (43)... 0.002 sec
Found point (48/7,75/7,47/7,39/7,66/7,37/7,64/7,54/7,38/7,36/7,65/7,92/7,74/7,101/7,5,41/7,36/7,5,4,43/7,5,5)
Checking... Minimizing (20,87)... (19,11), 0.024 sec
Inserting... 

MAXIMIZE
Subject To
  eq0: +1 x1 +1 x9 -1 x11 = 3
  eq1: -1 x1 +1 x2 +1 x17 = 9
  eq2: +1 x19 = 4
  eq3: +1 x16 +1 x20 -1 x21 = 7
  eq4: +1 x1 +1 x8 -1 x13 = 4
  eq5: +1 x1 +1 x10 -1 x15 = 7
  eq6: +1 x4 +1 x9 -1 x15 = 6
  eq7: -1 x6 +1 x7 +1 x17 = 9
  eq8: +1 x16 +1 x17 -1 x18 -1 x19 = 2
  eq9: +1 x3 +1 x9 -1 x10 = 7
  eq10: +1 x18 = 5
  eq11: -1 x15 +1 x16 +1 x17 = 6
  eq12: -1 x11 +1 x12 +1 x17 = 9
  eq13: -1 x4 +1 x5 +1 x17 = 9
  eq14: -1 x13 +1 x14 +1 x17 = 9
  eq15: +1 x21 = 5
  eq16: +1 x6 +1 x8 -1 x15 = 8
  eq17: +1 x22 = 5
  eq18: +1 x3 +1 x4 -1 x6 = 7
  ie0: -1 x6 -1 x8 +1 x11 >= -4
  ie1: -1 x1 >= -7
  ie2: +1 x4 -1 x9 >= 0
  ie3: +1 x7 -1 x16 >= 0
  ie4: +1 x3 -1 x4 +1 x8 -1 x9 >= 0
  ie5: +1 x8 >= 5
  ie6: +1 x9 >= 5
  ie7: +1 x17 >= 5
  ie8: +1 x16 >= 5
  ie9: +1 x3 -1 x4 >= 0
  ie10: +1 x3 -1 x9 >= 0
END

0.003 sec
[20 ph, smt 0.261, isect 0.999, ins 0.064, tot 1.537]

Running SMT solver (44)... 0.001 sec
Found point (45/7,73/7,50/7,37/7,65/7,38/7,66/7,54/7,40/7,39/7,64/7,92/7,71/7,99/7,5,6,5,5,4,6,5,5)
Checking... Minimizing (19,85)... (18,20), 0.028 sec
Inserting... 

MAXIMIZE
Subject To
  eq0: +1 x1 +1 x9 -1 x11 = 3
  eq1: -1 x1 +1 x2 +1 x17 = 9
  eq2: +1 x19 = 4
  eq3: +1 x16 +1 x20 -1 x21 = 7
  eq4: +1 x1 +1 x8 -1 x13 = 4
  eq5: +1 x1 +1 x10 -1 x15 = 7
  eq6: +1 x4 +1 x9 -1 x15 = 6
  eq7: -1 x6 +1 x7 +1 x17 = 9
  eq8: +1 x16 +1 x17 -1 x18 -1 x19 = 2
  eq9: +1 x18 = 5
  eq10: -1 x15 +1 x16 +1 x17 = 6
  eq11: -1 x11 +1 x12 +1 x17 = 9
  eq12: -1 x4 +1 x5 +1 x17 = 9
  eq13: -1 x13 +1 x14 +1 x17 = 9
  eq14: +1 x21 = 5
  eq15: +1 x4 +1 x8 -1 x15 = 8
  eq16: +1 x22 = 5
  eq17: +1 x3 +1 x4 -1 x6 = 7
  ie0: -1 x1 >= -7
  ie1: +1 x7 -1 x16 >= 0
  ie2: -1 x1 -1 x10 +1 x11 >= -3
  ie3: +1 x3 -1 x4 +1 x8 -1 x9 >= 0
  ie4: -1 x3 -1 x4 +1 x15 >= -8
  ie5: +1 x8 >= 5
  ie6: -1 x3 -1 x4 +1 x10 >= -7
  ie7: +1 x13 >= 5
  ie8: +1 x9 >= 5
  ie9: +1 x1 +1 x3 -1 x4 -1 x9 >= 0
  ie10: +1 x16 >= 5
  ie11: -1 x4 +1 x13 >= 0
  ie12: -1 x4 +1 x9 >= 0
  ie13: +1 x4 >= 5
  ie14: +1 x6 >= 5
  ie15: +1 x17 >= 5
  ie16: +1 x3 -1 x10 >= 0
  ie17: -1 x3 >= -8
  ie18: +1 x3 -1 x9 >= 0
  ie19: -1 x4 +1 x6 >= 0
END

0.003 sec
[20 ph, smt 0.262, isect 1.027, ins 0.067, tot 1.573]

Running SMT solver (45)... 0.001 sec
No more solutions found



Solution:

\\\\\\\\\\\\\\\\\\\\\\\\\\\\\\\\\\\\\\\\ file 0

MAXIMIZE
Subject To
  eq0: +1 x1 +1 x9 -1 x11 = 3
  eq1: -1 x1 +1 x2 +1 x17 = 9
  eq2: +1 x19 = 4
  eq3: +1 x16 +1 x20 -1 x21 = 7
  eq4: +1 x1 +1 x8 -1 x13 = 4
  eq5: +1 x1 +1 x10 -1 x15 = 7
  eq6: +1 x4 +1 x9 -1 x15 = 6
  eq7: -1 x6 +1 x7 +1 x17 = 9
  eq8: +1 x16 +1 x17 -1 x18 -1 x19 = 2
  eq9: +1 x18 = 5
  eq10: -1 x15 +1 x16 +1 x17 = 6
  eq11: -1 x11 +1 x12 +1 x17 = 9
  eq12: -1 x4 +1 x5 +1 x17 = 9
  eq13: -1 x13 +1 x14 +1 x17 = 9
  eq14: +1 x21 = 5
  eq15: +1 x4 +1 x8 -1 x15 = 8
  eq16: +1 x22 = 5
  eq17: +1 x3 +1 x4 -1 x6 = 7
  ie0: -1 x1 >= -7
  ie1: +1 x7 -1 x16 >= 0
  ie2: -1 x1 -1 x10 +1 x11 >= -3
  ie3: +1 x3 -1 x4 +1 x8 -1 x9 >= 0
  ie4: -1 x3 -1 x4 +1 x15 >= -8
  ie5: +1 x8 >= 5
  ie6: -1 x3 -1 x4 +1 x10 >= -7
  ie7: +1 x13 >= 5
  ie8: +1 x9 >= 5
  ie9: +1 x1 +1 x3 -1 x4 -1 x9 >= 0
  ie10: +1 x16 >= 5
  ie11: -1 x4 +1 x13 >= 0
  ie12: -1 x4 +1 x9 >= 0
  ie13: +1 x4 >= 5
  ie14: +1 x6 >= 5
  ie15: +1 x17 >= 5
  ie16: +1 x3 -1 x10 >= 0
  ie17: -1 x3 >= -8
  ie18: +1 x3 -1 x9 >= 0
  ie19: -1 x4 +1 x6 >= 0
END

\\\\\\\\\\\\\\\\\\\\\\\\\\\\\\\\\\\\\\\\ file 1

MAXIMIZE
Subject To
  eq0: +1 x1 +1 x9 -1 x11 = 3
  eq1: -1 x1 +1 x2 +1 x17 = 9
  eq2: +1 x19 = 4
  eq3: +1 x16 +1 x20 -1 x21 = 7
  eq4: +1 x1 +1 x8 -1 x13 = 4
  eq5: +1 x1 +1 x10 -1 x15 = 7
  eq6: +1 x4 +1 x9 -1 x15 = 6
  eq7: -1 x6 +1 x7 +1 x17 = 9
  eq8: +1 x16 +1 x17 -1 x18 -1 x19 = 2
  eq9: +1 x3 +1 x9 -1 x10 = 7
  eq10: +1 x18 = 5
  eq11: -1 x15 +1 x16 +1 x17 = 6
  eq12: -1 x11 +1 x12 +1 x17 = 9
  eq13: -1 x4 +1 x5 +1 x17 = 9
  eq14: -1 x13 +1 x14 +1 x17 = 9
  eq15: +1 x21 = 5
  eq16: +1 x6 +1 x8 -1 x15 = 8
  eq17: +1 x22 = 5
  eq18: +1 x3 +1 x4 -1 x6 = 7
  ie0: -1 x6 -1 x8 +1 x11 >= -4
  ie1: -1 x1 >= -7
  ie2: +1 x4 -1 x9 >= 0
  ie3: +1 x7 -1 x16 >= 0
  ie4: +1 x3 -1 x4 +1 x8 -1 x9 >= 0
  ie5: +1 x8 >= 5
  ie6: +1 x9 >= 5
  ie7: +1 x17 >= 5
  ie8: +1 x16 >= 5
  ie9: +1 x3 -1 x4 >= 0
  ie10: +1 x3 -1 x9 >= 0
END

\\\\\\\\\\\\\\\\\\\\\\\\\\\\\\\\\\\\\\\\ file 2

MAXIMIZE
Subject To
  eq0: +1 x1 +1 x9 -1 x11 = 3
  eq1: +1 x1 +1 x3 -1 x4 = 8
  eq2: -1 x1 +1 x2 +1 x17 = 9
  eq3: +1 x19 = 4
  eq4: +1 x16 +1 x20 -1 x21 = 7
  eq5: +1 x1 +1 x8 -1 x13 = 4
  eq6: +1 x1 +1 x10 -1 x15 = 7
  eq7: -1 x6 +1 x7 +1 x17 = 9
  eq8: +1 x16 +1 x17 -1 x18 -1 x19 = 2
  eq9: +1 x18 = 5
  eq10: +1 x4 +1 x8 -1 x15 = 6
  eq11: -1 x15 +1 x16 +1 x17 = 6
  eq12: -1 x11 +1 x12 +1 x17 = 9
  eq13: -1 x4 +1 x5 +1 x17 = 9
  eq14: -1 x13 +1 x14 +1 x17 = 9
  eq15: +1 x21 = 5
  eq16: +1 x6 +1 x8 -1 x15 = 8
  eq17: +1 x22 = 5
  ie0: -1 x1 -1 x9 +1 x15 >= -6
  ie1: +1 x7 -1 x16 >= 0
  ie2: +1 x1 +1 x3 -1 x4 -1 x8 >= 0
  ie3: -1 x1 -1 x8 +1 x11 >= -3
  ie4: +1 x8 >= 5
  ie5: -1 x8 +1 x10 >= 0
  ie6: +1 x13 >= 5
  ie7: +1 x9 >= 5
  ie8: +1 x16 >= 5
  ie9: +1 x4 +1 x9 -1 x15 >= 5
  ie10: -1 x1 -1 x3 +1 x11 >= -7
  ie11: +1 x4 >= 5
  ie12: -1 x1 +1 x8 >= 0
  ie13: +1 x17 >= 5
  ie14: +1 x1 >= 5
  ie15: -1 x1 -1 x3 +1 x9 >= -8
END

\\\\\\\\\\\\\\\\\\\\\\\\\\\\\\\\\\\\\\\\ file 3

MAXIMIZE
Subject To
  eq0: +1 x1 +1 x9 -1 x11 = 3
  eq1: +1 x4 +1 x8 -1 x11 = 4
  eq2: -1 x1 +1 x2 +1 x17 = 9
  eq3: +1 x19 = 4
  eq4: +1 x16 +1 x20 -1 x21 = 7
  eq5: +1 x1 +1 x8 -1 x13 = 4
  eq6: +1 x1 +1 x10 -1 x15 = 7
  eq7: +1 x4 +1 x9 -1 x15 = 6
  eq8: -1 x6 +1 x7 +1 x17 = 9
  eq9: +1 x16 +1 x17 -1 x18 -1 x19 = 2
  eq10: +1 x3 +1 x9 -1 x10 = 7
  eq11: +1 x18 = 5
  eq12: -1 x15 +1 x16 +1 x17 = 6
  eq13: -1 x11 +1 x12 +1 x17 = 9
  eq14: -1 x4 +1 x5 +1 x17 = 9
  eq15: -1 x13 +1 x14 +1 x17 = 9
  eq16: +1 x21 = 5
  eq17: +1 x22 = 5
  eq18: +1 x3 +1 x4 -1 x6 = 7
  ie0: +1 x4 -1 x9 >= 0
  ie1: +1 x7 -1 x16 >= 0
  ie2: +1 x8 >= 7
  ie3: -1 x4 -1 x9 +1 x11 >= -3
  ie4: +1 x3 -1 x4 +1 x8 -1 x9 >= 0
  ie5: +1 x8 >= 5
  ie6: +1 x9 >= 5
  ie7: +1 x17 >= 5
  ie8: +1 x16 >= 5
  ie9: -1 x9 +1 x10 >= 0
END

\\\\\\\\\\\\\\\\\\\\\\\\\\\\\\\\\\\\\\\\ file 4

MAXIMIZE
Subject To
  eq0: +1 x1 +1 x9 -1 x11 = 3
  eq1: +1 x6 +1 x8 -1 x11 = 4
  eq2: -1 x1 +1 x2 +1 x17 = 9
  eq3: +1 x19 = 4
  eq4: +1 x16 +1 x20 -1 x21 = 7
  eq5: +1 x1 +1 x8 -1 x13 = 4
  eq6: +1 x1 +1 x10 -1 x15 = 7
  eq7: +1 x4 +1 x9 -1 x15 = 6
  eq8: -1 x6 +1 x7 +1 x17 = 9
  eq9: +1 x16 +1 x17 -1 x18 -1 x19 = 2
  eq10: +1 x18 = 5
  eq11: -1 x15 +1 x16 +1 x17 = 6
  eq12: -1 x11 +1 x12 +1 x17 = 9
  eq13: -1 x4 +1 x5 +1 x17 = 9
  eq14: -1 x13 +1 x14 +1 x17 = 9
  eq15: +1 x21 = 5
  eq16: +1 x22 = 5
  eq17: +1 x3 +1 x4 -1 x6 = 7
  ie0: +1 x4 -1 x6 >= 0
  ie1: +1 x7 -1 x16 >= 0
  ie2: +1 x8 >= 7
  ie3: -1 x4 -1 x9 +1 x11 >= -3
  ie4: +1 x3 -1 x4 +1 x8 -1 x9 >= 0
  ie5: +1 x8 >= 5
  ie6: +1 x13 >= 5
  ie7: +1 x9 >= 5
  ie8: +1 x1 +1 x3 -1 x4 -1 x9 >= 0
  ie9: +1 x16 >= 5
  ie10: -1 x4 +1 x13 >= 0
  ie11: -1 x4 +1 x9 >= 0
  ie12: -1 x4 +1 x8 >= 0
  ie13: -1 x9 +1 x10 >= 0
  ie14: +1 x4 >= 5
  ie15: +1 x6 >= 5
  ie16: +1 x17 >= 5
  ie17: +1 x3 -1 x9 >= 0
END

\\\\\\\\\\\\\\\\\\\\\\\\\\\\\\\\\\\\\\\\ file 5

MAXIMIZE
Subject To
  eq0: +1 x1 +1 x9 -1 x11 = 3
  eq1: +1 x4 +1 x8 -1 x11 = 4
  eq2: -1 x1 +1 x2 +1 x17 = 9
  eq3: +1 x19 = 4
  eq4: +1 x16 +1 x20 -1 x21 = 7
  eq5: +1 x1 +1 x8 -1 x13 = 4
  eq6: +1 x1 +1 x10 -1 x15 = 7
  eq7: +1 x4 +1 x9 -1 x15 = 6
  eq8: -1 x6 +1 x7 +1 x17 = 9
  eq9: +1 x16 +1 x17 -1 x18 -1 x19 = 2
  eq10: +1 x18 = 5
  eq11: -1 x15 +1 x16 +1 x17 = 6
  eq12: -1 x11 +1 x12 +1 x17 = 9
  eq13: -1 x4 +1 x5 +1 x17 = 9
  eq14: -1 x13 +1 x14 +1 x17 = 9
  eq15: +1 x21 = 5
  eq16: +1 x22 = 5
  eq17: +1 x3 +1 x4 -1 x6 = 7
  ie0: +1 x7 -1 x16 >= 0
  ie1: +1 x8 >= 7
  ie2: -1 x4 -1 x9 +1 x11 >= -3
  ie3: +1 x3 -1 x4 +1 x8 -1 x9 >= 0
  ie4: -1 x3 -1 x4 +1 x15 >= -8
  ie5: +1 x8 >= 5
  ie6: -1 x3 -1 x4 +1 x10 >= -7
  ie7: +1 x13 >= 5
  ie8: +1 x9 >= 5
  ie9: +1 x1 +1 x3 -1 x4 -1 x9 >= 0
  ie10: +1 x16 >= 5
  ie11: -1 x4 +1 x13 >= 0
  ie12: -1 x4 +1 x9 >= 0
  ie13: -1 x3 -1 x4 +1 x11 >= -7
  ie14: -1 x4 +1 x8 >= 0
  ie15: -1 x9 +1 x10 >= 0
  ie16: +1 x4 >= 5
  ie17: +1 x6 >= 5
  ie18: +1 x17 >= 5
  ie19: +1 x3 -1 x4 >= 0
  ie20: +1 x3 -1 x9 >= 0
  ie21: -1 x4 +1 x6 >= 0
END

\\\\\\\\\\\\\\\\\\\\\\\\\\\\\\\\\\\\\\\\ file 6

MAXIMIZE
Subject To
  eq0: +1 x1 +1 x9 -1 x11 = 3
  eq1: -1 x1 +1 x2 +1 x17 = 9
  eq2: +1 x19 = 4
  eq3: +1 x16 +1 x20 -1 x21 = 7
  eq4: +1 x1 +1 x3 -1 x9 = 8
  eq5: +1 x1 +1 x8 -1 x13 = 4
  eq6: +1 x1 +1 x10 -1 x15 = 7
  eq7: -1 x6 +1 x7 +1 x17 = 9
  eq8: +1 x16 +1 x17 -1 x18 -1 x19 = 2
  eq9: +1 x18 = 5
  eq10: +1 x4 +1 x8 -1 x15 = 6
  eq11: -1 x15 +1 x16 +1 x17 = 6
  eq12: -1 x11 +1 x12 +1 x17 = 9
  eq13: -1 x4 +1 x5 +1 x17 = 9
  eq14: -1 x13 +1 x14 +1 x17 = 9
  eq15: +1 x21 = 5
  eq16: +1 x6 +1 x8 -1 x15 = 8
  eq17: +1 x22 = 5
  ie0: -1 x1 -1 x9 +1 x15 >= -6
  ie1: +1 x7 -1 x16 >= 0
  ie2: +1 x1 +1 x3 -1 x4 -1 x8 >= 0
  ie3: -1 x1 -1 x8 +1 x11 >= -3
  ie4: +1 x8 >= 5
  ie5: -1 x8 +1 x10 >= 0
  ie6: +1 x13 >= 5
  ie7: +1 x9 >= 5
  ie8: +1 x16 >= 5
  ie9: +1 x4 +1 x9 -1 x15 >= 5
  ie10: -1 x1 -1 x3 +1 x6 >= -7
  ie11: -1 x1 -1 x3 +1 x11 >= -7
  ie12: -1 x6 +1 x7 -1 x8 +1 x20 >= 1
  ie13: -1 x1 -1 x3 +1 x4 >= -8
  ie14: +1 x4 >= 5
  ie15: -1 x1 +1 x8 >= 0
  ie16: +1 x17 >= 5
  ie17: +1 x1 >= 5
END

\\\\\\\\\\\\\\\\\\\\\\\\\\\\\\\\\\\\\\\\ file 7

MAXIMIZE
Subject To
  eq0: +1 x1 +1 x9 -1 x11 = 3
  eq1: -1 x1 +1 x2 +1 x17 = 9
  eq2: +1 x19 = 4
  eq3: +1 x16 +1 x20 -1 x21 = 7
  eq4: +1 x1 +1 x8 -1 x13 = 4
  eq5: +1 x1 +1 x10 -1 x15 = 7
  eq6: +1 x4 +1 x9 -1 x15 = 6
  eq7: -1 x6 +1 x7 +1 x17 = 9
  eq8: +1 x16 +1 x17 -1 x18 -1 x19 = 2
  eq9: +1 x18 = 5
  eq10: -1 x15 +1 x16 +1 x17 = 6
  eq11: -1 x11 +1 x12 +1 x17 = 9
  eq12: -1 x4 +1 x5 +1 x17 = 9
  eq13: -1 x13 +1 x14 +1 x17 = 9
  eq14: +1 x21 = 5
  eq15: +1 x6 +1 x8 -1 x15 = 8
  eq16: +1 x22 = 5
  eq17: +1 x3 +1 x4 -1 x6 = 7
  ie0: -1 x6 -1 x8 +1 x11 >= -4
  ie1: -1 x1 >= -7
  ie2: +1 x4 -1 x6 >= 0
  ie3: +1 x7 -1 x16 >= 0
  ie4: +1 x4 >= 5
  ie5: +1 x3 -1 x4 +1 x8 -1 x9 >= 0
  ie6: +1 x8 >= 5
  ie7: +1 x6 >= 5
  ie8: -1 x3 -1 x4 +1 x10 >= -7
  ie9: +1 x9 >= 5
  ie10: +1 x17 >= 5
  ie11: +1 x1 +1 x3 -1 x4 -1 x9 >= 0
  ie12: +1 x16 >= 5
  ie13: -1 x4 +1 x9 >= 0
  ie14: +1 x3 -1 x9 >= 0
END

\\\\\\\\\\\\\\\\\\\\\\\\\\\\\\\\\\\\\\\\ file 8

MAXIMIZE
Subject To
  eq0: +1 x4 +1 x8 -1 x11 = 3
  eq1: -1 x1 +1 x2 +1 x20 = 9
  eq2: +1 x19 = 4
  eq3: +1 x16 +1 x20 -1 x21 = 7
  eq4: +1 x1 +1 x8 -1 x13 = 4
  eq5: -1 x6 +1 x7 +1 x20 = 9
  eq6: +1 x10 = 5
  eq7: +1 x16 +1 x17 -1 x18 -1 x19 = 2
  eq8: -1 x11 +1 x12 +1 x20 = 9
  eq9: +1 x3 +1 x9 -1 x10 = 7
  eq10: -1 x4 +1 x5 +1 x20 = 9
  eq11: -1 x13 +1 x14 +1 x20 = 9
  eq12: +1 x6 +1 x8 -1 x9 = 8
  eq13: +1 x6 = 5
  eq14: +1 x17 = 5
  eq15: -1 x15 +1 x16 +1 x20 = 6
  eq16: +1 x20 = 5
  eq17: +1 x1 -1 x4 +1 x10 = 8
  eq18: +1 x22 = 5
  eq19: +1 x3 +1 x4 -1 x6 = 7
  ie0: -1 x6 -1 x8 +1 x11 >= -4
  ie1: +1 x4 -1 x6 >= 0
  ie2: +1 x7 -1 x16 >= 0
  ie3: +1 x3 -1 x4 -1 x8 +1 x13 >= 0
  ie4: -1 x3 -1 x9 +1 x15 >= -6
  ie5: -1 x4 +1 x15 >= 1
  ie6: +1 x16 >= 5
  ie7: +1 x4 +1 x9 -1 x15 >= 5
  ie8: +1 x3 -1 x6 >= 0
  ie9: -1 x6 -1 x8 +1 x15 >= -8
END

\\\\\\\\\\\\\\\\\\\\\\\\\\\\\\\\\\\\\\\\ file 9

MAXIMIZE
Subject To
  eq0: +1 x1 +1 x9 -1 x11 = 3
  eq1: -1 x1 +1 x2 +1 x20 = 9
  eq2: +1 x19 = 4
  eq3: +1 x16 +1 x20 -1 x21 = 7
  eq4: +1 x1 +1 x8 -1 x13 = 4
  eq5: -1 x6 +1 x7 +1 x20 = 9
  eq6: +1 x10 = 5
  eq7: +1 x1 +1 x10 -1 x15 = 7
  eq8: +1 x16 +1 x17 -1 x18 -1 x19 = 2
  eq9: -1 x11 +1 x12 +1 x20 = 9
  eq10: +1 x3 +1 x9 -1 x10 = 7
  eq11: -1 x4 +1 x5 +1 x20 = 9
  eq12: -1 x13 +1 x14 +1 x20 = 9
  eq13: +1 x6 +1 x8 -1 x9 = 8
  eq14: +1 x6 = 5
  eq15: +1 x17 = 5
  eq16: -1 x15 +1 x16 +1 x20 = 6
  eq17: +1 x20 = 5
  eq18: +1 x22 = 5
  eq19: +1 x3 +1 x4 -1 x6 = 7
  ie0: -1 x6 -1 x8 +1 x11 >= -4
  ie1: +1 x4 -1 x6 >= 0
  ie2: +1 x7 -1 x16 >= 0
  ie3: -1 x3 -1 x9 +1 x15 >= -6
  ie4: -1 x3 +1 x4 >= 0
  ie5: +1 x4 +1 x9 -1 x15 >= 5
  ie6: -1 x1 +1 x4 -1 x10 >= -8
  ie7: +1 x3 -1 x10 >= 0
  ie8: -1 x6 -1 x8 +1 x15 >= -8
END

\\\\\\\\\\\\\\\\\\\\\\\\\\\\\\\\\\\\\\\\ file 10

MAXIMIZE
Subject To
  eq0: +1 x1 +1 x9 -1 x11 = 3
  eq1: -1 x1 +1 x2 +1 x20 = 9
  eq2: +1 x19 = 4
  eq3: +1 x16 +1 x20 -1 x21 = 7
  eq4: +1 x1 +1 x8 -1 x13 = 4
  eq5: -1 x6 +1 x7 +1 x20 = 9
  eq6: +1 x10 = 5
  eq7: +1 x1 +1 x10 -1 x15 = 7
  eq8: +1 x16 +1 x17 -1 x18 -1 x19 = 2
  eq9: -1 x11 +1 x12 +1 x20 = 9
  eq10: +1 x3 +1 x9 -1 x10 = 7
  eq11: -1 x4 +1 x5 +1 x20 = 9
  eq12: -1 x13 +1 x14 +1 x20 = 9
  eq13: +1 x6 = 5
  eq14: +1 x17 = 5
  eq15: -1 x15 +1 x16 +1 x20 = 6
  eq16: +1 x6 +1 x8 -1 x15 = 8
  eq17: +1 x20 = 5
  eq18: +1 x22 = 5
  eq19: +1 x3 +1 x4 -1 x6 = 7
  ie0: -1 x6 -1 x8 +1 x11 >= -4
  ie1: +1 x7 -1 x16 >= 0
  ie2: -1 x6 -1 x8 +1 x9 >= -8
  ie3: -1 x3 -1 x9 +1 x15 >= -6
  ie4: +1 x8 >= 5
  ie5: +1 x16 >= 5
  ie6: +1 x4 +1 x9 -1 x15 >= 5
  ie7: +1 x3 -1 x10 >= 0
END

\\\\\\\\\\\\\\\\\\\\\\\\\\\\\\\\\\\\\\\\ file 11

MAXIMIZE
Subject To
  eq0: +1 x1 +1 x9 -1 x11 = 3
  eq1: -1 x1 +1 x2 +1 x17 = 9
  eq2: +1 x19 = 4
  eq3: +1 x16 +1 x20 -1 x21 = 7
  eq4: +1 x1 +1 x8 -1 x13 = 4
  eq5: +1 x10 = 5
  eq6: +1 x1 +1 x10 -1 x15 = 7
  eq7: +1 x4 +1 x9 -1 x15 = 6
  eq8: -1 x6 +1 x7 +1 x17 = 9
  eq9: +1 x16 +1 x17 -1 x18 -1 x19 = 2
  eq10: +1 x3 +1 x9 -1 x10 = 7
  eq11: -1 x15 +1 x16 +1 x17 = 6
  eq12: -1 x11 +1 x12 +1 x17 = 9
  eq13: +1 x6 = 5
  eq14: -1 x4 +1 x5 +1 x17 = 9
  eq15: -1 x13 +1 x14 +1 x17 = 9
  eq16: +1 x21 = 5
  eq17: +1 x17 = 5
  eq18: +1 x6 +1 x8 -1 x15 = 8
  eq19: +1 x22 = 5
  eq20: +1 x3 +1 x4 -1 x6 = 7
  ie0: -1 x6 -1 x8 +1 x11 >= -4
  ie1: -1 x1 +1 x2 +1 x20 >= 9
  ie2: +1 x7 -1 x16 >= 0
  ie3: +1 x18 >= 5
END

\\\\\\\\\\\\\\\\\\\\\\\\\\\\\\\\\\\\\\\\ file 12

MAXIMIZE
Subject To
  eq0: +1 x1 +1 x9 -1 x11 = 3
  eq1: +1 x4 +1 x8 -1 x11 = 4
  eq2: -1 x1 +1 x2 +1 x17 = 9
  eq3: +1 x19 = 4
  eq4: +1 x16 +1 x20 -1 x21 = 7
  eq5: +1 x1 +1 x8 -1 x13 = 4
  eq6: +1 x1 +1 x10 -1 x15 = 7
  eq7: +1 x4 +1 x9 -1 x15 = 6
  eq8: -1 x6 +1 x7 +1 x17 = 9
  eq9: +1 x16 +1 x17 -1 x18 -1 x19 = 2
  eq10: +1 x18 = 5
  eq11: -1 x15 +1 x16 +1 x17 = 6
  eq12: -1 x11 +1 x12 +1 x17 = 9
  eq13: -1 x4 +1 x5 +1 x17 = 9
  eq14: -1 x13 +1 x14 +1 x17 = 9
  eq15: +1 x21 = 5
  eq16: +1 x6 +1 x8 -1 x15 = 8
  eq17: +1 x22 = 5
  eq18: +1 x3 +1 x4 -1 x6 = 7
  ie0: -1 x8 >= -7
  ie1: +1 x7 -1 x16 >= 0
  ie2: -1 x4 -1 x9 +1 x11 >= -3
  ie3: +1 x3 -1 x4 +1 x8 -1 x9 >= 0
  ie4: +1 x8 >= 5
  ie5: +1 x13 >= 5
  ie6: +1 x9 >= 5
  ie7: +1 x1 +1 x3 -1 x4 -1 x9 >= 0
  ie8: +1 x16 >= 5
  ie9: -1 x4 +1 x13 >= 0
  ie10: -1 x4 +1 x9 >= 0
  ie11: -1 x4 +1 x8 >= 0
  ie12: -1 x9 +1 x10 >= 0
  ie13: -1 x6 +1 x7 -1 x8 +1 x20 >= 1
  ie14: +1 x4 >= 5
  ie15: +1 x17 >= 5
END

\\\\\\\\\\\\\\\\\\\\\\\\\\\\\\\\\\\\\\\\ file 13

MAXIMIZE
Subject To
  eq0: +1 x1 +1 x9 -1 x11 = 3
  eq1: -1 x1 +1 x2 +1 x17 = 9
  eq2: +1 x19 = 4
  eq3: +1 x16 +1 x20 -1 x21 = 7
  eq4: +1 x1 +1 x8 -1 x13 = 4
  eq5: +1 x3 = 8
  eq6: +1 x4 +1 x9 -1 x15 = 6
  eq7: -1 x6 +1 x7 +1 x17 = 9
  eq8: +1 x1 +1 x10 -1 x15 = 7
  eq9: +1 x16 +1 x17 -1 x18 -1 x19 = 2
  eq10: +1 x18 = 5
  eq11: -1 x15 +1 x16 +1 x17 = 6
  eq12: -1 x11 +1 x12 +1 x17 = 9
  eq13: -1 x4 +1 x5 +1 x17 = 9
  eq14: -1 x13 +1 x14 +1 x17 = 9
  eq15: +1 x21 = 5
  eq16: +1 x6 +1 x8 -1 x15 = 8
  eq17: +1 x22 = 5
  ie0: -1 x8 >= -7
  ie1: +1 x6 -1 x9 >= 1
  ie2: +1 x7 -1 x16 >= 0
  ie3: +1 x4 -1 x9 >= 0
  ie4: -1 x1 -1 x9 +1 x15 >= -6
  ie5: +1 x1 -1 x9 >= 0
  ie6: +1 x8 >= 5
  ie7: +1 x13 >= 5
  ie8: +1 x9 >= 5
  ie9: +1 x1 +1 x3 -1 x4 -1 x9 >= 0
  ie10: -1 x1 -1 x8 +1 x9 >= -8
  ie11: +1 x16 >= 5
  ie12: -1 x1 -1 x9 +1 x13 >= -4
  ie13: -1 x6 +1 x7 -1 x8 +1 x20 >= 1
  ie14: -1 x1 -1 x8 +1 x15 >= -8
  ie15: +1 x17 >= 5
  ie16: -1 x1 -1 x8 +1 x11 >= -4
END

\\\\\\\\\\\\\\\\\\\\\\\\\\\\\\\\\\\\\\\\ file 14

MAXIMIZE
Subject To
  eq0: +1 x1 +1 x9 -1 x11 = 3
  eq1: +1 x1 +1 x3 -1 x4 = 8
  eq2: -1 x1 +1 x2 +1 x17 = 9
  eq3: +1 x19 = 4
  eq4: +1 x16 +1 x20 -1 x21 = 7
  eq5: +1 x1 +1 x8 -1 x13 = 4
  eq6: +1 x1 +1 x10 -1 x15 = 7
  eq7: +1 x4 +1 x9 -1 x15 = 6
  eq8: -1 x6 +1 x7 +1 x17 = 9
  eq9: +1 x16 +1 x17 -1 x18 -1 x19 = 2
  eq10: +1 x18 = 5
  eq11: -1 x15 +1 x16 +1 x17 = 6
  eq12: -1 x11 +1 x12 +1 x17 = 9
  eq13: -1 x4 +1 x5 +1 x17 = 9
  eq14: -1 x13 +1 x14 +1 x17 = 9
  eq15: +1 x21 = 5
  eq16: +1 x6 +1 x8 -1 x15 = 8
  eq17: +1 x22 = 5
  ie0: -1 x8 >= -7
  ie1: -1 x1 -1 x9 +1 x15 >= -6
  ie2: +1 x7 -1 x16 >= 0
  ie3: +1 x8 >= 5
  ie4: +1 x13 >= 5
  ie5: +1 x9 >= 5
  ie6: +1 x1 +1 x3 -1 x4 -1 x9 >= 0
  ie7: -1 x1 -1 x8 +1 x9 >= -8
  ie8: +1 x16 >= 5
  ie9: -1 x1 -1 x3 +1 x6 >= -7
  ie10: -1 x1 -1 x3 +1 x11 >= -7
  ie11: -1 x1 -1 x9 +1 x13 >= -4
  ie12: -1 x6 +1 x7 -1 x8 +1 x20 >= 1
  ie13: +1 x4 >= 5
  ie14: -1 x1 -1 x8 +1 x15 >= -8
  ie15: -1 x1 +1 x8 >= 0
  ie16: +1 x17 >= 5
  ie17: +1 x1 >= 5
  ie18: -1 x1 -1 x3 +1 x9 >= -8
END

\\\\\\\\\\\\\\\\\\\\\\\\\\\\\\\\\\\\\\\\ file 15

MAXIMIZE
Subject To
  eq0: +1 x1 +1 x9 -1 x11 = 3
  eq1: -1 x1 +1 x2 +1 x17 = 9
  eq2: +1 x19 = 4
  eq3: +1 x16 +1 x20 -1 x21 = 7
  eq4: +1 x1 +1 x8 -1 x13 = 4
  eq5: +1 x3 +1 x8 -1 x9 = 8
  eq6: +1 x1 +1 x10 -1 x15 = 7
  eq7: -1 x6 +1 x7 +1 x17 = 9
  eq8: +1 x16 +1 x17 -1 x18 -1 x19 = 2
  eq9: +1 x18 = 5
  eq10: +1 x4 +1 x8 -1 x15 = 6
  eq11: -1 x15 +1 x16 +1 x17 = 6
  eq12: -1 x11 +1 x12 +1 x17 = 9
  eq13: -1 x4 +1 x5 +1 x17 = 9
  eq14: -1 x13 +1 x14 +1 x17 = 9
  eq15: +1 x21 = 5
  eq16: +1 x6 +1 x8 -1 x15 = 8
  eq17: +1 x22 = 5
  ie0: -1 x1 -1 x9 +1 x15 >= -6
  ie1: +1 x7 -1 x16 >= 0
  ie2: +1 x1 +1 x3 -1 x4 -1 x8 >= 0
  ie3: +1 x4 >= 5
  ie4: -1 x1 -1 x8 +1 x11 >= -3
  ie5: +1 x1 -1 x8 >= 0
  ie6: +1 x8 >= 5
  ie7: -1 x8 +1 x10 >= 0
  ie8: +1 x13 >= 5
  ie9: +1 x9 >= 5
  ie10: +1 x16 >= 5
  ie11: +1 x4 +1 x9 -1 x15 >= 5
  ie12: +1 x17 >= 5
END

\\\\\\\\\\\\\\\\\\\\\\\\\\\\\\\\\\\\\\\\ file 16

MAXIMIZE
Subject To
  eq0: +1 x1 +1 x9 -1 x11 = 3
  eq1: -1 x1 +1 x2 +1 x17 = 9
  eq2: +1 x19 = 4
  eq3: +1 x16 +1 x20 -1 x21 = 7
  eq4: +1 x1 +1 x3 -1 x9 = 8
  eq5: +1 x1 +1 x8 -1 x13 = 4
  eq6: +1 x1 +1 x10 -1 x15 = 7
  eq7: +1 x4 +1 x9 -1 x15 = 6
  eq8: -1 x6 +1 x7 +1 x17 = 9
  eq9: +1 x16 +1 x17 -1 x18 -1 x19 = 2
  eq10: +1 x18 = 5
  eq11: -1 x15 +1 x16 +1 x17 = 6
  eq12: -1 x11 +1 x12 +1 x17 = 9
  eq13: -1 x4 +1 x5 +1 x17 = 9
  eq14: -1 x13 +1 x14 +1 x17 = 9
  eq15: +1 x21 = 5
  eq16: +1 x6 +1 x8 -1 x15 = 8
  eq17: +1 x22 = 5
  ie0: -1 x8 >= -7
  ie1: -1 x1 -1 x9 +1 x15 >= -6
  ie2: +1 x7 -1 x16 >= 0
  ie3: +1 x8 >= 5
  ie4: +1 x13 >= 5
  ie5: +1 x9 >= 5
  ie6: +1 x16 >= 5
  ie7: -1 x1 -1 x8 +1 x9 >= -8
  ie8: -1 x1 -1 x3 +1 x6 >= -7
  ie9: -1 x1 -1 x3 +1 x11 >= -7
  ie10: -1 x1 -1 x9 +1 x13 >= -4
  ie11: -1 x6 +1 x7 -1 x8 +1 x20 >= 1
  ie12: +1 x3 >= 8
  ie13: -1 x1 -1 x3 +1 x4 >= -8
  ie14: +1 x4 >= 5
  ie15: -1 x1 -1 x8 +1 x15 >= -8
  ie16: -1 x1 +1 x8 >= 0
  ie17: +1 x17 >= 5
  ie18: +1 x1 >= 5
  ie19: -1 x1 -1 x8 +1 x11 >= -4
END

\\\\\\\\\\\\\\\\\\\\\\\\\\\\\\\\\\\\\\\\ file 17

MAXIMIZE
Subject To
  eq0: +1 x1 +1 x9 -1 x11 = 3
  eq1: +1 x4 +1 x9 -1 x11 = 4
  eq2: +1 x9 = 5
  eq3: -1 x1 +1 x2 +1 x17 = 9
  eq4: +1 x19 = 4
  eq5: +1 x16 +1 x20 -1 x21 = 7
  eq6: +1 x1 +1 x8 -1 x13 = 4
  eq7: +1 x1 +1 x10 -1 x15 = 7
  eq8: +1 x3 = 8
  eq9: -1 x6 +1 x7 +1 x17 = 9
  eq10: +1 x16 +1 x17 -1 x18 -1 x19 = 2
  eq11: -1 x15 +1 x16 +1 x17 = 6
  eq12: -1 x11 +1 x12 +1 x17 = 9
  eq13: -1 x4 +1 x5 +1 x17 = 9
  eq14: -1 x13 +1 x14 +1 x17 = 9
  eq15: +1 x21 = 5
  eq16: +1 x17 = 5
  eq17: +1 x1 = 5
  eq18: +1 x6 +1 x8 -1 x15 = 8
  eq19: +1 x22 = 5
  ie0: -1 x8 >= -7
  ie1: -1 x1 -1 x9 +1 x15 >= -6
  ie2: +1 x7 -1 x16 >= 0
  ie3: +1 x18 >= 5
  ie4: +1 x8 >= 5
  ie5: -1 x1 +1 x2 +1 x20 >= 9
  ie6: -1 x1 -1 x8 +1 x15 >= -8
  ie7: -1 x1 -1 x8 +1 x11 >= -4
  ie8: -1 x1 -1 x8 +1 x9 >= -8
END

\\\\\\\\\\\\\\\\\\\\\\\\\\\\\\\\\\\\\\\\ file 18

MAXIMIZE
Subject To
  eq0: +1 x1 +1 x9 -1 x11 = 3
  eq1: +1 x4 +1 x8 -1 x11 = 4
  eq2: -1 x1 +1 x2 +1 x17 = 9
  eq3: +1 x19 = 4
  eq4: +1 x16 +1 x20 -1 x21 = 7
  eq5: +1 x1 +1 x8 -1 x13 = 4
  eq6: +1 x1 +1 x10 -1 x15 = 7
  eq7: +1 x4 +1 x9 -1 x15 = 6
  eq8: -1 x6 +1 x7 +1 x17 = 9
  eq9: +1 x16 +1 x17 -1 x18 -1 x19 = 2
  eq10: +1 x3 +1 x9 -1 x10 = 7
  eq11: +1 x18 = 5
  eq12: -1 x15 +1 x16 +1 x17 = 6
  eq13: -1 x11 +1 x12 +1 x17 = 9
  eq14: -1 x4 +1 x5 +1 x17 = 9
  eq15: -1 x13 +1 x14 +1 x17 = 9
  eq16: +1 x21 = 5
  eq17: +1 x6 +1 x8 -1 x15 = 8
  eq18: +1 x22 = 5
  ie0: -1 x8 >= -7
  ie1: +1 x4 -1 x9 >= 0
  ie2: +1 x7 -1 x16 >= 0
  ie3: -1 x4 -1 x9 +1 x11 >= -3
  ie4: +1 x3 -1 x4 +1 x8 -1 x9 >= 0
  ie5: +1 x8 >= 5
  ie6: +1 x9 >= 5
  ie7: +1 x17 >= 5
  ie8: +1 x16 >= 5
  ie9: -1 x9 +1 x10 >= 0
END

\\\\\\\\\\\\\\\\\\\\\\\\\\\\\\\\\\\\\\\\ file 19

MAXIMIZE
Subject To
  eq0: +1 x4 +1 x8 -1 x11 = 3
  eq1: +1 x7 +1 x20 -1 x21 = 7
  eq2: -1 x1 +1 x2 +1 x20 = 9
  eq3: +1 x7 +1 x17 -1 x18 -1 x19 = 2
  eq4: +1 x19 = 4
  eq5: +1 x1 +1 x8 -1 x13 = 4
  eq6: -1 x6 +1 x7 +1 x20 = 9
  eq7: +1 x10 = 5
  eq8: -1 x11 +1 x12 +1 x20 = 9
  eq9: +1 x3 +1 x9 -1 x10 = 7
  eq10: -1 x4 +1 x5 +1 x20 = 9
  eq11: -1 x13 +1 x14 +1 x20 = 9
  eq12: +1 x6 +1 x8 -1 x9 = 8
  eq13: +1 x6 = 5
  eq14: +1 x17 = 5
  eq15: -1 x15 +1 x16 +1 x20 = 6
  eq16: +1 x20 = 5
  eq17: +1 x1 -1 x4 +1 x10 = 8
  eq18: +1 x22 = 5
  eq19: +1 x3 +1 x4 -1 x6 = 7
  ie0: -1 x6 -1 x8 +1 x11 >= -4
  ie1: +1 x4 -1 x6 >= 0
  ie2: +1 x3 -1 x4 -1 x8 +1 x13 >= 0
  ie3: +1 x16 >= 5
  ie4: +1 x4 +1 x9 -1 x15 >= 5
  ie5: -1 x7 +1 x16 >= 0
  ie6: +1 x3 -1 x6 >= 0
END

\\\\\\\\\\\\\\\\\\\\\\\\\\\\\\\\\\\\\\\\ end



20 polyhedra, 45 rounds, smt 0.263 sec, isect 1.027 sec, insert 0.067 sec, total 1.576 sec
Preprocessing 0.002 sec, super total 1.578 sec
Comparing... 0.609 sec.  Solution matches input.
