k62*x51 + k62*x52 + k62*x53 + k62*x54 + k62*x55 + k62*x56 + k62*x57 + k62*x58 + k62*x59 + k62*x60 + k62*x61 + k62*x62 + k62*x63 + k62*x64 + k62*x65 + k62*x66 + k62*x67 - k63
k62*x34 + k62*x35 + k62*x36 + k62*x37 + k62*x38 + k62*x39 + k62*x40 + k62*x41 + k62*x42 + k62*x43 + k62*x44 + k62*x45 + k62*x46 + k62*x47 + k62*x48 + k62*x49 + k62*x50 - k64
k62*x2 + k62*x3 + k62*x4 + k62*x5 + k62*x6 + 2*k62*x7 + 2*k62*x8 + 2*k62*x9 + 2*k62*x10 + 2*k62*x11 + 2*k62*x12 + 3*k62*x13 + 3*k62*x14 + 3*k62*x15 + 3*k62*x16 + 4*k62*x17 + k62*x19 + k62*x20 + k62*x21 + k62*x22 + 2*k62*x23 + 2*k62*x24 + 2*k62*x25 + 2*k62*x26 + 2*k62*x27 + 2*k62*x28 + 3*k62*x29 + 3*k62*x30 + 3*k62*x31 + 3*k62*x32 + 4*k62*x33 + k62*x36 + k62*x37 + k62*x38 + k62*x39 + 2*k62*x40 + 2*k62*x41 + 2*k62*x42 + 2*k62*x43 + 2*k62*x44 + 2*k62*x45 + 3*k62*x46 + 3*k62*x47 + 3*k62*x48 + 3*k62*x49 + 4*k62*x50 + k62*x53 + k62*x54 + k62*x55 + k62*x56 + 2*k62*x57 + 2*k62*x58 + 2*k62*x59 + 2*k62*x60 + 2*k62*x61 + 2*k62*x62 + 3*k62*x63 + 3*k62*x64 + 3*k62*x65 + 3*k62*x66 + 4*k62*x67 - k65
k62*x1 + k62*x3 + k62*x4 + k62*x5 + k62*x6 + k62*x7 + k62*x8 + k62*x9 + k62*x10 + k62*x11 + k62*x12 + k62*x13 + k62*x14 + k62*x15 + k62*x16 + k62*x17 + k62*x18 + k62*x19 + k62*x20 + k62*x21 + k62*x22 + k62*x23 + k62*x24 + k62*x25 + k62*x26 + k62*x27 + k62*x28 + k62*x29 + k62*x30 + k62*x31 + k62*x32 + k62*x33 + k62*x35 + k62*x36 + k62*x37 + k62*x38 + k62*x39 + k62*x40 + k62*x41 + k62*x42 + k62*x43 + k62*x44 + k62*x45 + k62*x46 + k62*x47 + k62*x48 + k62*x49 + k62*x50 + k62*x52 + k62*x53 + k62*x54 + k62*x55 + k62*x56 + k62*x57 + k62*x58 + k62*x59 + k62*x60 + k62*x61 + k62*x62 + k62*x63 + k62*x64 + k62*x65 + k62*x66 + k62*x67 - k66
