
\\\\\\\\\\\\\\\\\\\\\\\\\\\\\\\\\\\\\\\\ file 0

\ combo: 1-1-13-6-9-19-1-0-4-4
\ dimension 2; is compact
MAXIMIZE
Subject To
  ie0: -5 x2 >= -18        \ x2**-1 <= 5610.66
  ie1: -1 x5 >= 0          \ x5**-1 <= 1.0
  ie2: +1 x2 >= 3          \ x2 <= 0.000751315
  ie3: +1 x5 >= -1         \ x5 <= 11.0
  eq0: +4 x2 +1 x10 = 17   \ x2**4 * x10 = 1.97845e-18
  eq1: +4 x2 +1 x9 = 17    \ x2**4 * x9 = 1.97845e-18
  eq2: +1 x2 -1 x8 = 4     \ x2 * x8**-1 = 6.83013e-05
  eq3: +1 x2 -1 x7 = 3     \ x2 * x7**-1 = 0.000751315
  eq4: +1 x2 -1 x6 = 2     \ x2 * x6**-1 = 0.00826446
  eq5: +1 x2 -1 x4 = 1     \ x2 * x4**-1 = 0.0909091
  eq6: +1 x3 = 1           \ x3 = 0.0909091
  eq7: +1 x1 = 2           \ x1 = 0.00826446
END

\\\\\\\\\\\\\\\\\\\\\\\\\\\\\\\\\\\\\\\\ file 1

\ combo: 1-1-6-13-19-9-1-0-4-4
\ dimension 2; is compact
MAXIMIZE
Subject To
  ie0: -5 x1 >= -18        \ x1**-1 <= 5610.66
  ie1: -1 x6 >= 0          \ x6**-1 <= 1.0
  ie2: +1 x1 >= 3          \ x1 <= 0.000751315
  ie3: +1 x6 >= -1         \ x6 <= 11.0
  eq0: +4 x1 +1 x10 = 17   \ x1**4 * x10 = 1.97845e-18
  eq1: +4 x1 +1 x9 = 17    \ x1**4 * x9 = 1.97845e-18
  eq2: +1 x1 -1 x8 = 4     \ x1 * x8**-1 = 6.83013e-05
  eq3: +1 x1 -1 x7 = 3     \ x1 * x7**-1 = 0.000751315
  eq4: +1 x1 -1 x5 = 2     \ x1 * x5**-1 = 0.00826446
  eq5: +1 x4 = 1           \ x4 = 0.0909091
  eq6: +1 x1 -1 x3 = 1     \ x1 * x3**-1 = 0.0909091
  eq7: +1 x2 = 2           \ x2 = 0.00826446
END

\\\\\\\\\\\\\\\\\\\\\\\\\\\\\\\\\\\\\\\\ file 2

\ combo: 1-1-6-6-19-19-1-0-4-4
\ dimension 1; is compact
MAXIMIZE
Subject To
  ie0: -5 x1 >= -18        \ x1**-1 <= 5610.66
  ie1: +1 x1 >= 3          \ x1 <= 0.000751315
  eq0: +4 x1 +1 x10 = 17   \ x1**4 * x10 = 1.97845e-18
  eq1: +4 x1 +1 x9 = 17    \ x1**4 * x9 = 1.97845e-18
  eq2: +1 x1 -1 x8 = 4     \ x1 * x8**-1 = 6.83013e-05
  eq3: +1 x1 -1 x7 = 3     \ x1 * x7**-1 = 0.000751315
  eq4: +1 x1 -1 x6 = 2     \ x1 * x6**-1 = 0.00826446
  eq5: +1 x1 -1 x5 = 2     \ x1 * x5**-1 = 0.00826446
  eq6: +1 x1 -1 x4 = 1     \ x1 * x4**-1 = 0.0909091
  eq7: +1 x1 -1 x3 = 1     \ x1 * x3**-1 = 0.0909091
  eq8: +1 x1 -1 x2 = 0     \ x1 * x2**-1 = 1.0
END

\\\\\\\\\\\\\\\\\\\\\\\\\\\\\\\\\\\\\\\\ file 3

\ combo: 1-0-13-6-9-19-1-0-4-4
\ dimension 2; is compact
MAXIMIZE
Subject To
  ie0: -5 x2 >= -18       \ x2**-1 <= 5610.66
  ie1: -1 x5 >= 0         \ x5**-1 <= 1.0
  ie2: +5 x2 >= 14        \ x2 <= 0.00121367
  ie3: +1 x5 >= -1        \ x5 <= 11.0
  eq0: +1 x2 -1 x10 = 1   \ x2 * x10**-1 = 0.0909091
  eq1: +1 x2 -1 x9 = 1    \ x2 * x9**-1 = 0.0909091
  eq2: +1 x2 +4 x8 = 2    \ x2 * x8**4 = 0.00826446
  eq3: +1 x2 +4 x7 = 6    \ x2 * x7**4 = 5.64474e-07
  eq4: +1 x2 +4 x6 = 10   \ x2 * x6**4 = 3.85543e-11
  eq5: +1 x2 +4 x4 = 14   \ x2 * x4**4 = 2.63331e-15
  eq6: +1 x3 = 1          \ x3 = 0.0909091
  eq7: +1 x1 = 2          \ x1 = 0.00826446
END

\\\\\\\\\\\\\\\\\\\\\\\\\\\\\\\\\\\\\\\\ file 4

\ combo: 0-0-6-6-19-19-1-0-4-4
\ dimension 1; is compact
MAXIMIZE
Subject To
  ie0: -5 x1 >= -18       \ x1**-1 <= 5610.66
  ie1: +5 x1 >= 14        \ x1 <= 0.00121367
  eq0: +1 x1 -1 x10 = 1   \ x1 * x10**-1 = 0.0909091
  eq1: +1 x1 -1 x9 = 1    \ x1 * x9**-1 = 0.0909091
  eq2: +1 x1 +4 x8 = 2    \ x1 * x8**4 = 0.00826446
  eq3: +1 x1 +4 x7 = 6    \ x1 * x7**4 = 5.64474e-07
  eq4: +1 x1 +4 x6 = 10   \ x1 * x6**4 = 3.85543e-11
  eq5: +1 x1 +4 x5 = 10   \ x1 * x5**4 = 3.85543e-11
  eq6: +1 x1 +4 x4 = 14   \ x1 * x4**4 = 2.63331e-15
  eq7: +1 x1 +4 x3 = 14   \ x1 * x3**4 = 2.63331e-15
  eq8: +1 x1 -1 x2 = 0    \ x1 * x2**-1 = 1.0
END

\\\\\\\\\\\\\\\\\\\\\\\\\\\\\\\\\\\\\\\\ file 5

\ combo: 0-1-6-13-19-9-1-0-4-4
\ dimension 2; is compact
MAXIMIZE
Subject To
  ie0: -5 x1 >= -18       \ x1**-1 <= 5610.66
  ie1: -1 x6 >= 0         \ x6**-1 <= 1.0
  ie2: +5 x1 >= 14        \ x1 <= 0.00121367
  ie3: +1 x6 >= -1        \ x6 <= 11.0
  eq0: +1 x1 -1 x10 = 1   \ x1 * x10**-1 = 0.0909091
  eq1: +1 x1 -1 x9 = 1    \ x1 * x9**-1 = 0.0909091
  eq2: +1 x1 +4 x8 = 2    \ x1 * x8**4 = 0.00826446
  eq3: +1 x1 +4 x7 = 6    \ x1 * x7**4 = 5.64474e-07
  eq4: +1 x1 +4 x5 = 10   \ x1 * x5**4 = 3.85543e-11
  eq5: +1 x4 = 1          \ x4 = 0.0909091
  eq6: +1 x1 +4 x3 = 14   \ x1 * x3**4 = 2.63331e-15
  eq7: +1 x2 = 2          \ x2 = 0.00826446
END

\\\\\\\\\\\\\\\\\\\\\\\\\\\\\\\\\\\\\\\\ file 6

\ combo: 1-1-13-6-29-54-1-0-4-4
\ dimension 2; is not compact
MAXIMIZE
Subject To
  ie0: -1 x2 -1 x5 >= -2         \ x2**-1 * x5**-1 <= 121.0
  ie1: -1 x2 >= -4               \ x2**-1 <= 14641.0
  ie2: +1 x2 >= 3                \ x2 <= 0.000751315
  eq0: +4 x2 +4 x5 +1 x10 = 13   \ x2**4 * x5**4 * x10 = 2.89664e-14
  eq1: +4 x2 +4 x5 +1 x9 = 13    \ x2**4 * x5**4 * x9 = 2.89664e-14
  eq2: +1 x2 +1 x5 -1 x8 = 3     \ x2 * x5 * x8**-1 = 0.000751315
  eq3: +1 x2 +1 x5 -1 x7 = 2     \ x2 * x5 * x7**-1 = 0.00826446
  eq4: +1 x2 -1 x6 = 2           \ x2 * x6**-1 = 0.00826446
  eq5: +1 x2 -1 x4 = 1           \ x2 * x4**-1 = 0.0909091
  eq6: +1 x3 = 1                 \ x3 = 0.0909091
  eq7: +1 x1 = 2                 \ x1 = 0.00826446
END

\\\\\\\\\\\\\\\\\\\\\\\\\\\\\\\\\\\\\\\\ file 7

\ combo: 1-1-13-6-29-21-1-0-4-4
\ dimension 2; is not compact
MAXIMIZE
Subject To
  ie0: -1 x2 -1 x5 >= -2         \ x2**-1 * x5**-1 <= 121.0
  ie1: -1 x2 >= -3               \ x2**-1 <= 1331.0
  ie2: +1 x2 >= 2                \ x2 <= 0.00826446
  eq0: +4 x2 +4 x5 +1 x10 = 13   \ x2**4 * x5**4 * x10 = 2.89664e-14
  eq1: +4 x2 +4 x5 +1 x9 = 13    \ x2**4 * x5**4 * x9 = 2.89664e-14
  eq2: +1 x2 +1 x5 -1 x8 = 3     \ x2 * x5 * x8**-1 = 0.000751315
  eq3: +1 x2 +1 x5 -1 x7 = 2     \ x2 * x5 * x7**-1 = 0.00826446
  eq4: +1 x2 -1 x6 = 2           \ x2 * x6**-1 = 0.00826446
  eq5: +1 x2 -1 x4 = 1           \ x2 * x4**-1 = 0.0909091
  eq6: +1 x3 = 1                 \ x3 = 0.0909091
  eq7: +1 x1 = 2                 \ x1 = 0.00826446
END

\\\\\\\\\\\\\\\\\\\\\\\\\\\\\\\\\\\\\\\\ file 8

\ combo: 1-1-13-6-9-54-1-0-4-4
\ dimension 2; is compact
MAXIMIZE
Subject To
  ie0: -5 x2 -4 x5 >= -14        \ x2**-5 * x5**-4 <= 3.7975e+14
  ie1: -1 x5 >= 1                \ x5**-1 <= 0.0909091
  ie2: +1 x2 +1 x5 >= 2          \ x2 * x5 <= 0.00826446
  ie3: +1 x5 >= -2               \ x5 <= 121.0
  eq0: +4 x2 +4 x5 +1 x10 = 13   \ x2**4 * x5**4 * x10 = 2.89664e-14
  eq1: +4 x2 +4 x5 +1 x9 = 13    \ x2**4 * x5**4 * x9 = 2.89664e-14
  eq2: +1 x2 +1 x5 -1 x8 = 3     \ x2 * x5 * x8**-1 = 0.000751315
  eq3: +1 x2 +1 x5 -1 x7 = 2     \ x2 * x5 * x7**-1 = 0.00826446
  eq4: +1 x2 -1 x6 = 2           \ x2 * x6**-1 = 0.00826446
  eq5: +1 x2 -1 x4 = 1           \ x2 * x4**-1 = 0.0909091
  eq6: +1 x3 = 1                 \ x3 = 0.0909091
  eq7: +1 x1 = 2                 \ x1 = 0.00826446
END

\\\\\\\\\\\\\\\\\\\\\\\\\\\\\\\\\\\\\\\\ file 9

\ combo: 1-1-6-13-54-29-1-0-4-4
\ dimension 2; is not compact
MAXIMIZE
Subject To
  ie0: -1 x1 -1 x6 >= -2         \ x1**-1 * x6**-1 <= 121.0
  ie1: -1 x1 >= -4               \ x1**-1 <= 14641.0
  ie2: +1 x1 >= 3                \ x1 <= 0.000751315
  eq0: +4 x1 +4 x6 +1 x10 = 13   \ x1**4 * x6**4 * x10 = 2.89664e-14
  eq1: +4 x1 +4 x6 +1 x9 = 13    \ x1**4 * x6**4 * x9 = 2.89664e-14
  eq2: +1 x1 +1 x6 -1 x8 = 3     \ x1 * x6 * x8**-1 = 0.000751315
  eq3: +1 x1 +1 x6 -1 x7 = 2     \ x1 * x6 * x7**-1 = 0.00826446
  eq4: +1 x1 -1 x5 = 2           \ x1 * x5**-1 = 0.00826446
  eq5: +1 x4 = 1                 \ x4 = 0.0909091
  eq6: +1 x1 -1 x3 = 1           \ x1 * x3**-1 = 0.0909091
  eq7: +1 x2 = 2                 \ x2 = 0.00826446
END

\\\\\\\\\\\\\\\\\\\\\\\\\\\\\\\\\\\\\\\\ file 10

\ combo: 1-1-6-13-21-29-1-0-4-4
\ dimension 2; is not compact
MAXIMIZE
Subject To
  ie0: -1 x1 -1 x6 >= -2         \ x1**-1 * x6**-1 <= 121.0
  ie1: -1 x1 >= -3               \ x1**-1 <= 1331.0
  ie2: +1 x1 >= 2                \ x1 <= 0.00826446
  eq0: +4 x1 +4 x6 +1 x10 = 13   \ x1**4 * x6**4 * x10 = 2.89664e-14
  eq1: +4 x1 +4 x6 +1 x9 = 13    \ x1**4 * x6**4 * x9 = 2.89664e-14
  eq2: +1 x1 +1 x6 -1 x8 = 3     \ x1 * x6 * x8**-1 = 0.000751315
  eq3: +1 x1 +1 x6 -1 x7 = 2     \ x1 * x6 * x7**-1 = 0.00826446
  eq4: +1 x1 -1 x5 = 2           \ x1 * x5**-1 = 0.00826446
  eq5: +1 x4 = 1                 \ x4 = 0.0909091
  eq6: +1 x1 -1 x3 = 1           \ x1 * x3**-1 = 0.0909091
  eq7: +1 x2 = 2                 \ x2 = 0.00826446
END

\\\\\\\\\\\\\\\\\\\\\\\\\\\\\\\\\\\\\\\\ file 11

\ combo: 1-1-6-13-54-9-1-0-4-4
\ dimension 2; is compact
MAXIMIZE
Subject To
  ie0: -5 x1 -4 x6 >= -14        \ x1**-5 * x6**-4 <= 3.7975e+14
  ie1: -1 x6 >= 1                \ x6**-1 <= 0.0909091
  ie2: +1 x1 +1 x6 >= 2          \ x1 * x6 <= 0.00826446
  ie3: +1 x6 >= -2               \ x6 <= 121.0
  eq0: +4 x1 +4 x6 +1 x10 = 13   \ x1**4 * x6**4 * x10 = 2.89664e-14
  eq1: +4 x1 +4 x6 +1 x9 = 13    \ x1**4 * x6**4 * x9 = 2.89664e-14
  eq2: +1 x1 +1 x6 -1 x8 = 3     \ x1 * x6 * x8**-1 = 0.000751315
  eq3: +1 x1 +1 x6 -1 x7 = 2     \ x1 * x6 * x7**-1 = 0.00826446
  eq4: +1 x1 -1 x5 = 2           \ x1 * x5**-1 = 0.00826446
  eq5: +1 x4 = 1                 \ x4 = 0.0909091
  eq6: +1 x1 -1 x3 = 1           \ x1 * x3**-1 = 0.0909091
  eq7: +1 x2 = 2                 \ x2 = 0.00826446
END

\\\\\\\\\\\\\\\\\\\\\\\\\\\\\\\\\\\\\\\\ file 12

\ combo: 1-0-13-0-9-19-1-0-4-4
\ dimension 2; is compact
MAXIMIZE
Subject To
  ie0: -5 x2 >= -14       \ x2**-1 <= 823.947
  ie1: -1 x5 >= 0         \ x5**-1 <= 1.0
  ie2: +1 x2 >= 2         \ x2 <= 0.00826446
  ie3: +1 x5 >= -1        \ x5 <= 11.0
  eq0: +1 x2 -1 x10 = 1   \ x2 * x10**-1 = 0.0909091
  eq1: +1 x2 -1 x9 = 1    \ x2 * x9**-1 = 0.0909091
  eq2: +1 x2 +4 x8 = 2    \ x2 * x8**4 = 0.00826446
  eq3: +1 x2 +4 x7 = 6    \ x2 * x7**4 = 5.64474e-07
  eq4: +1 x2 +4 x6 = 10   \ x2 * x6**4 = 3.85543e-11
  eq5: +1 x2 -1 x4 = 0    \ x2 * x4**-1 = 1.0
  eq6: +1 x3 = 1          \ x3 = 0.0909091
  eq7: +1 x1 = 2          \ x1 = 0.00826446
END

\\\\\\\\\\\\\\\\\\\\\\\\\\\\\\\\\\\\\\\\ file 13

\ combo: 1-0-13-6-9-54-1-0-4-4
\ dimension 2; is compact
MAXIMIZE
Subject To
  ie0: -1 x2 -4 x4 >= -18       \ x2**-1 * x4**-4 <= 5.55992e+18
  ie1: -1 x2 +1 x4 >= -1        \ x2**-1 * x4 <= 11.0
  ie2: +1 x2 +4 x4 >= 14        \ x2 * x4**4 <= 2.63331e-15
  ie3: +1 x2 -1 x4 >= 0         \ x2 * x4**-1 <= 1.0
  eq0: +1 x2 -1 x10 = 1         \ x2 * x10**-1 = 0.0909091
  eq1: +1 x2 -1 x9 = 1          \ x2 * x9**-1 = 0.0909091
  eq2: +1 x2 +4 x8 = 2          \ x2 * x8**4 = 0.00826446
  eq3: +1 x2 +4 x7 = 6          \ x2 * x7**4 = 5.64474e-07
  eq4: +1 x4 -1 x6 = 1          \ x4 * x6**-1 = 0.0909091
  eq5: +1 x2 +4 x4 +4 x5 = 10   \ x2 * x4**4 * x5**4 = 3.85543e-11
  eq6: +1 x3 = 1                \ x3 = 0.0909091
  eq7: +1 x1 = 2                \ x1 = 0.00826446
END

\\\\\\\\\\\\\\\\\\\\\\\\\\\\\\\\\\\\\\\\ file 14

\ combo: 0-0-0-0-19-19-1-0-4-4
\ dimension 1; is compact
MAXIMIZE
Subject To
  ie0: -5 x1 >= -14       \ x1**-1 <= 823.947
  ie1: +1 x1 >= 2         \ x1 <= 0.00826446
  eq0: +1 x1 -1 x10 = 1   \ x1 * x10**-1 = 0.0909091
  eq1: +1 x1 -1 x9 = 1    \ x1 * x9**-1 = 0.0909091
  eq2: +1 x1 +4 x8 = 2    \ x1 * x8**4 = 0.00826446
  eq3: +1 x1 +4 x7 = 6    \ x1 * x7**4 = 5.64474e-07
  eq4: +1 x1 +4 x6 = 10   \ x1 * x6**4 = 3.85543e-11
  eq5: +1 x1 +4 x5 = 10   \ x1 * x5**4 = 3.85543e-11
  eq6: +1 x1 -1 x4 = 0    \ x1 * x4**-1 = 1.0
  eq7: +1 x1 -1 x3 = 0    \ x1 * x3**-1 = 1.0
  eq8: +1 x1 -1 x2 = 0    \ x1 * x2**-1 = 1.0
END

\\\\\\\\\\\\\\\\\\\\\\\\\\\\\\\\\\\\\\\\ file 15

\ combo: 0-1-0-13-19-9-1-0-4-4
\ dimension 2; is compact
MAXIMIZE
Subject To
  ie0: -5 x1 >= -14       \ x1**-1 <= 823.947
  ie1: -1 x6 >= 0         \ x6**-1 <= 1.0
  ie2: +1 x1 >= 2         \ x1 <= 0.00826446
  ie3: +1 x6 >= -1        \ x6 <= 11.0
  eq0: +1 x1 -1 x10 = 1   \ x1 * x10**-1 = 0.0909091
  eq1: +1 x1 -1 x9 = 1    \ x1 * x9**-1 = 0.0909091
  eq2: +1 x1 +4 x8 = 2    \ x1 * x8**4 = 0.00826446
  eq3: +1 x1 +4 x7 = 6    \ x1 * x7**4 = 5.64474e-07
  eq4: +1 x1 +4 x5 = 10   \ x1 * x5**4 = 3.85543e-11
  eq5: +1 x4 = 1          \ x4 = 0.0909091
  eq6: +1 x1 -1 x3 = 0    \ x1 * x3**-1 = 1.0
  eq7: +1 x2 = 2          \ x2 = 0.00826446
END

\\\\\\\\\\\\\\\\\\\\\\\\\\\\\\\\\\\\\\\\ file 16

\ combo: 0-1-6-13-54-9-1-0-4-4
\ dimension 2; is compact
MAXIMIZE
Subject To
  ie0: -1 x1 -4 x3 >= -18       \ x1**-1 * x3**-4 <= 5.55992e+18
  ie1: -1 x1 +1 x3 >= -1        \ x1**-1 * x3 <= 11.0
  ie2: +1 x1 +4 x3 >= 14        \ x1 * x3**4 <= 2.63331e-15
  ie3: +1 x1 -1 x3 >= 0         \ x1 * x3**-1 <= 1.0
  eq0: +1 x1 -1 x10 = 1         \ x1 * x10**-1 = 0.0909091
  eq1: +1 x1 -1 x9 = 1          \ x1 * x9**-1 = 0.0909091
  eq2: +1 x1 +4 x8 = 2          \ x1 * x8**4 = 0.00826446
  eq3: +1 x1 +4 x7 = 6          \ x1 * x7**4 = 5.64474e-07
  eq4: +1 x1 +4 x3 +4 x6 = 10   \ x1 * x3**4 * x6**4 = 3.85543e-11
  eq5: +1 x3 -1 x5 = 1          \ x3 * x5**-1 = 0.0909091
  eq6: +1 x4 = 1                \ x4 = 0.0909091
  eq7: +1 x2 = 2                \ x2 = 0.00826446
END

\\\\\\\\\\\\\\\\\\\\\\\\\\\\\\\\\\\\\\\\ file 17

\ combo: 1-0-13-0-9-54-1-0-4-4
\ dimension 2; is compact
MAXIMIZE
Subject To
  ie0: -5 x2 -4 x5 >= -10      \ x2**-5 * x5**-4 <= 2.59374e+10
  ie1: -1 x5 >= 1              \ x5**-1 <= 0.0909091
  ie2: +1 x2 >= 2              \ x2 <= 0.00826446
  ie3: +1 x5 >= -2             \ x5 <= 121.0
  eq0: +1 x2 -1 x10 = 1        \ x2 * x10**-1 = 0.0909091
  eq1: +1 x2 -1 x9 = 1         \ x2 * x9**-1 = 0.0909091
  eq2: +1 x2 +4 x8 = 2         \ x2 * x8**4 = 0.00826446
  eq3: +1 x2 +4 x7 = 6         \ x2 * x7**4 = 5.64474e-07
  eq4: +1 x2 +4 x5 +4 x6 = 6   \ x2 * x5**4 * x6**4 = 5.64474e-07
  eq5: +1 x2 -1 x4 = 0         \ x2 * x4**-1 = 1.0
  eq6: +1 x3 = 1               \ x3 = 0.0909091
  eq7: +1 x1 = 2               \ x1 = 0.00826446
END

\\\\\\\\\\\\\\\\\\\\\\\\\\\\\\\\\\\\\\\\ file 18

\ combo: 0-1-0-13-54-9-1-0-4-4
\ dimension 2; is compact
MAXIMIZE
Subject To
  ie0: -1 x1 -4 x5 >= -14      \ x1**-1 * x5**-4 <= 3.7975e+14
  ie1: -1 x1 +1 x5 >= -1       \ x1**-1 * x5 <= 11.0
  ie2: +1 x1 +4 x5 >= 10       \ x1 * x5**4 <= 3.85543e-11
  ie3: +1 x1 >= 2              \ x1 <= 0.00826446
  eq0: +1 x1 -1 x10 = 1        \ x1 * x10**-1 = 0.0909091
  eq1: +1 x1 -1 x9 = 1         \ x1 * x9**-1 = 0.0909091
  eq2: +1 x1 +4 x8 = 2         \ x1 * x8**4 = 0.00826446
  eq3: +1 x1 +4 x7 = 6         \ x1 * x7**4 = 5.64474e-07
  eq4: +1 x1 +4 x5 +4 x6 = 6   \ x1 * x5**4 * x6**4 = 5.64474e-07
  eq5: +1 x4 = 1               \ x4 = 0.0909091
  eq6: +1 x1 -1 x3 = 0         \ x1 * x3**-1 = 1.0
  eq7: +1 x2 = 2               \ x2 = 0.00826446
END

\\\\\\\\\\\\\\\\\\\\\\\\\\\\\\\\\\\\\\\\ file 19

\ combo: 1-1-6-6-16-16-1-0-4-4
\ dimension 2; is compact
MAXIMIZE
Subject To
  ie0: -1 x1 >= -3       \ x1**-1 <= 1331.0
  ie1: -1 x2 >= -3       \ x2**-1 <= 1331.0
  ie2: +1 x1 >= 2        \ x1 <= 0.00826446
  ie3: +1 x2 >= 2        \ x2 <= 0.00826446
  eq0: +1 x10 = 5        \ x10 = 6.20921e-06
  eq1: +1 x9 = 5         \ x9 = 6.20921e-06
  eq2: +1 x8 = -1        \ x8 = 11.0
  eq3: +1 x7 = 0         \ x7 = 1.0
  eq4: +1 x2 -1 x6 = 2   \ x2 * x6**-1 = 0.00826446
  eq5: +1 x1 -1 x5 = 2   \ x1 * x5**-1 = 0.00826446
  eq6: +1 x2 -1 x4 = 1   \ x2 * x4**-1 = 0.0909091
  eq7: +1 x1 -1 x3 = 1   \ x1 * x3**-1 = 0.0909091
END

\\\\\\\\\\\\\\\\\\\\\\\\\\\\\\\\\\\\\\\\ file 20

\ combo: 1-1-13-6-9-16-1-0-4-4
\ dimension 2; is compact
MAXIMIZE
Subject To
  ie0: -1 x2 >= -3        \ x2**-1 <= 1331.0
  ie1: -1 x5 >= 0         \ x5**-1 <= 1.0
  ie2: +1 x2 +1 x5 >= 2   \ x2 * x5 <= 0.00826446
  eq0: +1 x10 = 5         \ x10 = 6.20921e-06
  eq1: +1 x9 = 5          \ x9 = 6.20921e-06
  eq2: +1 x8 = -1         \ x8 = 11.0
  eq3: +1 x7 = 0          \ x7 = 1.0
  eq4: +1 x2 -1 x6 = 2    \ x2 * x6**-1 = 0.00826446
  eq5: +1 x2 -1 x4 = 1    \ x2 * x4**-1 = 0.0909091
  eq6: +1 x3 = 1          \ x3 = 0.0909091
  eq7: +1 x1 = 2          \ x1 = 0.00826446
END

\\\\\\\\\\\\\\\\\\\\\\\\\\\\\\\\\\\\\\\\ file 21

\ combo: 1-1-6-13-16-9-1-0-4-4
\ dimension 2; is compact
MAXIMIZE
Subject To
  ie0: -1 x1 >= -3        \ x1**-1 <= 1331.0
  ie1: -1 x6 >= 0         \ x6**-1 <= 1.0
  ie2: +1 x1 +1 x6 >= 2   \ x1 * x6 <= 0.00826446
  eq0: +1 x10 = 5         \ x10 = 6.20921e-06
  eq1: +1 x9 = 5          \ x9 = 6.20921e-06
  eq2: +1 x8 = -1         \ x8 = 11.0
  eq3: +1 x7 = 0          \ x7 = 1.0
  eq4: +1 x1 -1 x5 = 2    \ x1 * x5**-1 = 0.00826446
  eq5: +1 x4 = 1          \ x4 = 0.0909091
  eq6: +1 x1 -1 x3 = 1    \ x1 * x3**-1 = 0.0909091
  eq7: +1 x2 = 2          \ x2 = 0.00826446
END

\\\\\\\\\\\\\\\\\\\\\\\\\\\\\\\\\\\\\\\\ file 22

\ combo: 1-1-13-13-29-29-1-0-4-4
\ dimension 2; is not compact
MAXIMIZE
Subject To
  ie0: -1 x5 >= 0               \ x5**-1 <= 1.0
  ie1: -1 x6 >= 0               \ x6**-1 <= 1.0
  eq0: +4 x5 +4 x6 +1 x10 = 5   \ x5**4 * x6**4 * x10 = 6.20921e-06
  eq1: +4 x5 +4 x6 +1 x9 = 5    \ x5**4 * x6**4 * x9 = 6.20921e-06
  eq2: +1 x5 +1 x6 -1 x8 = 1    \ x5 * x6 * x8**-1 = 0.0909091
  eq3: +1 x5 +1 x6 -1 x7 = 0    \ x5 * x6 * x7**-1 = 1.0
  eq4: +1 x4 = 1                \ x4 = 0.0909091
  eq5: +1 x3 = 1                \ x3 = 0.0909091
  eq6: +1 x2 = 2                \ x2 = 0.00826446
  eq7: +1 x1 = 2                \ x1 = 0.00826446
END

\\\\\\\\\\\\\\\\\\\\\\\\\\\\\\\\\\\\\\\\ file 23

\ combo: 3-0-31-0-14-54-1-0-0-0
\ dimension 1; is compact
MAXIMIZE
Subject To
  ie0: -1 x1 >= 0    \ x1**-1 <= 1.0
  ie1: +1 x1 >= -3   \ x1 <= 1331.0
  eq0: +1 x10 = 1    \ x10 = 0.0909091
  eq1: +1 x9 = -1    \ x9 = 11.0
  eq2: +1 x8 = 0     \ x8 = 1.0
  eq3: +1 x7 = 1     \ x7 = 0.0909091
  eq4: +1 x6 = 4     \ x6 = 6.83013e-05
  eq5: +1 x5 = -3    \ x5 = 1331.0
  eq6: +1 x4 = 2     \ x4 = 0.00826446
  eq7: +1 x3 = 0     \ x3 = 1.0
  eq8: +1 x2 = 2     \ x2 = 0.00826446
END

\\\\\\\\\\\\\\\\\\\\\\\\\\\\\\\\\\\\\\\\ file 24

\ combo: 10-0-31-0-14-54-1-0-0-0
\ dimension 1; is compact
MAXIMIZE
Subject To
  ie0: -1 x1 >= 3         \ x1**-1 <= 0.000751315
  ie1: +1 x1 >= -4        \ x1 <= 14641.0
  eq0: +1 x10 = 1         \ x10 = 0.0909091
  eq1: +1 x1 -1 x9 = -2   \ x1 * x9**-1 = 121.0
  eq2: +1 x8 = 0          \ x8 = 1.0
  eq3: +1 x7 = 1          \ x7 = 0.0909091
  eq4: +1 x6 = 4          \ x6 = 6.83013e-05
  eq5: +1 x5 = -3         \ x5 = 1331.0
  eq6: +1 x4 = 2          \ x4 = 0.00826446
  eq7: +1 x3 = 0          \ x3 = 1.0
  eq8: +1 x2 = 2          \ x2 = 0.00826446
END

\\\\\\\\\\\\\\\\\\\\\\\\\\\\\\\\\\\\\\\\ file 25

\ combo: 7-0-25-0-15-54-1-0-0-0
\ dimension 1; is compact
MAXIMIZE
Subject To
  ie0: -1 x3 >= 0    \ x3**-1 <= 1.0
  ie1: +1 x3 >= -3   \ x3 <= 1331.0
  eq0: +1 x10 = 1    \ x10 = 0.0909091
  eq1: +1 x9 = -1    \ x9 = 11.0
  eq2: +1 x8 = 0     \ x8 = 1.0
  eq3: +1 x7 = 1     \ x7 = 0.0909091
  eq4: +1 x6 = 4     \ x6 = 6.83013e-05
  eq5: +1 x5 = -3    \ x5 = 1331.0
  eq6: +1 x4 = 2     \ x4 = 0.00826446
  eq7: +1 x2 = 2     \ x2 = 0.00826446
  eq8: +1 x1 = 0     \ x1 = 1.0
END

\\\\\\\\\\\\\\\\\\\\\\\\\\\\\\\\\\\\\\\\ file 26

\ combo: 9-0-47-0-15-54-1-0-0-0
\ dimension 1; is compact
MAXIMIZE
Subject To
  ie0: -1 x1 >= 0    \ x1**-1 <= 1.0
  ie1: +1 x1 >= -3   \ x1 <= 1331.0
  eq0: +1 x10 = 1    \ x10 = 0.0909091
  eq1: +1 x9 = -1    \ x9 = 11.0
  eq2: +1 x8 = 0     \ x8 = 1.0
  eq3: +1 x7 = 1     \ x7 = 0.0909091
  eq4: +1 x6 = 4     \ x6 = 6.83013e-05
  eq5: +1 x5 = -3    \ x5 = 1331.0
  eq6: +1 x4 = 2     \ x4 = 0.00826446
  eq7: +1 x3 = -3    \ x3 = 1331.0
  eq8: +1 x2 = 2     \ x2 = 0.00826446
END

\\\\\\\\\\\\\\\\\\\\\\\\\\\\\\\\\\\\\\\\ file 27

\ combo: 13-0-47-0-15-54-1-0-0-0
\ dimension 1; is compact
MAXIMIZE
Subject To
  ie0: -1 x1 >= 3         \ x1**-1 <= 0.000751315
  ie1: +1 x1 >= -4        \ x1 <= 14641.0
  eq0: +1 x10 = 1         \ x10 = 0.0909091
  eq1: +1 x1 -1 x9 = -2   \ x1 * x9**-1 = 121.0
  eq2: +1 x8 = 0          \ x8 = 1.0
  eq3: +1 x7 = 1          \ x7 = 0.0909091
  eq4: +1 x6 = 4          \ x6 = 6.83013e-05
  eq5: +1 x5 = -3         \ x5 = 1331.0
  eq6: +1 x4 = 2          \ x4 = 0.00826446
  eq7: +1 x3 = -3         \ x3 = 1331.0
  eq8: +1 x2 = 2          \ x2 = 0.00826446
END

\\\\\\\\\\\\\\\\\\\\\\\\\\\\\\\\\\\\\\\\ file 28

\ combo: 0-9-0-31-54-14-1-0-0-0
\ dimension 1; is compact
MAXIMIZE
Subject To
  ie0: -1 x2 >= 0    \ x2**-1 <= 1.0
  ie1: +1 x2 >= -3   \ x2 <= 1331.0
  eq0: +1 x10 = -1   \ x10 = 11.0
  eq1: +1 x9 = 1     \ x9 = 0.0909091
  eq2: +1 x8 = 0     \ x8 = 1.0
  eq3: +1 x7 = 1     \ x7 = 0.0909091
  eq4: +1 x6 = -3    \ x6 = 1331.0
  eq5: +1 x5 = 4     \ x5 = 6.83013e-05
  eq6: +1 x4 = 0     \ x4 = 1.0
  eq7: +1 x3 = 2     \ x3 = 0.00826446
  eq8: +1 x1 = 2     \ x1 = 0.00826446
END

\\\\\\\\\\\\\\\\\\\\\\\\\\\\\\\\\\\\\\\\ file 29

\ combo: 0-13-0-31-54-14-1-0-0-0
\ dimension 1; is compact
MAXIMIZE
Subject To
  ie0: -1 x2 >= 3          \ x2**-1 <= 0.000751315
  ie1: +1 x2 >= -4         \ x2 <= 14641.0
  eq0: +1 x2 -1 x10 = -2   \ x2 * x10**-1 = 121.0
  eq1: +1 x9 = 1           \ x9 = 0.0909091
  eq2: +1 x8 = 0           \ x8 = 1.0
  eq3: +1 x7 = 1           \ x7 = 0.0909091
  eq4: +1 x6 = -3          \ x6 = 1331.0
  eq5: +1 x5 = 4           \ x5 = 6.83013e-05
  eq6: +1 x4 = 0           \ x4 = 1.0
  eq7: +1 x3 = 2           \ x3 = 0.00826446
  eq8: +1 x1 = 2           \ x1 = 0.00826446
END

\\\\\\\\\\\\\\\\\\\\\\\\\\\\\\\\\\\\\\\\ file 30

\ combo: 0-9-0-25-54-15-1-0-0-0
\ dimension 1; is compact
MAXIMIZE
Subject To
  ie0: -1 x4 >= 0    \ x4**-1 <= 1.0
  ie1: +1 x4 >= -3   \ x4 <= 1331.0
  eq0: +1 x10 = -1   \ x10 = 11.0
  eq1: +1 x9 = 1     \ x9 = 0.0909091
  eq2: +1 x8 = 0     \ x8 = 1.0
  eq3: +1 x7 = 1     \ x7 = 0.0909091
  eq4: +1 x6 = -3    \ x6 = 1331.0
  eq5: +1 x5 = 4     \ x5 = 6.83013e-05
  eq6: +1 x3 = 2     \ x3 = 0.00826446
  eq7: +1 x2 = 0     \ x2 = 1.0
  eq8: +1 x1 = 2     \ x1 = 0.00826446
END

\\\\\\\\\\\\\\\\\\\\\\\\\\\\\\\\\\\\\\\\ file 31

\ combo: 0-9-0-47-54-15-1-0-0-0
\ dimension 1; is compact
MAXIMIZE
Subject To
  ie0: -1 x2 >= 0    \ x2**-1 <= 1.0
  ie1: +1 x2 >= -3   \ x2 <= 1331.0
  eq0: +1 x10 = -1   \ x10 = 11.0
  eq1: +1 x9 = 1     \ x9 = 0.0909091
  eq2: +1 x8 = 0     \ x8 = 1.0
  eq3: +1 x7 = 1     \ x7 = 0.0909091
  eq4: +1 x6 = -3    \ x6 = 1331.0
  eq5: +1 x5 = 4     \ x5 = 6.83013e-05
  eq6: +1 x4 = -3    \ x4 = 1331.0
  eq7: +1 x3 = 2     \ x3 = 0.00826446
  eq8: +1 x1 = 2     \ x1 = 0.00826446
END

\\\\\\\\\\\\\\\\\\\\\\\\\\\\\\\\\\\\\\\\ file 32

\ combo: 0-13-0-47-54-15-1-0-0-0
\ dimension 1; is compact
MAXIMIZE
Subject To
  ie0: -1 x2 >= 3          \ x2**-1 <= 0.000751315
  ie1: +1 x2 >= -4         \ x2 <= 14641.0
  eq0: +1 x2 -1 x10 = -2   \ x2 * x10**-1 = 121.0
  eq1: +1 x9 = 1           \ x9 = 0.0909091
  eq2: +1 x8 = 0           \ x8 = 1.0
  eq3: +1 x7 = 1           \ x7 = 0.0909091
  eq4: +1 x6 = -3          \ x6 = 1331.0
  eq5: +1 x5 = 4           \ x5 = 6.83013e-05
  eq6: +1 x4 = -3          \ x4 = 1331.0
  eq7: +1 x3 = 2           \ x3 = 0.00826446
  eq8: +1 x1 = 2           \ x1 = 0.00826446
END

\\\\\\\\\\\\\\\\\\\\\\\\\\\\\\\\\\\\\\\\ file 33

\ combo: 0-0-0-8-54-14-1-0-0-0
\ dimension 1; is compact
MAXIMIZE
Subject To
  ie0: -1 x2 >= -1        \ x2**-1 <= 11.0
  ie1: +1 x2 >= 0         \ x2 <= 1.0
  eq0: +1 x2 -1 x10 = 1   \ x2 * x10**-1 = 0.0909091
  eq1: +1 x9 = 1          \ x9 = 0.0909091
  eq2: +1 x8 = 0          \ x8 = 1.0
  eq3: +1 x7 = 1          \ x7 = 0.0909091
  eq4: +1 x2 -1 x6 = 3    \ x2 * x6**-1 = 0.000751315
  eq5: +1 x2 +1 x5 = 4    \ x2 * x5 = 6.83013e-05
  eq6: +1 x2 -1 x4 = 0    \ x2 * x4**-1 = 1.0
  eq7: +1 x3 = 2          \ x3 = 0.00826446
  eq8: +1 x1 = 2          \ x1 = 0.00826446
END

\\\\\\\\\\\\\\\\\\\\\\\\\\\\\\\\\\\\\\\\ file 34

\ combo: 0-0-8-0-14-54-1-0-0-0
\ dimension 1; is compact
MAXIMIZE
Subject To
  ie0: -1 x1 >= -1       \ x1**-1 <= 11.0
  ie1: +1 x1 >= 0        \ x1 <= 1.0
  eq0: +1 x10 = 1        \ x10 = 0.0909091
  eq1: +1 x1 -1 x9 = 1   \ x1 * x9**-1 = 0.0909091
  eq2: +1 x8 = 0         \ x8 = 1.0
  eq3: +1 x7 = 1         \ x7 = 0.0909091
  eq4: +1 x1 +1 x6 = 4   \ x1 * x6 = 6.83013e-05
  eq5: +1 x1 -1 x5 = 3   \ x1 * x5**-1 = 0.000751315
  eq6: +1 x4 = 2         \ x4 = 0.00826446
  eq7: +1 x1 -1 x3 = 0   \ x1 * x3**-1 = 1.0
  eq8: +1 x2 = 2         \ x2 = 0.00826446
END

\\\\\\\\\\\\\\\\\\\\\\\\\\\\\\\\\\\\\\\\ file 35

\ combo: 0-0-0-0-18-18-1-0-1-1
\ dimension 1; is compact
MAXIMIZE
Subject To
  ie0: -1 x7 >= -4       \ x7**-1 <= 14641.0
  ie1: +1 x7 >= 1        \ x7 <= 0.0909091
  eq0: +1 x10 = 1        \ x10 = 0.0909091
  eq1: +1 x9 = 1         \ x9 = 0.0909091
  eq2: +1 x7 -1 x8 = 1   \ x7 * x8**-1 = 0.0909091
  eq3: +1 x6 = 2         \ x6 = 0.00826446
  eq4: +1 x5 = 2         \ x5 = 0.00826446
  eq5: +1 x4 = 2         \ x4 = 0.00826446
  eq6: +1 x3 = 2         \ x3 = 0.00826446
  eq7: +1 x2 = 2         \ x2 = 0.00826446
  eq8: +1 x1 = 2         \ x1 = 0.00826446
END

\\\\\\\\\\\\\\\\\\\\\\\\\\\\\\\\\\\\\\\\ file 36

\ combo: 0-0-13-0-9-18-1-0-1-1
\ dimension 2; is compact
MAXIMIZE
Subject To
  ie0: -1 x5 >= 0          \ x5**-1 <= 1.0
  ie1: +1 x5 -1 x7 >= -2   \ x5 * x7**-1 <= 121.0
  ie2: +1 x7 >= 1          \ x7 <= 0.0909091
  eq0: +1 x10 = 1          \ x10 = 0.0909091
  eq1: +1 x9 = 1           \ x9 = 0.0909091
  eq2: +1 x7 -1 x8 = 1     \ x7 * x8**-1 = 0.0909091
  eq3: +1 x6 = 2           \ x6 = 0.00826446
  eq4: +1 x4 = 2           \ x4 = 0.00826446
  eq5: +1 x3 = 1           \ x3 = 0.0909091
  eq6: +1 x2 = 2           \ x2 = 0.00826446
  eq7: +1 x1 = 2           \ x1 = 0.00826446
END

\\\\\\\\\\\\\\\\\\\\\\\\\\\\\\\\\\\\\\\\ file 37

\ combo: 0-0-0-13-18-9-1-0-1-1
\ dimension 2; is compact
MAXIMIZE
Subject To
  ie0: -1 x6 >= 0          \ x6**-1 <= 1.0
  ie1: +1 x6 -1 x7 >= -2   \ x6 * x7**-1 <= 121.0
  ie2: +1 x7 >= 1          \ x7 <= 0.0909091
  eq0: +1 x10 = 1          \ x10 = 0.0909091
  eq1: +1 x9 = 1           \ x9 = 0.0909091
  eq2: +1 x7 -1 x8 = 1     \ x7 * x8**-1 = 0.0909091
  eq3: +1 x5 = 2           \ x5 = 0.00826446
  eq4: +1 x4 = 1           \ x4 = 0.0909091
  eq5: +1 x3 = 2           \ x3 = 0.00826446
  eq6: +1 x2 = 2           \ x2 = 0.00826446
  eq7: +1 x1 = 2           \ x1 = 0.00826446
END

\\\\\\\\\\\\\\\\\\\\\\\\\\\\\\\\\\\\\\\\ file 38

\ combo: 0-0-13-0-9-54-1-0-0-0
\ dimension 2; is compact
MAXIMIZE
Subject To
  ie0: -1 x1 >= -2       \ x1**-1 <= 121.0
  ie1: -1 x5 >= 1        \ x5**-1 <= 0.0909091
  ie2: +1 x1 >= 1        \ x1 <= 0.0909091
  ie3: +1 x5 >= -2       \ x5 <= 121.0
  eq0: +1 x10 = 1        \ x10 = 0.0909091
  eq1: +1 x1 -1 x9 = 1   \ x1 * x9**-1 = 0.0909091
  eq2: +1 x8 = 0         \ x8 = 1.0
  eq3: +1 x7 = 1         \ x7 = 0.0909091
  eq4: +1 x5 +1 x6 = 1   \ x5 * x6 = 0.0909091
  eq5: +1 x4 = 2         \ x4 = 0.00826446
  eq6: +1 x3 = 1         \ x3 = 0.0909091
  eq7: +1 x2 = 2         \ x2 = 0.00826446
END

\\\\\\\\\\\\\\\\\\\\\\\\\\\\\\\\\\\\\\\\ file 39

\ combo: 0-0-0-13-54-9-1-0-0-0
\ dimension 2; is compact
MAXIMIZE
Subject To
  ie0: -1 x2 >= -2        \ x2**-1 <= 121.0
  ie1: -1 x5 >= -3        \ x5**-1 <= 1331.0
  ie2: +1 x2 >= 1         \ x2 <= 0.0909091
  ie3: +1 x5 >= 2         \ x5 <= 0.00826446
  eq0: +1 x2 -1 x10 = 1   \ x2 * x10**-1 = 0.0909091
  eq1: +1 x9 = 1          \ x9 = 0.0909091
  eq2: +1 x8 = 0          \ x8 = 1.0
  eq3: +1 x7 = 1          \ x7 = 0.0909091
  eq4: +1 x5 +1 x6 = 1    \ x5 * x6 = 0.0909091
  eq5: +1 x4 = 1          \ x4 = 0.0909091
  eq6: +1 x3 = 2          \ x3 = 0.00826446
  eq7: +1 x1 = 2          \ x1 = 0.00826446
END

\\\\\\\\\\\\\\\\\\\\\\\\\\\\\\\\\\\\\\\\ file 40

\ combo: 0-0-0-0-0-0-1-0-0-0
\ dimension 2; is compact
MAXIMIZE
Subject To
  ie0: -1 x5 >= -1        \ x5**-1 <= 11.0
  ie1: -1 x6 >= -1        \ x6**-1 <= 11.0
  ie2: +1 x5 +1 x6 >= 1   \ x5 * x6 <= 0.0909091
  eq0: +1 x10 = 0         \ x10 = 1.0
  eq1: +1 x9 = 0          \ x9 = 1.0
  eq2: +1 x8 = 0          \ x8 = 1.0
  eq3: +1 x7 = 1          \ x7 = 0.0909091
  eq4: +1 x4 = 1          \ x4 = 0.0909091
  eq5: +1 x3 = 1          \ x3 = 0.0909091
  eq6: +1 x2 = 1          \ x2 = 0.0909091
  eq7: +1 x1 = 1          \ x1 = 0.0909091
END

\\\\\\\\\\\\\\\\\\\\\\\\\\\\\\\\\\\\\\\\ file 41

\ combo: 0-0-0-13-18-9-1-0-0-0
\ dimension 3; is compact
MAXIMIZE
Subject To
  ie0: -1 x1 >= -2        \ x1**-1 <= 121.0
  ie1: -1 x2 >= -2        \ x2**-1 <= 121.0
  ie2: -1 x6 >= 0         \ x6**-1 <= 1.0
  ie3: +1 x1 +1 x6 >= 1   \ x1 * x6 <= 0.0909091
  ie4: +1 x2 >= 1         \ x2 <= 0.0909091
  eq0: +1 x2 -1 x10 = 1   \ x2 * x10**-1 = 0.0909091
  eq1: +1 x1 -1 x9 = 1    \ x1 * x9**-1 = 0.0909091
  eq2: +1 x8 = 0          \ x8 = 1.0
  eq3: +1 x7 = 1          \ x7 = 0.0909091
  eq4: +1 x1 -1 x5 = 0    \ x1 * x5**-1 = 1.0
  eq5: +1 x4 = 1          \ x4 = 0.0909091
  eq6: +1 x1 -1 x3 = 0    \ x1 * x3**-1 = 1.0
END

\\\\\\\\\\\\\\\\\\\\\\\\\\\\\\\\\\\\\\\\ file 42

\ combo: 0-0-0-0-18-0-1-0-0-0
\ dimension 2; is compact
MAXIMIZE
Subject To
  ie0: -1 x1 >= -2       \ x1**-1 <= 121.0
  ie1: -1 x6 >= -1       \ x6**-1 <= 11.0
  ie2: +1 x1 >= 1        \ x1 <= 0.0909091
  ie3: +1 x6 >= 0        \ x6 <= 1.0
  eq0: +1 x10 = 0        \ x10 = 1.0
  eq1: +1 x1 -1 x9 = 1   \ x1 * x9**-1 = 0.0909091
  eq2: +1 x8 = 0         \ x8 = 1.0
  eq3: +1 x7 = 1         \ x7 = 0.0909091
  eq4: +1 x1 -1 x5 = 0   \ x1 * x5**-1 = 1.0
  eq5: +1 x4 = 1         \ x4 = 0.0909091
  eq6: +1 x1 -1 x3 = 0   \ x1 * x3**-1 = 1.0
  eq7: +1 x2 = 1         \ x2 = 0.0909091
END

\\\\\\\\\\\\\\\\\\\\\\\\\\\\\\\\\\\\\\\\ file 43

\ combo: 0-0-13-0-9-18-1-0-0-0
\ dimension 3; is compact
MAXIMIZE
Subject To
  ie0: -1 x1 >= -2        \ x1**-1 <= 121.0
  ie1: -1 x2 >= -2        \ x2**-1 <= 121.0
  ie2: -1 x5 >= 0         \ x5**-1 <= 1.0
  ie3: +1 x1 >= 1         \ x1 <= 0.0909091
  ie4: +1 x2 +1 x5 >= 1   \ x2 * x5 <= 0.0909091
  eq0: +1 x2 -1 x10 = 1   \ x2 * x10**-1 = 0.0909091
  eq1: +1 x1 -1 x9 = 1    \ x1 * x9**-1 = 0.0909091
  eq2: +1 x8 = 0          \ x8 = 1.0
  eq3: +1 x7 = 1          \ x7 = 0.0909091
  eq4: +1 x2 -1 x6 = 0    \ x2 * x6**-1 = 1.0
  eq5: +1 x2 -1 x4 = 0    \ x2 * x4**-1 = 1.0
  eq6: +1 x3 = 1          \ x3 = 0.0909091
END

\\\\\\\\\\\\\\\\\\\\\\\\\\\\\\\\\\\\\\\\ file 44

\ combo: 0-0-0-0-0-18-1-0-0-0
\ dimension 2; is compact
MAXIMIZE
Subject To
  ie0: -1 x2 >= -2        \ x2**-1 <= 121.0
  ie1: -1 x5 >= -1        \ x5**-1 <= 11.0
  ie2: +1 x2 >= 1         \ x2 <= 0.0909091
  ie3: +1 x5 >= 0         \ x5 <= 1.0
  eq0: +1 x2 -1 x10 = 1   \ x2 * x10**-1 = 0.0909091
  eq1: +1 x9 = 0          \ x9 = 1.0
  eq2: +1 x8 = 0          \ x8 = 1.0
  eq3: +1 x7 = 1          \ x7 = 0.0909091
  eq4: +1 x2 -1 x6 = 0    \ x2 * x6**-1 = 1.0
  eq5: +1 x2 -1 x4 = 0    \ x2 * x4**-1 = 1.0
  eq6: +1 x3 = 1          \ x3 = 0.0909091
  eq7: +1 x1 = 1          \ x1 = 0.0909091
END

\\\\\\\\\\\\\\\\\\\\\\\\\\\\\\\\\\\\\\\\ file 45

\ combo: 0-0-0-0-18-18-1-0-0-0
\ dimension 2; is compact
MAXIMIZE
Subject To
  ie0: -1 x1 >= -2        \ x1**-1 <= 121.0
  ie1: -1 x2 >= -2        \ x2**-1 <= 121.0
  ie2: +1 x1 >= 1         \ x1 <= 0.0909091
  ie3: +1 x2 >= 1         \ x2 <= 0.0909091
  eq0: +1 x2 -1 x10 = 1   \ x2 * x10**-1 = 0.0909091
  eq1: +1 x1 -1 x9 = 1    \ x1 * x9**-1 = 0.0909091
  eq2: +1 x8 = 0          \ x8 = 1.0
  eq3: +1 x7 = 1          \ x7 = 0.0909091
  eq4: +1 x2 -1 x6 = 0    \ x2 * x6**-1 = 1.0
  eq5: +1 x1 -1 x5 = 0    \ x1 * x5**-1 = 1.0
  eq6: +1 x2 -1 x4 = 0    \ x2 * x4**-1 = 1.0
  eq7: +1 x1 -1 x3 = 0    \ x1 * x3**-1 = 1.0
END

\\\\\\\\\\\\\\\\\\\\\\\\\\\\\\\\\\\\\\\\ end

