k1 = 0
k2 = 0
k3 = 0
k4 = 1
k5 = 1
k6 = 231/1250000
k7 = 21/1250
k8 = 153/625
k9 = 27/20
k10 = 3/40
k11 = 30
k12 = 3/50000
k13 = 30
k14 = 3/50000
k15 = 111/10
k16 = 3/40
k17 = 30
k18 = 3/50000
k19 = 3/25
k20 = 3/25
k21 = 3/50000
k22 = 3/50000
k23 = 9/125
k24 = 9/25
k25 = 9/500
k26 = 3/250
k27 = 207/250
k28 = 207/500
k29 = 9/500
k30 = 3/250
k31 = 3/25
k32 = 3/125
k33 = 3/50000
k34 = 3/50000
k35 = 9/50
k36 = 9/50
k37 = 30
k38 = 3/50000
k39 = 72/25
k40 = 21/200
k41 = 30
k42 = 3/50000
k43 = 30
k44 = 3/50000
k45 = 9/25
k46 = 21/200
k47 = 153/625
k48 = 21/1250
k49 = 267/6250000
k50 = 27/5
k51 = 3/625
k52 = 381/12500000
k53 = 21/1250
k54 = 153/625
k55 = 27/50
k56 = 21/200
k57 = 30
k58 = 3/50000
k59 = 30
k60 = 3/50000
k61 = 21/5
k62 = 21/200
k63 = 30
k64 = 3/50000
k65 = 9/50
k66 = 9/50
k67 = 3/50000
k68 = 3/50000
k69 = 9/250
k70 = 9/50
k71 = 9/500
k72 = 3/250
k73 = 207/500
k74 = 0
k75 = 99/50
k76 = 1/10
