k106*x52 + k106*x67 + k106*x68 - k110
k106*x48 + k106*x49 + k106*x50 + k106*x51 + k106*x52 + k106*x64 + k106*x68 - k111
k106*x45 + k106*x46 + k106*x59 - k112
k106*x42 + k106*x43 + k106*x44 + k106*x45 + k106*x47 + k106*x49 + k106*x56 + k106*x59 + k106*x64 - k113
k106*x39 + k106*x41 - k114
k106*x37 + k106*x38 + k106*x39 + k106*x40 + k106*x43 + k106*x56 - k115
k106*x34 + k106*x35 + k106*x36 + k106*x38 + k106*x57 + k106*x62 - k116
k107*x29 + k107*x30 + k107*x54 - k117
k106*x21 + k106*x22 + k106*x65 - k118
k106*x19 + k106*x20 + k106*x35 + k106*x53 + k106*x57 + k106*x66 - k119
k106*x17 + k106*x18 + k106*x19 + k106*x20 + k106*x33 + k106*x35 + k106*x57 + k106*x66 - k120
k106*x9 + k106*x10 + k106*x11 + k106*x12 + k106*x21 + 2*k106*x23 + k107*x24 + k106*x25 + 2*k106*x26 + 2*k107*x27 + k107*x28 + 2*k107*x30 + 2*k107*x31 + k107*x54 + k106*x55 + k106*x63 + 2*k106*x65 - k121
k106*x7 + k106*x8 + k106*x15 + k106*x16 + k106*x17 + k106*x18 + k106*x19 + k106*x20 + k106*x25 + k106*x35 + k106*x57 + k106*x63 - k122
k106*x3 + k106*x4 + 2*k106*x5 + 2*k106*x6 + 2*k106*x7 + 2*k106*x10 + 2*k106*x12 + 2*k106*x14 + 2*k106*x15 + 2*k106*x17 + 2*k106*x19 + 2*k106*x25 + 2*k106*x35 + 2*k106*x55 + 2*k106*x57 + k106*x60 + 2*k106*x63 - k123
