k1 = 1
k2 = 1
k3 = 1
k4 = 1
k5 = 9/20
k6 = 0
k7 = 0
k8 = 51/50
k9 = 29/20
k10 = 4
k11 = 3/250
k12 = 1
k13 = 9/20
k14 = 0
k15 = 0
k16 = 51/50
k17 = 29/20
k18 = 4
k19 = 3/250
k20 = 1
k21 = 4/5
k22 = 3/5
k23 = 0
k24 = 89/100
k25 = 163/100
k26 = 4
k27 = 3/250
k28 = 2
k29 = 163/100
k30 = 2
k31 = 13/25
k32 = 2
k33 = 18/25
k34 = 2
k35 = 173/100
k36 = 163/100
k37 = 163/100
k38 = 29/20
k39 = 29/20
k40 = 12/25
k41 = 47/100
k42 = 12/25
k43 = 3/250
k44 = 3/250
k45 = 3/250
k46 = 3/250
k47 = 3/250
k48 = 3/250
k49 = 3/250
k50 = 47/50
k51 = 3/10
k52 = 11/25
k53 = 1/5
k54 = 47/50
k55 = 3/10
k56 = 11/25
k57 = 1/5
k58 = 11/25
k59 = 1/5
k60 = 29/100
k61 = 1/5
k62 = 27/50
k63 = 13/100
k64 = 3/5
k65 = 1/5
k66 = 3/5
k67 = 1/5
k68 = 3/10
k69 = 1/5
k70 = 0
k71 = 1
k72 = 1
