k1*x43 + k1*x44 - k102
k1*x41 + k1*x42 - k103
k1*x34 + k1*x35 - k104
k1*x32 + k1*x33 - k105
k1*x29 + k1*x30 - k106
k1*x21 + k1*x22 - k107
k1*x19 + k1*x20 - k108
k1*x17 + k1*x18 - k109
k1*x15 + k1*x16 - k110
k1*x13 + k1*x14 - k111
k1*x11 + k1*x12 - k112
k1*x9 + k1*x10 - k113
k1*x7 + k1*x8 - k114
k1*x5 + k1*x6 - k115
k1*x3 + k1*x4 - k116
