
\\\\\\\\\\\\\\\\\\\\\\\\\\\\\\\\\\\\\\\\ file 0

\ combo: 6-14-2-1-0-1-0-4-0-0-1-0-3-1-1-0-0-1-4-0-0-0-1-1-0-0-1-0-0-32-7-8-8
\ dimension 2; is not compact
MAXIMIZE
Subject To
  ie0: -1 x8 >= 5                \ x8**-1 <= 6.20921e-06
  ie1: +1 x3 -1 x8 >= 2          \ x3 * x8**-1 <= 0.00826446
  ie2: +1 x8 >= -6               \ x8 <= 1.77156e+06
  eq0: +1 x8 -1 x30 = -2         \ x8 * x30**-1 = 121.0
  eq1: +1 x29 = -5               \ x29 = 161051.0
  eq2: +1 x3 -1 x8 -1 x28 = 6    \ x3 * x8**-1 * x28**-1 = 5.64474e-07
  eq3: +1 x8 -1 x27 = -1         \ x8 * x27**-1 = 11.0
  eq4: +1 x26 = -5               \ x26 = 161051.0
  eq5: +1 x25 = -4               \ x25 = 14641.0
  eq6: +1 x24 = -4               \ x24 = 14641.0
  eq7: +1 x3 -1 x8 -1 x23 = 6    \ x3 * x8**-1 * x23**-1 = 5.64474e-07
  eq8: +1 x3 -1 x8 -1 x22 = 7    \ x3 * x8**-1 * x22**-1 = 5.13158e-08
  eq9: +1 x3 -1 x21 = 0          \ x3 * x21**-1 = 1.0
  eq10: +1 x3 -1 x20 = 2         \ x3 * x20**-1 = 0.00826446
  eq11: +1 x19 = -5              \ x19 = 161051.0
  eq12: +1 x18 = -5              \ x18 = 161051.0
  eq13: +1 x17 = -6              \ x17 = 1.77156e+06
  eq14: +1 x8 -1 x16 = 0         \ x8 * x16**-1 = 1.0
  eq15: +1 x3 -1 x8 -1 x15 = 5   \ x3 * x8**-1 * x15**-1 = 6.20921e-06
  eq16: +1 x3 -1 x8 -1 x14 = 7   \ x3 * x8**-1 * x14**-1 = 5.13158e-08
  eq17: +1 x8 -1 x13 = 1         \ x8 * x13**-1 = 0.0909091
  eq18: +1 x8 -1 x12 = 0         \ x8 * x12**-1 = 1.0
  eq19: +1 x8 -1 x11 = 0         \ x8 * x11**-1 = 1.0
  eq20: +1 x8 -1 x10 = -1        \ x8 * x10**-1 = 11.0
  eq21: +1 x8 -1 x9 = -1         \ x8 * x9**-1 = 11.0
  eq22: +1 x3 -1 x7 = 1          \ x3 * x7**-1 = 0.0909091
  eq23: +1 x3 -1 x6 = 0          \ x3 * x6**-1 = 1.0
  eq24: +1 x3 -1 x5 = 1          \ x3 * x5**-1 = 0.0909091
  eq25: +1 x3 -1 x4 = -1         \ x3 * x4**-1 = 11.0
  eq26: +1 x2 = -6               \ x2 = 1.77156e+06
  eq27: +1 x1 = -5               \ x1 = 161051.0
END

\\\\\\\\\\\\\\\\\\\\\\\\\\\\\\\\\\\\\\\\ file 1

\ combo: 8-4-2-1-0-1-0-4-0-0-1-0-3-1-1-0-0-1-4-0-0-0-1-1-0-0-1-0-0-32-7-8-8
\ dimension 2; is not compact
MAXIMIZE
Subject To
  ie0: +1 x8 >= -5               \ x8 <= 161051.0
  ie1: +1 x3 -1 x8 >= 2          \ x3 * x8**-1 <= 0.00826446
  eq0: +1 x8 -1 x30 = -2         \ x8 * x30**-1 = 121.0
  eq1: +1 x29 = -5               \ x29 = 161051.0
  eq2: +1 x3 -1 x8 -1 x28 = 6    \ x3 * x8**-1 * x28**-1 = 5.64474e-07
  eq3: +1 x8 -1 x27 = -1         \ x8 * x27**-1 = 11.0
  eq4: +1 x26 = -5               \ x26 = 161051.0
  eq5: +1 x25 = -4               \ x25 = 14641.0
  eq6: +1 x24 = -4               \ x24 = 14641.0
  eq7: +1 x3 -1 x8 -1 x23 = 6    \ x3 * x8**-1 * x23**-1 = 5.64474e-07
  eq8: +1 x3 -1 x8 -1 x22 = 7    \ x3 * x8**-1 * x22**-1 = 5.13158e-08
  eq9: +1 x3 -1 x21 = 0          \ x3 * x21**-1 = 1.0
  eq10: +1 x3 -1 x20 = 2         \ x3 * x20**-1 = 0.00826446
  eq11: +1 x19 = -5              \ x19 = 161051.0
  eq12: +1 x18 = -5              \ x18 = 161051.0
  eq13: +1 x17 = -6              \ x17 = 1.77156e+06
  eq14: +1 x8 -1 x16 = 0         \ x8 * x16**-1 = 1.0
  eq15: +1 x3 -1 x8 -1 x15 = 5   \ x3 * x8**-1 * x15**-1 = 6.20921e-06
  eq16: +1 x3 -1 x8 -1 x14 = 7   \ x3 * x8**-1 * x14**-1 = 5.13158e-08
  eq17: +1 x8 -1 x13 = 1         \ x8 * x13**-1 = 0.0909091
  eq18: +1 x8 -1 x12 = 0         \ x8 * x12**-1 = 1.0
  eq19: +1 x8 -1 x11 = 0         \ x8 * x11**-1 = 1.0
  eq20: +1 x8 -1 x10 = -1        \ x8 * x10**-1 = 11.0
  eq21: +1 x8 -1 x9 = -1         \ x8 * x9**-1 = 11.0
  eq22: +1 x3 -1 x7 = 1          \ x3 * x7**-1 = 0.0909091
  eq23: +1 x3 -1 x6 = 0          \ x3 * x6**-1 = 1.0
  eq24: +1 x3 -1 x5 = 1          \ x3 * x5**-1 = 0.0909091
  eq25: +1 x3 -1 x4 = -1         \ x3 * x4**-1 = 11.0
  eq26: +1 x2 = -6               \ x2 = 1.77156e+06
  eq27: +1 x1 = -5               \ x1 = 161051.0
END

\\\\\\\\\\\\\\\\\\\\\\\\\\\\\\\\\\\\\\\\ file 2

\ combo: 6-14-2-0-0-0-0-4-0-0-1-0-3-6-2-0-0-2-18-0-0-0-2-2-0-0-1-0-0-5-13-8-0
\ dimension 4; is not compact
MAXIMIZE
Subject To
  ie0: -1 x3 >= 4                       \ x3**-1 <= 6.83013e-05
  ie1: -1 x3 +1 x14 >= 0                \ x3**-1 * x14 <= 1.0
  ie2: +1 x3 -1 x6 >= 0                 \ x3 * x6**-1 <= 1.0
  ie3: +1 x6 >= -5                      \ x6 <= 161051.0
  ie4: +1 x4 >= -4                      \ x4 <= 14641.0
  ie5: +1 x3 -1 x4 >= -1                \ x3 * x4**-1 <= 11.0
  eq0: +1 x3 -1 x14 -1 x30 = 5          \ x3 * x14**-1 * x30**-1 = 6.20921e-06
  eq1: +1 x3 -1 x14 +1 x29 = -4         \ x3 * x14**-1 * x29 = 14641.0
  eq2: +1 x3 -1 x4 -1 x14 +1 x28 = 0    \ x3 * x4**-1 * x14**-1 * x28 = 1.0
  eq3: +1 x27 = -5                      \ x27 = 161051.0
  eq4: +1 x3 -1 x14 +1 x26 = -4         \ x3 * x14**-1 * x26 = 14641.0
  eq5: +1 x3 -1 x14 +1 x25 = -3         \ x3 * x14**-1 * x25 = 1331.0
  eq6: +1 x3 -1 x14 +1 x24 = -3         \ x3 * x14**-1 * x24 = 1331.0
  eq7: +1 x3 -1 x6 -1 x14 +1 x23 = 1    \ x3 * x6**-1 * x14**-1 * x23 = 0.0909091
  eq8: +1 x3 -1 x6 -1 x14 +1 x22 = 0    \ x3 * x6**-1 * x14**-1 * x22 = 1.0
  eq9: +1 x4 -1 x21 = 1                 \ x4 * x21**-1 = 0.0909091
  eq10: +1 x6 -1 x20 = 2                \ x6 * x20**-1 = 0.00826446
  eq11: +1 x3 -1 x14 +1 x19 = -4        \ x3 * x14**-1 * x19 = 14641.0
  eq12: +1 x3 -1 x14 +1 x18 = -4        \ x3 * x14**-1 * x18 = 14641.0
  eq13: +1 x3 -1 x14 +1 x17 = -5        \ x3 * x14**-1 * x17 = 161051.0
  eq14: +1 x16 = -6                     \ x16 = 1.77156e+06
  eq15: +1 x3 -1 x4 -1 x14 +1 x15 = 1   \ x3 * x4**-1 * x14**-1 * x15 = 0.0909091
  eq16: +1 x13 = -7                     \ x13 = 1.94872e+07
  eq17: +1 x12 = -6                     \ x12 = 1.77156e+06
  eq18: +1 x11 = -6                     \ x11 = 1.77156e+06
  eq19: +1 x10 = -5                     \ x10 = 161051.0
  eq20: +1 x9 = -5                      \ x9 = 161051.0
  eq21: +1 x8 = -6                      \ x8 = 1.77156e+06
  eq22: +1 x6 -1 x7 = 1                 \ x6 * x7**-1 = 0.0909091
  eq23: +1 x4 -1 x5 = 2                 \ x4 * x5**-1 = 0.00826446
  eq24: +1 x2 = -6                      \ x2 = 1.77156e+06
  eq25: +1 x1 = -5                      \ x1 = 161051.0
END

\\\\\\\\\\\\\\\\\\\\\\\\\\\\\\\\\\\\\\\\ file 3

\ combo: 6-14-2-0-0-0-0-4-0-0-1-0-3-6-2-0-0-2-18-0-0-0-2-2-0-0-1-0-0-32-13-8-0
\ dimension 4; is not compact
MAXIMIZE
Subject To
  ie0: -1 x3 +1 x14 >= 0                \ x3**-1 * x14 <= 1.0
  ie1: -1 x3 +1 x6 >= -1                \ x3**-1 * x6 <= 11.0
  ie2: -1 x3 +1 x4 >= -1                \ x3**-1 * x4 <= 11.0
  ie3: +1 x3 >= -4                      \ x3 <= 14641.0
  ie4: +1 x4 >= -4                      \ x4 <= 14641.0
  ie5: +1 x3 -1 x4 >= -1                \ x3 * x4**-1 <= 11.0
  ie6: +1 x3 -1 x6 >= 0                 \ x3 * x6**-1 <= 1.0
  eq0: +1 x3 -1 x14 -1 x30 = 5          \ x3 * x14**-1 * x30**-1 = 6.20921e-06
  eq1: +1 x3 -1 x14 +1 x29 = -4         \ x3 * x14**-1 * x29 = 14641.0
  eq2: +1 x3 -1 x4 -1 x14 +1 x28 = 0    \ x3 * x4**-1 * x14**-1 * x28 = 1.0
  eq3: +1 x27 = -5                      \ x27 = 161051.0
  eq4: +1 x3 -1 x14 +1 x26 = -4         \ x3 * x14**-1 * x26 = 14641.0
  eq5: +1 x3 -1 x14 +1 x25 = -3         \ x3 * x14**-1 * x25 = 1331.0
  eq6: +1 x3 -1 x14 +1 x24 = -3         \ x3 * x14**-1 * x24 = 1331.0
  eq7: +1 x3 -1 x6 -1 x14 +1 x23 = 1    \ x3 * x6**-1 * x14**-1 * x23 = 0.0909091
  eq8: +1 x3 -1 x6 -1 x14 +1 x22 = 0    \ x3 * x6**-1 * x14**-1 * x22 = 1.0
  eq9: +1 x4 -1 x21 = 1                 \ x4 * x21**-1 = 0.0909091
  eq10: +1 x6 -1 x20 = 2                \ x6 * x20**-1 = 0.00826446
  eq11: +1 x3 -1 x14 +1 x19 = -4        \ x3 * x14**-1 * x19 = 14641.0
  eq12: +1 x3 -1 x14 +1 x18 = -4        \ x3 * x14**-1 * x18 = 14641.0
  eq13: +1 x3 -1 x14 +1 x17 = -5        \ x3 * x14**-1 * x17 = 161051.0
  eq14: +1 x16 = -6                     \ x16 = 1.77156e+06
  eq15: +1 x3 -1 x4 -1 x14 +1 x15 = 1   \ x3 * x4**-1 * x14**-1 * x15 = 0.0909091
  eq16: +1 x13 = -7                     \ x13 = 1.94872e+07
  eq17: +1 x12 = -6                     \ x12 = 1.77156e+06
  eq18: +1 x11 = -6                     \ x11 = 1.77156e+06
  eq19: +1 x10 = -5                     \ x10 = 161051.0
  eq20: +1 x9 = -5                      \ x9 = 161051.0
  eq21: +1 x8 = -6                      \ x8 = 1.77156e+06
  eq22: +1 x6 -1 x7 = 1                 \ x6 * x7**-1 = 0.0909091
  eq23: +1 x4 -1 x5 = 2                 \ x4 * x5**-1 = 0.00826446
  eq24: +1 x2 = -6                      \ x2 = 1.77156e+06
  eq25: +1 x1 = -5                      \ x1 = 161051.0
END

\\\\\\\\\\\\\\\\\\\\\\\\\\\\\\\\\\\\\\\\ file 4

\ combo: 6-14-2-0-0-0-0-4-0-0-1-0-3-6-2-0-0-2-18-0-0-0-2-2-0-0-1-0-0-5-13-8-3
\ dimension 4; is not compact
MAXIMIZE
Subject To
  ie0: -1 x1 >= 4                       \ x1**-1 <= 6.83013e-05
  ie1: -1 x3 >= 4                       \ x3**-1 <= 6.83013e-05
  ie2: -1 x3 +1 x14 >= 0                \ x3**-1 * x14 <= 1.0
  ie3: +1 x1 >= -5                      \ x1 <= 161051.0
  ie4: +1 x6 >= -5                      \ x6 <= 161051.0
  ie5: +1 x3 -1 x6 >= 0                 \ x3 * x6**-1 <= 1.0
  eq0: +1 x3 -1 x14 -1 x30 = 5          \ x3 * x14**-1 * x30**-1 = 6.20921e-06
  eq1: +1 x3 -1 x14 +1 x29 = -4         \ x3 * x14**-1 * x29 = 14641.0
  eq2: +1 x3 -1 x14 +1 x28 = -4         \ x3 * x14**-1 * x28 = 14641.0
  eq3: +1 x1 -1 x27 = 0                 \ x1 * x27**-1 = 1.0
  eq4: +1 x1 -1 x3 +1 x14 -1 x26 = -1   \ x1 * x3**-1 * x14 * x26**-1 = 11.0
  eq5: +1 x1 -1 x3 +1 x14 -1 x25 = -2   \ x1 * x3**-1 * x14 * x25**-1 = 121.0
  eq6: +1 x1 -1 x3 +1 x14 -1 x24 = -2   \ x1 * x3**-1 * x14 * x24**-1 = 121.0
  eq7: +1 x3 -1 x6 -1 x14 +1 x23 = 1    \ x3 * x6**-1 * x14**-1 * x23 = 0.0909091
  eq8: +1 x3 -1 x6 -1 x14 +1 x22 = 0    \ x3 * x6**-1 * x14**-1 * x22 = 1.0
  eq9: +1 x21 = -5                      \ x21 = 161051.0
  eq10: +1 x6 -1 x20 = 2                \ x6 * x20**-1 = 0.00826446
  eq11: +1 x3 -1 x14 +1 x19 = -4        \ x3 * x14**-1 * x19 = 14641.0
  eq12: +1 x3 -1 x14 +1 x18 = -4        \ x3 * x14**-1 * x18 = 14641.0
  eq13: +1 x3 -1 x14 +1 x17 = -5        \ x3 * x14**-1 * x17 = 161051.0
  eq14: +1 x16 = -6                     \ x16 = 1.77156e+06
  eq15: +1 x3 -1 x14 +1 x15 = -3        \ x3 * x14**-1 * x15 = 1331.0
  eq16: +1 x13 = -7                     \ x13 = 1.94872e+07
  eq17: +1 x12 = -6                     \ x12 = 1.77156e+06
  eq18: +1 x11 = -6                     \ x11 = 1.77156e+06
  eq19: +1 x1 -1 x10 = 0                \ x1 * x10**-1 = 1.0
  eq20: +1 x1 -1 x9 = 0                 \ x1 * x9**-1 = 1.0
  eq21: +1 x8 = -6                      \ x8 = 1.77156e+06
  eq22: +1 x6 -1 x7 = 1                 \ x6 * x7**-1 = 0.0909091
  eq23: +1 x5 = -6                      \ x5 = 1.77156e+06
  eq24: +1 x4 = -4                      \ x4 = 14641.0
  eq25: +1 x2 = -6                      \ x2 = 1.77156e+06
END

\\\\\\\\\\\\\\\\\\\\\\\\\\\\\\\\\\\\\\\\ file 5

\ combo: 6-14-2-0-0-0-0-4-0-0-1-0-3-6-2-0-0-2-18-0-0-0-2-2-0-0-1-0-0-32-13-8-3
\ dimension 4; is not compact
MAXIMIZE
Subject To
  ie0: -1 x1 >= 4                       \ x1**-1 <= 6.83013e-05
  ie1: -1 x3 >= 3                       \ x3**-1 <= 0.000751315
  ie2: -1 x3 +1 x14 >= 0                \ x3**-1 * x14 <= 1.0
  ie3: -1 x3 +1 x6 >= -1                \ x3**-1 * x6 <= 11.0
  ie4: +1 x1 >= -5                      \ x1 <= 161051.0
  ie5: +1 x3 -1 x6 >= 0                 \ x3 * x6**-1 <= 1.0
  ie6: +1 x3 >= -4                      \ x3 <= 14641.0
  eq0: +1 x3 -1 x14 -1 x30 = 5          \ x3 * x14**-1 * x30**-1 = 6.20921e-06
  eq1: +1 x3 -1 x14 +1 x29 = -4         \ x3 * x14**-1 * x29 = 14641.0
  eq2: +1 x3 -1 x14 +1 x28 = -4         \ x3 * x14**-1 * x28 = 14641.0
  eq3: +1 x1 -1 x27 = 0                 \ x1 * x27**-1 = 1.0
  eq4: +1 x1 -1 x3 +1 x14 -1 x26 = -1   \ x1 * x3**-1 * x14 * x26**-1 = 11.0
  eq5: +1 x1 -1 x3 +1 x14 -1 x25 = -2   \ x1 * x3**-1 * x14 * x25**-1 = 121.0
  eq6: +1 x1 -1 x3 +1 x14 -1 x24 = -2   \ x1 * x3**-1 * x14 * x24**-1 = 121.0
  eq7: +1 x3 -1 x6 -1 x14 +1 x23 = 1    \ x3 * x6**-1 * x14**-1 * x23 = 0.0909091
  eq8: +1 x3 -1 x6 -1 x14 +1 x22 = 0    \ x3 * x6**-1 * x14**-1 * x22 = 1.0
  eq9: +1 x21 = -5                      \ x21 = 161051.0
  eq10: +1 x6 -1 x20 = 2                \ x6 * x20**-1 = 0.00826446
  eq11: +1 x3 -1 x14 +1 x19 = -4        \ x3 * x14**-1 * x19 = 14641.0
  eq12: +1 x3 -1 x14 +1 x18 = -4        \ x3 * x14**-1 * x18 = 14641.0
  eq13: +1 x3 -1 x14 +1 x17 = -5        \ x3 * x14**-1 * x17 = 161051.0
  eq14: +1 x16 = -6                     \ x16 = 1.77156e+06
  eq15: +1 x3 -1 x14 +1 x15 = -3        \ x3 * x14**-1 * x15 = 1331.0
  eq16: +1 x13 = -7                     \ x13 = 1.94872e+07
  eq17: +1 x12 = -6                     \ x12 = 1.77156e+06
  eq18: +1 x11 = -6                     \ x11 = 1.77156e+06
  eq19: +1 x1 -1 x10 = 0                \ x1 * x10**-1 = 1.0
  eq20: +1 x1 -1 x9 = 0                 \ x1 * x9**-1 = 1.0
  eq21: +1 x8 = -6                      \ x8 = 1.77156e+06
  eq22: +1 x6 -1 x7 = 1                 \ x6 * x7**-1 = 0.0909091
  eq23: +1 x5 = -6                      \ x5 = 1.77156e+06
  eq24: +1 x4 = -4                      \ x4 = 14641.0
  eq25: +1 x2 = -6                      \ x2 = 1.77156e+06
END

\\\\\\\\\\\\\\\\\\\\\\\\\\\\\\\\\\\\\\\\ file 6

\ combo: 6-14-2-0-0-0-0-4-0-0-1-0-0-6-2-0-0-2-18-0-0-0-2-2-0-0-1-0-0-5-13-6-0
\ dimension 4; is not compact
MAXIMIZE
Subject To
  ie0: -1 x2 >= 5                        \ x2**-1 <= 6.20921e-06
  ie1: -1 x3 >= 4                        \ x3**-1 <= 6.83013e-05
  ie2: -1 x3 +1 x14 >= 0                 \ x3**-1 * x14 <= 1.0
  ie3: +1 x2 >= -6                       \ x2 <= 1.77156e+06
  ie4: +1 x4 >= -4                       \ x4 <= 14641.0
  ie5: +1 x3 -1 x4 >= -1                 \ x3 * x4**-1 <= 11.0
  eq0: +1 x3 -1 x14 -1 x30 = 5           \ x3 * x14**-1 * x30**-1 = 6.20921e-06
  eq1: +1 x2 -1 x3 +1 x14 -1 x29 = -2    \ x2 * x3**-1 * x14 * x29**-1 = 121.0
  eq2: +1 x3 -1 x4 -1 x14 +1 x28 = 0     \ x3 * x4**-1 * x14**-1 * x28 = 1.0
  eq3: +1 x27 = -5                       \ x27 = 161051.0
  eq4: +1 x3 -1 x14 +1 x26 = -4          \ x3 * x14**-1 * x26 = 14641.0
  eq5: +1 x3 -1 x14 +1 x25 = -3          \ x3 * x14**-1 * x25 = 1331.0
  eq6: +1 x3 -1 x14 +1 x24 = -3          \ x3 * x14**-1 * x24 = 1331.0
  eq7: +1 x3 -1 x14 +1 x23 = -4          \ x3 * x14**-1 * x23 = 14641.0
  eq8: +1 x3 -1 x14 +1 x22 = -5          \ x3 * x14**-1 * x22 = 161051.0
  eq9: +1 x4 -1 x21 = 1                  \ x4 * x21**-1 = 0.0909091
  eq10: +1 x20 = -7                      \ x20 = 1.94872e+07
  eq11: +1 x3 -1 x14 +1 x19 = -4         \ x3 * x14**-1 * x19 = 14641.0
  eq12: +1 x2 -1 x3 +1 x14 -1 x18 = -2   \ x2 * x3**-1 * x14 * x18**-1 = 121.0
  eq13: +1 x2 -1 x3 +1 x14 -1 x17 = -1   \ x2 * x3**-1 * x14 * x17**-1 = 11.0
  eq14: +1 x2 -1 x16 = 0                 \ x2 * x16**-1 = 1.0
  eq15: +1 x3 -1 x4 -1 x14 +1 x15 = 1    \ x3 * x4**-1 * x14**-1 * x15 = 0.0909091
  eq16: +1 x13 = -7                      \ x13 = 1.94872e+07
  eq17: +1 x2 -1 x12 = 0                 \ x2 * x12**-1 = 1.0
  eq18: +1 x2 -1 x11 = 0                 \ x2 * x11**-1 = 1.0
  eq19: +1 x10 = -5                      \ x10 = 161051.0
  eq20: +1 x9 = -5                       \ x9 = 161051.0
  eq21: +1 x8 = -6                       \ x8 = 1.77156e+06
  eq22: +1 x7 = -6                       \ x7 = 1.77156e+06
  eq23: +1 x6 = -5                       \ x6 = 161051.0
  eq24: +1 x4 -1 x5 = 2                  \ x4 * x5**-1 = 0.00826446
  eq25: +1 x1 = -5                       \ x1 = 161051.0
END

\\\\\\\\\\\\\\\\\\\\\\\\\\\\\\\\\\\\\\\\ file 7

\ combo: 1-1-2-1-0-1-0-4-0-0-1-0-0-1-1-0-0-1-4-0-0-0-1-1-0-0-1-0-0-5-7-8-8
\ dimension 3; is not compact
MAXIMIZE
Subject To
  ie0: -1 x3 +1 x8 >= -1         \ x3**-1 * x8 <= 11.0
  ie1: +1 x3 >= -5               \ x3 <= 161051.0
  ie2: +1 x14 >= -7              \ x14 <= 1.94872e+07
  ie3: +1 x3 -1 x8 -1 x14 >= 6   \ x3 * x8**-1 * x14**-1 <= 5.64474e-07
  ie4: +1 x3 -1 x14 >= 1         \ x3 * x14**-1 <= 0.0909091
  eq0: +1 x3 -1 x14 -1 x30 = 5   \ x3 * x14**-1 * x30**-1 = 6.20921e-06
  eq1: +1 x29 = -5               \ x29 = 161051.0
  eq2: +1 x14 -1 x28 = -1        \ x14 * x28**-1 = 11.0
  eq3: +1 x8 -1 x27 = -1         \ x8 * x27**-1 = 11.0
  eq4: +1 x26 = -5               \ x26 = 161051.0
  eq5: +1 x25 = -4               \ x25 = 14641.0
  eq6: +1 x24 = -4               \ x24 = 14641.0
  eq7: +1 x14 -1 x23 = -1        \ x14 * x23**-1 = 11.0
  eq8: +1 x14 -1 x22 = 0         \ x14 * x22**-1 = 1.0
  eq9: +1 x3 -1 x21 = 0          \ x3 * x21**-1 = 1.0
  eq10: +1 x3 -1 x20 = 2         \ x3 * x20**-1 = 0.00826446
  eq11: +1 x19 = -5              \ x19 = 161051.0
  eq12: +1 x18 = -5              \ x18 = 161051.0
  eq13: +1 x17 = -6              \ x17 = 1.77156e+06
  eq14: +1 x8 -1 x16 = 0         \ x8 * x16**-1 = 1.0
  eq15: +1 x14 -1 x15 = -2       \ x14 * x15**-1 = 121.0
  eq16: +1 x3 -1 x13 = 2         \ x3 * x13**-1 = 0.00826446
  eq17: +1 x8 -1 x12 = 0         \ x8 * x12**-1 = 1.0
  eq18: +1 x8 -1 x11 = 0         \ x8 * x11**-1 = 1.0
  eq19: +1 x8 -1 x10 = -1        \ x8 * x10**-1 = 11.0
  eq20: +1 x8 -1 x9 = -1         \ x8 * x9**-1 = 11.0
  eq21: +1 x3 -1 x7 = 1          \ x3 * x7**-1 = 0.0909091
  eq22: +1 x3 -1 x6 = 0          \ x3 * x6**-1 = 1.0
  eq23: +1 x3 -1 x5 = 1          \ x3 * x5**-1 = 0.0909091
  eq24: +1 x3 -1 x4 = -1         \ x3 * x4**-1 = 11.0
  eq25: +1 x2 = -6               \ x2 = 1.77156e+06
  eq26: +1 x1 = -5               \ x1 = 161051.0
END

\\\\\\\\\\\\\\\\\\\\\\\\\\\\\\\\\\\\\\\\ file 8

\ combo: 1-1-2-1-0-1-0-4-0-0-1-0-3-1-1-0-0-1-4-0-0-0-1-1-0-0-1-0-0-5-7-8-8
\ dimension 3; is not compact
MAXIMIZE
Subject To
  ie0: -1 x3 +1 x8 >= -2         \ x3**-1 * x8 <= 121.0
  ie1: -1 x14 >= 5               \ x14**-1 <= 6.20921e-06
  ie2: +1 x3 -1 x8 >= 1          \ x3 * x8**-1 <= 0.0909091
  ie3: +1 x14 >= -7              \ x14 <= 1.94872e+07
  ie4: +1 x8 -1 x14 >= 0         \ x8 * x14**-1 <= 1.0
  ie5: +1 x8 >= -6               \ x8 <= 1.77156e+06
  eq0: +1 x3 -1 x14 -1 x30 = 5   \ x3 * x14**-1 * x30**-1 = 6.20921e-06
  eq1: +1 x29 = -5               \ x29 = 161051.0
  eq2: +1 x14 -1 x28 = -1        \ x14 * x28**-1 = 11.0
  eq3: +1 x8 -1 x27 = -1         \ x8 * x27**-1 = 11.0
  eq4: +1 x26 = -5               \ x26 = 161051.0
  eq5: +1 x25 = -4               \ x25 = 14641.0
  eq6: +1 x24 = -4               \ x24 = 14641.0
  eq7: +1 x14 -1 x23 = -1        \ x14 * x23**-1 = 11.0
  eq8: +1 x14 -1 x22 = 0         \ x14 * x22**-1 = 1.0
  eq9: +1 x3 -1 x21 = 0          \ x3 * x21**-1 = 1.0
  eq10: +1 x3 -1 x20 = 2         \ x3 * x20**-1 = 0.00826446
  eq11: +1 x19 = -5              \ x19 = 161051.0
  eq12: +1 x18 = -5              \ x18 = 161051.0
  eq13: +1 x17 = -6              \ x17 = 1.77156e+06
  eq14: +1 x8 -1 x16 = 0         \ x8 * x16**-1 = 1.0
  eq15: +1 x14 -1 x15 = -2       \ x14 * x15**-1 = 121.0
  eq16: +1 x8 -1 x13 = 1         \ x8 * x13**-1 = 0.0909091
  eq17: +1 x8 -1 x12 = 0         \ x8 * x12**-1 = 1.0
  eq18: +1 x8 -1 x11 = 0         \ x8 * x11**-1 = 1.0
  eq19: +1 x8 -1 x10 = -1        \ x8 * x10**-1 = 11.0
  eq20: +1 x8 -1 x9 = -1         \ x8 * x9**-1 = 11.0
  eq21: +1 x3 -1 x7 = 1          \ x3 * x7**-1 = 0.0909091
  eq22: +1 x3 -1 x6 = 0          \ x3 * x6**-1 = 1.0
  eq23: +1 x3 -1 x5 = 1          \ x3 * x5**-1 = 0.0909091
  eq24: +1 x3 -1 x4 = -1         \ x3 * x4**-1 = 11.0
  eq25: +1 x2 = -6               \ x2 = 1.77156e+06
  eq26: +1 x1 = -5               \ x1 = 161051.0
END

\\\\\\\\\\\\\\\\\\\\\\\\\\\\\\\\\\\\\\\\ file 9

\ combo: 6-14-2-1-0-1-0-4-0-0-1-0-3-1-1-0-0-1-4-0-0-0-1-1-0-0-1-0-0-5-7-8-8
\ dimension 3; is compact
MAXIMIZE
Subject To
  ie0: -1 x3 +1 x8 >= -2         \ x3**-1 * x8 <= 121.0
  ie1: -1 x8 +1 x14 >= 0         \ x8**-1 * x14 <= 1.0
  ie2: -1 x14 >= 5               \ x14**-1 <= 6.20921e-06
  ie3: +1 x3 -1 x14 >= 1         \ x3 * x14**-1 <= 0.0909091
  ie4: +1 x8 >= -6               \ x8 <= 1.77156e+06
  eq0: +1 x3 -1 x14 -1 x30 = 5   \ x3 * x14**-1 * x30**-1 = 6.20921e-06
  eq1: +1 x29 = -5               \ x29 = 161051.0
  eq2: +1 x14 -1 x28 = -1        \ x14 * x28**-1 = 11.0
  eq3: +1 x8 -1 x27 = -1         \ x8 * x27**-1 = 11.0
  eq4: +1 x26 = -5               \ x26 = 161051.0
  eq5: +1 x25 = -4               \ x25 = 14641.0
  eq6: +1 x24 = -4               \ x24 = 14641.0
  eq7: +1 x14 -1 x23 = -1        \ x14 * x23**-1 = 11.0
  eq8: +1 x14 -1 x22 = 0         \ x14 * x22**-1 = 1.0
  eq9: +1 x3 -1 x21 = 0          \ x3 * x21**-1 = 1.0
  eq10: +1 x3 -1 x20 = 2         \ x3 * x20**-1 = 0.00826446
  eq11: +1 x19 = -5              \ x19 = 161051.0
  eq12: +1 x18 = -5              \ x18 = 161051.0
  eq13: +1 x17 = -6              \ x17 = 1.77156e+06
  eq14: +1 x8 -1 x16 = 0         \ x8 * x16**-1 = 1.0
  eq15: +1 x14 -1 x15 = -2       \ x14 * x15**-1 = 121.0
  eq16: +1 x8 -1 x13 = 1         \ x8 * x13**-1 = 0.0909091
  eq17: +1 x8 -1 x12 = 0         \ x8 * x12**-1 = 1.0
  eq18: +1 x8 -1 x11 = 0         \ x8 * x11**-1 = 1.0
  eq19: +1 x8 -1 x10 = -1        \ x8 * x10**-1 = 11.0
  eq20: +1 x8 -1 x9 = -1         \ x8 * x9**-1 = 11.0
  eq21: +1 x3 -1 x7 = 1          \ x3 * x7**-1 = 0.0909091
  eq22: +1 x3 -1 x6 = 0          \ x3 * x6**-1 = 1.0
  eq23: +1 x3 -1 x5 = 1          \ x3 * x5**-1 = 0.0909091
  eq24: +1 x3 -1 x4 = -1         \ x3 * x4**-1 = 11.0
  eq25: +1 x2 = -6               \ x2 = 1.77156e+06
  eq26: +1 x1 = -5               \ x1 = 161051.0
END

\\\\\\\\\\\\\\\\\\\\\\\\\\\\\\\\\\\\\\\\ file 10

\ combo: 6-14-2-1-0-1-0-4-0-0-1-0-3-6-1-0-0-2-18-0-0-0-1-2-0-0-1-0-0-5-13-8-0
\ dimension 2; is compact
MAXIMIZE
Subject To
  ie0: -1 x3 >= 4                  \ x3**-1 <= 6.83013e-05
  ie1: -1 x3 +1 x14 >= -1          \ x3**-1 * x14 <= 11.0
  ie2: +1 x3 >= -5                 \ x3 <= 161051.0
  ie3: +1 x3 -1 x14 >= 0           \ x3 * x14**-1 <= 1.0
  eq0: +1 x3 -1 x14 -1 x30 = 5     \ x3 * x14**-1 * x30**-1 = 6.20921e-06
  eq1: +1 x3 -1 x14 +1 x29 = -4    \ x3 * x14**-1 * x29 = 14641.0
  eq2: +1 x14 -1 x28 = -1          \ x14 * x28**-1 = 11.0
  eq3: +1 x27 = -5                 \ x27 = 161051.0
  eq4: +1 x3 -1 x14 +1 x26 = -4    \ x3 * x14**-1 * x26 = 14641.0
  eq5: +1 x3 -1 x14 +1 x25 = -3    \ x3 * x14**-1 * x25 = 1331.0
  eq6: +1 x3 -1 x14 +1 x24 = -3    \ x3 * x14**-1 * x24 = 1331.0
  eq7: +1 x14 -1 x23 = -1          \ x14 * x23**-1 = 11.0
  eq8: +1 x14 -1 x22 = 0           \ x14 * x22**-1 = 1.0
  eq9: +1 x3 -1 x21 = 0            \ x3 * x21**-1 = 1.0
  eq10: +1 x3 -1 x20 = 2           \ x3 * x20**-1 = 0.00826446
  eq11: +1 x3 -1 x14 +1 x19 = -4   \ x3 * x14**-1 * x19 = 14641.0
  eq12: +1 x3 -1 x14 +1 x18 = -4   \ x3 * x14**-1 * x18 = 14641.0
  eq13: +1 x3 -1 x14 +1 x17 = -5   \ x3 * x14**-1 * x17 = 161051.0
  eq14: +1 x16 = -6                \ x16 = 1.77156e+06
  eq15: +1 x14 -1 x15 = -2         \ x14 * x15**-1 = 121.0
  eq16: +1 x13 = -7                \ x13 = 1.94872e+07
  eq17: +1 x12 = -6                \ x12 = 1.77156e+06
  eq18: +1 x11 = -6                \ x11 = 1.77156e+06
  eq19: +1 x10 = -5                \ x10 = 161051.0
  eq20: +1 x9 = -5                 \ x9 = 161051.0
  eq21: +1 x8 = -6                 \ x8 = 1.77156e+06
  eq22: +1 x3 -1 x7 = 1            \ x3 * x7**-1 = 0.0909091
  eq23: +1 x3 -1 x6 = 0            \ x3 * x6**-1 = 1.0
  eq24: +1 x3 -1 x5 = 1            \ x3 * x5**-1 = 0.0909091
  eq25: +1 x3 -1 x4 = -1           \ x3 * x4**-1 = 11.0
  eq26: +1 x2 = -6                 \ x2 = 1.77156e+06
  eq27: +1 x1 = -5                 \ x1 = 161051.0
END

\\\\\\\\\\\\\\\\\\\\\\\\\\\\\\\\\\\\\\\\ file 11

\ combo: 6-14-2-1-0-1-0-4-0-0-1-0-3-6-1-0-0-2-18-0-0-0-1-2-0-0-1-0-0-32-13-8-0
\ dimension 2; is not compact
MAXIMIZE
Subject To
  ie0: -1 x3 +1 x14 >= -1          \ x3**-1 * x14 <= 11.0
  ie1: +1 x3 >= -4                 \ x3 <= 14641.0
  ie2: +1 x3 -1 x14 >= 0           \ x3 * x14**-1 <= 1.0
  eq0: +1 x3 -1 x14 -1 x30 = 5     \ x3 * x14**-1 * x30**-1 = 6.20921e-06
  eq1: +1 x3 -1 x14 +1 x29 = -4    \ x3 * x14**-1 * x29 = 14641.0
  eq2: +1 x14 -1 x28 = -1          \ x14 * x28**-1 = 11.0
  eq3: +1 x27 = -5                 \ x27 = 161051.0
  eq4: +1 x3 -1 x14 +1 x26 = -4    \ x3 * x14**-1 * x26 = 14641.0
  eq5: +1 x3 -1 x14 +1 x25 = -3    \ x3 * x14**-1 * x25 = 1331.0
  eq6: +1 x3 -1 x14 +1 x24 = -3    \ x3 * x14**-1 * x24 = 1331.0
  eq7: +1 x14 -1 x23 = -1          \ x14 * x23**-1 = 11.0
  eq8: +1 x14 -1 x22 = 0           \ x14 * x22**-1 = 1.0
  eq9: +1 x3 -1 x21 = 0            \ x3 * x21**-1 = 1.0
  eq10: +1 x3 -1 x20 = 2           \ x3 * x20**-1 = 0.00826446
  eq11: +1 x3 -1 x14 +1 x19 = -4   \ x3 * x14**-1 * x19 = 14641.0
  eq12: +1 x3 -1 x14 +1 x18 = -4   \ x3 * x14**-1 * x18 = 14641.0
  eq13: +1 x3 -1 x14 +1 x17 = -5   \ x3 * x14**-1 * x17 = 161051.0
  eq14: +1 x16 = -6                \ x16 = 1.77156e+06
  eq15: +1 x14 -1 x15 = -2         \ x14 * x15**-1 = 121.0
  eq16: +1 x13 = -7                \ x13 = 1.94872e+07
  eq17: +1 x12 = -6                \ x12 = 1.77156e+06
  eq18: +1 x11 = -6                \ x11 = 1.77156e+06
  eq19: +1 x10 = -5                \ x10 = 161051.0
  eq20: +1 x9 = -5                 \ x9 = 161051.0
  eq21: +1 x8 = -6                 \ x8 = 1.77156e+06
  eq22: +1 x3 -1 x7 = 1            \ x3 * x7**-1 = 0.0909091
  eq23: +1 x3 -1 x6 = 0            \ x3 * x6**-1 = 1.0
  eq24: +1 x3 -1 x5 = 1            \ x3 * x5**-1 = 0.0909091
  eq25: +1 x3 -1 x4 = -1           \ x3 * x4**-1 = 11.0
  eq26: +1 x2 = -6                 \ x2 = 1.77156e+06
  eq27: +1 x1 = -5                 \ x1 = 161051.0
END

\\\\\\\\\\\\\\\\\\\\\\\\\\\\\\\\\\\\\\\\ file 12

\ combo: 6-14-2-0-0-0-0-4-0-0-1-0-0-6-2-0-0-2-18-0-0-0-2-2-0-0-1-0-0-5-13-6-3
\ dimension 4; is not compact
MAXIMIZE
Subject To
  ie0: -1 x1 >= 4                        \ x1**-1 <= 6.83013e-05
  ie1: -1 x2 >= 5                        \ x2**-1 <= 6.20921e-06
  ie2: -1 x3 >= 4                        \ x3**-1 <= 6.83013e-05
  ie3: -1 x3 +1 x14 >= 0                 \ x3**-1 * x14 <= 1.0
  ie4: +1 x1 +1 x3 >= -10                \ x1 * x3 <= 2.59374e+10
  ie5: +1 x2 >= -6                       \ x2 <= 1.77156e+06
  ie6: +1 x2 +1 x3 >= -11                \ x2 * x3 <= 2.85312e+11
  ie7: +1 x1 >= -5                       \ x1 <= 161051.0
  eq0: +1 x3 -1 x14 -1 x30 = 5           \ x3 * x14**-1 * x30**-1 = 6.20921e-06
  eq1: +1 x2 -1 x3 +1 x14 -1 x29 = -2    \ x2 * x3**-1 * x14 * x29**-1 = 121.0
  eq2: +1 x3 -1 x14 +1 x28 = -4          \ x3 * x14**-1 * x28 = 14641.0
  eq3: +1 x1 -1 x27 = 0                  \ x1 * x27**-1 = 1.0
  eq4: +1 x1 -1 x3 +1 x14 -1 x26 = -1    \ x1 * x3**-1 * x14 * x26**-1 = 11.0
  eq5: +1 x1 -1 x3 +1 x14 -1 x25 = -2    \ x1 * x3**-1 * x14 * x25**-1 = 121.0
  eq6: +1 x1 -1 x3 +1 x14 -1 x24 = -2    \ x1 * x3**-1 * x14 * x24**-1 = 121.0
  eq7: +1 x3 -1 x14 +1 x23 = -4          \ x3 * x14**-1 * x23 = 14641.0
  eq8: +1 x3 -1 x14 +1 x22 = -5          \ x3 * x14**-1 * x22 = 161051.0
  eq9: +1 x21 = -5                       \ x21 = 161051.0
  eq10: +1 x20 = -7                      \ x20 = 1.94872e+07
  eq11: +1 x3 -1 x14 +1 x19 = -4         \ x3 * x14**-1 * x19 = 14641.0
  eq12: +1 x2 -1 x3 +1 x14 -1 x18 = -2   \ x2 * x3**-1 * x14 * x18**-1 = 121.0
  eq13: +1 x2 -1 x3 +1 x14 -1 x17 = -1   \ x2 * x3**-1 * x14 * x17**-1 = 11.0
  eq14: +1 x2 -1 x16 = 0                 \ x2 * x16**-1 = 1.0
  eq15: +1 x3 -1 x14 +1 x15 = -3         \ x3 * x14**-1 * x15 = 1331.0
  eq16: +1 x13 = -7                      \ x13 = 1.94872e+07
  eq17: +1 x2 -1 x12 = 0                 \ x2 * x12**-1 = 1.0
  eq18: +1 x2 -1 x11 = 0                 \ x2 * x11**-1 = 1.0
  eq19: +1 x1 -1 x10 = 0                 \ x1 * x10**-1 = 1.0
  eq20: +1 x1 -1 x9 = 0                  \ x1 * x9**-1 = 1.0
  eq21: +1 x8 = -6                       \ x8 = 1.77156e+06
  eq22: +1 x7 = -6                       \ x7 = 1.77156e+06
  eq23: +1 x6 = -5                       \ x6 = 161051.0
  eq24: +1 x5 = -6                       \ x5 = 1.77156e+06
  eq25: +1 x4 = -4                       \ x4 = 14641.0
END

\\\\\\\\\\\\\\\\\\\\\\\\\\\\\\\\\\\\\\\\ file 13

\ combo: 1-1-2-1-0-1-0-6-0-0-1-0-0-6-1-0-0-1-18-0-0-0-1-1-0-0-1-0-0-5-5-1-4
\ dimension 2; is not compact
MAXIMIZE
Subject To
  ie0: -1 x3 >= 6                  \ x3**-1 <= 5.64474e-07
  ie1: +1 x1 +1 x3 >= -10          \ x1 * x3 <= 2.59374e+10
  eq0: +1 x1 +1 x3 -1 x30 = -7     \ x1 * x3 * x30**-1 = 1.94872e+07
  eq1: +1 x1 -1 x29 = 1            \ x1 * x29**-1 = 0.0909091
  eq2: +1 x28 = -6                 \ x28 = 1.77156e+06
  eq3: +2 x1 +1 x3 -1 x27 = -10    \ x1**2 * x3 * x27**-1 = 2.59374e+10
  eq4: +1 x1 -1 x26 = 1            \ x1 * x26**-1 = 0.0909091
  eq5: +1 x1 -1 x25 = 0            \ x1 * x25**-1 = 1.0
  eq6: +1 x1 -1 x24 = 0            \ x1 * x24**-1 = 1.0
  eq7: +1 x23 = -6                 \ x23 = 1.77156e+06
  eq8: +1 x22 = -7                 \ x22 = 1.94872e+07
  eq9: +1 x1 +1 x3 -1 x21 = -5     \ x1 * x3 * x21**-1 = 161051.0
  eq10: +1 x1 +1 x3 -1 x20 = -3    \ x1 * x3 * x20**-1 = 1331.0
  eq11: +1 x19 = -6                \ x19 = 1.77156e+06
  eq12: +1 x1 -1 x18 = 1           \ x1 * x18**-1 = 0.0909091
  eq13: +1 x1 -1 x17 = 2           \ x1 * x17**-1 = 0.00826446
  eq14: +2 x1 +1 x3 -1 x16 = -9    \ x1**2 * x3 * x16**-1 = 2.35795e+09
  eq15: +1 x15 = -5                \ x15 = 161051.0
  eq16: +1 x1 +1 x14 = -12         \ x1 * x14 = 3.13843e+12
  eq17: +1 x1 +1 x3 -1 x13 = -3    \ x1 * x3 * x13**-1 = 1331.0
  eq18: +2 x1 +1 x3 -1 x12 = -9    \ x1**2 * x3 * x12**-1 = 2.35795e+09
  eq19: +2 x1 +1 x3 -1 x11 = -9    \ x1**2 * x3 * x11**-1 = 2.35795e+09
  eq20: +2 x1 +1 x3 -1 x10 = -10   \ x1**2 * x3 * x10**-1 = 2.59374e+10
  eq21: +2 x1 +1 x3 -1 x9 = -10    \ x1**2 * x3 * x9**-1 = 2.59374e+10
  eq22: +1 x1 +1 x3 -1 x8 = -4     \ x1 * x3 * x8**-1 = 14641.0
  eq23: +1 x1 +1 x3 -1 x7 = -4     \ x1 * x3 * x7**-1 = 14641.0
  eq24: +1 x1 +1 x3 -1 x6 = -5     \ x1 * x3 * x6**-1 = 161051.0
  eq25: +1 x1 +1 x3 -1 x5 = -4     \ x1 * x3 * x5**-1 = 14641.0
  eq26: +1 x1 +1 x3 -1 x4 = -6     \ x1 * x3 * x4**-1 = 1.77156e+06
  eq27: +1 x1 -1 x2 = 1            \ x1 * x2**-1 = 0.0909091
END

\\\\\\\\\\\\\\\\\\\\\\\\\\\\\\\\\\\\\\\\ file 14

\ combo: 1-1-2-1-0-1-0-6-0-0-1-0-0-1-1-0-0-1-4-0-0-0-1-1-0-0-1-0-0-5-5-1-4
\ dimension 2; is not compact
MAXIMIZE
Subject To
  ie0: +1 x3 >= -6                 \ x3 <= 1.77156e+06
  ie1: +1 x1 >= -4                 \ x1 <= 14641.0
  eq0: +1 x1 +1 x3 -1 x30 = -7     \ x1 * x3 * x30**-1 = 1.94872e+07
  eq1: +1 x1 -1 x29 = 1            \ x1 * x29**-1 = 0.0909091
  eq2: +1 x28 = -6                 \ x28 = 1.77156e+06
  eq3: +2 x1 +1 x3 -1 x27 = -10    \ x1**2 * x3 * x27**-1 = 2.59374e+10
  eq4: +1 x1 -1 x26 = 1            \ x1 * x26**-1 = 0.0909091
  eq5: +1 x1 -1 x25 = 0            \ x1 * x25**-1 = 1.0
  eq6: +1 x1 -1 x24 = 0            \ x1 * x24**-1 = 1.0
  eq7: +1 x23 = -6                 \ x23 = 1.77156e+06
  eq8: +1 x22 = -7                 \ x22 = 1.94872e+07
  eq9: +1 x1 +1 x3 -1 x21 = -5     \ x1 * x3 * x21**-1 = 161051.0
  eq10: +1 x1 +1 x3 -1 x20 = -3    \ x1 * x3 * x20**-1 = 1331.0
  eq11: +1 x19 = -6                \ x19 = 1.77156e+06
  eq12: +1 x1 -1 x18 = 1           \ x1 * x18**-1 = 0.0909091
  eq13: +1 x1 -1 x17 = 2           \ x1 * x17**-1 = 0.00826446
  eq14: +2 x1 +1 x3 -1 x16 = -9    \ x1**2 * x3 * x16**-1 = 2.35795e+09
  eq15: +1 x15 = -5                \ x15 = 161051.0
  eq16: +1 x1 +1 x14 = -12         \ x1 * x14 = 3.13843e+12
  eq17: +1 x1 +1 x3 -1 x13 = -3    \ x1 * x3 * x13**-1 = 1331.0
  eq18: +2 x1 +1 x3 -1 x12 = -9    \ x1**2 * x3 * x12**-1 = 2.35795e+09
  eq19: +2 x1 +1 x3 -1 x11 = -9    \ x1**2 * x3 * x11**-1 = 2.35795e+09
  eq20: +2 x1 +1 x3 -1 x10 = -10   \ x1**2 * x3 * x10**-1 = 2.59374e+10
  eq21: +2 x1 +1 x3 -1 x9 = -10    \ x1**2 * x3 * x9**-1 = 2.59374e+10
  eq22: +1 x1 +1 x3 -1 x8 = -4     \ x1 * x3 * x8**-1 = 14641.0
  eq23: +1 x1 +1 x3 -1 x7 = -4     \ x1 * x3 * x7**-1 = 14641.0
  eq24: +1 x1 +1 x3 -1 x6 = -5     \ x1 * x3 * x6**-1 = 161051.0
  eq25: +1 x1 +1 x3 -1 x5 = -4     \ x1 * x3 * x5**-1 = 14641.0
  eq26: +1 x1 +1 x3 -1 x4 = -6     \ x1 * x3 * x4**-1 = 1.77156e+06
  eq27: +1 x1 -1 x2 = 1            \ x1 * x2**-1 = 0.0909091
END

\\\\\\\\\\\\\\\\\\\\\\\\\\\\\\\\\\\\\\\\ file 15

\ combo: 1-1-2-1-0-1-0-4-0-0-1-0-0-6-1-0-0-1-18-0-0-0-1-1-0-0-1-0-0-5-13-6-3
\ dimension 2; is compact
MAXIMIZE
Subject To
  ie0: -1 x1 -1 x14 >= 11           \ x1**-1 * x14**-1 <= 3.50494e-12
  ie1: -1 x1 >= 4                   \ x1**-1 <= 6.83013e-05
  ie2: +2 x1 +1 x14 >= -16          \ x1**2 * x14 <= 4.59497e+16
  eq0: +1 x1 +1 x14 +1 x30 = -15    \ x1 * x14 * x30 = 4.17725e+15
  eq1: +2 x1 +1 x14 -1 x29 = -11    \ x1**2 * x14 * x29**-1 = 2.85312e+11
  eq2: +1 x1 +1 x14 -1 x28 = -6     \ x1 * x14 * x28**-1 = 1.77156e+06
  eq3: +1 x1 -1 x27 = 0             \ x1 * x27**-1 = 1.0
  eq4: +2 x1 +1 x14 -1 x26 = -11    \ x1**2 * x14 * x26**-1 = 2.85312e+11
  eq5: +2 x1 +1 x14 -1 x25 = -12    \ x1**2 * x14 * x25**-1 = 3.13843e+12
  eq6: +2 x1 +1 x14 -1 x24 = -12    \ x1**2 * x14 * x24**-1 = 3.13843e+12
  eq7: +1 x1 +1 x14 -1 x23 = -6     \ x1 * x14 * x23**-1 = 1.77156e+06
  eq8: +1 x1 +1 x14 -1 x22 = -5     \ x1 * x14 * x22**-1 = 161051.0
  eq9: +1 x21 = -5                  \ x21 = 161051.0
  eq10: +1 x20 = -7                 \ x20 = 1.94872e+07
  eq11: +1 x1 +1 x14 -1 x19 = -6    \ x1 * x14 * x19**-1 = 1.77156e+06
  eq12: +2 x1 +1 x14 -1 x18 = -11   \ x1**2 * x14 * x18**-1 = 2.85312e+11
  eq13: +2 x1 +1 x14 -1 x17 = -10   \ x1**2 * x14 * x17**-1 = 2.59374e+10
  eq14: +1 x1 -1 x16 = 1            \ x1 * x16**-1 = 0.0909091
  eq15: +1 x1 +1 x14 -1 x15 = -7    \ x1 * x14 * x15**-1 = 1.94872e+07
  eq16: +1 x13 = -7                 \ x13 = 1.94872e+07
  eq17: +1 x1 -1 x12 = 1            \ x1 * x12**-1 = 0.0909091
  eq18: +1 x1 -1 x11 = 1            \ x1 * x11**-1 = 0.0909091
  eq19: +1 x1 -1 x10 = 0            \ x1 * x10**-1 = 1.0
  eq20: +1 x1 -1 x9 = 0             \ x1 * x9**-1 = 1.0
  eq21: +1 x8 = -6                  \ x8 = 1.77156e+06
  eq22: +1 x7 = -6                  \ x7 = 1.77156e+06
  eq23: +1 x6 = -5                  \ x6 = 161051.0
  eq24: +1 x5 = -6                  \ x5 = 1.77156e+06
  eq25: +1 x4 = -4                  \ x4 = 14641.0
  eq26: +1 x1 +1 x3 = -10           \ x1 * x3 = 2.59374e+10
  eq27: +1 x1 -1 x2 = 1             \ x1 * x2**-1 = 0.0909091
END

\\\\\\\\\\\\\\\\\\\\\\\\\\\\\\\\\\\\\\\\ file 16

\ combo: 1-1-2-1-0-1-0-6-0-0-1-0-0-6-1-0-0-1-18-0-0-0-1-1-0-0-1-0-0-5-13-6-3
\ dimension 2; is not compact
MAXIMIZE
Subject To
  ie0: -1 x1 -1 x14 >= 11           \ x1**-1 * x14**-1 <= 3.50494e-12
  ie1: +1 x1 +1 x14 >= -12          \ x1 * x14 <= 3.13843e+12
  ie2: +1 x1 >= -4                  \ x1 <= 14641.0
  eq0: +1 x1 +1 x14 +1 x30 = -15    \ x1 * x14 * x30 = 4.17725e+15
  eq1: +2 x1 +1 x14 -1 x29 = -11    \ x1**2 * x14 * x29**-1 = 2.85312e+11
  eq2: +1 x1 +1 x14 -1 x28 = -6     \ x1 * x14 * x28**-1 = 1.77156e+06
  eq3: +1 x1 -1 x27 = 0             \ x1 * x27**-1 = 1.0
  eq4: +2 x1 +1 x14 -1 x26 = -11    \ x1**2 * x14 * x26**-1 = 2.85312e+11
  eq5: +2 x1 +1 x14 -1 x25 = -12    \ x1**2 * x14 * x25**-1 = 3.13843e+12
  eq6: +2 x1 +1 x14 -1 x24 = -12    \ x1**2 * x14 * x24**-1 = 3.13843e+12
  eq7: +1 x1 +1 x14 -1 x23 = -6     \ x1 * x14 * x23**-1 = 1.77156e+06
  eq8: +1 x1 +1 x14 -1 x22 = -5     \ x1 * x14 * x22**-1 = 161051.0
  eq9: +1 x21 = -5                  \ x21 = 161051.0
  eq10: +1 x20 = -7                 \ x20 = 1.94872e+07
  eq11: +1 x1 +1 x14 -1 x19 = -6    \ x1 * x14 * x19**-1 = 1.77156e+06
  eq12: +2 x1 +1 x14 -1 x18 = -11   \ x1**2 * x14 * x18**-1 = 2.85312e+11
  eq13: +2 x1 +1 x14 -1 x17 = -10   \ x1**2 * x14 * x17**-1 = 2.59374e+10
  eq14: +1 x1 -1 x16 = 1            \ x1 * x16**-1 = 0.0909091
  eq15: +1 x1 +1 x14 -1 x15 = -7    \ x1 * x14 * x15**-1 = 1.94872e+07
  eq16: +1 x13 = -7                 \ x13 = 1.94872e+07
  eq17: +1 x1 -1 x12 = 1            \ x1 * x12**-1 = 0.0909091
  eq18: +1 x1 -1 x11 = 1            \ x1 * x11**-1 = 0.0909091
  eq19: +1 x1 -1 x10 = 0            \ x1 * x10**-1 = 1.0
  eq20: +1 x1 -1 x9 = 0             \ x1 * x9**-1 = 1.0
  eq21: +1 x8 = -6                  \ x8 = 1.77156e+06
  eq22: +1 x7 = -6                  \ x7 = 1.77156e+06
  eq23: +1 x6 = -5                  \ x6 = 161051.0
  eq24: +1 x5 = -6                  \ x5 = 1.77156e+06
  eq25: +1 x4 = -4                  \ x4 = 14641.0
  eq26: +1 x1 +1 x3 = -10           \ x1 * x3 = 2.59374e+10
  eq27: +1 x1 -1 x2 = 1             \ x1 * x2**-1 = 0.0909091
END

\\\\\\\\\\\\\\\\\\\\\\\\\\\\\\\\\\\\\\\\ file 17

\ combo: 1-1-2-1-0-1-0-6-0-0-1-0-0-6-1-0-0-2-18-0-0-0-1-2-0-0-1-0-0-5-13-6-3
\ dimension 2; is not compact
MAXIMIZE
Subject To
  ie0: -1 x1 -1 x14 >= 10           \ x1**-1 * x14**-1 <= 3.85543e-11
  ie1: +1 x1 +1 x14 >= -11          \ x1 * x14 <= 2.85312e+11
  ie2: +1 x1 >= -4                  \ x1 <= 14641.0
  eq0: +1 x1 +1 x14 +1 x30 = -15    \ x1 * x14 * x30 = 4.17725e+15
  eq1: +2 x1 +1 x14 -1 x29 = -11    \ x1**2 * x14 * x29**-1 = 2.85312e+11
  eq2: +1 x1 +1 x14 -1 x28 = -6     \ x1 * x14 * x28**-1 = 1.77156e+06
  eq3: +1 x1 -1 x27 = 0             \ x1 * x27**-1 = 1.0
  eq4: +2 x1 +1 x14 -1 x26 = -11    \ x1**2 * x14 * x26**-1 = 2.85312e+11
  eq5: +2 x1 +1 x14 -1 x25 = -12    \ x1**2 * x14 * x25**-1 = 3.13843e+12
  eq6: +2 x1 +1 x14 -1 x24 = -12    \ x1**2 * x14 * x24**-1 = 3.13843e+12
  eq7: +1 x1 +1 x14 -1 x23 = -6     \ x1 * x14 * x23**-1 = 1.77156e+06
  eq8: +1 x1 +1 x14 -1 x22 = -5     \ x1 * x14 * x22**-1 = 161051.0
  eq9: +1 x21 = -5                  \ x21 = 161051.0
  eq10: +1 x20 = -7                 \ x20 = 1.94872e+07
  eq11: +1 x1 +1 x14 -1 x19 = -6    \ x1 * x14 * x19**-1 = 1.77156e+06
  eq12: +2 x1 +1 x14 -1 x18 = -11   \ x1**2 * x14 * x18**-1 = 2.85312e+11
  eq13: +2 x1 +1 x14 -1 x17 = -10   \ x1**2 * x14 * x17**-1 = 2.59374e+10
  eq14: +1 x1 -1 x16 = 1            \ x1 * x16**-1 = 0.0909091
  eq15: +1 x1 +1 x14 -1 x15 = -7    \ x1 * x14 * x15**-1 = 1.94872e+07
  eq16: +1 x13 = -7                 \ x13 = 1.94872e+07
  eq17: +1 x1 -1 x12 = 1            \ x1 * x12**-1 = 0.0909091
  eq18: +1 x1 -1 x11 = 1            \ x1 * x11**-1 = 0.0909091
  eq19: +1 x1 -1 x10 = 0            \ x1 * x10**-1 = 1.0
  eq20: +1 x1 -1 x9 = 0             \ x1 * x9**-1 = 1.0
  eq21: +1 x8 = -6                  \ x8 = 1.77156e+06
  eq22: +1 x7 = -6                  \ x7 = 1.77156e+06
  eq23: +1 x6 = -5                  \ x6 = 161051.0
  eq24: +1 x5 = -6                  \ x5 = 1.77156e+06
  eq25: +1 x4 = -4                  \ x4 = 14641.0
  eq26: +1 x1 +1 x3 = -10           \ x1 * x3 = 2.59374e+10
  eq27: +1 x1 -1 x2 = 1             \ x1 * x2**-1 = 0.0909091
END

\\\\\\\\\\\\\\\\\\\\\\\\\\\\\\\\\\\\\\\\ file 18

\ combo: 6-14-2-1-0-1-0-4-0-0-1-0-0-6-1-0-0-2-18-0-0-0-1-2-0-0-1-0-0-5-13-6-3
\ dimension 2; is compact
MAXIMIZE
Subject To
  ie0: -1 x1 -1 x14 >= 10           \ x1**-1 * x14**-1 <= 3.85543e-11
  ie1: +1 x1 >= -5                  \ x1 <= 161051.0
  ie2: +1 x14 >= -6                 \ x14 <= 1.77156e+06
  eq0: +1 x1 +1 x14 +1 x30 = -15    \ x1 * x14 * x30 = 4.17725e+15
  eq1: +2 x1 +1 x14 -1 x29 = -11    \ x1**2 * x14 * x29**-1 = 2.85312e+11
  eq2: +1 x1 +1 x14 -1 x28 = -6     \ x1 * x14 * x28**-1 = 1.77156e+06
  eq3: +1 x1 -1 x27 = 0             \ x1 * x27**-1 = 1.0
  eq4: +2 x1 +1 x14 -1 x26 = -11    \ x1**2 * x14 * x26**-1 = 2.85312e+11
  eq5: +2 x1 +1 x14 -1 x25 = -12    \ x1**2 * x14 * x25**-1 = 3.13843e+12
  eq6: +2 x1 +1 x14 -1 x24 = -12    \ x1**2 * x14 * x24**-1 = 3.13843e+12
  eq7: +1 x1 +1 x14 -1 x23 = -6     \ x1 * x14 * x23**-1 = 1.77156e+06
  eq8: +1 x1 +1 x14 -1 x22 = -5     \ x1 * x14 * x22**-1 = 161051.0
  eq9: +1 x21 = -5                  \ x21 = 161051.0
  eq10: +1 x20 = -7                 \ x20 = 1.94872e+07
  eq11: +1 x1 +1 x14 -1 x19 = -6    \ x1 * x14 * x19**-1 = 1.77156e+06
  eq12: +2 x1 +1 x14 -1 x18 = -11   \ x1**2 * x14 * x18**-1 = 2.85312e+11
  eq13: +2 x1 +1 x14 -1 x17 = -10   \ x1**2 * x14 * x17**-1 = 2.59374e+10
  eq14: +1 x1 -1 x16 = 1            \ x1 * x16**-1 = 0.0909091
  eq15: +1 x1 +1 x14 -1 x15 = -7    \ x1 * x14 * x15**-1 = 1.94872e+07
  eq16: +1 x13 = -7                 \ x13 = 1.94872e+07
  eq17: +1 x1 -1 x12 = 1            \ x1 * x12**-1 = 0.0909091
  eq18: +1 x1 -1 x11 = 1            \ x1 * x11**-1 = 0.0909091
  eq19: +1 x1 -1 x10 = 0            \ x1 * x10**-1 = 1.0
  eq20: +1 x1 -1 x9 = 0             \ x1 * x9**-1 = 1.0
  eq21: +1 x8 = -6                  \ x8 = 1.77156e+06
  eq22: +1 x7 = -6                  \ x7 = 1.77156e+06
  eq23: +1 x6 = -5                  \ x6 = 161051.0
  eq24: +1 x5 = -6                  \ x5 = 1.77156e+06
  eq25: +1 x4 = -4                  \ x4 = 14641.0
  eq26: +1 x1 +1 x3 = -10           \ x1 * x3 = 2.59374e+10
  eq27: +1 x1 -1 x2 = 1             \ x1 * x2**-1 = 0.0909091
END

\\\\\\\\\\\\\\\\\\\\\\\\\\\\\\\\\\\\\\\\ file 19

\ combo: 1-1-2-1-0-1-0-4-0-0-1-0-0-6-1-0-0-2-18-0-0-0-1-2-0-0-1-0-0-5-13-6-3
\ dimension 2; is compact
MAXIMIZE
Subject To
  ie0: -1 x1 >= 4                   \ x1**-1 <= 6.83013e-05
  ie1: -1 x14 >= 6                  \ x14**-1 <= 5.64474e-07
  ie2: +1 x1 +1 x14 >= -11          \ x1 * x14 <= 2.85312e+11
  eq0: +1 x1 +1 x14 +1 x30 = -15    \ x1 * x14 * x30 = 4.17725e+15
  eq1: +2 x1 +1 x14 -1 x29 = -11    \ x1**2 * x14 * x29**-1 = 2.85312e+11
  eq2: +1 x1 +1 x14 -1 x28 = -6     \ x1 * x14 * x28**-1 = 1.77156e+06
  eq3: +1 x1 -1 x27 = 0             \ x1 * x27**-1 = 1.0
  eq4: +2 x1 +1 x14 -1 x26 = -11    \ x1**2 * x14 * x26**-1 = 2.85312e+11
  eq5: +2 x1 +1 x14 -1 x25 = -12    \ x1**2 * x14 * x25**-1 = 3.13843e+12
  eq6: +2 x1 +1 x14 -1 x24 = -12    \ x1**2 * x14 * x24**-1 = 3.13843e+12
  eq7: +1 x1 +1 x14 -1 x23 = -6     \ x1 * x14 * x23**-1 = 1.77156e+06
  eq8: +1 x1 +1 x14 -1 x22 = -5     \ x1 * x14 * x22**-1 = 161051.0
  eq9: +1 x21 = -5                  \ x21 = 161051.0
  eq10: +1 x20 = -7                 \ x20 = 1.94872e+07
  eq11: +1 x1 +1 x14 -1 x19 = -6    \ x1 * x14 * x19**-1 = 1.77156e+06
  eq12: +2 x1 +1 x14 -1 x18 = -11   \ x1**2 * x14 * x18**-1 = 2.85312e+11
  eq13: +2 x1 +1 x14 -1 x17 = -10   \ x1**2 * x14 * x17**-1 = 2.59374e+10
  eq14: +1 x1 -1 x16 = 1            \ x1 * x16**-1 = 0.0909091
  eq15: +1 x1 +1 x14 -1 x15 = -7    \ x1 * x14 * x15**-1 = 1.94872e+07
  eq16: +1 x13 = -7                 \ x13 = 1.94872e+07
  eq17: +1 x1 -1 x12 = 1            \ x1 * x12**-1 = 0.0909091
  eq18: +1 x1 -1 x11 = 1            \ x1 * x11**-1 = 0.0909091
  eq19: +1 x1 -1 x10 = 0            \ x1 * x10**-1 = 1.0
  eq20: +1 x1 -1 x9 = 0             \ x1 * x9**-1 = 1.0
  eq21: +1 x8 = -6                  \ x8 = 1.77156e+06
  eq22: +1 x7 = -6                  \ x7 = 1.77156e+06
  eq23: +1 x6 = -5                  \ x6 = 161051.0
  eq24: +1 x5 = -6                  \ x5 = 1.77156e+06
  eq25: +1 x4 = -4                  \ x4 = 14641.0
  eq26: +1 x1 +1 x3 = -10           \ x1 * x3 = 2.59374e+10
  eq27: +1 x1 -1 x2 = 1             \ x1 * x2**-1 = 0.0909091
END

\\\\\\\\\\\\\\\\\\\\\\\\\\\\\\\\\\\\\\\\ file 20

\ combo: 19-19-2-0-0-0-0-6-0-0-1-0-0-6-2-0-0-2-18-0-0-0-2-2-0-0-1-0-0-5-13-6-3
\ dimension 2; is not compact
MAXIMIZE
Subject To
  ie0: +1 x1 >= -4                  \ x1 <= 14641.0
  ie1: +1 x1 +1 x14 >= -10          \ x1 * x14 <= 2.59374e+10
  eq0: +1 x1 +1 x14 +1 x30 = -15    \ x1 * x14 * x30 = 4.17725e+15
  eq1: +2 x1 +1 x14 -1 x29 = -11    \ x1**2 * x14 * x29**-1 = 2.85312e+11
  eq2: +1 x1 +1 x14 -1 x28 = -6     \ x1 * x14 * x28**-1 = 1.77156e+06
  eq3: +1 x1 -1 x27 = 0             \ x1 * x27**-1 = 1.0
  eq4: +2 x1 +1 x14 -1 x26 = -11    \ x1**2 * x14 * x26**-1 = 2.85312e+11
  eq5: +2 x1 +1 x14 -1 x25 = -12    \ x1**2 * x14 * x25**-1 = 3.13843e+12
  eq6: +2 x1 +1 x14 -1 x24 = -12    \ x1**2 * x14 * x24**-1 = 3.13843e+12
  eq7: +1 x1 +1 x14 -1 x23 = -6     \ x1 * x14 * x23**-1 = 1.77156e+06
  eq8: +1 x1 +1 x14 -1 x22 = -5     \ x1 * x14 * x22**-1 = 161051.0
  eq9: +1 x21 = -5                  \ x21 = 161051.0
  eq10: +1 x20 = -7                 \ x20 = 1.94872e+07
  eq11: +1 x1 +1 x14 -1 x19 = -6    \ x1 * x14 * x19**-1 = 1.77156e+06
  eq12: +2 x1 +1 x14 -1 x18 = -11   \ x1**2 * x14 * x18**-1 = 2.85312e+11
  eq13: +2 x1 +1 x14 -1 x17 = -10   \ x1**2 * x14 * x17**-1 = 2.59374e+10
  eq14: +1 x1 -1 x16 = 1            \ x1 * x16**-1 = 0.0909091
  eq15: +1 x1 +1 x14 -1 x15 = -7    \ x1 * x14 * x15**-1 = 1.94872e+07
  eq16: +1 x13 = -7                 \ x13 = 1.94872e+07
  eq17: +1 x1 -1 x12 = 1            \ x1 * x12**-1 = 0.0909091
  eq18: +1 x1 -1 x11 = 1            \ x1 * x11**-1 = 0.0909091
  eq19: +1 x1 -1 x10 = 0            \ x1 * x10**-1 = 1.0
  eq20: +1 x1 -1 x9 = 0             \ x1 * x9**-1 = 1.0
  eq21: +1 x8 = -6                  \ x8 = 1.77156e+06
  eq22: +1 x7 = -6                  \ x7 = 1.77156e+06
  eq23: +1 x6 = -5                  \ x6 = 161051.0
  eq24: +1 x5 = -6                  \ x5 = 1.77156e+06
  eq25: +1 x4 = -4                  \ x4 = 14641.0
  eq26: +1 x1 +1 x3 = -10           \ x1 * x3 = 2.59374e+10
  eq27: +1 x1 -1 x2 = 1             \ x1 * x2**-1 = 0.0909091
END

\\\\\\\\\\\\\\\\\\\\\\\\\\\\\\\\\\\\\\\\ file 21

\ combo: 1-1-2-1-0-1-0-4-0-0-1-0-0-1-1-0-0-1-4-0-0-0-1-1-0-0-1-0-0-5-7-1-4
\ dimension 3; is not compact
MAXIMIZE
Subject To
  ie0: -1 x1 >= 4                 \ x1**-1 <= 6.83013e-05
  ie1: -1 x1 +1 x3 -1 x8 >= 4     \ x1**-1 * x3 * x8**-1 <= 6.83013e-05
  ie2: -1 x3 +1 x8 >= -1          \ x3**-1 * x8 <= 11.0
  ie3: +1 x1 +1 x3 >= -10         \ x1 * x3 <= 2.59374e+10
  ie4: +1 x8 >= -6                \ x8 <= 1.77156e+06
  ie5: +1 x1 >= -5                \ x1 <= 161051.0
  eq0: +1 x1 +1 x3 -1 x30 = -7    \ x1 * x3 * x30**-1 = 1.94872e+07
  eq1: +1 x29 = -5                \ x29 = 161051.0
  eq2: +1 x28 = -6                \ x28 = 1.77156e+06
  eq3: +1 x1 +1 x8 -1 x27 = -6    \ x1 * x8 * x27**-1 = 1.77156e+06
  eq4: +1 x26 = -5                \ x26 = 161051.0
  eq5: +1 x25 = -4                \ x25 = 14641.0
  eq6: +1 x24 = -4                \ x24 = 14641.0
  eq7: +1 x23 = -6                \ x23 = 1.77156e+06
  eq8: +1 x22 = -7                \ x22 = 1.94872e+07
  eq9: +1 x1 +1 x3 -1 x21 = -5    \ x1 * x3 * x21**-1 = 161051.0
  eq10: +1 x1 +1 x3 -1 x20 = -3   \ x1 * x3 * x20**-1 = 1331.0
  eq11: +1 x1 +1 x19 = -10        \ x1 * x19 = 2.59374e+10
  eq12: +1 x18 = -5               \ x18 = 161051.0
  eq13: +1 x17 = -6               \ x17 = 1.77156e+06
  eq14: +1 x1 +1 x8 -1 x16 = -5   \ x1 * x8 * x16**-1 = 161051.0
  eq15: +1 x15 = -5               \ x15 = 161051.0
  eq16: +1 x1 +1 x14 = -12        \ x1 * x14 = 3.13843e+12
  eq17: +1 x1 +1 x3 -1 x13 = -3   \ x1 * x3 * x13**-1 = 1331.0
  eq18: +1 x1 +1 x8 -1 x12 = -5   \ x1 * x8 * x12**-1 = 161051.0
  eq19: +1 x1 +1 x8 -1 x11 = -5   \ x1 * x8 * x11**-1 = 161051.0
  eq20: +1 x1 +1 x8 -1 x10 = -6   \ x1 * x8 * x10**-1 = 1.77156e+06
  eq21: +1 x1 +1 x8 -1 x9 = -6    \ x1 * x8 * x9**-1 = 1.77156e+06
  eq22: +1 x1 +1 x3 -1 x7 = -4    \ x1 * x3 * x7**-1 = 14641.0
  eq23: +1 x1 +1 x3 -1 x6 = -5    \ x1 * x3 * x6**-1 = 161051.0
  eq24: +1 x1 +1 x3 -1 x5 = -4    \ x1 * x3 * x5**-1 = 14641.0
  eq25: +1 x1 +1 x3 -1 x4 = -6    \ x1 * x3 * x4**-1 = 1.77156e+06
  eq26: +1 x1 -1 x2 = 1           \ x1 * x2**-1 = 0.0909091
END

\\\\\\\\\\\\\\\\\\\\\\\\\\\\\\\\\\\\\\\\ file 22

\ combo: 1-1-2-1-0-1-0-4-0-0-1-0-3-1-1-0-0-1-4-0-0-0-1-1-0-0-1-0-0-5-7-1-4
\ dimension 3; is not compact
MAXIMIZE
Subject To
  ie0: -1 x1 >= 4                 \ x1**-1 <= 6.83013e-05
  ie1: -1 x3 +1 x8 >= -2          \ x3**-1 * x8 <= 121.0
  ie2: +1 x1 >= -5                \ x1 <= 161051.0
  ie3: +1 x8 >= -6                \ x8 <= 1.77156e+06
  ie4: +1 x3 -1 x8 >= 1           \ x3 * x8**-1 <= 0.0909091
  eq0: +1 x1 +1 x3 -1 x30 = -7    \ x1 * x3 * x30**-1 = 1.94872e+07
  eq1: +1 x29 = -5                \ x29 = 161051.0
  eq2: +1 x28 = -6                \ x28 = 1.77156e+06
  eq3: +1 x1 +1 x8 -1 x27 = -6    \ x1 * x8 * x27**-1 = 1.77156e+06
  eq4: +1 x26 = -5                \ x26 = 161051.0
  eq5: +1 x25 = -4                \ x25 = 14641.0
  eq6: +1 x24 = -4                \ x24 = 14641.0
  eq7: +1 x23 = -6                \ x23 = 1.77156e+06
  eq8: +1 x22 = -7                \ x22 = 1.94872e+07
  eq9: +1 x1 +1 x3 -1 x21 = -5    \ x1 * x3 * x21**-1 = 161051.0
  eq10: +1 x1 +1 x3 -1 x20 = -3   \ x1 * x3 * x20**-1 = 1331.0
  eq11: +1 x1 +1 x19 = -10        \ x1 * x19 = 2.59374e+10
  eq12: +1 x18 = -5               \ x18 = 161051.0
  eq13: +1 x17 = -6               \ x17 = 1.77156e+06
  eq14: +1 x1 +1 x8 -1 x16 = -5   \ x1 * x8 * x16**-1 = 161051.0
  eq15: +1 x15 = -5               \ x15 = 161051.0
  eq16: +1 x1 +1 x14 = -12        \ x1 * x14 = 3.13843e+12
  eq17: +1 x1 +1 x8 -1 x13 = -4   \ x1 * x8 * x13**-1 = 14641.0
  eq18: +1 x1 +1 x8 -1 x12 = -5   \ x1 * x8 * x12**-1 = 161051.0
  eq19: +1 x1 +1 x8 -1 x11 = -5   \ x1 * x8 * x11**-1 = 161051.0
  eq20: +1 x1 +1 x8 -1 x10 = -6   \ x1 * x8 * x10**-1 = 1.77156e+06
  eq21: +1 x1 +1 x8 -1 x9 = -6    \ x1 * x8 * x9**-1 = 1.77156e+06
  eq22: +1 x1 +1 x3 -1 x7 = -4    \ x1 * x3 * x7**-1 = 14641.0
  eq23: +1 x1 +1 x3 -1 x6 = -5    \ x1 * x3 * x6**-1 = 161051.0
  eq24: +1 x1 +1 x3 -1 x5 = -4    \ x1 * x3 * x5**-1 = 14641.0
  eq25: +1 x1 +1 x3 -1 x4 = -6    \ x1 * x3 * x4**-1 = 1.77156e+06
  eq26: +1 x1 -1 x2 = 1           \ x1 * x2**-1 = 0.0909091
END

\\\\\\\\\\\\\\\\\\\\\\\\\\\\\\\\\\\\\\\\ file 23

\ combo: 1-1-2-1-0-1-0-4-0-0-1-0-0-1-1-0-0-1-4-0-0-0-1-1-0-0-1-0-0-5-7-6-3
\ dimension 3; is compact
MAXIMIZE
Subject To
  ie0: -3 x1 -1 x8 -1 x14 >= 26    \ x1**-3 * x8**-1 * x14**-1 <= 8.39055e-28
  ie1: -2 x1 -1 x14 >= 16          \ x1**-2 * x14**-1 <= 2.17629e-17
  ie2: +1 x1 +1 x14 >= -12         \ x1 * x14 <= 3.13843e+12
  ie3: +1 x8 >= -6                 \ x8 <= 1.77156e+06
  ie4: +1 x1 >= -5                 \ x1 <= 161051.0
  eq0: +1 x1 +1 x14 +1 x30 = -15   \ x1 * x14 * x30 = 4.17725e+15
  eq1: +1 x29 = -5                 \ x29 = 161051.0
  eq2: +1 x1 +1 x14 -1 x28 = -6    \ x1 * x14 * x28**-1 = 1.77156e+06
  eq3: +1 x1 +1 x8 -1 x27 = -6     \ x1 * x8 * x27**-1 = 1.77156e+06
  eq4: +1 x26 = -5                 \ x26 = 161051.0
  eq5: +1 x25 = -4                 \ x25 = 14641.0
  eq6: +1 x24 = -4                 \ x24 = 14641.0
  eq7: +1 x1 +1 x14 -1 x23 = -6    \ x1 * x14 * x23**-1 = 1.77156e+06
  eq8: +1 x1 +1 x14 -1 x22 = -5    \ x1 * x14 * x22**-1 = 161051.0
  eq9: +1 x21 = -5                 \ x21 = 161051.0
  eq10: +1 x20 = -7                \ x20 = 1.94872e+07
  eq11: +1 x1 +1 x19 = -10         \ x1 * x19 = 2.59374e+10
  eq12: +1 x18 = -5                \ x18 = 161051.0
  eq13: +1 x17 = -6                \ x17 = 1.77156e+06
  eq14: +1 x1 +1 x8 -1 x16 = -5    \ x1 * x8 * x16**-1 = 161051.0
  eq15: +1 x1 +1 x14 -1 x15 = -7   \ x1 * x14 * x15**-1 = 1.94872e+07
  eq16: +1 x13 = -7                \ x13 = 1.94872e+07
  eq17: +1 x1 +1 x8 -1 x12 = -5    \ x1 * x8 * x12**-1 = 161051.0
  eq18: +1 x1 +1 x8 -1 x11 = -5    \ x1 * x8 * x11**-1 = 161051.0
  eq19: +1 x1 +1 x8 -1 x10 = -6    \ x1 * x8 * x10**-1 = 1.77156e+06
  eq20: +1 x1 +1 x8 -1 x9 = -6     \ x1 * x8 * x9**-1 = 1.77156e+06
  eq21: +1 x7 = -6                 \ x7 = 1.77156e+06
  eq22: +1 x6 = -5                 \ x6 = 161051.0
  eq23: +1 x5 = -6                 \ x5 = 1.77156e+06
  eq24: +1 x4 = -4                 \ x4 = 14641.0
  eq25: +1 x1 +1 x3 = -10          \ x1 * x3 = 2.59374e+10
  eq26: +1 x1 -1 x2 = 1            \ x1 * x2**-1 = 0.0909091
END

\\\\\\\\\\\\\\\\\\\\\\\\\\\\\\\\\\\\\\\\ end

