
----------------------------------------------------------------------
This is SMTcut v4.6.4 by Christoph Lueders -- http://wrogn.com
Python 3.7.6 (default, Jan  8 2020, 19:59:22) 
[GCC 7.3.0] x86_64
pysmt 0.9.0, gmpy2 2.0.8
Datetime: 2020-06-23T20:11:59+02:00
Command line: BIOMD0000000599 --z3
Flags: no-ppone no-ppsmt no-pp2x2 dump justone solver=z3


Model: BIOMD0000000599
Logfile: db/BIOMD0000000599/ep11-z3-Linux-smtlog.txt
Loading polyhedra...  done.
Possible combinations: 10^16.1 in 33 bags
Bag sizes: 28 28 9 2 1 2 1 9 1 1 2 1 4 15 4 1 1 4 21 1 1 1 4 4 1 1 2 1 1 36 14 9 9

Minimizing (14,0)... (14,0)


Running SMT solver (1)... 0.031 sec
Found point (-5,-6,-5,-4,-6,-5,-6,-6,-5,-5,-6,-6,-7,-7,-5,-6,-6,-5,-5,-7,-5,-7,-6,-4,-4,-5,-5,-6,-5,-3)
Checking... Minimizing (28,76)... (28,8), 0.027 sec
Inserting... 

MAXIMIZE
Subject To
  eq0: -1 x1 -1 x8 +1 x27 = 6
  eq1: -1 x17 = 6
  eq2: -1 x12 +1 x16 = 0
  eq3: -1 x17 +1 x29 = 1
  eq4: +1 x25 -1 x26 = 1
  eq5: -1 x11 +1 x12 = 0
  eq6: -1 x27 = 5
  eq7: -1 x9 +1 x10 = 0
  eq8: -1 x2 -1 x14 +1 x23 = 7
  eq9: +1 x4 -1 x15 -1 x30 = 4
  eq10: -1 x23 = 6
  eq11: +1 x6 -1 x7 = 1
  eq12: +1 x3 -1 x14 -1 x30 = 5
  eq13: +1 x6 -1 x13 = 2
  eq14: +1 x24 -1 x27 = 1
  eq15: -1 x18 +1 x29 = 0
  eq16: +1 x4 -1 x21 = 1
  eq17: +1 x6 -1 x23 -1 x30 = 4
  eq18: -1 x11 +1 x18 = 1
  eq19: -1 x24 +1 x25 = 0
  eq20: -1 x5 +1 x21 = 1
  eq21: +1 x7 -1 x20 = 1
  eq22: -1 x22 +1 x23 = 1
  eq23: -1 x2 -1 x8 +1 x11 = 6
  eq24: -1 x2 +1 x18 -1 x19 = 6
  eq25: +1 x15 -1 x28 = 1
  eq26: -1 x9 +1 x27 = 0
  eq27: -1 x1 -1 x14 +1 x15 = 7
  ie0: +1 x7 >= -6
  ie1: -1 x3 +1 x8 >= -2
  ie2: +1 x19 >= -6
  ie3: +1 x8 >= -6
  ie4: -1 x2 +1 x30 >= 2
  ie5: -1 x3 +1 x27 >= -2
  ie6: +1 x1 >= -5
  ie7: -1 x6 +1 x11 >= -1
END

0.000 sec
[1 ph, smt 0.031, isect 0.027, ins 0.000, tot 0.138]

Running SMT solver (2)... 0.007 sec
Found point (-5,-6,-5,-4,-6,-5,-6,-6,-5,-5,-6,-6,-7,-25/4,-17/4,-6,-6,-5,-5,-7,-5,-25/4,-21/4,-4,-4,-5,-5,-21/4,-5,-15/4)
Checking... Minimizing (28,77)... (27,11), 0.023 sec
Inserting... 

MAXIMIZE
Subject To
  eq0: -1 x1 -1 x8 +1 x27 = 6
  eq1: -1 x17 = 6
  eq2: -1 x12 +1 x16 = 0
  eq3: -1 x17 +1 x29 = 1
  eq4: -1 x16 = 6
  eq5: +1 x25 -1 x26 = 1
  eq6: -1 x11 +1 x12 = 0
  eq7: -1 x27 = 5
  eq8: -1 x9 +1 x10 = 0
  eq9: -1 x2 -1 x14 +1 x23 = 7
  eq10: +1 x4 -1 x15 -1 x30 = 4
  eq11: +1 x6 -1 x7 = 1
  eq12: +1 x3 -1 x14 -1 x30 = 5
  eq13: +1 x6 -1 x13 = 2
  eq14: +1 x24 -1 x27 = 1
  eq15: -1 x18 +1 x29 = 0
  eq16: +1 x4 -1 x21 = 1
  eq17: +1 x6 -1 x23 -1 x30 = 4
  eq18: -1 x24 +1 x25 = 0
  eq19: -1 x5 +1 x21 = 1
  eq20: +1 x7 -1 x20 = 1
  eq21: -1 x22 +1 x23 = 1
  eq22: -1 x2 -1 x8 +1 x11 = 6
  eq23: -1 x2 +1 x18 -1 x19 = 6
  eq24: +1 x15 -1 x28 = 1
  eq25: -1 x9 +1 x27 = 0
  eq26: -1 x1 -1 x14 +1 x15 = 7
  ie0: +1 x7 >= -6
  ie1: +1 x23 >= -6
  ie2: -1 x3 +1 x8 >= -2
  ie3: +1 x19 >= -6
  ie4: -1 x2 -1 x14 +1 x18 >= 6
  ie5: +1 x8 >= -6
  ie6: -1 x2 +1 x30 >= 2
  ie7: -1 x3 +1 x27 >= -2
  ie8: +1 x1 >= -5
  ie9: -1 x6 +1 x11 >= -1
  ie10: -1 x2 +1 x11 -1 x14 >= 6
END

0.002 sec
[1 ph, smt 0.038, isect 0.050, ins 0.002, tot 0.185]

Running SMT solver (3)... 0.012 sec
Found point (-4,-5,-6,-4,-6,-5,-6,-6,-4,-4,-5,-5,-7,-7,-4,-5,-5,-4,-5,-7,-5,-6,-5,-3,-3,-4,-4,-5,-4,-4)
Checking... Minimizing (29,78)... (29,5), 0.021 sec
Inserting... 

MAXIMIZE
Subject To
  eq0: -1 x1 -1 x8 +1 x27 = 6
  eq1: -1 x12 +1 x16 = 0
  eq2: -1 x17 +1 x29 = 1
  eq3: +1 x25 -1 x26 = 1
  eq4: -1 x11 +1 x12 = 0
  eq5: -1 x8 +1 x11 = 1
  eq6: -1 x21 = 5
  eq7: -1 x9 +1 x10 = 0
  eq8: -1 x2 -1 x14 +1 x23 = 7
  eq9: +1 x4 -1 x15 -1 x30 = 4
  eq10: -1 x7 = 6
  eq11: +1 x6 -1 x7 = 1
  eq12: +1 x3 -1 x14 -1 x30 = 5
  eq13: +1 x6 -1 x13 = 2
  eq14: +1 x24 -1 x27 = 1
  eq15: -1 x18 +1 x29 = 0
  eq16: +1 x4 -1 x21 = 1
  eq17: +1 x6 -1 x23 -1 x30 = 4
  eq18: -1 x11 +1 x18 = 1
  eq19: +1 x8 -1 x19 -1 x30 = 3
  eq20: -1 x24 +1 x25 = 0
  eq21: -1 x5 +1 x21 = 1
  eq22: +1 x7 -1 x20 = 1
  eq23: -1 x22 +1 x23 = 1
  eq24: -1 x2 -1 x8 +1 x11 = 6
  eq25: -1 x8 = 6
  eq26: +1 x15 -1 x28 = 1
  eq27: -1 x9 +1 x27 = 0
  eq28: -1 x1 -1 x14 +1 x15 = 7
  ie0: +1 x30 >= -5
  ie1: +1 x19 >= -6
  ie2: +1 x30 >= -4
  ie3: +1 x1 +1 x19 -1 x24 >= -6
  ie4: -1 x2 -1 x14 +1 x18 >= 6
END

0.000 sec
[2 ph, smt 0.051, isect 0.071, ins 0.002, tot 0.232]

Running SMT solver (4)... 0.004 sec
Found point (-33/8,-41/8,-47/8,-4,-6,-5,-6,-6,-33/8,-33/8,-41/8,-41/8,-7,-55/8,-4,-41/8,-41/8,-33/8,-5,-7,-5,-6,-5,-25/8,-25/8,-33/8,-33/8,-5,-33/8,-4)
Checking... Minimizing (28,79)... (28,8), 0.024 sec
Inserting... 

MAXIMIZE
Subject To
  eq0: -1 x1 -1 x8 +1 x27 = 6
  eq1: -1 x12 +1 x16 = 0
  eq2: -1 x17 +1 x29 = 1
  eq3: +1 x25 -1 x26 = 1
  eq4: -1 x11 +1 x12 = 0
  eq5: -1 x21 = 5
  eq6: -1 x9 +1 x10 = 0
  eq7: -1 x2 -1 x14 +1 x23 = 7
  eq8: +1 x4 -1 x15 -1 x30 = 4
  eq9: -1 x7 = 6
  eq10: +1 x6 -1 x7 = 1
  eq11: +1 x3 -1 x14 -1 x30 = 5
  eq12: +1 x6 -1 x13 = 2
  eq13: +1 x24 -1 x27 = 1
  eq14: -1 x18 +1 x29 = 0
  eq15: +1 x4 -1 x21 = 1
  eq16: +1 x6 -1 x23 -1 x30 = 4
  eq17: -1 x11 +1 x18 = 1
  eq18: +1 x8 -1 x19 -1 x30 = 3
  eq19: -1 x24 +1 x25 = 0
  eq20: -1 x5 +1 x21 = 1
  eq21: +1 x7 -1 x20 = 1
  eq22: -1 x22 +1 x23 = 1
  eq23: -1 x2 -1 x8 +1 x11 = 6
  eq24: -1 x8 = 6
  eq25: +1 x15 -1 x28 = 1
  eq26: -1 x9 +1 x27 = 0
  eq27: -1 x1 -1 x14 +1 x15 = 7
  ie0: +1 x27 >= -5
  ie1: +1 x19 >= -6
  ie2: -1 x2 >= 5
  ie3: +1 x1 +1 x19 -1 x24 >= -6
  ie4: -1 x2 -1 x14 +1 x18 >= 6
  ie5: +1 x2 -1 x3 +1 x14 >= -7
  ie6: +1 x30 >= -5
  ie7: +1 x30 >= -4
END

0.002 sec
[2 ph, smt 0.055, isect 0.094, ins 0.004, tot 0.276]

Running SMT solver (5)... 0.003 sec
Found point (-31/8,-39/8,-49/8,-4,-6,-5,-6,-6,-31/8,-31/8,-39/8,-39/8,-7,-57/8,-4,-39/8,-39/8,-31/8,-5,-7,-5,-6,-5,-23/8,-23/8,-31/8,-31/8,-5,-31/8,-4)
Checking... Minimizing (28,78)... (28,8), 0.023 sec
Inserting... 

MAXIMIZE
Subject To
  eq0: -1 x1 -1 x8 +1 x27 = 6
  eq1: -1 x12 +1 x16 = 0
  eq2: -1 x17 +1 x29 = 1
  eq3: +1 x25 -1 x26 = 1
  eq4: -1 x11 +1 x12 = 0
  eq5: -1 x21 = 5
  eq6: -1 x9 +1 x10 = 0
  eq7: -1 x2 -1 x14 +1 x23 = 7
  eq8: +1 x4 -1 x15 -1 x30 = 4
  eq9: -1 x7 = 6
  eq10: +1 x6 -1 x7 = 1
  eq11: +1 x3 -1 x14 -1 x30 = 5
  eq12: +1 x6 -1 x13 = 2
  eq13: +1 x24 -1 x27 = 1
  eq14: -1 x18 +1 x29 = 0
  eq15: +1 x4 -1 x21 = 1
  eq16: +1 x6 -1 x23 -1 x30 = 4
  eq17: -1 x11 +1 x18 = 1
  eq18: +1 x8 -1 x19 -1 x30 = 3
  eq19: -1 x24 +1 x25 = 0
  eq20: -1 x5 +1 x21 = 1
  eq21: +1 x7 -1 x20 = 1
  eq22: -1 x22 +1 x23 = 1
  eq23: -1 x2 -1 x8 +1 x11 = 6
  eq24: -1 x8 = 6
  eq25: +1 x15 -1 x28 = 1
  eq26: -1 x9 +1 x27 = 0
  eq27: -1 x1 -1 x14 +1 x15 = 7
  ie0: +1 x27 >= -5
  ie1: +1 x19 >= -6
  ie2: +1 x2 >= -5
  ie3: +1 x1 +1 x19 -1 x24 >= -6
  ie4: -1 x2 -1 x14 +1 x18 >= 6
  ie5: +1 x2 -1 x3 +1 x14 >= -7
  ie6: +1 x30 >= -5
  ie7: +1 x30 >= -4
END

0.000 sec
[3 ph, smt 0.058, isect 0.118, ins 0.004, tot 0.317]

Running SMT solver (6)... 0.009 sec
Found point (-31/8,-39/8,-49/8,-4,-6,-5,-6,-6,-31/8,-31/8,-39/8,-39/8,-7,-65/8,-5,-39/8,-47/8,-39/8,-6,-7,-5,-7,-6,-31/8,-31/8,-39/8,-31/8,-6,-39/8,-3)
Checking... Minimizing (28,78)... (28,10), 0.027 sec
Inserting... 

MAXIMIZE
Subject To
  eq0: -1 x1 -1 x8 +1 x27 = 6
  eq1: -1 x12 +1 x16 = 0
  eq2: -1 x17 +1 x29 = 1
  eq3: +1 x25 -1 x26 = 1
  eq4: -1 x11 +1 x12 = 0
  eq5: -1 x21 = 5
  eq6: -1 x9 +1 x10 = 0
  eq7: -1 x2 -1 x14 +1 x23 = 7
  eq8: +1 x4 -1 x15 -1 x30 = 4
  eq9: -1 x23 = 6
  eq10: -1 x1 -1 x19 +1 x24 = 6
  eq11: +1 x6 -1 x7 = 1
  eq12: +1 x3 -1 x14 -1 x30 = 5
  eq13: +1 x6 -1 x13 = 2
  eq14: -1 x18 +1 x29 = 0
  eq15: -1 x19 = 6
  eq16: +1 x4 -1 x21 = 1
  eq17: +1 x6 -1 x23 -1 x30 = 4
  eq18: +1 x8 -1 x19 -1 x30 = 3
  eq19: -1 x24 +1 x25 = 0
  eq20: -1 x5 +1 x21 = 1
  eq21: +1 x7 -1 x20 = 1
  eq22: -1 x22 +1 x23 = 1
  eq23: -1 x2 -1 x8 +1 x11 = 6
  eq24: -1 x2 +1 x18 -1 x19 = 6
  eq25: +1 x15 -1 x28 = 1
  eq26: -1 x9 +1 x27 = 0
  eq27: -1 x1 -1 x14 +1 x15 = 7
  ie0: +1 x4 -1 x6 >= 0
  ie1: +1 x27 >= -5
  ie2: +1 x16 >= -6
  ie3: +1 x25 >= -6
  ie4: +1 x17 >= -6
  ie5: +1 x15 >= -5
  ie6: +1 x8 >= -6
  ie7: -1 x3 +1 x15 >= 0
  ie8: +1 x2 -1 x3 +1 x14 >= -7
  ie9: +1 x1 >= -5
END

0.000 sec
[4 ph, smt 0.067, isect 0.145, ins 0.004, tot 0.368]

Running SMT solver (7)... 0.003 sec
Found point (-4,-5,-6,-4,-6,-5,-6,-6,-4,-4,-5,-5,-7,-31/4,-19/4,-5,-23/4,-19/4,-23/4,-7,-5,-27/4,-23/4,-15/4,-15/4,-19/4,-4,-23/4,-19/4,-13/4)
Checking... Minimizing (29,78)... (29,4), 0.020 sec
Inserting... 

MAXIMIZE
Subject To
  eq0: -1 x1 -1 x8 +1 x27 = 6
  eq1: -1 x12 +1 x16 = 0
  eq2: -1 x17 +1 x29 = 1
  eq3: +1 x25 -1 x26 = 1
  eq4: -1 x11 +1 x12 = 0
  eq5: -1 x8 +1 x11 = 1
  eq6: -1 x21 = 5
  eq7: -1 x9 +1 x10 = 0
  eq8: -1 x2 -1 x14 +1 x23 = 7
  eq9: +1 x4 -1 x15 -1 x30 = 4
  eq10: -1 x1 -1 x19 +1 x24 = 6
  eq11: -1 x7 = 6
  eq12: +1 x6 -1 x7 = 1
  eq13: +1 x3 -1 x14 -1 x30 = 5
  eq14: +1 x6 -1 x13 = 2
  eq15: -1 x8 = 6
  eq16: -1 x18 +1 x29 = 0
  eq17: +1 x4 -1 x21 = 1
  eq18: +1 x6 -1 x23 -1 x30 = 4
  eq19: +1 x8 -1 x19 -1 x30 = 3
  eq20: -1 x24 +1 x25 = 0
  eq21: -1 x5 +1 x21 = 1
  eq22: +1 x7 -1 x20 = 1
  eq23: -1 x22 +1 x23 = 1
  eq24: -1 x2 -1 x8 +1 x11 = 6
  eq25: -1 x2 +1 x18 -1 x19 = 6
  eq26: +1 x15 -1 x28 = 1
  eq27: -1 x9 +1 x27 = 0
  eq28: -1 x1 -1 x14 +1 x15 = 7
  ie0: +1 x29 >= -6
  ie1: +1 x19 >= -6
  ie2: +1 x30 >= -4
  ie3: +1 x30 >= -5
END

0.000 sec
[5 ph, smt 0.070, isect 0.164, ins 0.005, tot 0.406]

Running SMT solver (8)... 0.004 sec
Found point (-25/6,-31/6,-35/6,-4,-6,-5,-6,-6,-25/6,-25/6,-31/6,-31/6,-7,-15/2,-14/3,-31/6,-35/6,-29/6,-17/3,-7,-5,-20/3,-17/3,-23/6,-23/6,-29/6,-25/6,-17/3,-29/6,-10/3)
Checking... Minimizing (28,79)... (28,7), 0.023 sec
Inserting... 

MAXIMIZE
Subject To
  eq0: -1 x1 -1 x8 +1 x27 = 6
  eq1: -1 x12 +1 x16 = 0
  eq2: -1 x17 +1 x29 = 1
  eq3: +1 x25 -1 x26 = 1
  eq4: -1 x11 +1 x12 = 0
  eq5: -1 x21 = 5
  eq6: -1 x9 +1 x10 = 0
  eq7: -1 x2 -1 x14 +1 x23 = 7
  eq8: +1 x4 -1 x15 -1 x30 = 4
  eq9: -1 x1 -1 x19 +1 x24 = 6
  eq10: -1 x7 = 6
  eq11: +1 x6 -1 x7 = 1
  eq12: +1 x3 -1 x14 -1 x30 = 5
  eq13: +1 x6 -1 x13 = 2
  eq14: -1 x8 = 6
  eq15: -1 x18 +1 x29 = 0
  eq16: +1 x4 -1 x21 = 1
  eq17: +1 x6 -1 x23 -1 x30 = 4
  eq18: +1 x8 -1 x19 -1 x30 = 3
  eq19: -1 x24 +1 x25 = 0
  eq20: -1 x5 +1 x21 = 1
  eq21: +1 x7 -1 x20 = 1
  eq22: -1 x22 +1 x23 = 1
  eq23: -1 x2 -1 x8 +1 x11 = 6
  eq24: -1 x2 +1 x18 -1 x19 = 6
  eq25: +1 x15 -1 x28 = 1
  eq26: -1 x9 +1 x27 = 0
  eq27: -1 x1 -1 x14 +1 x15 = 7
  ie0: +1 x17 >= -6
  ie1: +1 x27 >= -5
  ie2: +1 x30 >= -5
  ie3: +1 x29 >= -6
  ie4: +1 x19 >= -6
  ie5: -1 x2 >= 5
  ie6: +1 x30 >= -4
END

0.004 sec
[4 ph, smt 0.074, isect 0.187, ins 0.008, tot 0.451]

Running SMT solver (9)... 0.003 sec
Found point (-31/8,-39/8,-49/8,-4,-6,-5,-6,-6,-31/8,-31/8,-39/8,-39/8,-7,-8,-39/8,-39/8,-23/4,-19/4,-47/8,-7,-5,-55/8,-47/8,-15/4,-15/4,-19/4,-31/8,-47/8,-19/4,-25/8)
Checking... Minimizing (28,78)... (28,7), 0.023 sec
Inserting... 

MAXIMIZE
Subject To
  eq0: -1 x1 -1 x8 +1 x27 = 6
  eq1: -1 x12 +1 x16 = 0
  eq2: -1 x17 +1 x29 = 1
  eq3: +1 x25 -1 x26 = 1
  eq4: -1 x11 +1 x12 = 0
  eq5: -1 x21 = 5
  eq6: -1 x9 +1 x10 = 0
  eq7: -1 x2 -1 x14 +1 x23 = 7
  eq8: +1 x4 -1 x15 -1 x30 = 4
  eq9: -1 x1 -1 x19 +1 x24 = 6
  eq10: -1 x7 = 6
  eq11: +1 x6 -1 x7 = 1
  eq12: +1 x3 -1 x14 -1 x30 = 5
  eq13: +1 x6 -1 x13 = 2
  eq14: -1 x8 = 6
  eq15: -1 x18 +1 x29 = 0
  eq16: +1 x4 -1 x21 = 1
  eq17: +1 x6 -1 x23 -1 x30 = 4
  eq18: +1 x8 -1 x19 -1 x30 = 3
  eq19: -1 x24 +1 x25 = 0
  eq20: -1 x5 +1 x21 = 1
  eq21: +1 x7 -1 x20 = 1
  eq22: -1 x22 +1 x23 = 1
  eq23: -1 x2 -1 x8 +1 x11 = 6
  eq24: -1 x2 +1 x18 -1 x19 = 6
  eq25: +1 x15 -1 x28 = 1
  eq26: -1 x9 +1 x27 = 0
  eq27: -1 x1 -1 x14 +1 x15 = 7
  ie0: +1 x17 >= -6
  ie1: +1 x27 >= -5
  ie2: +1 x30 >= -5
  ie3: +1 x29 >= -6
  ie4: +1 x19 >= -6
  ie5: +1 x2 >= -5
  ie6: +1 x30 >= -4
END

0.004 sec
[3 ph, smt 0.077, isect 0.211, ins 0.012, tot 0.498]

Running SMT solver (10)... 0.006 sec
Found point (-29/6,-35/6,-31/6,-4,-6,-5,-6,-31/6,-4,-4,-5,-5,-7,-19/3,-25/6,-5,-6,-5,-31/6,-7,-5,-37/6,-31/6,-4,-4,-5,-4,-31/6,-5,-23/6)
Checking... Minimizing (29,79)... (28,7), 0.023 sec
Inserting... 

MAXIMIZE
Subject To
  eq0: -1 x1 -1 x8 +1 x27 = 6
  eq1: -1 x17 = 6
  eq2: -1 x12 +1 x16 = 0
  eq3: -1 x17 +1 x29 = 1
  eq4: +1 x25 -1 x26 = 1
  eq5: -1 x11 +1 x12 = 0
  eq6: -1 x21 = 5
  eq7: -1 x9 +1 x10 = 0
  eq8: -1 x2 -1 x14 +1 x23 = 7
  eq9: +1 x4 -1 x15 -1 x30 = 4
  eq10: -1 x14 +1 x23 -1 x30 = 5
  eq11: -1 x1 -1 x19 +1 x24 = 6
  eq12: -1 x7 = 6
  eq13: +1 x6 -1 x7 = 1
  eq14: +1 x3 -1 x14 -1 x30 = 5
  eq15: +1 x6 -1 x13 = 2
  eq16: -1 x18 +1 x29 = 0
  eq17: +1 x4 -1 x21 = 1
  eq18: +1 x6 -1 x23 -1 x30 = 4
  eq19: +1 x18 -1 x19 -1 x30 = 4
  eq20: -1 x24 +1 x25 = 0
  eq21: -1 x5 +1 x21 = 1
  eq22: +1 x7 -1 x20 = 1
  eq23: -1 x22 +1 x23 = 1
  eq24: -1 x2 -1 x8 +1 x11 = 6
  eq25: +1 x15 -1 x28 = 1
  eq26: -1 x9 +1 x27 = 0
  eq27: -1 x1 -1 x14 +1 x15 = 7
  ie0: +1 x27 >= -5
  ie1: -1 x2 -1 x8 +1 x19 +1 x30 >= 2
  ie2: +1 x1 >= -5
  ie3: +1 x19 >= -6
  ie4: -1 x2 -1 x8 +1 x18 +1 x30 >= 2
  ie5: -1 x2 -1 x14 +1 x18 >= 6
  ie6: +1 x8 >= -6
END

0.000 sec
[4 ph, smt 0.083, isect 0.234, ins 0.012, tot 0.542]

Running SMT solver (11)... 0.004 sec
Found point (-29/6,-35/6,-31/6,-4,-6,-5,-6,-5,-23/6,-23/6,-29/6,-29/6,-7,-13/2,-13/3,-29/6,-6,-5,-31/6,-7,-5,-19/3,-16/3,-4,-4,-5,-23/6,-16/3,-5,-11/3)
Checking... Minimizing (27,76)... (27,9), 0.022 sec
Inserting... 

MAXIMIZE
Subject To
  eq0: -1 x1 -1 x8 +1 x27 = 6
  eq1: -1 x17 = 6
  eq2: -1 x12 +1 x16 = 0
  eq3: -1 x17 +1 x29 = 1
  eq4: +1 x25 -1 x26 = 1
  eq5: -1 x11 +1 x12 = 0
  eq6: -1 x21 = 5
  eq7: -1 x9 +1 x10 = 0
  eq8: -1 x2 -1 x14 +1 x23 = 7
  eq9: +1 x4 -1 x15 -1 x30 = 4
  eq10: -1 x1 -1 x19 +1 x24 = 6
  eq11: -1 x7 = 6
  eq12: +1 x6 -1 x7 = 1
  eq13: +1 x3 -1 x14 -1 x30 = 5
  eq14: +1 x6 -1 x13 = 2
  eq15: -1 x18 +1 x29 = 0
  eq16: +1 x4 -1 x21 = 1
  eq17: +1 x6 -1 x23 -1 x30 = 4
  eq18: -1 x24 +1 x25 = 0
  eq19: -1 x5 +1 x21 = 1
  eq20: +1 x7 -1 x20 = 1
  eq21: -1 x22 +1 x23 = 1
  eq22: -1 x2 -1 x8 +1 x11 = 6
  eq23: -1 x2 +1 x18 -1 x19 = 6
  eq24: +1 x15 -1 x28 = 1
  eq25: -1 x9 +1 x27 = 0
  eq26: -1 x1 -1 x14 +1 x15 = 7
  ie0: +1 x23 >= -6
  ie1: +1 x27 >= -5
  ie2: -1 x2 -1 x8 +1 x19 +1 x30 >= 2
  ie3: +1 x19 >= -6
  ie4: -1 x2 -1 x14 +1 x18 >= 6
  ie5: +1 x8 >= -6
  ie6: -1 x2 +1 x30 >= 2
  ie7: +1 x1 >= -5
  ie8: -1 x2 -1 x8 +1 x18 +1 x30 >= 2
END

0.004 sec
[3 ph, smt 0.087, isect 0.256, ins 0.016, tot 0.587]

Running SMT solver (12)... 0.006 sec
Found point (-4,-5,-6,-4,-6,-5,-6,-6,-4,-4,-5,-5,-7,-25/4,-13/4,-5,-17/4,-13/4,-17/4,-7,-5,-21/4,-17/4,-9/4,-9/4,-13/4,-4,-17/4,-13/4,-19/4)
Checking... Minimizing (29,79)... (29,4), 0.022 sec
Inserting... 

MAXIMIZE
Subject To
  eq0: -1 x1 -1 x8 +1 x27 = 6
  eq1: +1 x11 -1 x18 -1 x30 = 3
  eq2: -1 x12 +1 x16 = 0
  eq3: -1 x17 +1 x29 = 1
  eq4: +1 x25 -1 x26 = 1
  eq5: -1 x11 +1 x12 = 0
  eq6: -1 x8 +1 x11 = 1
  eq7: -1 x21 = 5
  eq8: -1 x9 +1 x10 = 0
  eq9: -1 x2 -1 x14 +1 x23 = 7
  eq10: +1 x4 -1 x15 -1 x30 = 4
  eq11: -1 x7 = 6
  eq12: +1 x6 -1 x7 = 1
  eq13: +1 x3 -1 x14 -1 x30 = 5
  eq14: +1 x6 -1 x13 = 2
  eq15: -1 x24 +1 x27 -1 x30 = 3
  eq16: -1 x18 +1 x29 = 0
  eq17: +1 x4 -1 x21 = 1
  eq18: +1 x6 -1 x23 -1 x30 = 4
  eq19: +1 x8 -1 x19 -1 x30 = 3
  eq20: -1 x24 +1 x25 = 0
  eq21: -1 x5 +1 x21 = 1
  eq22: +1 x7 -1 x20 = 1
  eq23: -1 x22 +1 x23 = 1
  eq24: -1 x2 -1 x8 +1 x11 = 6
  eq25: -1 x8 = 6
  eq26: +1 x15 -1 x28 = 1
  eq27: -1 x9 +1 x27 = 0
  eq28: -1 x1 -1 x14 +1 x15 = 7
  ie0: +1 x29 >= -6
  ie1: +1 x19 >= -6
  ie2: -1 x11 +1 x18 >= 1
  ie3: +1 x30 >= -5
END

0.000 sec
[4 ph, smt 0.093, isect 0.278, ins 0.016, tot 0.629]

Running SMT solver (13)... 0.004 sec
Found point (-49/12,-61/12,-71/12,-4,-6,-5,-6,-6,-49/12,-49/12,-61/12,-61/12,-7,-73/12,-19/6,-61/12,-17/4,-13/4,-25/6,-7,-5,-31/6,-25/6,-9/4,-9/4,-13/4,-49/12,-25/6,-13/4,-29/6)
Checking... Minimizing (28,80)... (28,8), 0.024 sec
Inserting... 

MAXIMIZE
Subject To
  eq0: -1 x1 -1 x8 +1 x27 = 6
  eq1: +1 x11 -1 x18 -1 x30 = 3
  eq2: -1 x12 +1 x16 = 0
  eq3: -1 x17 +1 x29 = 1
  eq4: +1 x25 -1 x26 = 1
  eq5: -1 x11 +1 x12 = 0
  eq6: -1 x21 = 5
  eq7: -1 x9 +1 x10 = 0
  eq8: -1 x2 -1 x14 +1 x23 = 7
  eq9: +1 x4 -1 x15 -1 x30 = 4
  eq10: -1 x7 = 6
  eq11: +1 x6 -1 x7 = 1
  eq12: +1 x3 -1 x14 -1 x30 = 5
  eq13: +1 x6 -1 x13 = 2
  eq14: -1 x24 +1 x27 -1 x30 = 3
  eq15: -1 x18 +1 x29 = 0
  eq16: +1 x4 -1 x21 = 1
  eq17: +1 x6 -1 x23 -1 x30 = 4
  eq18: +1 x8 -1 x19 -1 x30 = 3
  eq19: -1 x24 +1 x25 = 0
  eq20: -1 x5 +1 x21 = 1
  eq21: +1 x7 -1 x20 = 1
  eq22: -1 x22 +1 x23 = 1
  eq23: -1 x2 -1 x8 +1 x11 = 6
  eq24: -1 x8 = 6
  eq25: +1 x15 -1 x28 = 1
  eq26: -1 x9 +1 x27 = 0
  eq27: -1 x1 -1 x14 +1 x15 = 7
  ie0: +1 x27 >= -5
  ie1: +1 x29 >= -6
  ie2: +1 x17 >= -6
  ie3: +1 x19 >= -6
  ie4: -1 x2 >= 5
  ie5: +1 x30 >= -5
  ie6: -1 x11 +1 x18 >= 1
  ie7: -1 x2 +1 x11 -1 x14 >= 6
END

0.003 sec
[4 ph, smt 0.097, isect 0.302, ins 0.019, tot 0.674]

Running SMT solver (14)... 0.004 sec
Found point (-25/6,-31/6,-35/6,-4,-6,-5,-6,-6,-25/6,-25/6,-31/6,-31/6,-7,-71/12,-37/12,-31/6,-17/4,-13/4,-49/12,-7,-5,-61/12,-49/12,-9/4,-9/4,-13/4,-25/6,-49/12,-13/4,-59/12)
Checking... Minimizing (28,83)... (28,5), 0.026 sec
Inserting... 

MAXIMIZE
Subject To
  eq0: -1 x1 -1 x8 +1 x27 = 6
  eq1: +1 x11 -1 x18 -1 x30 = 3
  eq2: -1 x12 +1 x16 = 0
  eq3: -1 x17 +1 x29 = 1
  eq4: +1 x25 -1 x26 = 1
  eq5: -1 x11 +1 x12 = 0
  eq6: -1 x21 = 5
  eq7: -1 x9 +1 x10 = 0
  eq8: -1 x2 -1 x14 +1 x23 = 7
  eq9: +1 x4 -1 x15 -1 x30 = 4
  eq10: -1 x7 = 6
  eq11: +1 x6 -1 x7 = 1
  eq12: +1 x3 -1 x14 -1 x30 = 5
  eq13: +1 x6 -1 x13 = 2
  eq14: -1 x24 +1 x27 -1 x30 = 3
  eq15: -1 x18 +1 x29 = 0
  eq16: +1 x4 -1 x21 = 1
  eq17: +1 x6 -1 x23 -1 x30 = 4
  eq18: +1 x8 -1 x19 -1 x30 = 3
  eq19: -1 x24 +1 x25 = 0
  eq20: -1 x5 +1 x21 = 1
  eq21: +1 x7 -1 x20 = 1
  eq22: -1 x22 +1 x23 = 1
  eq23: -1 x2 -1 x8 +1 x11 = 6
  eq24: -1 x8 = 6
  eq25: +1 x15 -1 x28 = 1
  eq26: -1 x9 +1 x27 = 0
  eq27: -1 x1 -1 x14 +1 x15 = 7
  ie0: +1 x27 >= -5
  ie1: +1 x30 >= -5
  ie2: +1 x29 >= -6
  ie3: +1 x19 >= -6
  ie4: -1 x2 -1 x8 +1 x23 >= 7
END

0.001 sec
[5 ph, smt 0.101, isect 0.328, ins 0.019, tot 0.719]

Running SMT solver (15)... 0.003 sec
Found point (-4,-5,-6,-4,-6,-5,-6,-6,-4,-4,-5,-5,-7,-23/4,-11/4,-5,-15/4,-11/4,-15/4,-7,-5,-19/4,-15/4,-7/4,-7/4,-11/4,-4,-15/4,-11/4,-21/4)
Checking... Minimizing (27,83)... (27,10), 0.027 sec
Inserting... 

MAXIMIZE
Subject To
  eq0: -1 x1 -1 x8 +1 x27 = 6
  eq1: +1 x11 -1 x18 -1 x30 = 3
  eq2: -1 x12 +1 x16 = 0
  eq3: -1 x17 +1 x29 = 1
  eq4: +1 x25 -1 x26 = 1
  eq5: -1 x11 +1 x12 = 0
  eq6: -1 x8 +1 x11 = 1
  eq7: -1 x21 = 5
  eq8: -1 x9 +1 x10 = 0
  eq9: -1 x7 = 6
  eq10: +1 x4 -1 x15 -1 x30 = 4
  eq11: +1 x6 -1 x7 = 1
  eq12: +1 x3 -1 x14 -1 x30 = 5
  eq13: +1 x6 -1 x13 = 2
  eq14: -1 x24 +1 x27 -1 x30 = 3
  eq15: -1 x18 +1 x29 = 0
  eq16: +1 x4 -1 x21 = 1
  eq17: +1 x6 -1 x23 -1 x30 = 4
  eq18: +1 x8 -1 x19 -1 x30 = 3
  eq19: -1 x24 +1 x25 = 0
  eq20: -1 x5 +1 x21 = 1
  eq21: +1 x7 -1 x20 = 1
  eq22: -1 x22 +1 x23 = 1
  eq23: -1 x2 -1 x8 +1 x11 = 6
  eq24: -1 x8 = 6
  eq25: +1 x15 -1 x28 = 1
  eq26: -1 x9 +1 x27 = 0
  ie0: +1 x27 >= -5
  ie1: -1 x3 +1 x8 >= -2
  ie2: +1 x1 +1 x3 -1 x4 >= -6
  ie3: +1 x29 >= -6
  ie4: +1 x1 -1 x4 +1 x14 >= -6
  ie5: +1 x19 >= -6
  ie6: +1 x3 -1 x8 >= 0
  ie7: -1 x14 +1 x18 >= 0
  ie8: -1 x2 -1 x8 +1 x23 >= 7
  ie9: -1 x1 +1 x4 -1 x8 >= 6
END

0.000 sec
[6 ph, smt 0.104, isect 0.355, ins 0.019, tot 0.765]

Running SMT solver (16)... 0.003 sec
Found point (-25/6,-31/6,-35/6,-4,-6,-5,-6,-6,-25/6,-25/6,-31/6,-31/6,-7,-17/3,-17/6,-31/6,-4,-3,-23/6,-7,-5,-29/6,-23/6,-2,-2,-3,-25/6,-23/6,-3,-31/6)
Checking... Minimizing (26,84)... (26,17), 0.029 sec
Inserting... 

MAXIMIZE
Subject To
  eq0: -1 x1 -1 x8 +1 x27 = 6
  eq1: +1 x11 -1 x18 -1 x30 = 3
  eq2: -1 x12 +1 x16 = 0
  eq3: -1 x17 +1 x29 = 1
  eq4: +1 x25 -1 x26 = 1
  eq5: -1 x11 +1 x12 = 0
  eq6: -1 x21 = 5
  eq7: -1 x9 +1 x10 = 0
  eq8: -1 x7 = 6
  eq9: +1 x4 -1 x15 -1 x30 = 4
  eq10: +1 x6 -1 x7 = 1
  eq11: +1 x3 -1 x14 -1 x30 = 5
  eq12: +1 x6 -1 x13 = 2
  eq13: -1 x24 +1 x27 -1 x30 = 3
  eq14: -1 x18 +1 x29 = 0
  eq15: +1 x4 -1 x21 = 1
  eq16: +1 x6 -1 x23 -1 x30 = 4
  eq17: +1 x8 -1 x19 -1 x30 = 3
  eq18: -1 x24 +1 x25 = 0
  eq19: -1 x5 +1 x21 = 1
  eq20: +1 x7 -1 x20 = 1
  eq21: -1 x22 +1 x23 = 1
  eq22: -1 x2 -1 x8 +1 x11 = 6
  eq23: -1 x8 = 6
  eq24: +1 x15 -1 x28 = 1
  eq25: -1 x9 +1 x27 = 0
  ie0: +1 x27 >= -5
  ie1: -1 x3 +1 x8 >= -2
  ie2: +1 x2 +1 x3 -1 x6 >= -6
  ie3: +1 x16 >= -6
  ie4: +1 x1 +1 x3 -1 x4 >= -6
  ie5: +1 x29 >= -6
  ie6: +1 x25 >= -6
  ie7: +1 x19 >= -6
  ie8: +1 x1 -1 x4 +1 x14 >= -6
  ie9: -1 x2 -1 x8 +1 x23 >= 7
  ie10: -1 x6 +1 x23 >= 1
  ie11: -1 x2 -1 x8 +1 x27 >= 6
  ie12: +1 x3 -1 x8 >= 0
  ie13: -1 x14 +1 x18 >= 0
  ie14: -1 x1 +1 x4 -1 x8 >= 6
  ie15: -1 x2 +1 x6 -1 x8 >= 6
  ie16: -1 x1 -1 x8 +1 x15 >= 7
END

0.003 sec
[6 ph, smt 0.107, isect 0.383, ins 0.022, tot 0.814]

Running SMT solver (17)... 0.004 sec
Found point (-31/8,-39/8,-49/8,-4,-6,-5,-6,-6,-31/8,-31/8,-39/8,-39/8,-7,-6,-23/8,-39/8,-15/4,-11/4,-31/8,-7,-5,-39/8,-31/8,-7/4,-7/4,-11/4,-31/8,-31/8,-11/4,-41/8)
Checking... Minimizing (28,83)... (28,6), 0.025 sec
Inserting... 

MAXIMIZE
Subject To
  eq0: -1 x1 -1 x3 +1 x4 = 6
  eq1: +1 x11 -1 x18 -1 x30 = 3
  eq2: -1 x1 -1 x8 +1 x27 = 6
  eq3: -1 x12 +1 x16 = 0
  eq4: -1 x17 +1 x29 = 1
  eq5: +1 x25 -1 x26 = 1
  eq6: -1 x11 +1 x12 = 0
  eq7: -1 x21 = 5
  eq8: -1 x9 +1 x10 = 0
  eq9: -1 x7 = 6
  eq10: +1 x4 -1 x15 -1 x30 = 4
  eq11: +1 x6 -1 x7 = 1
  eq12: +1 x3 -1 x14 -1 x30 = 5
  eq13: +1 x6 -1 x13 = 2
  eq14: -1 x24 +1 x27 -1 x30 = 3
  eq15: -1 x18 +1 x29 = 0
  eq16: +1 x4 -1 x21 = 1
  eq17: +1 x6 -1 x23 -1 x30 = 4
  eq18: +1 x8 -1 x19 -1 x30 = 3
  eq19: -1 x24 +1 x25 = 0
  eq20: -1 x2 -1 x3 +1 x6 = 6
  eq21: -1 x5 +1 x21 = 1
  eq22: +1 x7 -1 x20 = 1
  eq23: -1 x22 +1 x23 = 1
  eq24: -1 x2 -1 x8 +1 x11 = 6
  eq25: -1 x8 = 6
  eq26: +1 x15 -1 x28 = 1
  eq27: -1 x9 +1 x27 = 0
  ie0: +1 x27 >= -5
  ie1: +1 x29 >= -6
  ie2: -1 x1 -1 x3 +1 x27 >= 6
  ie3: +1 x19 >= -6
  ie4: -1 x3 +1 x19 >= 0
  ie5: -1 x2 -1 x3 +1 x23 >= 7
END

0.001 sec
[7 ph, smt 0.110, isect 0.408, ins 0.023, tot 0.859]

Running SMT solver (18)... 0.003 sec
Found point (-31/8,-39/8,-49/8,-4,-6,-5,-6,-6,-31/8,-31/8,-39/8,-39/8,-7,-25/4,-25/8,-39/8,-4,-3,-33/8,-7,-5,-41/8,-33/8,-2,-2,-3,-31/8,-33/8,-3,-39/8)
Checking... Minimizing (28,79)... (28,8), 0.024 sec
Inserting... 

MAXIMIZE
Subject To
  eq0: -1 x1 -1 x8 +1 x27 = 6
  eq1: +1 x11 -1 x18 -1 x30 = 3
  eq2: -1 x12 +1 x16 = 0
  eq3: -1 x17 +1 x29 = 1
  eq4: +1 x25 -1 x26 = 1
  eq5: -1 x11 +1 x12 = 0
  eq6: -1 x21 = 5
  eq7: -1 x9 +1 x10 = 0
  eq8: -1 x2 -1 x14 +1 x23 = 7
  eq9: +1 x4 -1 x15 -1 x30 = 4
  eq10: -1 x7 = 6
  eq11: +1 x6 -1 x7 = 1
  eq12: +1 x3 -1 x14 -1 x30 = 5
  eq13: +1 x6 -1 x13 = 2
  eq14: -1 x24 +1 x27 -1 x30 = 3
  eq15: -1 x18 +1 x29 = 0
  eq16: +1 x4 -1 x21 = 1
  eq17: +1 x6 -1 x23 -1 x30 = 4
  eq18: +1 x8 -1 x19 -1 x30 = 3
  eq19: -1 x24 +1 x25 = 0
  eq20: -1 x5 +1 x21 = 1
  eq21: +1 x7 -1 x20 = 1
  eq22: -1 x22 +1 x23 = 1
  eq23: -1 x2 -1 x8 +1 x11 = 6
  eq24: -1 x8 = 6
  eq25: +1 x15 -1 x28 = 1
  eq26: -1 x9 +1 x27 = 0
  eq27: -1 x1 -1 x14 +1 x15 = 7
  ie0: +1 x27 >= -5
  ie1: +1 x29 >= -6
  ie2: +1 x17 >= -6
  ie3: +1 x19 >= -6
  ie4: +1 x2 >= -5
  ie5: +1 x30 >= -5
  ie6: -1 x11 +1 x18 >= 1
  ie7: -1 x2 +1 x11 -1 x14 >= 6
END

0.001 sec
[8 ph, smt 0.114, isect 0.433, ins 0.025, tot 0.902]

Running SMT solver (19)... 0.009 sec
Found point (-5,-6,-3,-4,-6,-4,-5,-6,-5,-5,-6,-6,-7,-3,-3,-6,-5,-4,-4,-6,-5,-4,-3,-3,-3,-4,-5,-4,-4,-5)
Checking... Minimizing (29,83)... (27,8), 0.024 sec
Inserting... 

MAXIMIZE
Subject To
  eq0: -1 x1 -1 x8 +1 x27 = 6
  eq1: +1 x11 -1 x18 -1 x30 = 3
  eq2: -1 x12 +1 x16 = 0
  eq3: -1 x17 +1 x29 = 1
  eq4: -1 x16 = 6
  eq5: +1 x25 -1 x26 = 1
  eq6: -1 x11 +1 x12 = 0
  eq7: -1 x27 = 5
  eq8: -1 x9 +1 x10 = 0
  eq9: +1 x4 -1 x15 -1 x30 = 4
  eq10: -1 x14 +1 x23 -1 x30 = 5
  eq11: +1 x6 -1 x7 = 1
  eq12: -1 x24 +1 x27 -1 x30 = 3
  eq13: -1 x6 +1 x23 = 1
  eq14: +1 x11 -1 x19 -1 x30 = 3
  eq15: -1 x18 +1 x29 = 0
  eq16: +1 x4 -1 x21 = 1
  eq17: +1 x6 -1 x23 -1 x30 = 4
  eq18: -1 x24 +1 x25 = 0
  eq19: +1 x3 -1 x6 = 1
  eq20: -1 x5 +1 x21 = 1
  eq21: +1 x7 -1 x20 = 1
  eq22: +1 x11 -1 x13 = 1
  eq23: -1 x22 +1 x23 = 1
  eq24: -1 x2 -1 x8 +1 x11 = 6
  eq25: +1 x15 -1 x28 = 1
  eq26: -1 x9 +1 x27 = 0
  ie0: +1 x15 -1 x23 >= 0
  ie1: +1 x15 -1 x19 >= 0
  ie2: +1 x7 >= -6
  ie3: +1 x1 -1 x4 +1 x14 >= -6
  ie4: +1 x8 >= -6
  ie5: -1 x2 -1 x8 +1 x23 >= 7
  ie6: +1 x1 >= -5
  ie7: +1 x21 >= -5
END

0.000 sec
[9 ph, smt 0.123, isect 0.457, ins 0.025, tot 0.949]

Running SMT solver (20)... 0.003 sec
Found point (-19/4,-6,-3,-4,-6,-4,-5,-6,-19/4,-19/4,-6,-6,-7,-3,-3,-6,-5,-4,-4,-6,-5,-4,-3,-11/4,-11/4,-15/4,-19/4,-4,-4,-5)
Checking... Minimizing (29,83)... (27,10), 0.025 sec
Inserting... 

MAXIMIZE
Subject To
  eq0: -1 x1 -1 x8 +1 x27 = 6
  eq1: +1 x11 -1 x18 -1 x30 = 3
  eq2: -1 x12 +1 x16 = 0
  eq3: -1 x17 +1 x29 = 1
  eq4: -1 x16 = 6
  eq5: +1 x25 -1 x26 = 1
  eq6: -1 x11 +1 x12 = 0
  eq7: -1 x21 = 5
  eq8: -1 x9 +1 x10 = 0
  eq9: +1 x4 -1 x15 -1 x30 = 4
  eq10: -1 x14 +1 x23 -1 x30 = 5
  eq11: +1 x6 -1 x7 = 1
  eq12: -1 x24 +1 x27 -1 x30 = 3
  eq13: -1 x6 +1 x23 = 1
  eq14: +1 x11 -1 x19 -1 x30 = 3
  eq15: -1 x18 +1 x29 = 0
  eq16: +1 x4 -1 x21 = 1
  eq17: +1 x6 -1 x23 -1 x30 = 4
  eq18: -1 x24 +1 x25 = 0
  eq19: +1 x3 -1 x6 = 1
  eq20: -1 x5 +1 x21 = 1
  eq21: +1 x7 -1 x20 = 1
  eq22: +1 x11 -1 x13 = 1
  eq23: -1 x22 +1 x23 = 1
  eq24: -1 x2 -1 x8 +1 x11 = 6
  eq25: +1 x15 -1 x28 = 1
  eq26: -1 x9 +1 x27 = 0
  ie0: +1 x15 -1 x23 >= 0
  ie1: +1 x27 >= -5
  ie2: -1 x16 +1 x26 >= 0
  ie3: +1 x7 >= -6
  ie4: +1 x3 -1 x8 >= 0
  ie5: +1 x8 >= -6
  ie6: -1 x2 -1 x8 +1 x23 >= 7
  ie7: -1 x1 +1 x4 -1 x8 >= 6
  ie8: +1 x2 >= -6
  ie9: +1 x1 >= -5
END

0.002 sec
[10 ph, smt 0.126, isect 0.481, ins 0.027, tot 0.993]

Running SMT solver (21)... 0.004 sec
Found point (-4,-6,-3,-4,-6,-15/4,-19/4,-6,-4,-4,-6,-6,-7,-3,-3,-6,-5,-4,-4,-23/4,-5,-15/4,-11/4,-2,-2,-3,-4,-4,-4,-5)
Checking... Minimizing (30,83)... (28,7), 0.022 sec
Inserting... 

MAXIMIZE
Subject To
  eq0: -1 x1 -1 x8 +1 x27 = 6
  eq1: +1 x11 -1 x18 -1 x30 = 3
  eq2: -1 x12 +1 x16 = 0
  eq3: -1 x17 +1 x29 = 1
  eq4: -1 x16 = 6
  eq5: +1 x25 -1 x26 = 1
  eq6: -1 x11 +1 x12 = 0
  eq7: -1 x21 = 5
  eq8: -1 x9 +1 x10 = 0
  eq9: +1 x4 -1 x15 -1 x30 = 4
  eq10: +1 x6 -1 x7 = 1
  eq11: -1 x24 +1 x27 -1 x30 = 3
  eq12: -1 x6 +1 x23 = 1
  eq13: +1 x11 -1 x19 -1 x30 = 3
  eq14: -1 x18 +1 x29 = 0
  eq15: +1 x4 -1 x21 = 1
  eq16: +1 x6 -1 x23 -1 x30 = 4
  eq17: -1 x24 +1 x25 = 0
  eq18: -1 x14 +1 x15 -1 x30 = 5
  eq19: +1 x3 -1 x4 = 1
  eq20: -1 x5 +1 x21 = 1
  eq21: +1 x7 -1 x20 = 1
  eq22: +1 x11 -1 x13 = 1
  eq23: -1 x22 +1 x23 = 1
  eq24: -1 x2 -1 x8 +1 x11 = 6
  eq25: +1 x15 -1 x28 = 1
  eq26: -1 x9 +1 x27 = 0
  eq27: -1 x1 -1 x8 +1 x15 = 7
  ie0: +1 x7 >= -6
  ie1: +1 x2 +1 x3 -1 x6 >= -6
  ie2: -1 x15 +1 x23 >= 0
  ie3: +1 x2 >= -6
  ie4: +1 x1 >= -5
  ie5: +1 x8 >= -6
  ie6: -1 x2 -1 x8 +1 x23 >= 7
END

0.001 sec
[11 ph, smt 0.129, isect 0.503, ins 0.028, tot 1.033]

Running SMT solver (22)... 0.004 sec
Found point (-25/6,-6,-3,-4,-6,-23/6,-29/6,-6,-25/6,-25/6,-6,-6,-7,-3,-3,-6,-5,-4,-4,-35/6,-5,-23/6,-17/6,-13/6,-13/6,-19/6,-25/6,-4,-4,-5)
Checking... Minimizing (29,83)... (27,11), 0.024 sec
Inserting... 

MAXIMIZE
Subject To
  eq0: -1 x1 -1 x8 +1 x27 = 6
  eq1: +1 x11 -1 x18 -1 x30 = 3
  eq2: -1 x12 +1 x16 = 0
  eq3: -1 x17 +1 x29 = 1
  eq4: -1 x16 = 6
  eq5: +1 x25 -1 x26 = 1
  eq6: -1 x11 +1 x12 = 0
  eq7: -1 x21 = 5
  eq8: -1 x9 +1 x10 = 0
  eq9: +1 x4 -1 x15 -1 x30 = 4
  eq10: +1 x6 -1 x7 = 1
  eq11: -1 x24 +1 x27 -1 x30 = 3
  eq12: -1 x6 +1 x23 = 1
  eq13: +1 x11 -1 x19 -1 x30 = 3
  eq14: -1 x18 +1 x29 = 0
  eq15: +1 x4 -1 x21 = 1
  eq16: +1 x6 -1 x23 -1 x30 = 4
  eq17: -1 x24 +1 x25 = 0
  eq18: -1 x14 +1 x15 -1 x30 = 5
  eq19: +1 x3 -1 x4 = 1
  eq20: -1 x5 +1 x21 = 1
  eq21: +1 x7 -1 x20 = 1
  eq22: +1 x11 -1 x13 = 1
  eq23: -1 x22 +1 x23 = 1
  eq24: -1 x2 -1 x8 +1 x11 = 6
  eq25: +1 x15 -1 x28 = 1
  eq26: -1 x9 +1 x27 = 0
  ie0: -1 x16 +1 x26 >= 0
  ie1: +1 x27 >= -5
  ie2: +1 x7 >= -6
  ie3: +1 x2 +1 x3 -1 x6 >= -6
  ie4: +1 x3 -1 x8 >= 0
  ie5: +1 x8 >= -6
  ie6: -1 x2 -1 x8 +1 x23 >= 7
  ie7: -1 x1 +1 x4 -1 x8 >= 6
  ie8: -1 x15 +1 x23 >= 0
  ie9: +1 x2 >= -6
  ie10: +1 x1 >= -5
END

0.006 sec
[11 ph, smt 0.133, isect 0.527, ins 0.033, tot 1.081]

Running SMT solver (23)... 0.004 sec
Found point (-33/8,-6,-25/8,-4,-6,-31/8,-39/8,-6,-33/8,-33/8,-6,-6,-7,-25/8,-3,-6,-5,-4,-4,-47/8,-5,-31/8,-23/8,-17/8,-17/8,-25/8,-33/8,-4,-4,-5)
Checking... Minimizing (28,83)... (26,15), 0.027 sec
Inserting... 

MAXIMIZE
Subject To
  eq0: -1 x1 -1 x8 +1 x27 = 6
  eq1: +1 x11 -1 x18 -1 x30 = 3
  eq2: -1 x12 +1 x16 = 0
  eq3: -1 x17 +1 x29 = 1
  eq4: -1 x16 = 6
  eq5: +1 x25 -1 x26 = 1
  eq6: -1 x11 +1 x12 = 0
  eq7: -1 x21 = 5
  eq8: -1 x9 +1 x10 = 0
  eq9: +1 x4 -1 x15 -1 x30 = 4
  eq10: +1 x6 -1 x7 = 1
  eq11: +1 x3 -1 x14 -1 x30 = 5
  eq12: -1 x24 +1 x27 -1 x30 = 3
  eq13: -1 x6 +1 x23 = 1
  eq14: +1 x11 -1 x19 -1 x30 = 3
  eq15: -1 x18 +1 x29 = 0
  eq16: +1 x4 -1 x21 = 1
  eq17: +1 x6 -1 x23 -1 x30 = 4
  eq18: -1 x24 +1 x25 = 0
  eq19: -1 x5 +1 x21 = 1
  eq20: +1 x7 -1 x20 = 1
  eq21: +1 x11 -1 x13 = 1
  eq22: -1 x22 +1 x23 = 1
  eq23: -1 x2 -1 x8 +1 x11 = 6
  eq24: +1 x15 -1 x28 = 1
  eq25: -1 x9 +1 x27 = 0
  ie0: -1 x16 +1 x26 >= 0
  ie1: +1 x27 >= -5
  ie2: +1 x7 >= -6
  ie3: -1 x3 +1 x23 >= 0
  ie4: +1 x2 +1 x3 -1 x6 >= -6
  ie5: +1 x3 -1 x11 >= 2
  ie6: +1 x1 -1 x4 +1 x14 >= -6
  ie7: +1 x3 -1 x8 >= 0
  ie8: -1 x3 +1 x28 >= -3
  ie9: +1 x8 >= -6
  ie10: -1 x2 -1 x8 +1 x23 >= 7
  ie11: -1 x1 +1 x4 -1 x8 >= 6
  ie12: -1 x3 +1 x15 >= 0
  ie13: +1 x2 >= -6
  ie14: +1 x1 >= -5
END

0.005 sec
[10 ph, smt 0.137, isect 0.554, ins 0.039, tot 1.131]

Running SMT solver (24)... 0.004 sec
Found point (-17/4,-6,-17/4,-4,-6,-17/4,-21/4,-6,-17/4,-17/4,-6,-6,-7,-17/4,-3,-6,-5,-4,-4,-25/4,-5,-17/4,-13/4,-9/4,-9/4,-13/4,-17/4,-4,-4,-5)
Checking... Minimizing (27,84)... (26,12), 0.025 sec
Inserting... 

MAXIMIZE
Subject To
  eq0: -1 x1 -1 x8 +1 x27 = 6
  eq1: +1 x11 -1 x18 -1 x30 = 3
  eq2: -1 x12 +1 x16 = 0
  eq3: -1 x17 +1 x29 = 1
  eq4: -1 x16 = 6
  eq5: +1 x25 -1 x26 = 1
  eq6: -1 x11 +1 x12 = 0
  eq7: -1 x21 = 5
  eq8: -1 x9 +1 x10 = 0
  eq9: +1 x4 -1 x15 -1 x30 = 4
  eq10: +1 x6 -1 x7 = 1
  eq11: +1 x3 -1 x14 -1 x30 = 5
  eq12: -1 x24 +1 x27 -1 x30 = 3
  eq13: -1 x6 +1 x23 = 1
  eq14: -1 x18 +1 x29 = 0
  eq15: +1 x4 -1 x21 = 1
  eq16: +1 x6 -1 x23 -1 x30 = 4
  eq17: -1 x24 +1 x25 = 0
  eq18: -1 x5 +1 x21 = 1
  eq19: +1 x16 -1 x19 -1 x30 = 3
  eq20: +1 x7 -1 x20 = 1
  eq21: +1 x11 -1 x13 = 1
  eq22: -1 x22 +1 x23 = 1
  eq23: -1 x2 -1 x8 +1 x11 = 6
  eq24: +1 x15 -1 x28 = 1
  eq25: -1 x9 +1 x27 = 0
  ie0: -1 x16 +1 x26 >= 0
  ie1: +1 x27 >= -5
  ie2: +1 x7 >= -6
  ie3: +1 x2 +1 x3 -1 x6 >= -6
  ie4: +1 x1 -1 x4 +1 x14 >= -6
  ie5: +1 x3 -1 x8 >= 0
  ie6: -1 x14 +1 x18 >= 0
  ie7: +1 x8 >= -6
  ie8: -1 x2 -1 x8 +1 x23 >= 7
  ie9: -1 x1 +1 x4 -1 x8 >= 6
  ie10: +1 x2 >= -6
  ie11: +1 x1 >= -5
END

0.001 sec
[11 ph, smt 0.141, isect 0.578, ins 0.039, tot 1.175]

Running SMT solver (25)... 0.006 sec
Found point (-4,-6,-23/6,-4,-6,-14/3,-17/3,-6,-4,-4,-6,-6,-7,-11/3,-17/6,-6,-29/6,-23/6,-23/6,-20/3,-5,-9/2,-7/2,-11/6,-11/6,-17/6,-4,-23/6,-23/6,-31/6)
Checking... Minimizing (26,84)... (25,21), 0.031 sec
Inserting... 

MAXIMIZE
Subject To
  eq0: -1 x1 -1 x8 +1 x27 = 6
  eq1: +1 x11 -1 x18 -1 x30 = 3
  eq2: -1 x12 +1 x16 = 0
  eq3: -1 x17 +1 x29 = 1
  eq4: -1 x16 = 6
  eq5: +1 x25 -1 x26 = 1
  eq6: -1 x11 +1 x12 = 0
  eq7: -1 x21 = 5
  eq8: -1 x9 +1 x10 = 0
  eq9: +1 x4 -1 x15 -1 x30 = 4
  eq10: +1 x6 -1 x7 = 1
  eq11: +1 x3 -1 x14 -1 x30 = 5
  eq12: -1 x24 +1 x27 -1 x30 = 3
  eq13: +1 x11 -1 x19 -1 x30 = 3
  eq14: -1 x18 +1 x29 = 0
  eq15: +1 x4 -1 x21 = 1
  eq16: +1 x6 -1 x23 -1 x30 = 4
  eq17: -1 x24 +1 x25 = 0
  eq18: -1 x5 +1 x21 = 1
  eq19: +1 x7 -1 x20 = 1
  eq20: +1 x11 -1 x13 = 1
  eq21: -1 x22 +1 x23 = 1
  eq22: -1 x2 -1 x8 +1 x11 = 6
  eq23: +1 x15 -1 x28 = 1
  eq24: -1 x9 +1 x27 = 0
  ie0: -1 x16 +1 x26 >= 0
  ie1: +1 x27 >= -5
  ie2: -1 x3 +1 x23 >= 0
  ie3: +1 x2 +1 x3 -1 x6 >= -6
  ie4: +1 x29 >= -6
  ie5: +1 x1 -1 x4 +1 x14 >= -6
  ie6: -1 x3 +1 x28 >= -3
  ie7: +1 x8 >= -6
  ie8: -1 x2 -1 x8 +1 x23 >= 7
  ie9: -1 x3 +1 x15 >= 0
  ie10: +1 x2 >= -6
  ie11: -1 x6 +1 x23 >= 1
  ie12: +1 x1 >= -5
  ie13: +1 x7 >= -6
  ie14: +1 x3 -1 x11 >= 2
  ie15: +1 x17 >= -6
  ie16: +1 x3 -1 x8 >= 0
  ie17: -1 x3 +1 x6 >= -1
  ie18: -1 x1 +1 x4 -1 x8 >= 6
  ie19: -1 x3 +1 x4 >= -1
  ie20: -1 x1 -1 x8 +1 x15 >= 7
END

0.004 sec
[11 ph, smt 0.147, isect 0.609, ins 0.044, tot 1.231]

Running SMT solver (26)... 0.003 sec
Found point (-4,-6,-33/8,-4,-6,-39/8,-47/8,-6,-4,-4,-6,-6,-7,-4,-23/8,-6,-39/8,-31/8,-31/8,-55/8,-5,-19/4,-15/4,-15/8,-15/8,-23/8,-4,-31/8,-31/8,-41/8)
Checking... Minimizing (25,85)... (25,16), 0.031 sec
Inserting... 

MAXIMIZE
Subject To
  eq0: -1 x1 -1 x8 +1 x27 = 6
  eq1: +1 x11 -1 x18 -1 x30 = 3
  eq2: -1 x12 +1 x16 = 0
  eq3: -1 x17 +1 x29 = 1
  eq4: -1 x16 = 6
  eq5: +1 x25 -1 x26 = 1
  eq6: -1 x11 +1 x12 = 0
  eq7: -1 x21 = 5
  eq8: -1 x9 +1 x10 = 0
  eq9: +1 x4 -1 x15 -1 x30 = 4
  eq10: +1 x6 -1 x7 = 1
  eq11: +1 x3 -1 x14 -1 x30 = 5
  eq12: -1 x24 +1 x27 -1 x30 = 3
  eq13: -1 x18 +1 x29 = 0
  eq14: +1 x4 -1 x21 = 1
  eq15: +1 x6 -1 x23 -1 x30 = 4
  eq16: -1 x24 +1 x25 = 0
  eq17: -1 x5 +1 x21 = 1
  eq18: +1 x16 -1 x19 -1 x30 = 3
  eq19: +1 x7 -1 x20 = 1
  eq20: +1 x11 -1 x13 = 1
  eq21: -1 x22 +1 x23 = 1
  eq22: -1 x2 -1 x8 +1 x11 = 6
  eq23: +1 x15 -1 x28 = 1
  eq24: -1 x9 +1 x27 = 0
  ie0: -1 x16 +1 x26 >= 0
  ie1: +1 x27 >= -5
  ie2: +1 x2 +1 x3 -1 x6 >= -6
  ie3: +1 x29 >= -6
  ie4: +1 x1 -1 x4 +1 x14 >= -6
  ie5: +1 x8 >= -6
  ie6: -1 x2 -1 x8 +1 x23 >= 7
  ie7: +1 x2 >= -6
  ie8: -1 x6 +1 x23 >= 1
  ie9: +1 x1 >= -5
  ie10: +1 x7 >= -6
  ie11: +1 x17 >= -6
  ie12: +1 x3 -1 x8 >= 0
  ie13: -1 x14 +1 x18 >= 0
  ie14: -1 x1 +1 x4 -1 x8 >= 6
  ie15: -1 x1 -1 x8 +1 x15 >= 7
END

0.003 sec
[11 ph, smt 0.150, isect 0.640, ins 0.047, tot 1.283]

Running SMT solver (27)... 0.007 sec
Found point (-4,-5,-23/4,-15/4,-23/4,-19/4,-23/4,-23/4,-15/4,-15/4,-19/4,-19/4,-27/4,-8,-5,-19/4,-6,-5,-6,-27/4,-19/4,-7,-6,-4,-4,-5,-15/4,-6,-5,-11/4)
Checking... Minimizing (28,76)... (28,8), 0.025 sec
Inserting... 

MAXIMIZE
Subject To
  eq0: -1 x1 -1 x8 +1 x27 = 6
  eq1: -1 x12 +1 x16 = 0
  eq2: -1 x17 +1 x29 = 1
  eq3: +1 x25 -1 x26 = 1
  eq4: -1 x11 +1 x12 = 0
  eq5: -1 x8 +1 x11 = 1
  eq6: -1 x15 = 5
  eq7: -1 x9 +1 x10 = 0
  eq8: -1 x2 -1 x14 +1 x23 = 7
  eq9: +1 x4 -1 x15 -1 x30 = 4
  eq10: -1 x23 = 6
  eq11: -1 x1 -1 x19 +1 x24 = 6
  eq12: +1 x6 -1 x7 = 1
  eq13: +1 x3 -1 x14 -1 x30 = 5
  eq14: +1 x6 -1 x13 = 2
  eq15: -1 x18 +1 x29 = 0
  eq16: -1 x19 = 6
  eq17: +1 x4 -1 x21 = 1
  eq18: +1 x6 -1 x23 -1 x30 = 4
  eq19: -1 x24 +1 x25 = 0
  eq20: -1 x5 +1 x21 = 1
  eq21: +1 x7 -1 x20 = 1
  eq22: -1 x22 +1 x23 = 1
  eq23: -1 x2 -1 x8 +1 x11 = 6
  eq24: -1 x2 +1 x18 -1 x19 = 6
  eq25: +1 x15 -1 x28 = 1
  eq26: -1 x9 +1 x27 = 0
  eq27: -1 x1 -1 x14 +1 x15 = 7
  ie0: +1 x27 >= -5
  ie1: -1 x3 +1 x8 >= -2
  ie2: +1 x8 >= -6
  ie3: -1 x2 +1 x30 >= 2
  ie4: -1 x3 +1 x27 >= -2
  ie5: -1 x8 +1 x19 +1 x30 >= -3
  ie6: -1 x6 +1 x11 >= -1
  ie7: -1 x2 -1 x8 +1 x18 +1 x30 >= 2
END

0.000 sec
[12 ph, smt 0.157, isect 0.665, ins 0.047, tot 1.330]

Running SMT solver (28)... 0.003 sec
Found point (-25/6,-31/6,-17/3,-23/6,-35/6,-29/6,-35/6,-17/3,-23/6,-23/6,-29/6,-29/6,-41/6,-47/6,-5,-29/6,-6,-5,-35/6,-41/6,-29/6,-7,-6,-4,-4,-5,-23/6,-6,-5,-17/6)
Checking... Minimizing (27,76)... (27,11), 0.026 sec
Inserting... 

MAXIMIZE
Subject To
  eq0: -1 x1 -1 x8 +1 x27 = 6
  eq1: -1 x17 = 6
  eq2: -1 x12 +1 x16 = 0
  eq3: -1 x17 +1 x29 = 1
  eq4: +1 x25 -1 x26 = 1
  eq5: -1 x11 +1 x12 = 0
  eq6: -1 x15 = 5
  eq7: -1 x9 +1 x10 = 0
  eq8: -1 x2 -1 x14 +1 x23 = 7
  eq9: +1 x4 -1 x15 -1 x30 = 4
  eq10: -1 x23 = 6
  eq11: -1 x1 -1 x19 +1 x24 = 6
  eq12: +1 x6 -1 x7 = 1
  eq13: +1 x3 -1 x14 -1 x30 = 5
  eq14: +1 x6 -1 x13 = 2
  eq15: -1 x18 +1 x29 = 0
  eq16: +1 x4 -1 x21 = 1
  eq17: +1 x6 -1 x23 -1 x30 = 4
  eq18: -1 x24 +1 x25 = 0
  eq19: -1 x5 +1 x21 = 1
  eq20: +1 x7 -1 x20 = 1
  eq21: -1 x22 +1 x23 = 1
  eq22: -1 x2 -1 x8 +1 x11 = 6
  eq23: -1 x2 +1 x18 -1 x19 = 6
  eq24: +1 x15 -1 x28 = 1
  eq25: -1 x9 +1 x27 = 0
  eq26: -1 x1 -1 x14 +1 x15 = 7
  ie0: +1 x7 >= -6
  ie1: +1 x27 >= -5
  ie2: -1 x3 +1 x8 >= -2
  ie3: -1 x2 -1 x8 +1 x19 +1 x30 >= 2
  ie4: +1 x19 >= -6
  ie5: +1 x8 >= -6
  ie6: -1 x2 +1 x30 >= 2
  ie7: -1 x3 +1 x27 >= -2
  ie8: +1 x1 >= -5
  ie9: -1 x6 +1 x11 >= -1
  ie10: -1 x2 -1 x8 +1 x18 +1 x30 >= 2
END

0.002 sec
[12 ph, smt 0.160, isect 0.691, ins 0.050, tot 1.379]

Running SMT solver (29)... 0.005 sec
Found point (-5,-6,-19/4,-15/4,-23/4,-19/4,-23/4,-23/4,-19/4,-19/4,-23/4,-23/4,-27/4,-6,-4,-23/4,-6,-5,-5,-27/4,-19/4,-6,-5,-4,-4,-5,-19/4,-5,-5,-15/4)
Checking... Minimizing (27,76)... (27,10), 0.026 sec
Inserting... 

MAXIMIZE
Subject To
  eq0: -1 x1 -1 x8 +1 x27 = 6
  eq1: -1 x17 = 6
  eq2: -1 x12 +1 x16 = 0
  eq3: -1 x17 +1 x29 = 1
  eq4: +1 x25 -1 x26 = 1
  eq5: -1 x11 +1 x12 = 0
  eq6: -1 x1 = 5
  eq7: -1 x9 +1 x10 = 0
  eq8: -1 x2 -1 x14 +1 x23 = 7
  eq9: +1 x4 -1 x15 -1 x30 = 4
  eq10: -1 x1 -1 x19 +1 x24 = 6
  eq11: +1 x6 -1 x7 = 1
  eq12: +1 x3 -1 x14 -1 x30 = 5
  eq13: +1 x6 -1 x13 = 2
  eq14: -1 x18 +1 x29 = 0
  eq15: +1 x4 -1 x21 = 1
  eq16: +1 x6 -1 x23 -1 x30 = 4
  eq17: -1 x24 +1 x25 = 0
  eq18: -1 x5 +1 x21 = 1
  eq19: +1 x7 -1 x20 = 1
  eq20: -1 x2 = 6
  eq21: -1 x22 +1 x23 = 1
  eq22: -1 x2 -1 x8 +1 x11 = 6
  eq23: -1 x2 +1 x18 -1 x19 = 6
  eq24: +1 x15 -1 x28 = 1
  eq25: -1 x9 +1 x27 = 0
  eq26: -1 x1 -1 x14 +1 x15 = 7
  ie0: +1 x7 >= -6
  ie1: +1 x27 >= -5
  ie2: -1 x3 +1 x8 >= -2
  ie3: +1 x23 >= -6
  ie4: -1 x2 -1 x14 +1 x18 >= 6
  ie5: -1 x2 +1 x30 >= 2
  ie6: -1 x3 +1 x27 >= -2
  ie7: -1 x6 +1 x11 >= -1
  ie8: -1 x2 -1 x8 +1 x18 +1 x30 >= 2
  ie9: -1 x2 +1 x11 -1 x14 >= 6
END

0.000 sec
[13 ph, smt 0.165, isect 0.717, ins 0.050, tot 1.424]

Running SMT solver (30)... 0.004 sec
Found point (-5,-6,-11/4,-7/4,-15/4,-11/4,-15/4,-19/4,-15/4,-15/4,-19/4,-19/4,-23/4,-5,-3,-19/4,-6,-5,-5,-19/4,-11/4,-5,-4,-4,-4,-5,-15/4,-4,-5,-11/4)
Checking... Minimizing (30,81)... (28,6), 0.027 sec
Inserting... 

MAXIMIZE
Subject To
  eq0: -1 x1 -1 x8 +1 x27 = 6
  eq1: -1 x17 = 6
  eq2: -1 x12 +1 x16 = 0
  eq3: -1 x17 +1 x29 = 1
  eq4: +1 x25 -1 x26 = 1
  eq5: -1 x11 +1 x12 = 0
  eq6: -1 x1 = 5
  eq7: -1 x9 +1 x10 = 0
  eq8: -1 x2 -1 x19 +1 x23 = 7
  eq9: +1 x4 -1 x15 -1 x30 = 4
  eq10: -1 x2 -1 x14 +1 x23 = 7
  eq11: -1 x1 -1 x19 +1 x24 = 6
  eq12: -1 x1 +1 x15 -1 x19 = 7
  eq13: +1 x6 -1 x7 = 1
  eq14: +1 x3 -1 x14 -1 x30 = 5
  eq15: -1 x18 +1 x29 = 0
  eq16: +1 x4 -1 x21 = 1
  eq17: +1 x6 -1 x23 -1 x30 = 4
  eq18: -1 x24 +1 x25 = 0
  eq19: -1 x5 +1 x21 = 1
  eq20: +1 x7 -1 x20 = 1
  eq21: -1 x2 = 6
  eq22: +1 x11 -1 x13 = 1
  eq23: -1 x22 +1 x23 = 1
  eq24: -1 x2 -1 x8 +1 x11 = 6
  eq25: -1 x2 +1 x18 -1 x19 = 6
  eq26: +1 x15 -1 x28 = 1
  eq27: -1 x9 +1 x27 = 0
  ie0: -1 x2 +1 x30 >= 2
  ie1: -1 x3 +1 x27 >= -2
  ie2: +1 x27 >= -5
  ie3: -1 x3 +1 x8 >= -2
  ie4: -1 x2 -1 x8 +1 x18 +1 x30 >= 2
  ie5: -1 x2 +1 x11 -1 x19 >= 6
END

0.000 sec
[14 ph, smt 0.168, isect 0.744, ins 0.050, tot 1.470]

Running SMT solver (31)... 0.003 sec
Found point (-5,-6,-13/4,-9/4,-17/4,-13/4,-17/4,-5,-4,-4,-5,-5,-6,-21/4,-13/4,-5,-6,-5,-5,-21/4,-13/4,-21/4,-17/4,-4,-4,-5,-4,-17/4,-5,-3)
Checking... Minimizing (27,76)... (27,11), 0.028 sec
Inserting... 

MAXIMIZE
Subject To
  eq0: -1 x1 -1 x8 +1 x27 = 6
  eq1: -1 x17 = 6
  eq2: -1 x12 +1 x16 = 0
  eq3: -1 x17 +1 x29 = 1
  eq4: +1 x25 -1 x26 = 1
  eq5: -1 x11 +1 x12 = 0
  eq6: -1 x1 = 5
  eq7: -1 x9 +1 x10 = 0
  eq8: -1 x2 -1 x14 +1 x23 = 7
  eq9: +1 x4 -1 x15 -1 x30 = 4
  eq10: -1 x1 -1 x19 +1 x24 = 6
  eq11: +1 x6 -1 x7 = 1
  eq12: +1 x3 -1 x14 -1 x30 = 5
  eq13: -1 x18 +1 x29 = 0
  eq14: +1 x4 -1 x21 = 1
  eq15: +1 x6 -1 x23 -1 x30 = 4
  eq16: -1 x24 +1 x25 = 0
  eq17: -1 x5 +1 x21 = 1
  eq18: +1 x7 -1 x20 = 1
  eq19: -1 x2 = 6
  eq20: +1 x11 -1 x13 = 1
  eq21: -1 x22 +1 x23 = 1
  eq22: -1 x2 -1 x8 +1 x11 = 6
  eq23: -1 x2 +1 x18 -1 x19 = 6
  eq24: +1 x15 -1 x28 = 1
  eq25: -1 x9 +1 x27 = 0
  eq26: -1 x1 -1 x14 +1 x15 = 7
  ie0: +1 x7 >= -6
  ie1: +1 x27 >= -5
  ie2: -1 x3 +1 x8 >= -2
  ie3: +1 x23 >= -6
  ie4: -1 x2 -1 x14 +1 x18 >= 6
  ie5: -1 x2 +1 x30 >= 2
  ie6: -1 x3 +1 x27 >= -2
  ie7: +1 x6 -1 x11 >= 1
  ie8: +1 x4 -1 x11 >= 1
  ie9: -1 x2 -1 x8 +1 x18 +1 x30 >= 2
  ie10: -1 x2 +1 x11 -1 x14 >= 6
END

0.004 sec
[14 ph, smt 0.172, isect 0.772, ins 0.054, tot 1.520]

Running SMT solver (32)... 0.003 sec
Found point (-5,-6,-21/8,-13/8,-29/8,-21/8,-29/8,-19/4,-15/4,-15/4,-19/4,-19/4,-23/4,-39/8,-23/8,-19/4,-6,-5,-5,-37/8,-21/8,-39/8,-31/8,-4,-4,-5,-15/4,-31/8,-5,-11/4)
Checking... Minimizing (30,77)... (28,4), 0.027 sec
Inserting... 

MAXIMIZE
Subject To
  eq0: -1 x1 -1 x8 +1 x27 = 6
  eq1: -1 x17 = 6
  eq2: -1 x12 +1 x16 = 0
  eq3: -1 x17 +1 x29 = 1
  eq4: +1 x25 -1 x26 = 1
  eq5: -1 x11 +1 x12 = 0
  eq6: -1 x1 = 5
  eq7: -1 x9 +1 x10 = 0
  eq8: -1 x2 -1 x14 +1 x23 = 7
  eq9: +1 x4 -1 x15 -1 x30 = 4
  eq10: -1 x1 -1 x19 +1 x24 = 6
  eq11: +1 x6 -1 x7 = 1
  eq12: +1 x3 -1 x14 -1 x30 = 5
  eq13: +1 x11 -1 x19 -1 x30 = 3
  eq14: -1 x18 +1 x29 = 0
  eq15: -1 x1 -1 x19 +1 x25 = 6
  eq16: +1 x4 -1 x21 = 1
  eq17: +1 x6 -1 x23 -1 x30 = 4
  eq18: -1 x5 +1 x21 = 1
  eq19: +1 x7 -1 x20 = 1
  eq20: -1 x2 -1 x19 +1 x29 = 6
  eq21: -1 x2 = 6
  eq22: +1 x11 -1 x13 = 1
  eq23: -1 x22 +1 x23 = 1
  eq24: -1 x2 -1 x8 +1 x11 = 6
  eq25: +1 x15 -1 x28 = 1
  eq26: -1 x9 +1 x27 = 0
  eq27: -1 x1 -1 x14 +1 x15 = 7
  ie0: +1 x15 -1 x19 >= 0
  ie1: +1 x27 >= -5
  ie2: -1 x2 +1 x11 -1 x19 >= 6
  ie3: -1 x2 -1 x19 +1 x23 >= 7
END

0.001 sec
[15 ph, smt 0.175, isect 0.798, ins 0.055, tot 1.566]

Running SMT solver (33)... 0.004 sec
Found point (-5,-6,-3,-2,-4,-3,-4,-31/6,-25/6,-25/6,-31/6,-31/6,-37/6,-29/6,-17/6,-31/6,-6,-5,-5,-5,-3,-29/6,-23/6,-4,-4,-5,-25/6,-23/6,-5,-19/6)
Checking... Minimizing (28,78)... (28,5), 0.026 sec
Inserting... 

MAXIMIZE
Subject To
  eq0: -1 x1 -1 x8 +1 x27 = 6
  eq1: -1 x17 = 6
  eq2: -1 x12 +1 x16 = 0
  eq3: -1 x17 +1 x29 = 1
  eq4: +1 x25 -1 x26 = 1
  eq5: -1 x11 +1 x12 = 0
  eq6: -1 x1 = 5
  eq7: -1 x9 +1 x10 = 0
  eq8: -1 x2 -1 x14 +1 x23 = 7
  eq9: +1 x4 -1 x15 -1 x30 = 4
  eq10: -1 x1 -1 x19 +1 x24 = 6
  eq11: +1 x6 -1 x7 = 1
  eq12: +1 x3 -1 x14 -1 x30 = 5
  eq13: +1 x11 -1 x19 -1 x30 = 3
  eq14: -1 x18 +1 x29 = 0
  eq15: +1 x4 -1 x21 = 1
  eq16: +1 x6 -1 x23 -1 x30 = 4
  eq17: -1 x24 +1 x25 = 0
  eq18: -1 x5 +1 x21 = 1
  eq19: +1 x7 -1 x20 = 1
  eq20: -1 x2 = 6
  eq21: +1 x11 -1 x13 = 1
  eq22: -1 x22 +1 x23 = 1
  eq23: -1 x2 -1 x8 +1 x11 = 6
  eq24: -1 x2 +1 x18 -1 x19 = 6
  eq25: +1 x15 -1 x28 = 1
  eq26: -1 x9 +1 x27 = 0
  eq27: -1 x1 -1 x14 +1 x15 = 7
  ie0: +1 x15 -1 x19 >= 0
  ie1: +1 x27 >= -5
  ie2: -1 x2 -1 x8 +1 x29 >= 6
  ie3: +1 x3 -1 x11 >= 2
  ie4: -1 x2 -1 x8 +1 x23 >= 7
END

0.001 sec
[16 ph, smt 0.179, isect 0.824, ins 0.056, tot 1.611]

Running SMT solver (34)... 0.004 sec
Found point (-5,-6,-7/2,-5/2,-9/2,-7/2,-9/2,-16/3,-13/3,-13/3,-16/3,-16/3,-19/3,-31/6,-19/6,-16/3,-6,-5,-5,-11/2,-7/2,-31/6,-25/6,-4,-4,-5,-13/3,-25/6,-5,-10/3)
Checking... Minimizing (27,79)... (27,7), 0.028 sec
Inserting... 

MAXIMIZE
Subject To
  eq0: -1 x1 -1 x8 +1 x27 = 6
  eq1: -1 x17 = 6
  eq2: -1 x12 +1 x16 = 0
  eq3: -1 x17 +1 x29 = 1
  eq4: +1 x25 -1 x26 = 1
  eq5: -1 x11 +1 x12 = 0
  eq6: -1 x1 = 5
  eq7: -1 x9 +1 x10 = 0
  eq8: -1 x2 -1 x14 +1 x23 = 7
  eq9: +1 x4 -1 x15 -1 x30 = 4
  eq10: -1 x1 -1 x19 +1 x24 = 6
  eq11: +1 x6 -1 x7 = 1
  eq12: +1 x3 -1 x14 -1 x30 = 5
  eq13: -1 x18 +1 x29 = 0
  eq14: +1 x4 -1 x21 = 1
  eq15: +1 x6 -1 x23 -1 x30 = 4
  eq16: -1 x24 +1 x25 = 0
  eq17: -1 x5 +1 x21 = 1
  eq18: +1 x7 -1 x20 = 1
  eq19: -1 x2 = 6
  eq20: +1 x11 -1 x13 = 1
  eq21: -1 x22 +1 x23 = 1
  eq22: -1 x2 -1 x8 +1 x11 = 6
  eq23: -1 x2 +1 x18 -1 x19 = 6
  eq24: +1 x15 -1 x28 = 1
  eq25: -1 x9 +1 x27 = 0
  eq26: -1 x1 -1 x14 +1 x15 = 7
  ie0: -1 x2 +1 x30 >= 2
  ie1: -1 x3 +1 x27 >= -2
  ie2: +1 x27 >= -5
  ie3: -1 x2 -1 x8 +1 x29 >= 6
  ie4: -1 x3 +1 x8 >= -2
  ie5: -1 x14 +1 x18 >= 0
  ie6: -1 x2 -1 x8 +1 x23 >= 7
END

0.001 sec
[17 ph, smt 0.182, isect 0.852, ins 0.057, tot 1.659]

Running SMT solver (35)... 0.005 sec
Found point (-5,-6,-4,-3,-5,-4,-5,-6,-5,-5,-6,-6,-7,-19/4,-11/4,-6,-23/4,-19/4,-19/4,-6,-4,-19/4,-15/4,-15/4,-15/4,-19/4,-5,-15/4,-19/4,-17/4)
Checking... Minimizing (28,84)... (28,7), 0.027 sec
Inserting... 

MAXIMIZE
Subject To
  eq0: -1 x1 -1 x8 +1 x27 = 6
  eq1: +1 x11 -1 x18 -1 x30 = 3
  eq2: -1 x12 +1 x16 = 0
  eq3: -1 x17 +1 x29 = 1
  eq4: -1 x16 = 6
  eq5: +1 x25 -1 x26 = 1
  eq6: -1 x11 +1 x12 = 0
  eq7: -1 x27 = 5
  eq8: -1 x9 +1 x10 = 0
  eq9: -1 x2 -1 x14 +1 x23 = 7
  eq10: +1 x4 -1 x15 -1 x30 = 4
  eq11: +1 x6 -1 x7 = 1
  eq12: +1 x3 -1 x14 -1 x30 = 5
  eq13: -1 x24 +1 x27 -1 x30 = 3
  eq14: -1 x18 +1 x29 = 0
  eq15: +1 x4 -1 x21 = 1
  eq16: +1 x6 -1 x23 -1 x30 = 4
  eq17: -1 x24 +1 x25 = 0
  eq18: -1 x5 +1 x21 = 1
  eq19: +1 x16 -1 x19 -1 x30 = 3
  eq20: +1 x7 -1 x20 = 1
  eq21: +1 x11 -1 x13 = 1
  eq22: -1 x22 +1 x23 = 1
  eq23: -1 x2 -1 x8 +1 x11 = 6
  eq24: +1 x3 -1 x19 -1 x30 = 5
  eq25: +1 x15 -1 x28 = 1
  eq26: -1 x9 +1 x27 = 0
  eq27: -1 x1 -1 x14 +1 x15 = 7
  ie0: -1 x16 +1 x26 >= 0
  ie1: +1 x15 -1 x19 >= 0
  ie2: +1 x1 >= -5
  ie3: +1 x30 >= -5
  ie4: +1 x17 >= -6
  ie5: +1 x8 >= -6
  ie6: -1 x2 -1 x8 +1 x23 >= 7
END

0.001 sec
[18 ph, smt 0.187, isect 0.879, ins 0.057, tot 1.706]

Running SMT solver (36)... 0.003 sec
Found point (-5,-6,-25/6,-19/6,-31/6,-25/6,-31/6,-6,-5,-5,-6,-6,-7,-5,-3,-6,-35/6,-29/6,-29/6,-37/6,-25/6,-5,-4,-23/6,-23/6,-29/6,-5,-4,-29/6,-25/6)
Checking... Minimizing (27,84)... (27,8), 0.028 sec
Inserting... 

MAXIMIZE
Subject To
  eq0: -1 x1 -1 x8 +1 x27 = 6
  eq1: +1 x11 -1 x18 -1 x30 = 3
  eq2: -1 x12 +1 x16 = 0
  eq3: -1 x17 +1 x29 = 1
  eq4: -1 x16 = 6
  eq5: +1 x25 -1 x26 = 1
  eq6: -1 x11 +1 x12 = 0
  eq7: -1 x27 = 5
  eq8: -1 x9 +1 x10 = 0
  eq9: -1 x2 -1 x14 +1 x23 = 7
  eq10: +1 x4 -1 x15 -1 x30 = 4
  eq11: +1 x6 -1 x7 = 1
  eq12: +1 x3 -1 x14 -1 x30 = 5
  eq13: -1 x24 +1 x27 -1 x30 = 3
  eq14: -1 x18 +1 x29 = 0
  eq15: +1 x4 -1 x21 = 1
  eq16: +1 x6 -1 x23 -1 x30 = 4
  eq17: -1 x24 +1 x25 = 0
  eq18: -1 x5 +1 x21 = 1
  eq19: +1 x16 -1 x19 -1 x30 = 3
  eq20: +1 x7 -1 x20 = 1
  eq21: +1 x11 -1 x13 = 1
  eq22: -1 x22 +1 x23 = 1
  eq23: -1 x2 -1 x8 +1 x11 = 6
  eq24: +1 x15 -1 x28 = 1
  eq25: -1 x9 +1 x27 = 0
  eq26: -1 x1 -1 x14 +1 x15 = 7
  ie0: -1 x16 +1 x26 >= 0
  ie1: +1 x7 >= -6
  ie2: +1 x17 >= -6
  ie3: -1 x14 +1 x18 >= 0
  ie4: +1 x8 >= -6
  ie5: -1 x2 -1 x8 +1 x23 >= 7
  ie6: +1 x1 >= -5
  ie7: +1 x30 >= -5
END

0.003 sec
[18 ph, smt 0.190, isect 0.907, ins 0.060, tot 1.755]

Running SMT solver (37)... 0.003 sec
Found point (-5,-6,-17/4,-13/4,-21/4,-17/4,-21/4,-6,-5,-5,-6,-6,-7,-4,-2,-6,-19/4,-15/4,-15/4,-25/4,-17/4,-4,-3,-11/4,-11/4,-15/4,-5,-3,-15/4,-21/4)
Checking... Minimizing (25,85)... (25,15), 0.031 sec
Inserting... 

MAXIMIZE
Subject To
  eq0: -1 x1 -1 x8 +1 x27 = 6
  eq1: +1 x11 -1 x18 -1 x30 = 3
  eq2: -1 x12 +1 x16 = 0
  eq3: -1 x17 +1 x29 = 1
  eq4: -1 x16 = 6
  eq5: +1 x25 -1 x26 = 1
  eq6: -1 x11 +1 x12 = 0
  eq7: -1 x27 = 5
  eq8: -1 x9 +1 x10 = 0
  eq9: +1 x4 -1 x15 -1 x30 = 4
  eq10: +1 x6 -1 x7 = 1
  eq11: +1 x3 -1 x14 -1 x30 = 5
  eq12: -1 x24 +1 x27 -1 x30 = 3
  eq13: -1 x18 +1 x29 = 0
  eq14: +1 x4 -1 x21 = 1
  eq15: +1 x6 -1 x23 -1 x30 = 4
  eq16: -1 x24 +1 x25 = 0
  eq17: -1 x5 +1 x21 = 1
  eq18: +1 x16 -1 x19 -1 x30 = 3
  eq19: +1 x7 -1 x20 = 1
  eq20: +1 x11 -1 x13 = 1
  eq21: -1 x22 +1 x23 = 1
  eq22: -1 x2 -1 x8 +1 x11 = 6
  eq23: +1 x15 -1 x28 = 1
  eq24: -1 x9 +1 x27 = 0
  ie0: -1 x16 +1 x26 >= 0
  ie1: +1 x7 >= -6
  ie2: +1 x2 +1 x3 -1 x6 >= -6
  ie3: +1 x1 +1 x3 -1 x4 >= -6
  ie4: +1 x17 >= -6
  ie5: +1 x1 -1 x4 +1 x14 >= -6
  ie6: +1 x3 -1 x8 >= 0
  ie7: -1 x14 +1 x18 >= 0
  ie8: +1 x8 >= -6
  ie9: -1 x2 -1 x8 +1 x23 >= 7
  ie10: -1 x1 +1 x4 -1 x8 >= 6
  ie11: -1 x6 +1 x23 >= 1
  ie12: +1 x1 >= -5
  ie13: +1 x21 >= -5
  ie14: -1 x1 -1 x8 +1 x15 >= 7
END

0.001 sec
[19 ph, smt 0.193, isect 0.938, ins 0.061, tot 1.804]

Running SMT solver (38)... 0.004 sec
Found point (-5,-6,-31/8,-23/8,-39/8,-31/8,-39/8,-6,-5,-5,-6,-6,-7,-15/4,-7/4,-6,-39/8,-31/8,-31/8,-47/8,-31/8,-15/4,-11/4,-23/8,-23/8,-31/8,-5,-11/4,-31/8,-41/8)
Checking... Minimizing (26,84)... (25,20), 0.032 sec
Inserting... 

MAXIMIZE
Subject To
  eq0: -1 x1 -1 x8 +1 x27 = 6
  eq1: +1 x11 -1 x18 -1 x30 = 3
  eq2: -1 x12 +1 x16 = 0
  eq3: -1 x17 +1 x29 = 1
  eq4: -1 x16 = 6
  eq5: +1 x25 -1 x26 = 1
  eq6: -1 x11 +1 x12 = 0
  eq7: -1 x27 = 5
  eq8: -1 x9 +1 x10 = 0
  eq9: +1 x4 -1 x15 -1 x30 = 4
  eq10: +1 x6 -1 x7 = 1
  eq11: +1 x3 -1 x14 -1 x30 = 5
  eq12: -1 x24 +1 x27 -1 x30 = 3
  eq13: +1 x11 -1 x19 -1 x30 = 3
  eq14: -1 x18 +1 x29 = 0
  eq15: +1 x4 -1 x21 = 1
  eq16: +1 x6 -1 x23 -1 x30 = 4
  eq17: -1 x24 +1 x25 = 0
  eq18: -1 x5 +1 x21 = 1
  eq19: +1 x7 -1 x20 = 1
  eq20: +1 x11 -1 x13 = 1
  eq21: -1 x22 +1 x23 = 1
  eq22: -1 x2 -1 x8 +1 x11 = 6
  eq23: +1 x15 -1 x28 = 1
  eq24: -1 x9 +1 x27 = 0
  ie0: -1 x16 +1 x26 >= 0
  ie1: +1 x15 -1 x19 >= 0
  ie2: -1 x3 +1 x23 >= 0
  ie3: +1 x2 +1 x3 -1 x6 >= -6
  ie4: +1 x1 +1 x3 -1 x4 >= -6
  ie5: +1 x1 -1 x4 +1 x14 >= -6
  ie6: -1 x3 +1 x28 >= -3
  ie7: +1 x8 >= -6
  ie8: -1 x2 -1 x8 +1 x23 >= 7
  ie9: -1 x3 +1 x15 >= 0
  ie10: -1 x6 +1 x23 >= 1
  ie11: +1 x1 >= -5
  ie12: +1 x21 >= -5
  ie13: +1 x7 >= -6
  ie14: +1 x3 -1 x11 >= 2
  ie15: +1 x17 >= -6
  ie16: +1 x3 -1 x8 >= 0
  ie17: -1 x3 +1 x6 >= -1
  ie18: -1 x3 +1 x4 >= -1
  ie19: -1 x1 -1 x8 +1 x15 >= 7
END

0.003 sec
[19 ph, smt 0.197, isect 0.970, ins 0.064, tot 1.858]

Running SMT solver (39)... 0.004 sec
Found point (-5,-6,-31/8,-23/8,-39/8,-31/8,-39/8,-6,-5,-5,-6,-6,-7,-4,-2,-6,-41/8,-33/8,-33/8,-47/8,-31/8,-4,-3,-25/8,-25/8,-33/8,-5,-3,-33/8,-39/8)
Checking... Minimizing (28,83)... (27,9), 0.027 sec
Inserting... 

MAXIMIZE
Subject To
  eq0: -1 x1 -1 x8 +1 x27 = 6
  eq1: +1 x11 -1 x18 -1 x30 = 3
  eq2: -1 x12 +1 x16 = 0
  eq3: -1 x17 +1 x29 = 1
  eq4: -1 x16 = 6
  eq5: +1 x25 -1 x26 = 1
  eq6: -1 x11 +1 x12 = 0
  eq7: -1 x27 = 5
  eq8: -1 x9 +1 x10 = 0
  eq9: -1 x2 -1 x14 +1 x23 = 7
  eq10: +1 x4 -1 x15 -1 x30 = 4
  eq11: +1 x6 -1 x7 = 1
  eq12: +1 x3 -1 x14 -1 x30 = 5
  eq13: -1 x24 +1 x27 -1 x30 = 3
  eq14: +1 x11 -1 x19 -1 x30 = 3
  eq15: -1 x18 +1 x29 = 0
  eq16: +1 x4 -1 x21 = 1
  eq17: +1 x6 -1 x23 -1 x30 = 4
  eq18: -1 x24 +1 x25 = 0
  eq19: -1 x5 +1 x21 = 1
  eq20: +1 x7 -1 x20 = 1
  eq21: +1 x11 -1 x13 = 1
  eq22: -1 x22 +1 x23 = 1
  eq23: -1 x2 -1 x8 +1 x11 = 6
  eq24: +1 x15 -1 x28 = 1
  eq25: -1 x9 +1 x27 = 0
  eq26: -1 x1 -1 x14 +1 x15 = 7
  ie0: -1 x16 +1 x26 >= 0
  ie1: +1 x15 -1 x19 >= 0
  ie2: +1 x7 >= -6
  ie3: +1 x3 -1 x11 >= 2
  ie4: +1 x17 >= -6
  ie5: +1 x8 >= -6
  ie6: -1 x2 -1 x8 +1 x23 >= 7
  ie7: +1 x1 >= -5
  ie8: +1 x30 >= -5
END

0.001 sec
[20 ph, smt 0.200, isect 0.997, ins 0.065, tot 1.905]

Running SMT solver (40)... 0.008 sec
Found point (-5,-21/4,-4,-3,-5,-5,-6,-6,-5,-5,-21/4,-21/4,-7,-4,-2,-21/4,-17/4,-13/4,-4,-7,-4,-5,-4,-3,-3,-4,-5,-3,-13/4,-5)
Checking... Minimizing (30,83)... (28,5), 0.023 sec
Inserting... 

MAXIMIZE
Subject To
  eq0: -1 x1 -1 x8 +1 x27 = 6
  eq1: +1 x11 -1 x18 -1 x30 = 3
  eq2: -1 x12 +1 x16 = 0
  eq3: -1 x17 +1 x29 = 1
  eq4: +1 x25 -1 x26 = 1
  eq5: -1 x11 +1 x12 = 0
  eq6: -1 x27 = 5
  eq7: -1 x9 +1 x10 = 0
  eq8: -1 x7 = 6
  eq9: +1 x4 -1 x15 -1 x30 = 4
  eq10: -1 x14 +1 x23 -1 x30 = 5
  eq11: +1 x6 -1 x7 = 1
  eq12: +1 x6 -1 x13 = 2
  eq13: -1 x24 +1 x27 -1 x30 = 3
  eq14: -1 x6 +1 x23 = 1
  eq15: -1 x18 +1 x29 = 0
  eq16: +1 x4 -1 x21 = 1
  eq17: +1 x6 -1 x23 -1 x30 = 4
  eq18: +1 x8 -1 x19 -1 x30 = 3
  eq19: -1 x24 +1 x25 = 0
  eq20: +1 x3 -1 x6 = 1
  eq21: -1 x5 +1 x21 = 1
  eq22: +1 x7 -1 x20 = 1
  eq23: -1 x22 +1 x23 = 1
  eq24: -1 x2 -1 x8 +1 x11 = 6
  eq25: -1 x8 = 6
  eq26: +1 x15 -1 x28 = 1
  eq27: -1 x9 +1 x27 = 0
  ie0: +1 x15 -1 x23 >= 0
  ie1: +1 x21 >= -5
  ie2: +1 x16 >= -6
  ie3: +1 x1 -1 x4 +1 x14 >= -6
  ie4: -1 x2 -1 x8 +1 x23 >= 7
END

0.001 sec
[21 ph, smt 0.208, isect 1.020, ins 0.066, tot 1.951]

Running SMT solver (41)... 0.003 sec
Found point (-5,-31/6,-4,-3,-5,-5,-6,-6,-5,-5,-31/6,-31/6,-7,-23/6,-11/6,-31/6,-4,-3,-23/6,-7,-4,-29/6,-23/6,-17/6,-17/6,-23/6,-5,-17/6,-3,-31/6)
Checking... Minimizing (28,85)... (27,12), 0.027 sec
Inserting... 

MAXIMIZE
Subject To
  eq0: -1 x1 -1 x8 +1 x27 = 6
  eq1: +1 x11 -1 x18 -1 x30 = 3
  eq2: -1 x12 +1 x16 = 0
  eq3: -1 x17 +1 x29 = 1
  eq4: +1 x25 -1 x26 = 1
  eq5: -1 x11 +1 x12 = 0
  eq6: -1 x27 = 5
  eq7: -1 x9 +1 x10 = 0
  eq8: -1 x7 = 6
  eq9: +1 x4 -1 x15 -1 x30 = 4
  eq10: +1 x6 -1 x7 = 1
  eq11: +1 x6 -1 x13 = 2
  eq12: +1 x3 -1 x14 -1 x30 = 5
  eq13: -1 x24 +1 x27 -1 x30 = 3
  eq14: -1 x18 +1 x29 = 0
  eq15: +1 x4 -1 x21 = 1
  eq16: +1 x6 -1 x23 -1 x30 = 4
  eq17: +1 x8 -1 x19 -1 x30 = 3
  eq18: -1 x24 +1 x25 = 0
  eq19: +1 x3 -1 x6 = 1
  eq20: -1 x5 +1 x21 = 1
  eq21: +1 x7 -1 x20 = 1
  eq22: -1 x22 +1 x23 = 1
  eq23: -1 x2 -1 x8 +1 x11 = 6
  eq24: -1 x8 = 6
  eq25: +1 x15 -1 x28 = 1
  eq26: -1 x9 +1 x27 = 0
  ie0: +1 x15 -1 x23 >= 0
  ie1: +1 x1 +1 x3 -1 x4 >= -6
  ie2: +1 x16 >= -6
  ie3: +1 x29 >= -6
  ie4: +1 x25 >= -6
  ie5: +1 x19 >= -6
  ie6: +1 x1 -1 x4 +1 x14 >= -6
  ie7: -1 x2 -1 x8 +1 x23 >= 7
  ie8: -1 x6 +1 x23 >= 1
  ie9: +1 x21 >= -5
  ie10: -1 x2 -1 x8 +1 x27 >= 6
  ie11: -1 x1 -1 x8 +1 x15 >= 7
END

0.003 sec
[21 ph, smt 0.212, isect 1.047, ins 0.069, tot 2.000]

Running SMT solver (42)... 0.003 sec
Found point (-5,-31/6,-25/6,-19/6,-31/6,-5,-6,-6,-5,-5,-31/6,-31/6,-7,-4,-2,-31/6,-4,-3,-23/6,-7,-25/6,-29/6,-23/6,-17/6,-17/6,-23/6,-5,-3,-3,-31/6)
Checking... Minimizing (26,84)... (26,16), 0.030 sec
Inserting... 

MAXIMIZE
Subject To
  eq0: -1 x1 -1 x8 +1 x27 = 6
  eq1: +1 x11 -1 x18 -1 x30 = 3
  eq2: -1 x12 +1 x16 = 0
  eq3: -1 x17 +1 x29 = 1
  eq4: +1 x25 -1 x26 = 1
  eq5: -1 x11 +1 x12 = 0
  eq6: -1 x27 = 5
  eq7: -1 x9 +1 x10 = 0
  eq8: -1 x7 = 6
  eq9: +1 x4 -1 x15 -1 x30 = 4
  eq10: +1 x6 -1 x7 = 1
  eq11: +1 x3 -1 x14 -1 x30 = 5
  eq12: +1 x6 -1 x13 = 2
  eq13: -1 x24 +1 x27 -1 x30 = 3
  eq14: -1 x18 +1 x29 = 0
  eq15: +1 x4 -1 x21 = 1
  eq16: +1 x6 -1 x23 -1 x30 = 4
  eq17: +1 x8 -1 x19 -1 x30 = 3
  eq18: -1 x24 +1 x25 = 0
  eq19: -1 x5 +1 x21 = 1
  eq20: +1 x7 -1 x20 = 1
  eq21: -1 x22 +1 x23 = 1
  eq22: -1 x2 -1 x8 +1 x11 = 6
  eq23: -1 x8 = 6
  eq24: +1 x15 -1 x28 = 1
  eq25: -1 x9 +1 x27 = 0
  ie0: +1 x2 +1 x3 -1 x6 >= -6
  ie1: -1 x3 +1 x8 >= -2
  ie2: +1 x1 +1 x3 -1 x4 >= -6
  ie3: +1 x16 >= -6
  ie4: +1 x29 >= -6
  ie5: +1 x25 >= -6
  ie6: +1 x19 >= -6
  ie7: +1 x1 -1 x4 +1 x14 >= -6
  ie8: -1 x2 -1 x8 +1 x23 >= 7
  ie9: -1 x6 +1 x23 >= 1
  ie10: +1 x21 >= -5
  ie11: -1 x2 -1 x8 +1 x27 >= 6
  ie12: +1 x4 -1 x6 >= 0
  ie13: +1 x3 -1 x8 >= 0
  ie14: -1 x14 +1 x18 >= 0
  ie15: -1 x1 -1 x8 +1 x15 >= 7
END

0.003 sec
[21 ph, smt 0.215, isect 1.078, ins 0.071, tot 2.051]

Running SMT solver (43)... 0.006 sec
Found point (-4,-5,-4,-2,-4,-3,-4,-6,-4,-4,-5,-5,-6,-8,-5,-5,-6,-5,-6,-5,-3,-7,-6,-4,-4,-5,-4,-6,-5,-1)
Checking... Minimizing (28,76)... (28,8), 0.025 sec
Inserting... 

MAXIMIZE
Subject To
  eq0: -1 x1 -1 x8 +1 x27 = 6
  eq1: -1 x12 +1 x16 = 0
  eq2: -1 x17 +1 x29 = 1
  eq3: +1 x25 -1 x26 = 1
  eq4: -1 x11 +1 x12 = 0
  eq5: -1 x8 +1 x11 = 1
  eq6: -1 x15 = 5
  eq7: -1 x9 +1 x10 = 0
  eq8: -1 x2 -1 x14 +1 x23 = 7
  eq9: +1 x4 -1 x15 -1 x30 = 4
  eq10: -1 x23 = 6
  eq11: -1 x1 -1 x19 +1 x24 = 6
  eq12: +1 x6 -1 x7 = 1
  eq13: +1 x3 -1 x14 -1 x30 = 5
  eq14: -1 x18 +1 x29 = 0
  eq15: -1 x19 = 6
  eq16: +1 x4 -1 x21 = 1
  eq17: +1 x6 -1 x23 -1 x30 = 4
  eq18: -1 x24 +1 x25 = 0
  eq19: -1 x5 +1 x21 = 1
  eq20: +1 x7 -1 x20 = 1
  eq21: +1 x11 -1 x13 = 1
  eq22: -1 x22 +1 x23 = 1
  eq23: -1 x2 -1 x8 +1 x11 = 6
  eq24: -1 x2 +1 x18 -1 x19 = 6
  eq25: +1 x15 -1 x28 = 1
  eq26: -1 x9 +1 x27 = 0
  eq27: -1 x1 -1 x14 +1 x15 = 7
  ie0: +1 x27 >= -5
  ie1: -1 x3 +1 x8 >= -2
  ie2: +1 x8 >= -6
  ie3: -1 x2 +1 x30 >= 2
  ie4: -1 x3 +1 x27 >= -2
  ie5: -1 x8 +1 x19 +1 x30 >= -3
  ie6: +1 x6 -1 x11 >= 1
  ie7: -1 x2 -1 x8 +1 x18 +1 x30 >= 2
END

0.001 sec
[22 ph, smt 0.221, isect 1.103, ins 0.072, tot 2.097]

Running SMT solver (44)... 0.004 sec
Found point (-17/4,-21/4,-4,-9/4,-17/4,-13/4,-17/4,-6,-17/4,-17/4,-21/4,-21/4,-25/4,-31/4,-5,-21/4,-6,-5,-23/4,-21/4,-13/4,-7,-6,-4,-4,-5,-17/4,-6,-5,-5/4)
Checking... Minimizing (27,76)... (27,12), 0.027 sec
Inserting... 

MAXIMIZE
Subject To
  eq0: -1 x1 -1 x8 +1 x27 = 6
  eq1: -1 x17 = 6
  eq2: -1 x12 +1 x16 = 0
  eq3: -1 x17 +1 x29 = 1
  eq4: +1 x25 -1 x26 = 1
  eq5: -1 x11 +1 x12 = 0
  eq6: -1 x15 = 5
  eq7: -1 x9 +1 x10 = 0
  eq8: -1 x2 -1 x14 +1 x23 = 7
  eq9: +1 x4 -1 x15 -1 x30 = 4
  eq10: -1 x23 = 6
  eq11: -1 x1 -1 x19 +1 x24 = 6
  eq12: +1 x6 -1 x7 = 1
  eq13: +1 x3 -1 x14 -1 x30 = 5
  eq14: -1 x18 +1 x29 = 0
  eq15: +1 x4 -1 x21 = 1
  eq16: +1 x6 -1 x23 -1 x30 = 4
  eq17: -1 x24 +1 x25 = 0
  eq18: -1 x5 +1 x21 = 1
  eq19: +1 x7 -1 x20 = 1
  eq20: +1 x11 -1 x13 = 1
  eq21: -1 x22 +1 x23 = 1
  eq22: -1 x2 -1 x8 +1 x11 = 6
  eq23: -1 x2 +1 x18 -1 x19 = 6
  eq24: +1 x15 -1 x28 = 1
  eq25: -1 x9 +1 x27 = 0
  eq26: -1 x1 -1 x14 +1 x15 = 7
  ie0: +1 x7 >= -6
  ie1: +1 x27 >= -5
  ie2: -1 x3 +1 x8 >= -2
  ie3: -1 x2 -1 x8 +1 x19 +1 x30 >= 2
  ie4: +1 x19 >= -6
  ie5: +1 x8 >= -6
  ie6: -1 x2 +1 x30 >= 2
  ie7: -1 x3 +1 x27 >= -2
  ie8: +1 x6 -1 x11 >= 1
  ie9: +1 x1 >= -5
  ie10: +1 x4 -1 x11 >= 1
  ie11: -1 x2 -1 x8 +1 x18 +1 x30 >= 2
END

0.003 sec
[22 ph, smt 0.226, isect 1.130, ins 0.075, tot 2.147]

Running SMT solver (45)... 0.004 sec
Found point (-31/8,-39/8,-6,-31/8,-47/8,-39/8,-47/8,-47/8,-15/4,-15/4,-19/4,-19/4,-55/8,-65/8,-5,-19/4,-47/8,-39/8,-6,-55/8,-39/8,-7,-6,-31/8,-31/8,-39/8,-15/4,-6,-39/8,-23/8)
Checking... Minimizing (30,78)... (29,2), 0.026 sec
Inserting... 

MAXIMIZE
Subject To
  eq0: -1 x1 -1 x8 +1 x27 = 6
  eq1: -1 x12 +1 x16 = 0
  eq2: -1 x17 +1 x29 = 1
  eq3: +1 x25 -1 x26 = 1
  eq4: -1 x11 +1 x12 = 0
  eq5: -1 x15 = 5
  eq6: -1 x9 +1 x10 = 0
  eq7: -1 x2 -1 x14 +1 x23 = 7
  eq8: +1 x4 -1 x15 -1 x30 = 4
  eq9: -1 x14 +1 x23 -1 x30 = 5
  eq10: -1 x23 = 6
  eq11: -1 x1 -1 x19 +1 x24 = 6
  eq12: +1 x6 -1 x7 = 1
  eq13: +1 x3 -1 x14 -1 x30 = 5
  eq14: +1 x6 -1 x13 = 2
  eq15: -1 x18 +1 x29 = 0
  eq16: -1 x19 = 6
  eq17: +1 x4 -1 x21 = 1
  eq18: +1 x6 -1 x23 -1 x30 = 4
  eq19: +1 x8 -1 x19 -1 x30 = 3
  eq20: +1 x18 -1 x19 -1 x30 = 4
  eq21: -1 x24 +1 x25 = 0
  eq22: -1 x5 +1 x21 = 1
  eq23: +1 x7 -1 x20 = 1
  eq24: -1 x22 +1 x23 = 1
  eq25: -1 x2 -1 x8 +1 x11 = 6
  eq26: +1 x15 -1 x28 = 1
  eq27: -1 x9 +1 x27 = 0
  eq28: -1 x1 -1 x14 +1 x15 = 7
  ie0: +1 x27 >= -5
  ie1: +1 x8 >= -6
END

0.001 sec
[23 ph, smt 0.230, isect 1.156, ins 0.076, tot 2.193]

Running SMT solver (46)... 0.003 sec
Found point (-31/8,-39/8,-47/8,-15/4,-23/4,-19/4,-23/4,-23/4,-29/8,-29/8,-37/8,-37/8,-27/4,-65/8,-5,-37/8,-47/8,-39/8,-6,-27/4,-19/4,-7,-6,-31/8,-31/8,-39/8,-29/8,-6,-39/8,-11/4)
Checking... Minimizing (28,76)... (28,5), 0.026 sec
Inserting... 

MAXIMIZE
Subject To
  eq0: -1 x1 -1 x8 +1 x27 = 6
  eq1: -1 x12 +1 x16 = 0
  eq2: -1 x17 +1 x29 = 1
  eq3: +1 x25 -1 x26 = 1
  eq4: -1 x11 +1 x12 = 0
  eq5: -1 x15 = 5
  eq6: -1 x9 +1 x10 = 0
  eq7: -1 x2 -1 x14 +1 x23 = 7
  eq8: +1 x4 -1 x15 -1 x30 = 4
  eq9: -1 x23 = 6
  eq10: -1 x1 -1 x19 +1 x24 = 6
  eq11: +1 x6 -1 x7 = 1
  eq12: +1 x3 -1 x14 -1 x30 = 5
  eq13: +1 x6 -1 x13 = 2
  eq14: -1 x18 +1 x29 = 0
  eq15: -1 x19 = 6
  eq16: +1 x4 -1 x21 = 1
  eq17: +1 x6 -1 x23 -1 x30 = 4
  eq18: +1 x8 -1 x19 -1 x30 = 3
  eq19: -1 x24 +1 x25 = 0
  eq20: -1 x5 +1 x21 = 1
  eq21: +1 x7 -1 x20 = 1
  eq22: -1 x22 +1 x23 = 1
  eq23: -1 x2 -1 x8 +1 x11 = 6
  eq24: -1 x2 +1 x18 -1 x19 = 6
  eq25: +1 x15 -1 x28 = 1
  eq26: -1 x9 +1 x27 = 0
  eq27: -1 x1 -1 x14 +1 x15 = 7
  ie0: -1 x2 +1 x30 >= 2
  ie1: +1 x17 >= -6
  ie2: +1 x27 >= -5
  ie3: +1 x29 >= -6
  ie4: +1 x8 >= -6
END

0.003 sec
[23 ph, smt 0.233, isect 1.182, ins 0.079, tot 2.240]

Running SMT solver (47)... 0.003 sec
Found point (-31/8,-39/8,-97/16,-63/16,-95/16,-79/16,-95/16,-95/16,-61/16,-61/16,-77/16,-77/16,-111/16,-65/8,-5,-77/16,-47/8,-39/8,-6,-111/16,-79/16,-7,-6,-31/8,-31/8,-39/8,-61/16,-6,-39/8,-47/16)
Checking... Minimizing (28,78)... (28,7), 0.028 sec
Inserting... 

MAXIMIZE
Subject To
  eq0: -1 x1 -1 x8 +1 x27 = 6
  eq1: -1 x12 +1 x16 = 0
  eq2: -1 x17 +1 x29 = 1
  eq3: +1 x25 -1 x26 = 1
  eq4: -1 x11 +1 x12 = 0
  eq5: -1 x15 = 5
  eq6: -1 x9 +1 x10 = 0
  eq7: -1 x2 -1 x14 +1 x23 = 7
  eq8: +1 x4 -1 x15 -1 x30 = 4
  eq9: -1 x23 = 6
  eq10: -1 x1 -1 x19 +1 x24 = 6
  eq11: +1 x6 -1 x7 = 1
  eq12: +1 x3 -1 x14 -1 x30 = 5
  eq13: +1 x6 -1 x13 = 2
  eq14: -1 x18 +1 x29 = 0
  eq15: -1 x19 = 6
  eq16: +1 x4 -1 x21 = 1
  eq17: +1 x6 -1 x23 -1 x30 = 4
  eq18: +1 x8 -1 x19 -1 x30 = 3
  eq19: -1 x24 +1 x25 = 0
  eq20: -1 x5 +1 x21 = 1
  eq21: +1 x7 -1 x20 = 1
  eq22: -1 x22 +1 x23 = 1
  eq23: -1 x2 -1 x8 +1 x11 = 6
  eq24: -1 x2 +1 x18 -1 x19 = 6
  eq25: +1 x15 -1 x28 = 1
  eq26: -1 x9 +1 x27 = 0
  eq27: -1 x1 -1 x14 +1 x15 = 7
  ie0: +1 x17 >= -6
  ie1: +1 x27 >= -5
  ie2: -1 x3 +1 x15 >= 0
  ie3: +1 x2 -1 x3 +1 x14 >= -7
  ie4: +1 x29 >= -6
  ie5: -1 x3 +1 x28 >= -3
  ie6: +1 x8 >= -6
END

0.001 sec
[24 ph, smt 0.236, isect 1.210, ins 0.080, tot 2.288]

Running SMT solver (48)... 0.004 sec
No more solutions found



Solution:

\\\\\\\\\\\\\\\\\\\\\\\\\\\\\\\\\\\\\\\\ file 0

MAXIMIZE
Subject To
  eq0: -1 x1 -1 x8 +1 x27 = 6
  eq1: -1 x12 +1 x16 = 0
  eq2: -1 x17 +1 x29 = 1
  eq3: +1 x25 -1 x26 = 1
  eq4: -1 x11 +1 x12 = 0
  eq5: -1 x15 = 5
  eq6: -1 x9 +1 x10 = 0
  eq7: -1 x2 -1 x14 +1 x23 = 7
  eq8: +1 x4 -1 x15 -1 x30 = 4
  eq9: -1 x23 = 6
  eq10: -1 x1 -1 x19 +1 x24 = 6
  eq11: +1 x6 -1 x7 = 1
  eq12: +1 x3 -1 x14 -1 x30 = 5
  eq13: +1 x6 -1 x13 = 2
  eq14: -1 x18 +1 x29 = 0
  eq15: -1 x19 = 6
  eq16: +1 x4 -1 x21 = 1
  eq17: +1 x6 -1 x23 -1 x30 = 4
  eq18: +1 x8 -1 x19 -1 x30 = 3
  eq19: -1 x24 +1 x25 = 0
  eq20: -1 x5 +1 x21 = 1
  eq21: +1 x7 -1 x20 = 1
  eq22: -1 x22 +1 x23 = 1
  eq23: -1 x2 -1 x8 +1 x11 = 6
  eq24: -1 x2 +1 x18 -1 x19 = 6
  eq25: +1 x15 -1 x28 = 1
  eq26: -1 x9 +1 x27 = 0
  eq27: -1 x1 -1 x14 +1 x15 = 7
  ie0: +1 x17 >= -6
  ie1: +1 x27 >= -5
  ie2: -1 x3 +1 x15 >= 0
  ie3: +1 x2 -1 x3 +1 x14 >= -7
  ie4: +1 x29 >= -6
  ie5: -1 x3 +1 x28 >= -3
  ie6: +1 x8 >= -6
END

\\\\\\\\\\\\\\\\\\\\\\\\\\\\\\\\\\\\\\\\ file 1

MAXIMIZE
Subject To
  eq0: -1 x1 -1 x8 +1 x27 = 6
  eq1: -1 x12 +1 x16 = 0
  eq2: -1 x17 +1 x29 = 1
  eq3: +1 x25 -1 x26 = 1
  eq4: -1 x11 +1 x12 = 0
  eq5: -1 x15 = 5
  eq6: -1 x9 +1 x10 = 0
  eq7: -1 x2 -1 x14 +1 x23 = 7
  eq8: +1 x4 -1 x15 -1 x30 = 4
  eq9: -1 x23 = 6
  eq10: -1 x1 -1 x19 +1 x24 = 6
  eq11: +1 x6 -1 x7 = 1
  eq12: +1 x3 -1 x14 -1 x30 = 5
  eq13: +1 x6 -1 x13 = 2
  eq14: -1 x18 +1 x29 = 0
  eq15: -1 x19 = 6
  eq16: +1 x4 -1 x21 = 1
  eq17: +1 x6 -1 x23 -1 x30 = 4
  eq18: +1 x8 -1 x19 -1 x30 = 3
  eq19: -1 x24 +1 x25 = 0
  eq20: -1 x5 +1 x21 = 1
  eq21: +1 x7 -1 x20 = 1
  eq22: -1 x22 +1 x23 = 1
  eq23: -1 x2 -1 x8 +1 x11 = 6
  eq24: -1 x2 +1 x18 -1 x19 = 6
  eq25: +1 x15 -1 x28 = 1
  eq26: -1 x9 +1 x27 = 0
  eq27: -1 x1 -1 x14 +1 x15 = 7
  ie0: -1 x2 +1 x30 >= 2
  ie1: +1 x17 >= -6
  ie2: +1 x27 >= -5
  ie3: +1 x29 >= -6
  ie4: +1 x8 >= -6
END

\\\\\\\\\\\\\\\\\\\\\\\\\\\\\\\\\\\\\\\\ file 2

MAXIMIZE
Subject To
  eq0: -1 x1 -1 x8 +1 x27 = 6
  eq1: -1 x17 = 6
  eq2: -1 x12 +1 x16 = 0
  eq3: -1 x17 +1 x29 = 1
  eq4: +1 x25 -1 x26 = 1
  eq5: -1 x11 +1 x12 = 0
  eq6: -1 x15 = 5
  eq7: -1 x9 +1 x10 = 0
  eq8: -1 x2 -1 x14 +1 x23 = 7
  eq9: +1 x4 -1 x15 -1 x30 = 4
  eq10: -1 x23 = 6
  eq11: -1 x1 -1 x19 +1 x24 = 6
  eq12: +1 x6 -1 x7 = 1
  eq13: +1 x3 -1 x14 -1 x30 = 5
  eq14: -1 x18 +1 x29 = 0
  eq15: +1 x4 -1 x21 = 1
  eq16: +1 x6 -1 x23 -1 x30 = 4
  eq17: -1 x24 +1 x25 = 0
  eq18: -1 x5 +1 x21 = 1
  eq19: +1 x7 -1 x20 = 1
  eq20: +1 x11 -1 x13 = 1
  eq21: -1 x22 +1 x23 = 1
  eq22: -1 x2 -1 x8 +1 x11 = 6
  eq23: -1 x2 +1 x18 -1 x19 = 6
  eq24: +1 x15 -1 x28 = 1
  eq25: -1 x9 +1 x27 = 0
  eq26: -1 x1 -1 x14 +1 x15 = 7
  ie0: +1 x7 >= -6
  ie1: +1 x27 >= -5
  ie2: -1 x3 +1 x8 >= -2
  ie3: -1 x2 -1 x8 +1 x19 +1 x30 >= 2
  ie4: +1 x19 >= -6
  ie5: +1 x8 >= -6
  ie6: -1 x2 +1 x30 >= 2
  ie7: -1 x3 +1 x27 >= -2
  ie8: +1 x6 -1 x11 >= 1
  ie9: +1 x1 >= -5
  ie10: +1 x4 -1 x11 >= 1
  ie11: -1 x2 -1 x8 +1 x18 +1 x30 >= 2
END

\\\\\\\\\\\\\\\\\\\\\\\\\\\\\\\\\\\\\\\\ file 3

MAXIMIZE
Subject To
  eq0: -1 x1 -1 x8 +1 x27 = 6
  eq1: +1 x11 -1 x18 -1 x30 = 3
  eq2: -1 x12 +1 x16 = 0
  eq3: -1 x17 +1 x29 = 1
  eq4: +1 x25 -1 x26 = 1
  eq5: -1 x11 +1 x12 = 0
  eq6: -1 x27 = 5
  eq7: -1 x9 +1 x10 = 0
  eq8: -1 x7 = 6
  eq9: +1 x4 -1 x15 -1 x30 = 4
  eq10: +1 x6 -1 x7 = 1
  eq11: +1 x3 -1 x14 -1 x30 = 5
  eq12: +1 x6 -1 x13 = 2
  eq13: -1 x24 +1 x27 -1 x30 = 3
  eq14: -1 x18 +1 x29 = 0
  eq15: +1 x4 -1 x21 = 1
  eq16: +1 x6 -1 x23 -1 x30 = 4
  eq17: +1 x8 -1 x19 -1 x30 = 3
  eq18: -1 x24 +1 x25 = 0
  eq19: -1 x5 +1 x21 = 1
  eq20: +1 x7 -1 x20 = 1
  eq21: -1 x22 +1 x23 = 1
  eq22: -1 x2 -1 x8 +1 x11 = 6
  eq23: -1 x8 = 6
  eq24: +1 x15 -1 x28 = 1
  eq25: -1 x9 +1 x27 = 0
  ie0: +1 x2 +1 x3 -1 x6 >= -6
  ie1: -1 x3 +1 x8 >= -2
  ie2: +1 x1 +1 x3 -1 x4 >= -6
  ie3: +1 x16 >= -6
  ie4: +1 x29 >= -6
  ie5: +1 x25 >= -6
  ie6: +1 x19 >= -6
  ie7: +1 x1 -1 x4 +1 x14 >= -6
  ie8: -1 x2 -1 x8 +1 x23 >= 7
  ie9: -1 x6 +1 x23 >= 1
  ie10: +1 x21 >= -5
  ie11: -1 x2 -1 x8 +1 x27 >= 6
  ie12: +1 x4 -1 x6 >= 0
  ie13: +1 x3 -1 x8 >= 0
  ie14: -1 x14 +1 x18 >= 0
  ie15: -1 x1 -1 x8 +1 x15 >= 7
END

\\\\\\\\\\\\\\\\\\\\\\\\\\\\\\\\\\\\\\\\ file 4

MAXIMIZE
Subject To
  eq0: -1 x1 -1 x8 +1 x27 = 6
  eq1: +1 x11 -1 x18 -1 x30 = 3
  eq2: -1 x12 +1 x16 = 0
  eq3: -1 x17 +1 x29 = 1
  eq4: -1 x16 = 6
  eq5: +1 x25 -1 x26 = 1
  eq6: -1 x11 +1 x12 = 0
  eq7: -1 x27 = 5
  eq8: -1 x9 +1 x10 = 0
  eq9: -1 x2 -1 x14 +1 x23 = 7
  eq10: +1 x4 -1 x15 -1 x30 = 4
  eq11: +1 x6 -1 x7 = 1
  eq12: +1 x3 -1 x14 -1 x30 = 5
  eq13: -1 x24 +1 x27 -1 x30 = 3
  eq14: +1 x11 -1 x19 -1 x30 = 3
  eq15: -1 x18 +1 x29 = 0
  eq16: +1 x4 -1 x21 = 1
  eq17: +1 x6 -1 x23 -1 x30 = 4
  eq18: -1 x24 +1 x25 = 0
  eq19: -1 x5 +1 x21 = 1
  eq20: +1 x7 -1 x20 = 1
  eq21: +1 x11 -1 x13 = 1
  eq22: -1 x22 +1 x23 = 1
  eq23: -1 x2 -1 x8 +1 x11 = 6
  eq24: +1 x15 -1 x28 = 1
  eq25: -1 x9 +1 x27 = 0
  eq26: -1 x1 -1 x14 +1 x15 = 7
  ie0: -1 x16 +1 x26 >= 0
  ie1: +1 x15 -1 x19 >= 0
  ie2: +1 x7 >= -6
  ie3: +1 x3 -1 x11 >= 2
  ie4: +1 x17 >= -6
  ie5: +1 x8 >= -6
  ie6: -1 x2 -1 x8 +1 x23 >= 7
  ie7: +1 x1 >= -5
  ie8: +1 x30 >= -5
END

\\\\\\\\\\\\\\\\\\\\\\\\\\\\\\\\\\\\\\\\ file 5

MAXIMIZE
Subject To
  eq0: -1 x1 -1 x8 +1 x27 = 6
  eq1: +1 x11 -1 x18 -1 x30 = 3
  eq2: -1 x12 +1 x16 = 0
  eq3: -1 x17 +1 x29 = 1
  eq4: -1 x16 = 6
  eq5: +1 x25 -1 x26 = 1
  eq6: -1 x11 +1 x12 = 0
  eq7: -1 x27 = 5
  eq8: -1 x9 +1 x10 = 0
  eq9: +1 x4 -1 x15 -1 x30 = 4
  eq10: +1 x6 -1 x7 = 1
  eq11: +1 x3 -1 x14 -1 x30 = 5
  eq12: -1 x24 +1 x27 -1 x30 = 3
  eq13: +1 x11 -1 x19 -1 x30 = 3
  eq14: -1 x18 +1 x29 = 0
  eq15: +1 x4 -1 x21 = 1
  eq16: +1 x6 -1 x23 -1 x30 = 4
  eq17: -1 x24 +1 x25 = 0
  eq18: -1 x5 +1 x21 = 1
  eq19: +1 x7 -1 x20 = 1
  eq20: +1 x11 -1 x13 = 1
  eq21: -1 x22 +1 x23 = 1
  eq22: -1 x2 -1 x8 +1 x11 = 6
  eq23: +1 x15 -1 x28 = 1
  eq24: -1 x9 +1 x27 = 0
  ie0: -1 x16 +1 x26 >= 0
  ie1: +1 x15 -1 x19 >= 0
  ie2: -1 x3 +1 x23 >= 0
  ie3: +1 x2 +1 x3 -1 x6 >= -6
  ie4: +1 x1 +1 x3 -1 x4 >= -6
  ie5: +1 x1 -1 x4 +1 x14 >= -6
  ie6: -1 x3 +1 x28 >= -3
  ie7: +1 x8 >= -6
  ie8: -1 x2 -1 x8 +1 x23 >= 7
  ie9: -1 x3 +1 x15 >= 0
  ie10: -1 x6 +1 x23 >= 1
  ie11: +1 x1 >= -5
  ie12: +1 x21 >= -5
  ie13: +1 x7 >= -6
  ie14: +1 x3 -1 x11 >= 2
  ie15: +1 x17 >= -6
  ie16: +1 x3 -1 x8 >= 0
  ie17: -1 x3 +1 x6 >= -1
  ie18: -1 x3 +1 x4 >= -1
  ie19: -1 x1 -1 x8 +1 x15 >= 7
END

\\\\\\\\\\\\\\\\\\\\\\\\\\\\\\\\\\\\\\\\ file 6

MAXIMIZE
Subject To
  eq0: -1 x1 -1 x8 +1 x27 = 6
  eq1: +1 x11 -1 x18 -1 x30 = 3
  eq2: -1 x12 +1 x16 = 0
  eq3: -1 x17 +1 x29 = 1
  eq4: -1 x16 = 6
  eq5: +1 x25 -1 x26 = 1
  eq6: -1 x11 +1 x12 = 0
  eq7: -1 x27 = 5
  eq8: -1 x9 +1 x10 = 0
  eq9: +1 x4 -1 x15 -1 x30 = 4
  eq10: +1 x6 -1 x7 = 1
  eq11: +1 x3 -1 x14 -1 x30 = 5
  eq12: -1 x24 +1 x27 -1 x30 = 3
  eq13: -1 x18 +1 x29 = 0
  eq14: +1 x4 -1 x21 = 1
  eq15: +1 x6 -1 x23 -1 x30 = 4
  eq16: -1 x24 +1 x25 = 0
  eq17: -1 x5 +1 x21 = 1
  eq18: +1 x16 -1 x19 -1 x30 = 3
  eq19: +1 x7 -1 x20 = 1
  eq20: +1 x11 -1 x13 = 1
  eq21: -1 x22 +1 x23 = 1
  eq22: -1 x2 -1 x8 +1 x11 = 6
  eq23: +1 x15 -1 x28 = 1
  eq24: -1 x9 +1 x27 = 0
  ie0: -1 x16 +1 x26 >= 0
  ie1: +1 x7 >= -6
  ie2: +1 x2 +1 x3 -1 x6 >= -6
  ie3: +1 x1 +1 x3 -1 x4 >= -6
  ie4: +1 x17 >= -6
  ie5: +1 x1 -1 x4 +1 x14 >= -6
  ie6: +1 x3 -1 x8 >= 0
  ie7: -1 x14 +1 x18 >= 0
  ie8: +1 x8 >= -6
  ie9: -1 x2 -1 x8 +1 x23 >= 7
  ie10: -1 x1 +1 x4 -1 x8 >= 6
  ie11: -1 x6 +1 x23 >= 1
  ie12: +1 x1 >= -5
  ie13: +1 x21 >= -5
  ie14: -1 x1 -1 x8 +1 x15 >= 7
END

\\\\\\\\\\\\\\\\\\\\\\\\\\\\\\\\\\\\\\\\ file 7

MAXIMIZE
Subject To
  eq0: -1 x1 -1 x8 +1 x27 = 6
  eq1: +1 x11 -1 x18 -1 x30 = 3
  eq2: -1 x12 +1 x16 = 0
  eq3: -1 x17 +1 x29 = 1
  eq4: -1 x16 = 6
  eq5: +1 x25 -1 x26 = 1
  eq6: -1 x11 +1 x12 = 0
  eq7: -1 x27 = 5
  eq8: -1 x9 +1 x10 = 0
  eq9: -1 x2 -1 x14 +1 x23 = 7
  eq10: +1 x4 -1 x15 -1 x30 = 4
  eq11: +1 x6 -1 x7 = 1
  eq12: +1 x3 -1 x14 -1 x30 = 5
  eq13: -1 x24 +1 x27 -1 x30 = 3
  eq14: -1 x18 +1 x29 = 0
  eq15: +1 x4 -1 x21 = 1
  eq16: +1 x6 -1 x23 -1 x30 = 4
  eq17: -1 x24 +1 x25 = 0
  eq18: -1 x5 +1 x21 = 1
  eq19: +1 x16 -1 x19 -1 x30 = 3
  eq20: +1 x7 -1 x20 = 1
  eq21: +1 x11 -1 x13 = 1
  eq22: -1 x22 +1 x23 = 1
  eq23: -1 x2 -1 x8 +1 x11 = 6
  eq24: +1 x15 -1 x28 = 1
  eq25: -1 x9 +1 x27 = 0
  eq26: -1 x1 -1 x14 +1 x15 = 7
  ie0: -1 x16 +1 x26 >= 0
  ie1: +1 x7 >= -6
  ie2: +1 x17 >= -6
  ie3: -1 x14 +1 x18 >= 0
  ie4: +1 x8 >= -6
  ie5: -1 x2 -1 x8 +1 x23 >= 7
  ie6: +1 x1 >= -5
  ie7: +1 x30 >= -5
END

\\\\\\\\\\\\\\\\\\\\\\\\\\\\\\\\\\\\\\\\ file 8

MAXIMIZE
Subject To
  eq0: -1 x1 -1 x8 +1 x27 = 6
  eq1: -1 x17 = 6
  eq2: -1 x12 +1 x16 = 0
  eq3: -1 x17 +1 x29 = 1
  eq4: +1 x25 -1 x26 = 1
  eq5: -1 x11 +1 x12 = 0
  eq6: -1 x1 = 5
  eq7: -1 x9 +1 x10 = 0
  eq8: -1 x2 -1 x14 +1 x23 = 7
  eq9: +1 x4 -1 x15 -1 x30 = 4
  eq10: -1 x1 -1 x19 +1 x24 = 6
  eq11: +1 x6 -1 x7 = 1
  eq12: +1 x3 -1 x14 -1 x30 = 5
  eq13: -1 x18 +1 x29 = 0
  eq14: +1 x4 -1 x21 = 1
  eq15: +1 x6 -1 x23 -1 x30 = 4
  eq16: -1 x24 +1 x25 = 0
  eq17: -1 x5 +1 x21 = 1
  eq18: +1 x7 -1 x20 = 1
  eq19: -1 x2 = 6
  eq20: +1 x11 -1 x13 = 1
  eq21: -1 x22 +1 x23 = 1
  eq22: -1 x2 -1 x8 +1 x11 = 6
  eq23: -1 x2 +1 x18 -1 x19 = 6
  eq24: +1 x15 -1 x28 = 1
  eq25: -1 x9 +1 x27 = 0
  eq26: -1 x1 -1 x14 +1 x15 = 7
  ie0: -1 x2 +1 x30 >= 2
  ie1: -1 x3 +1 x27 >= -2
  ie2: +1 x27 >= -5
  ie3: -1 x2 -1 x8 +1 x29 >= 6
  ie4: -1 x3 +1 x8 >= -2
  ie5: -1 x14 +1 x18 >= 0
  ie6: -1 x2 -1 x8 +1 x23 >= 7
END

\\\\\\\\\\\\\\\\\\\\\\\\\\\\\\\\\\\\\\\\ file 9

MAXIMIZE
Subject To
  eq0: -1 x1 -1 x8 +1 x27 = 6
  eq1: -1 x17 = 6
  eq2: -1 x12 +1 x16 = 0
  eq3: -1 x17 +1 x29 = 1
  eq4: +1 x25 -1 x26 = 1
  eq5: -1 x11 +1 x12 = 0
  eq6: -1 x1 = 5
  eq7: -1 x9 +1 x10 = 0
  eq8: -1 x2 -1 x14 +1 x23 = 7
  eq9: +1 x4 -1 x15 -1 x30 = 4
  eq10: -1 x1 -1 x19 +1 x24 = 6
  eq11: +1 x6 -1 x7 = 1
  eq12: +1 x3 -1 x14 -1 x30 = 5
  eq13: +1 x11 -1 x19 -1 x30 = 3
  eq14: -1 x18 +1 x29 = 0
  eq15: +1 x4 -1 x21 = 1
  eq16: +1 x6 -1 x23 -1 x30 = 4
  eq17: -1 x24 +1 x25 = 0
  eq18: -1 x5 +1 x21 = 1
  eq19: +1 x7 -1 x20 = 1
  eq20: -1 x2 = 6
  eq21: +1 x11 -1 x13 = 1
  eq22: -1 x22 +1 x23 = 1
  eq23: -1 x2 -1 x8 +1 x11 = 6
  eq24: -1 x2 +1 x18 -1 x19 = 6
  eq25: +1 x15 -1 x28 = 1
  eq26: -1 x9 +1 x27 = 0
  eq27: -1 x1 -1 x14 +1 x15 = 7
  ie0: +1 x15 -1 x19 >= 0
  ie1: +1 x27 >= -5
  ie2: -1 x2 -1 x8 +1 x29 >= 6
  ie3: +1 x3 -1 x11 >= 2
  ie4: -1 x2 -1 x8 +1 x23 >= 7
END

\\\\\\\\\\\\\\\\\\\\\\\\\\\\\\\\\\\\\\\\ file 10

MAXIMIZE
Subject To
  eq0: -1 x1 -1 x8 +1 x27 = 6
  eq1: -1 x17 = 6
  eq2: -1 x12 +1 x16 = 0
  eq3: -1 x17 +1 x29 = 1
  eq4: +1 x25 -1 x26 = 1
  eq5: -1 x11 +1 x12 = 0
  eq6: -1 x1 = 5
  eq7: -1 x9 +1 x10 = 0
  eq8: -1 x2 -1 x14 +1 x23 = 7
  eq9: +1 x4 -1 x15 -1 x30 = 4
  eq10: -1 x1 -1 x19 +1 x24 = 6
  eq11: +1 x6 -1 x7 = 1
  eq12: +1 x3 -1 x14 -1 x30 = 5
  eq13: +1 x11 -1 x19 -1 x30 = 3
  eq14: -1 x18 +1 x29 = 0
  eq15: -1 x1 -1 x19 +1 x25 = 6
  eq16: +1 x4 -1 x21 = 1
  eq17: +1 x6 -1 x23 -1 x30 = 4
  eq18: -1 x5 +1 x21 = 1
  eq19: +1 x7 -1 x20 = 1
  eq20: -1 x2 -1 x19 +1 x29 = 6
  eq21: -1 x2 = 6
  eq22: +1 x11 -1 x13 = 1
  eq23: -1 x22 +1 x23 = 1
  eq24: -1 x2 -1 x8 +1 x11 = 6
  eq25: +1 x15 -1 x28 = 1
  eq26: -1 x9 +1 x27 = 0
  eq27: -1 x1 -1 x14 +1 x15 = 7
  ie0: +1 x15 -1 x19 >= 0
  ie1: +1 x27 >= -5
  ie2: -1 x2 +1 x11 -1 x19 >= 6
  ie3: -1 x2 -1 x19 +1 x23 >= 7
END

\\\\\\\\\\\\\\\\\\\\\\\\\\\\\\\\\\\\\\\\ file 11

MAXIMIZE
Subject To
  eq0: -1 x1 -1 x8 +1 x27 = 6
  eq1: -1 x17 = 6
  eq2: -1 x12 +1 x16 = 0
  eq3: -1 x17 +1 x29 = 1
  eq4: +1 x25 -1 x26 = 1
  eq5: -1 x11 +1 x12 = 0
  eq6: -1 x1 = 5
  eq7: -1 x9 +1 x10 = 0
  eq8: -1 x2 -1 x14 +1 x23 = 7
  eq9: +1 x4 -1 x15 -1 x30 = 4
  eq10: -1 x1 -1 x19 +1 x24 = 6
  eq11: +1 x6 -1 x7 = 1
  eq12: +1 x3 -1 x14 -1 x30 = 5
  eq13: -1 x18 +1 x29 = 0
  eq14: +1 x4 -1 x21 = 1
  eq15: +1 x6 -1 x23 -1 x30 = 4
  eq16: -1 x24 +1 x25 = 0
  eq17: -1 x5 +1 x21 = 1
  eq18: +1 x7 -1 x20 = 1
  eq19: -1 x2 = 6
  eq20: +1 x11 -1 x13 = 1
  eq21: -1 x22 +1 x23 = 1
  eq22: -1 x2 -1 x8 +1 x11 = 6
  eq23: -1 x2 +1 x18 -1 x19 = 6
  eq24: +1 x15 -1 x28 = 1
  eq25: -1 x9 +1 x27 = 0
  eq26: -1 x1 -1 x14 +1 x15 = 7
  ie0: +1 x7 >= -6
  ie1: +1 x27 >= -5
  ie2: -1 x3 +1 x8 >= -2
  ie3: +1 x23 >= -6
  ie4: -1 x2 -1 x14 +1 x18 >= 6
  ie5: -1 x2 +1 x30 >= 2
  ie6: -1 x3 +1 x27 >= -2
  ie7: +1 x6 -1 x11 >= 1
  ie8: +1 x4 -1 x11 >= 1
  ie9: -1 x2 -1 x8 +1 x18 +1 x30 >= 2
  ie10: -1 x2 +1 x11 -1 x14 >= 6
END

\\\\\\\\\\\\\\\\\\\\\\\\\\\\\\\\\\\\\\\\ file 12

MAXIMIZE
Subject To
  eq0: -1 x1 -1 x8 +1 x27 = 6
  eq1: -1 x17 = 6
  eq2: -1 x12 +1 x16 = 0
  eq3: -1 x17 +1 x29 = 1
  eq4: +1 x25 -1 x26 = 1
  eq5: -1 x11 +1 x12 = 0
  eq6: -1 x1 = 5
  eq7: -1 x9 +1 x10 = 0
  eq8: -1 x2 -1 x14 +1 x23 = 7
  eq9: +1 x4 -1 x15 -1 x30 = 4
  eq10: -1 x1 -1 x19 +1 x24 = 6
  eq11: +1 x6 -1 x7 = 1
  eq12: +1 x3 -1 x14 -1 x30 = 5
  eq13: +1 x6 -1 x13 = 2
  eq14: -1 x18 +1 x29 = 0
  eq15: +1 x4 -1 x21 = 1
  eq16: +1 x6 -1 x23 -1 x30 = 4
  eq17: -1 x24 +1 x25 = 0
  eq18: -1 x5 +1 x21 = 1
  eq19: +1 x7 -1 x20 = 1
  eq20: -1 x2 = 6
  eq21: -1 x22 +1 x23 = 1
  eq22: -1 x2 -1 x8 +1 x11 = 6
  eq23: -1 x2 +1 x18 -1 x19 = 6
  eq24: +1 x15 -1 x28 = 1
  eq25: -1 x9 +1 x27 = 0
  eq26: -1 x1 -1 x14 +1 x15 = 7
  ie0: +1 x7 >= -6
  ie1: +1 x27 >= -5
  ie2: -1 x3 +1 x8 >= -2
  ie3: +1 x23 >= -6
  ie4: -1 x2 -1 x14 +1 x18 >= 6
  ie5: -1 x2 +1 x30 >= 2
  ie6: -1 x3 +1 x27 >= -2
  ie7: -1 x6 +1 x11 >= -1
  ie8: -1 x2 -1 x8 +1 x18 +1 x30 >= 2
  ie9: -1 x2 +1 x11 -1 x14 >= 6
END

\\\\\\\\\\\\\\\\\\\\\\\\\\\\\\\\\\\\\\\\ file 13

MAXIMIZE
Subject To
  eq0: -1 x1 -1 x8 +1 x27 = 6
  eq1: -1 x17 = 6
  eq2: -1 x12 +1 x16 = 0
  eq3: -1 x17 +1 x29 = 1
  eq4: +1 x25 -1 x26 = 1
  eq5: -1 x11 +1 x12 = 0
  eq6: -1 x15 = 5
  eq7: -1 x9 +1 x10 = 0
  eq8: -1 x2 -1 x14 +1 x23 = 7
  eq9: +1 x4 -1 x15 -1 x30 = 4
  eq10: -1 x23 = 6
  eq11: -1 x1 -1 x19 +1 x24 = 6
  eq12: +1 x6 -1 x7 = 1
  eq13: +1 x3 -1 x14 -1 x30 = 5
  eq14: +1 x6 -1 x13 = 2
  eq15: -1 x18 +1 x29 = 0
  eq16: +1 x4 -1 x21 = 1
  eq17: +1 x6 -1 x23 -1 x30 = 4
  eq18: -1 x24 +1 x25 = 0
  eq19: -1 x5 +1 x21 = 1
  eq20: +1 x7 -1 x20 = 1
  eq21: -1 x22 +1 x23 = 1
  eq22: -1 x2 -1 x8 +1 x11 = 6
  eq23: -1 x2 +1 x18 -1 x19 = 6
  eq24: +1 x15 -1 x28 = 1
  eq25: -1 x9 +1 x27 = 0
  eq26: -1 x1 -1 x14 +1 x15 = 7
  ie0: +1 x7 >= -6
  ie1: +1 x27 >= -5
  ie2: -1 x3 +1 x8 >= -2
  ie3: -1 x2 -1 x8 +1 x19 +1 x30 >= 2
  ie4: +1 x19 >= -6
  ie5: +1 x8 >= -6
  ie6: -1 x2 +1 x30 >= 2
  ie7: -1 x3 +1 x27 >= -2
  ie8: +1 x1 >= -5
  ie9: -1 x6 +1 x11 >= -1
  ie10: -1 x2 -1 x8 +1 x18 +1 x30 >= 2
END

\\\\\\\\\\\\\\\\\\\\\\\\\\\\\\\\\\\\\\\\ file 14

MAXIMIZE
Subject To
  eq0: -1 x1 -1 x8 +1 x27 = 6
  eq1: +1 x11 -1 x18 -1 x30 = 3
  eq2: -1 x12 +1 x16 = 0
  eq3: -1 x17 +1 x29 = 1
  eq4: -1 x16 = 6
  eq5: +1 x25 -1 x26 = 1
  eq6: -1 x11 +1 x12 = 0
  eq7: -1 x21 = 5
  eq8: -1 x9 +1 x10 = 0
  eq9: +1 x4 -1 x15 -1 x30 = 4
  eq10: +1 x6 -1 x7 = 1
  eq11: +1 x3 -1 x14 -1 x30 = 5
  eq12: -1 x24 +1 x27 -1 x30 = 3
  eq13: -1 x18 +1 x29 = 0
  eq14: +1 x4 -1 x21 = 1
  eq15: +1 x6 -1 x23 -1 x30 = 4
  eq16: -1 x24 +1 x25 = 0
  eq17: -1 x5 +1 x21 = 1
  eq18: +1 x16 -1 x19 -1 x30 = 3
  eq19: +1 x7 -1 x20 = 1
  eq20: +1 x11 -1 x13 = 1
  eq21: -1 x22 +1 x23 = 1
  eq22: -1 x2 -1 x8 +1 x11 = 6
  eq23: +1 x15 -1 x28 = 1
  eq24: -1 x9 +1 x27 = 0
  ie0: -1 x16 +1 x26 >= 0
  ie1: +1 x27 >= -5
  ie2: +1 x2 +1 x3 -1 x6 >= -6
  ie3: +1 x29 >= -6
  ie4: +1 x1 -1 x4 +1 x14 >= -6
  ie5: +1 x8 >= -6
  ie6: -1 x2 -1 x8 +1 x23 >= 7
  ie7: +1 x2 >= -6
  ie8: -1 x6 +1 x23 >= 1
  ie9: +1 x1 >= -5
  ie10: +1 x7 >= -6
  ie11: +1 x17 >= -6
  ie12: +1 x3 -1 x8 >= 0
  ie13: -1 x14 +1 x18 >= 0
  ie14: -1 x1 +1 x4 -1 x8 >= 6
  ie15: -1 x1 -1 x8 +1 x15 >= 7
END

\\\\\\\\\\\\\\\\\\\\\\\\\\\\\\\\\\\\\\\\ file 15

MAXIMIZE
Subject To
  eq0: -1 x1 -1 x8 +1 x27 = 6
  eq1: +1 x11 -1 x18 -1 x30 = 3
  eq2: -1 x12 +1 x16 = 0
  eq3: -1 x17 +1 x29 = 1
  eq4: -1 x16 = 6
  eq5: +1 x25 -1 x26 = 1
  eq6: -1 x11 +1 x12 = 0
  eq7: -1 x21 = 5
  eq8: -1 x9 +1 x10 = 0
  eq9: +1 x4 -1 x15 -1 x30 = 4
  eq10: +1 x6 -1 x7 = 1
  eq11: +1 x3 -1 x14 -1 x30 = 5
  eq12: -1 x24 +1 x27 -1 x30 = 3
  eq13: +1 x11 -1 x19 -1 x30 = 3
  eq14: -1 x18 +1 x29 = 0
  eq15: +1 x4 -1 x21 = 1
  eq16: +1 x6 -1 x23 -1 x30 = 4
  eq17: -1 x24 +1 x25 = 0
  eq18: -1 x5 +1 x21 = 1
  eq19: +1 x7 -1 x20 = 1
  eq20: +1 x11 -1 x13 = 1
  eq21: -1 x22 +1 x23 = 1
  eq22: -1 x2 -1 x8 +1 x11 = 6
  eq23: +1 x15 -1 x28 = 1
  eq24: -1 x9 +1 x27 = 0
  ie0: -1 x16 +1 x26 >= 0
  ie1: +1 x27 >= -5
  ie2: -1 x3 +1 x23 >= 0
  ie3: +1 x2 +1 x3 -1 x6 >= -6
  ie4: +1 x29 >= -6
  ie5: +1 x1 -1 x4 +1 x14 >= -6
  ie6: -1 x3 +1 x28 >= -3
  ie7: +1 x8 >= -6
  ie8: -1 x2 -1 x8 +1 x23 >= 7
  ie9: -1 x3 +1 x15 >= 0
  ie10: +1 x2 >= -6
  ie11: -1 x6 +1 x23 >= 1
  ie12: +1 x1 >= -5
  ie13: +1 x7 >= -6
  ie14: +1 x3 -1 x11 >= 2
  ie15: +1 x17 >= -6
  ie16: +1 x3 -1 x8 >= 0
  ie17: -1 x3 +1 x6 >= -1
  ie18: -1 x1 +1 x4 -1 x8 >= 6
  ie19: -1 x3 +1 x4 >= -1
  ie20: -1 x1 -1 x8 +1 x15 >= 7
END

\\\\\\\\\\\\\\\\\\\\\\\\\\\\\\\\\\\\\\\\ file 16

MAXIMIZE
Subject To
  eq0: -1 x1 -1 x8 +1 x27 = 6
  eq1: +1 x11 -1 x18 -1 x30 = 3
  eq2: -1 x12 +1 x16 = 0
  eq3: -1 x17 +1 x29 = 1
  eq4: +1 x25 -1 x26 = 1
  eq5: -1 x11 +1 x12 = 0
  eq6: -1 x21 = 5
  eq7: -1 x9 +1 x10 = 0
  eq8: -1 x2 -1 x14 +1 x23 = 7
  eq9: +1 x4 -1 x15 -1 x30 = 4
  eq10: -1 x7 = 6
  eq11: +1 x6 -1 x7 = 1
  eq12: +1 x3 -1 x14 -1 x30 = 5
  eq13: +1 x6 -1 x13 = 2
  eq14: -1 x24 +1 x27 -1 x30 = 3
  eq15: -1 x18 +1 x29 = 0
  eq16: +1 x4 -1 x21 = 1
  eq17: +1 x6 -1 x23 -1 x30 = 4
  eq18: +1 x8 -1 x19 -1 x30 = 3
  eq19: -1 x24 +1 x25 = 0
  eq20: -1 x5 +1 x21 = 1
  eq21: +1 x7 -1 x20 = 1
  eq22: -1 x22 +1 x23 = 1
  eq23: -1 x2 -1 x8 +1 x11 = 6
  eq24: -1 x8 = 6
  eq25: +1 x15 -1 x28 = 1
  eq26: -1 x9 +1 x27 = 0
  eq27: -1 x1 -1 x14 +1 x15 = 7
  ie0: +1 x27 >= -5
  ie1: +1 x29 >= -6
  ie2: +1 x17 >= -6
  ie3: +1 x19 >= -6
  ie4: +1 x2 >= -5
  ie5: +1 x30 >= -5
  ie6: -1 x11 +1 x18 >= 1
  ie7: -1 x2 +1 x11 -1 x14 >= 6
END

\\\\\\\\\\\\\\\\\\\\\\\\\\\\\\\\\\\\\\\\ file 17

MAXIMIZE
Subject To
  eq0: -1 x1 -1 x3 +1 x4 = 6
  eq1: +1 x11 -1 x18 -1 x30 = 3
  eq2: -1 x1 -1 x8 +1 x27 = 6
  eq3: -1 x12 +1 x16 = 0
  eq4: -1 x17 +1 x29 = 1
  eq5: +1 x25 -1 x26 = 1
  eq6: -1 x11 +1 x12 = 0
  eq7: -1 x21 = 5
  eq8: -1 x9 +1 x10 = 0
  eq9: -1 x7 = 6
  eq10: +1 x4 -1 x15 -1 x30 = 4
  eq11: +1 x6 -1 x7 = 1
  eq12: +1 x3 -1 x14 -1 x30 = 5
  eq13: +1 x6 -1 x13 = 2
  eq14: -1 x24 +1 x27 -1 x30 = 3
  eq15: -1 x18 +1 x29 = 0
  eq16: +1 x4 -1 x21 = 1
  eq17: +1 x6 -1 x23 -1 x30 = 4
  eq18: +1 x8 -1 x19 -1 x30 = 3
  eq19: -1 x24 +1 x25 = 0
  eq20: -1 x2 -1 x3 +1 x6 = 6
  eq21: -1 x5 +1 x21 = 1
  eq22: +1 x7 -1 x20 = 1
  eq23: -1 x22 +1 x23 = 1
  eq24: -1 x2 -1 x8 +1 x11 = 6
  eq25: -1 x8 = 6
  eq26: +1 x15 -1 x28 = 1
  eq27: -1 x9 +1 x27 = 0
  ie0: +1 x27 >= -5
  ie1: +1 x29 >= -6
  ie2: -1 x1 -1 x3 +1 x27 >= 6
  ie3: +1 x19 >= -6
  ie4: -1 x3 +1 x19 >= 0
  ie5: -1 x2 -1 x3 +1 x23 >= 7
END

\\\\\\\\\\\\\\\\\\\\\\\\\\\\\\\\\\\\\\\\ file 18

MAXIMIZE
Subject To
  eq0: -1 x1 -1 x8 +1 x27 = 6
  eq1: +1 x11 -1 x18 -1 x30 = 3
  eq2: -1 x12 +1 x16 = 0
  eq3: -1 x17 +1 x29 = 1
  eq4: +1 x25 -1 x26 = 1
  eq5: -1 x11 +1 x12 = 0
  eq6: -1 x21 = 5
  eq7: -1 x9 +1 x10 = 0
  eq8: -1 x7 = 6
  eq9: +1 x4 -1 x15 -1 x30 = 4
  eq10: +1 x6 -1 x7 = 1
  eq11: +1 x3 -1 x14 -1 x30 = 5
  eq12: +1 x6 -1 x13 = 2
  eq13: -1 x24 +1 x27 -1 x30 = 3
  eq14: -1 x18 +1 x29 = 0
  eq15: +1 x4 -1 x21 = 1
  eq16: +1 x6 -1 x23 -1 x30 = 4
  eq17: +1 x8 -1 x19 -1 x30 = 3
  eq18: -1 x24 +1 x25 = 0
  eq19: -1 x5 +1 x21 = 1
  eq20: +1 x7 -1 x20 = 1
  eq21: -1 x22 +1 x23 = 1
  eq22: -1 x2 -1 x8 +1 x11 = 6
  eq23: -1 x8 = 6
  eq24: +1 x15 -1 x28 = 1
  eq25: -1 x9 +1 x27 = 0
  ie0: +1 x27 >= -5
  ie1: -1 x3 +1 x8 >= -2
  ie2: +1 x2 +1 x3 -1 x6 >= -6
  ie3: +1 x16 >= -6
  ie4: +1 x1 +1 x3 -1 x4 >= -6
  ie5: +1 x29 >= -6
  ie6: +1 x25 >= -6
  ie7: +1 x19 >= -6
  ie8: +1 x1 -1 x4 +1 x14 >= -6
  ie9: -1 x2 -1 x8 +1 x23 >= 7
  ie10: -1 x6 +1 x23 >= 1
  ie11: -1 x2 -1 x8 +1 x27 >= 6
  ie12: +1 x3 -1 x8 >= 0
  ie13: -1 x14 +1 x18 >= 0
  ie14: -1 x1 +1 x4 -1 x8 >= 6
  ie15: -1 x2 +1 x6 -1 x8 >= 6
  ie16: -1 x1 -1 x8 +1 x15 >= 7
END

\\\\\\\\\\\\\\\\\\\\\\\\\\\\\\\\\\\\\\\\ file 19

MAXIMIZE
Subject To
  eq0: -1 x1 -1 x8 +1 x27 = 6
  eq1: +1 x11 -1 x18 -1 x30 = 3
  eq2: -1 x12 +1 x16 = 0
  eq3: -1 x17 +1 x29 = 1
  eq4: +1 x25 -1 x26 = 1
  eq5: -1 x11 +1 x12 = 0
  eq6: -1 x21 = 5
  eq7: -1 x9 +1 x10 = 0
  eq8: -1 x2 -1 x14 +1 x23 = 7
  eq9: +1 x4 -1 x15 -1 x30 = 4
  eq10: -1 x7 = 6
  eq11: +1 x6 -1 x7 = 1
  eq12: +1 x3 -1 x14 -1 x30 = 5
  eq13: +1 x6 -1 x13 = 2
  eq14: -1 x24 +1 x27 -1 x30 = 3
  eq15: -1 x18 +1 x29 = 0
  eq16: +1 x4 -1 x21 = 1
  eq17: +1 x6 -1 x23 -1 x30 = 4
  eq18: +1 x8 -1 x19 -1 x30 = 3
  eq19: -1 x24 +1 x25 = 0
  eq20: -1 x5 +1 x21 = 1
  eq21: +1 x7 -1 x20 = 1
  eq22: -1 x22 +1 x23 = 1
  eq23: -1 x2 -1 x8 +1 x11 = 6
  eq24: -1 x8 = 6
  eq25: +1 x15 -1 x28 = 1
  eq26: -1 x9 +1 x27 = 0
  eq27: -1 x1 -1 x14 +1 x15 = 7
  ie0: +1 x27 >= -5
  ie1: +1 x30 >= -5
  ie2: +1 x29 >= -6
  ie3: +1 x19 >= -6
  ie4: -1 x2 -1 x8 +1 x23 >= 7
END

\\\\\\\\\\\\\\\\\\\\\\\\\\\\\\\\\\\\\\\\ file 20

MAXIMIZE
Subject To
  eq0: -1 x1 -1 x8 +1 x27 = 6
  eq1: +1 x11 -1 x18 -1 x30 = 3
  eq2: -1 x12 +1 x16 = 0
  eq3: -1 x17 +1 x29 = 1
  eq4: +1 x25 -1 x26 = 1
  eq5: -1 x11 +1 x12 = 0
  eq6: -1 x21 = 5
  eq7: -1 x9 +1 x10 = 0
  eq8: -1 x2 -1 x14 +1 x23 = 7
  eq9: +1 x4 -1 x15 -1 x30 = 4
  eq10: -1 x7 = 6
  eq11: +1 x6 -1 x7 = 1
  eq12: +1 x3 -1 x14 -1 x30 = 5
  eq13: +1 x6 -1 x13 = 2
  eq14: -1 x24 +1 x27 -1 x30 = 3
  eq15: -1 x18 +1 x29 = 0
  eq16: +1 x4 -1 x21 = 1
  eq17: +1 x6 -1 x23 -1 x30 = 4
  eq18: +1 x8 -1 x19 -1 x30 = 3
  eq19: -1 x24 +1 x25 = 0
  eq20: -1 x5 +1 x21 = 1
  eq21: +1 x7 -1 x20 = 1
  eq22: -1 x22 +1 x23 = 1
  eq23: -1 x2 -1 x8 +1 x11 = 6
  eq24: -1 x8 = 6
  eq25: +1 x15 -1 x28 = 1
  eq26: -1 x9 +1 x27 = 0
  eq27: -1 x1 -1 x14 +1 x15 = 7
  ie0: +1 x27 >= -5
  ie1: +1 x29 >= -6
  ie2: +1 x17 >= -6
  ie3: +1 x19 >= -6
  ie4: -1 x2 >= 5
  ie5: +1 x30 >= -5
  ie6: -1 x11 +1 x18 >= 1
  ie7: -1 x2 +1 x11 -1 x14 >= 6
END

\\\\\\\\\\\\\\\\\\\\\\\\\\\\\\\\\\\\\\\\ file 21

MAXIMIZE
Subject To
  eq0: -1 x1 -1 x8 +1 x27 = 6
  eq1: -1 x17 = 6
  eq2: -1 x12 +1 x16 = 0
  eq3: -1 x17 +1 x29 = 1
  eq4: +1 x25 -1 x26 = 1
  eq5: -1 x11 +1 x12 = 0
  eq6: -1 x21 = 5
  eq7: -1 x9 +1 x10 = 0
  eq8: -1 x2 -1 x14 +1 x23 = 7
  eq9: +1 x4 -1 x15 -1 x30 = 4
  eq10: -1 x1 -1 x19 +1 x24 = 6
  eq11: -1 x7 = 6
  eq12: +1 x6 -1 x7 = 1
  eq13: +1 x3 -1 x14 -1 x30 = 5
  eq14: +1 x6 -1 x13 = 2
  eq15: -1 x18 +1 x29 = 0
  eq16: +1 x4 -1 x21 = 1
  eq17: +1 x6 -1 x23 -1 x30 = 4
  eq18: -1 x24 +1 x25 = 0
  eq19: -1 x5 +1 x21 = 1
  eq20: +1 x7 -1 x20 = 1
  eq21: -1 x22 +1 x23 = 1
  eq22: -1 x2 -1 x8 +1 x11 = 6
  eq23: -1 x2 +1 x18 -1 x19 = 6
  eq24: +1 x15 -1 x28 = 1
  eq25: -1 x9 +1 x27 = 0
  eq26: -1 x1 -1 x14 +1 x15 = 7
  ie0: +1 x23 >= -6
  ie1: +1 x27 >= -5
  ie2: -1 x2 -1 x8 +1 x19 +1 x30 >= 2
  ie3: +1 x19 >= -6
  ie4: -1 x2 -1 x14 +1 x18 >= 6
  ie5: +1 x8 >= -6
  ie6: -1 x2 +1 x30 >= 2
  ie7: +1 x1 >= -5
  ie8: -1 x2 -1 x8 +1 x18 +1 x30 >= 2
END

\\\\\\\\\\\\\\\\\\\\\\\\\\\\\\\\\\\\\\\\ file 22

MAXIMIZE
Subject To
  eq0: -1 x1 -1 x8 +1 x27 = 6
  eq1: -1 x12 +1 x16 = 0
  eq2: -1 x17 +1 x29 = 1
  eq3: +1 x25 -1 x26 = 1
  eq4: -1 x11 +1 x12 = 0
  eq5: -1 x21 = 5
  eq6: -1 x9 +1 x10 = 0
  eq7: -1 x2 -1 x14 +1 x23 = 7
  eq8: +1 x4 -1 x15 -1 x30 = 4
  eq9: -1 x1 -1 x19 +1 x24 = 6
  eq10: -1 x7 = 6
  eq11: +1 x6 -1 x7 = 1
  eq12: +1 x3 -1 x14 -1 x30 = 5
  eq13: +1 x6 -1 x13 = 2
  eq14: -1 x8 = 6
  eq15: -1 x18 +1 x29 = 0
  eq16: +1 x4 -1 x21 = 1
  eq17: +1 x6 -1 x23 -1 x30 = 4
  eq18: +1 x8 -1 x19 -1 x30 = 3
  eq19: -1 x24 +1 x25 = 0
  eq20: -1 x5 +1 x21 = 1
  eq21: +1 x7 -1 x20 = 1
  eq22: -1 x22 +1 x23 = 1
  eq23: -1 x2 -1 x8 +1 x11 = 6
  eq24: -1 x2 +1 x18 -1 x19 = 6
  eq25: +1 x15 -1 x28 = 1
  eq26: -1 x9 +1 x27 = 0
  eq27: -1 x1 -1 x14 +1 x15 = 7
  ie0: +1 x17 >= -6
  ie1: +1 x27 >= -5
  ie2: +1 x30 >= -5
  ie3: +1 x29 >= -6
  ie4: +1 x19 >= -6
  ie5: +1 x2 >= -5
  ie6: +1 x30 >= -4
END

\\\\\\\\\\\\\\\\\\\\\\\\\\\\\\\\\\\\\\\\ file 23

MAXIMIZE
Subject To
  eq0: -1 x1 -1 x8 +1 x27 = 6
  eq1: -1 x12 +1 x16 = 0
  eq2: -1 x17 +1 x29 = 1
  eq3: +1 x25 -1 x26 = 1
  eq4: -1 x11 +1 x12 = 0
  eq5: -1 x21 = 5
  eq6: -1 x9 +1 x10 = 0
  eq7: -1 x2 -1 x14 +1 x23 = 7
  eq8: +1 x4 -1 x15 -1 x30 = 4
  eq9: -1 x1 -1 x19 +1 x24 = 6
  eq10: -1 x7 = 6
  eq11: +1 x6 -1 x7 = 1
  eq12: +1 x3 -1 x14 -1 x30 = 5
  eq13: +1 x6 -1 x13 = 2
  eq14: -1 x8 = 6
  eq15: -1 x18 +1 x29 = 0
  eq16: +1 x4 -1 x21 = 1
  eq17: +1 x6 -1 x23 -1 x30 = 4
  eq18: +1 x8 -1 x19 -1 x30 = 3
  eq19: -1 x24 +1 x25 = 0
  eq20: -1 x5 +1 x21 = 1
  eq21: +1 x7 -1 x20 = 1
  eq22: -1 x22 +1 x23 = 1
  eq23: -1 x2 -1 x8 +1 x11 = 6
  eq24: -1 x2 +1 x18 -1 x19 = 6
  eq25: +1 x15 -1 x28 = 1
  eq26: -1 x9 +1 x27 = 0
  eq27: -1 x1 -1 x14 +1 x15 = 7
  ie0: +1 x17 >= -6
  ie1: +1 x27 >= -5
  ie2: +1 x30 >= -5
  ie3: +1 x29 >= -6
  ie4: +1 x19 >= -6
  ie5: -1 x2 >= 5
  ie6: +1 x30 >= -4
END

\\\\\\\\\\\\\\\\\\\\\\\\\\\\\\\\\\\\\\\\ end



24 polyhedra, 48 rounds, smt 0.240 sec, isect 1.210 sec, insert 0.080 sec, total 2.298 sec
Preprocessing 0.009 sec, super total 2.307 sec
Comparing... 0.217 sec.  Solution matches input.
