
----------------------------------------------------------------------
This is SMTcut v4.6.4 by Christoph Lueders -- http://wrogn.com
Python 3.7.6 (default, Jan  8 2020, 19:59:22) 
[GCC 7.3.0] x86_64
pysmt 0.9.0, gmpy2 2.0.8
Datetime: 2020-06-23T20:11:56+02:00
Command line: BIOMD0000000599 --msat
Flags: no-ppone no-ppsmt no-pp2x2 dump justone solver=msat


Model: BIOMD0000000599
Logfile: db/BIOMD0000000599/ep11-msat-Linux-smtlog.txt
Loading polyhedra...  done.
Possible combinations: 10^16.1 in 33 bags
Bag sizes: 28 28 9 2 1 2 1 9 1 1 2 1 4 15 4 1 1 4 21 1 1 1 4 4 1 1 2 1 1 36 14 9 9

Minimizing (14,0)... (14,0)


Running SMT solver (1)... 0.057 sec
Found point (-5,-6,-4,-3,-5,-4,-5,-6,-5,-5,-6,-6,-7,-7,-5,-6,-6,-5,-5,-6,-4,-7,-6,-4,-4,-5,-5,-6,-5,-2)
Checking... Minimizing (28,76)... (28,7), 0.025 sec
Inserting... 

MAXIMIZE
Subject To
  eq0: -1 x1 -1 x8 +1 x27 = 6
  eq1: -1 x17 = 6
  eq2: -1 x12 +1 x16 = 0
  eq3: -1 x17 +1 x29 = 1
  eq4: +1 x25 -1 x26 = 1
  eq5: -1 x11 +1 x12 = 0
  eq6: -1 x27 = 5
  eq7: -1 x9 +1 x10 = 0
  eq8: -1 x2 -1 x14 +1 x23 = 7
  eq9: +1 x4 -1 x15 -1 x30 = 4
  eq10: -1 x23 = 6
  eq11: +1 x6 -1 x7 = 1
  eq12: +1 x3 -1 x14 -1 x30 = 5
  eq13: +1 x24 -1 x27 = 1
  eq14: -1 x18 +1 x29 = 0
  eq15: +1 x4 -1 x21 = 1
  eq16: +1 x6 -1 x23 -1 x30 = 4
  eq17: -1 x11 +1 x18 = 1
  eq18: -1 x24 +1 x25 = 0
  eq19: -1 x5 +1 x21 = 1
  eq20: +1 x7 -1 x20 = 1
  eq21: +1 x11 -1 x13 = 1
  eq22: -1 x22 +1 x23 = 1
  eq23: -1 x2 -1 x8 +1 x11 = 6
  eq24: -1 x2 +1 x18 -1 x19 = 6
  eq25: +1 x15 -1 x28 = 1
  eq26: -1 x9 +1 x27 = 0
  eq27: -1 x1 -1 x14 +1 x15 = 7
  ie0: -1 x2 +1 x30 >= 2
  ie1: -1 x3 +1 x27 >= -2
  ie2: +1 x7 >= -6
  ie3: -1 x3 +1 x8 >= -2
  ie4: +1 x1 >= -5
  ie5: +1 x19 >= -6
  ie6: +1 x8 >= -6
END

0.000 sec
[1 ph, smt 0.057, isect 0.025, ins 0.000, tot 0.155]

Running SMT solver (2)... 0.009 sec
Found point (-5,-6,-4,-3,-5,-4,-5,-6,-5,-5,-6,-6,-7,-27/4,-19/4,-6,-6,-5,-5,-6,-4,-27/4,-23/4,-4,-4,-5,-5,-23/4,-5,-9/4)
Checking... Minimizing (28,77)... (27,10), 0.022 sec
Inserting... 

MAXIMIZE
Subject To
  eq0: -1 x1 -1 x8 +1 x27 = 6
  eq1: -1 x17 = 6
  eq2: -1 x12 +1 x16 = 0
  eq3: -1 x17 +1 x29 = 1
  eq4: -1 x16 = 6
  eq5: +1 x25 -1 x26 = 1
  eq6: -1 x11 +1 x12 = 0
  eq7: -1 x27 = 5
  eq8: -1 x9 +1 x10 = 0
  eq9: -1 x2 -1 x14 +1 x23 = 7
  eq10: +1 x4 -1 x15 -1 x30 = 4
  eq11: +1 x6 -1 x7 = 1
  eq12: +1 x3 -1 x14 -1 x30 = 5
  eq13: +1 x24 -1 x27 = 1
  eq14: -1 x18 +1 x29 = 0
  eq15: +1 x4 -1 x21 = 1
  eq16: +1 x6 -1 x23 -1 x30 = 4
  eq17: -1 x24 +1 x25 = 0
  eq18: -1 x5 +1 x21 = 1
  eq19: +1 x7 -1 x20 = 1
  eq20: +1 x11 -1 x13 = 1
  eq21: -1 x22 +1 x23 = 1
  eq22: -1 x2 -1 x8 +1 x11 = 6
  eq23: -1 x2 +1 x18 -1 x19 = 6
  eq24: +1 x15 -1 x28 = 1
  eq25: -1 x9 +1 x27 = 0
  eq26: -1 x1 -1 x14 +1 x15 = 7
  ie0: +1 x7 >= -6
  ie1: +1 x23 >= -6
  ie2: -1 x3 +1 x8 >= -2
  ie3: +1 x19 >= -6
  ie4: -1 x2 -1 x14 +1 x18 >= 6
  ie5: +1 x8 >= -6
  ie6: -1 x2 +1 x30 >= 2
  ie7: -1 x3 +1 x27 >= -2
  ie8: +1 x1 >= -5
  ie9: -1 x2 +1 x11 -1 x14 >= 6
END

0.001 sec
[1 ph, smt 0.065, isect 0.047, ins 0.001, tot 0.195]

Running SMT solver (3)... 0.004 sec
Found point (-5,-6,-4,-3,-5,-4,-5,-6,-5,-5,-6,-6,-7,-23/4,-15/4,-6,-6,-5,-5,-6,-4,-23/4,-19/4,-4,-4,-5,-5,-19/4,-5,-13/4)
Checking... Minimizing (28,80)... (27,8), 0.024 sec
Inserting... 

MAXIMIZE
Subject To
  eq0: -1 x1 -1 x8 +1 x27 = 6
  eq1: -1 x17 = 6
  eq2: -1 x12 +1 x16 = 0
  eq3: -1 x17 +1 x29 = 1
  eq4: -1 x16 = 6
  eq5: +1 x25 -1 x26 = 1
  eq6: -1 x11 +1 x12 = 0
  eq7: -1 x27 = 5
  eq8: -1 x9 +1 x10 = 0
  eq9: -1 x2 -1 x14 +1 x23 = 7
  eq10: +1 x4 -1 x15 -1 x30 = 4
  eq11: +1 x6 -1 x7 = 1
  eq12: +1 x3 -1 x14 -1 x30 = 5
  eq13: +1 x24 -1 x27 = 1
  eq14: -1 x18 +1 x29 = 0
  eq15: +1 x4 -1 x21 = 1
  eq16: +1 x6 -1 x23 -1 x30 = 4
  eq17: -1 x24 +1 x25 = 0
  eq18: -1 x5 +1 x21 = 1
  eq19: +1 x7 -1 x20 = 1
  eq20: +1 x11 -1 x13 = 1
  eq21: -1 x22 +1 x23 = 1
  eq22: -1 x2 -1 x8 +1 x11 = 6
  eq23: -1 x2 +1 x18 -1 x19 = 6
  eq24: +1 x15 -1 x28 = 1
  eq25: -1 x9 +1 x27 = 0
  eq26: -1 x1 -1 x14 +1 x15 = 7
  ie0: -1 x3 +1 x8 >= -2
  ie1: +1 x19 >= -6
  ie2: -1 x14 +1 x18 >= 0
  ie3: +1 x8 >= -6
  ie4: -1 x2 -1 x8 +1 x23 >= 7
  ie5: -1 x2 +1 x30 >= 2
  ie6: -1 x3 +1 x27 >= -2
  ie7: +1 x1 >= -5
END

0.000 sec
[2 ph, smt 0.069, isect 0.071, ins 0.002, tot 0.231]

Running SMT solver (4)... 0.009 sec
Found point (-4,-6,-19/4,-4,-6,-5,-6,-6,-4,-4,-6,-6,-7,-19/4,-3,-6,-5,-4,-4,-7,-5,-5,-4,-2,-2,-3,-4,-4,-4,-5)
Checking... Minimizing (28,84)... (27,10), 0.024 sec
Inserting... 

MAXIMIZE
Subject To
  eq0: -1 x1 -1 x8 +1 x27 = 6
  eq1: +1 x11 -1 x18 -1 x30 = 3
  eq2: -1 x12 +1 x16 = 0
  eq3: -1 x17 +1 x29 = 1
  eq4: -1 x16 = 6
  eq5: +1 x25 -1 x26 = 1
  eq6: -1 x11 +1 x12 = 0
  eq7: -1 x21 = 5
  eq8: -1 x9 +1 x10 = 0
  eq9: +1 x4 -1 x15 -1 x30 = 4
  eq10: +1 x6 -1 x7 = 1
  eq11: +1 x3 -1 x14 -1 x30 = 5
  eq12: +1 x6 -1 x13 = 2
  eq13: -1 x24 +1 x27 -1 x30 = 3
  eq14: -1 x6 +1 x23 = 1
  eq15: -1 x18 +1 x29 = 0
  eq16: +1 x4 -1 x21 = 1
  eq17: +1 x6 -1 x23 -1 x30 = 4
  eq18: -1 x24 +1 x25 = 0
  eq19: -1 x5 +1 x21 = 1
  eq20: +1 x16 -1 x19 -1 x30 = 3
  eq21: +1 x7 -1 x20 = 1
  eq22: -1 x22 +1 x23 = 1
  eq23: -1 x2 -1 x8 +1 x11 = 6
  eq24: +1 x15 -1 x28 = 1
  eq25: -1 x9 +1 x27 = 0
  eq26: -1 x1 -1 x8 +1 x15 = 7
  ie0: +1 x4 -1 x6 >= 0
  ie1: +1 x7 >= -6
  ie2: +1 x2 +1 x3 -1 x6 >= -6
  ie3: +1 x3 -1 x8 >= 0
  ie4: -1 x14 +1 x18 >= 0
  ie5: +1 x8 >= -6
  ie6: -1 x2 -1 x8 +1 x23 >= 7
  ie7: +1 x2 >= -6
  ie8: +1 x1 >= -5
  ie9: -1 x6 +1 x11 >= -1
END

0.000 sec
[3 ph, smt 0.078, isect 0.095, ins 0.002, tot 0.271]

Running SMT solver (5)... 0.007 sec
Found point (-4,-6,-4,-4,-6,-5,-6,-6,-4,-4,-6,-6,-7,-15/4,-11/4,-6,-19/4,-15/4,-15/4,-7,-5,-19/4,-15/4,-7/4,-7/4,-11/4,-4,-15/4,-15/4,-21/4)
Checking... Minimizing (27,86)... (26,16), 0.027 sec
Inserting... 

MAXIMIZE
Subject To
  eq0: -1 x1 -1 x8 +1 x27 = 6
  eq1: +1 x11 -1 x18 -1 x30 = 3
  eq2: -1 x12 +1 x16 = 0
  eq3: -1 x17 +1 x29 = 1
  eq4: -1 x16 = 6
  eq5: +1 x25 -1 x26 = 1
  eq6: -1 x11 +1 x12 = 0
  eq7: -1 x21 = 5
  eq8: -1 x9 +1 x10 = 0
  eq9: +1 x4 -1 x15 -1 x30 = 4
  eq10: +1 x6 -1 x7 = 1
  eq11: +1 x6 -1 x13 = 2
  eq12: +1 x3 -1 x14 -1 x30 = 5
  eq13: -1 x24 +1 x27 -1 x30 = 3
  eq14: -1 x18 +1 x29 = 0
  eq15: +1 x4 -1 x21 = 1
  eq16: +1 x6 -1 x23 -1 x30 = 4
  eq17: -1 x24 +1 x25 = 0
  eq18: +1 x3 -1 x6 = 1
  eq19: -1 x5 +1 x21 = 1
  eq20: +1 x16 -1 x19 -1 x30 = 3
  eq21: +1 x7 -1 x20 = 1
  eq22: -1 x22 +1 x23 = 1
  eq23: -1 x2 -1 x8 +1 x11 = 6
  eq24: +1 x15 -1 x28 = 1
  eq25: -1 x9 +1 x27 = 0
  ie0: -1 x16 +1 x26 >= 0
  ie1: +1 x27 >= -5
  ie2: +1 x15 -1 x23 >= 0
  ie3: -1 x3 +1 x8 >= -2
  ie4: +1 x29 >= -6
  ie5: +1 x19 -1 x23 >= 0
  ie6: +1 x8 >= -6
  ie7: -1 x2 -1 x8 +1 x23 >= 7
  ie8: +1 x2 >= -6
  ie9: -1 x6 +1 x23 >= 1
  ie10: +1 x1 >= -5
  ie11: +1 x7 >= -6
  ie12: +1 x17 >= -6
  ie13: +1 x3 -1 x8 >= 0
  ie14: -1 x1 +1 x4 -1 x8 >= 6
  ie15: -1 x1 -1 x8 +1 x15 >= 7
END

0.000 sec
[4 ph, smt 0.085, isect 0.122, ins 0.002, tot 0.314]

Running SMT solver (6)... 0.005 sec
Found point (-5,-6,-4,-23/6,-35/6,-5,-6,-6,-5,-5,-6,-6,-7,-23/6,-8/3,-6,-29/6,-23/6,-23/6,-7,-29/6,-29/6,-23/6,-17/6,-17/6,-23/6,-5,-11/3,-23/6,-31/6)
Checking... Minimizing (27,86)... (26,14), 0.026 sec
Inserting... 

MAXIMIZE
Subject To
  eq0: -1 x1 -1 x8 +1 x27 = 6
  eq1: +1 x11 -1 x18 -1 x30 = 3
  eq2: -1 x12 +1 x16 = 0
  eq3: -1 x17 +1 x29 = 1
  eq4: -1 x16 = 6
  eq5: +1 x25 -1 x26 = 1
  eq6: -1 x11 +1 x12 = 0
  eq7: -1 x27 = 5
  eq8: -1 x9 +1 x10 = 0
  eq9: +1 x4 -1 x15 -1 x30 = 4
  eq10: +1 x6 -1 x7 = 1
  eq11: +1 x6 -1 x13 = 2
  eq12: +1 x3 -1 x14 -1 x30 = 5
  eq13: -1 x24 +1 x27 -1 x30 = 3
  eq14: -1 x18 +1 x29 = 0
  eq15: +1 x4 -1 x21 = 1
  eq16: +1 x6 -1 x23 -1 x30 = 4
  eq17: -1 x24 +1 x25 = 0
  eq18: +1 x3 -1 x6 = 1
  eq19: -1 x5 +1 x21 = 1
  eq20: +1 x16 -1 x19 -1 x30 = 3
  eq21: +1 x7 -1 x20 = 1
  eq22: -1 x22 +1 x23 = 1
  eq23: -1 x2 -1 x8 +1 x11 = 6
  eq24: +1 x15 -1 x28 = 1
  eq25: -1 x9 +1 x27 = 0
  ie0: -1 x16 +1 x26 >= 0
  ie1: +1 x15 -1 x23 >= 0
  ie2: +1 x7 >= -6
  ie3: -1 x3 +1 x8 >= -2
  ie4: +1 x1 +1 x3 -1 x4 >= -6
  ie5: +1 x17 >= -6
  ie6: +1 x1 -1 x4 +1 x14 >= -6
  ie7: +1 x8 >= -6
  ie8: -1 x2 -1 x8 +1 x23 >= 7
  ie9: -1 x3 +1 x27 >= -2
  ie10: -1 x6 +1 x23 >= 1
  ie11: +1 x1 >= -5
  ie12: +1 x21 >= -5
  ie13: -1 x1 -1 x8 +1 x15 >= 7
END

0.000 sec
[5 ph, smt 0.091, isect 0.147, ins 0.002, tot 0.353]

Running SMT solver (7)... 0.004 sec
Found point (-5,-6,-5,-4,-6,-5,-6,-6,-5,-5,-6,-6,-7,-5,-3,-6,-5,-4,-4,-7,-5,-5,-4,-3,-3,-4,-5,-4,-4,-5)
Checking... Minimizing (27,84)... (26,11), 0.022 sec
Inserting... 

MAXIMIZE
Subject To
  eq0: -1 x1 -1 x8 +1 x27 = 6
  eq1: +1 x11 -1 x18 -1 x30 = 3
  eq2: -1 x12 +1 x16 = 0
  eq3: -1 x17 +1 x29 = 1
  eq4: -1 x16 = 6
  eq5: +1 x25 -1 x26 = 1
  eq6: -1 x11 +1 x12 = 0
  eq7: -1 x27 = 5
  eq8: -1 x9 +1 x10 = 0
  eq9: +1 x4 -1 x15 -1 x30 = 4
  eq10: +1 x6 -1 x7 = 1
  eq11: +1 x3 -1 x14 -1 x30 = 5
  eq12: +1 x6 -1 x13 = 2
  eq13: -1 x24 +1 x27 -1 x30 = 3
  eq14: -1 x6 +1 x23 = 1
  eq15: -1 x18 +1 x29 = 0
  eq16: +1 x4 -1 x21 = 1
  eq17: +1 x6 -1 x23 -1 x30 = 4
  eq18: -1 x24 +1 x25 = 0
  eq19: -1 x5 +1 x21 = 1
  eq20: +1 x16 -1 x19 -1 x30 = 3
  eq21: +1 x7 -1 x20 = 1
  eq22: -1 x22 +1 x23 = 1
  eq23: -1 x2 -1 x8 +1 x11 = 6
  eq24: +1 x15 -1 x28 = 1
  eq25: -1 x9 +1 x27 = 0
  ie0: +1 x4 -1 x6 >= 0
  ie1: +1 x7 >= -6
  ie2: +1 x2 +1 x3 -1 x6 >= -6
  ie3: +1 x1 -1 x4 +1 x14 >= -6
  ie4: +1 x3 -1 x8 >= 0
  ie5: -1 x14 +1 x18 >= 0
  ie6: +1 x8 >= -6
  ie7: -1 x2 -1 x8 +1 x23 >= 7
  ie8: +1 x1 >= -5
  ie9: +1 x21 >= -5
  ie10: -1 x6 +1 x11 >= -1
END

0.000 sec
[6 ph, smt 0.095, isect 0.170, ins 0.002, tot 0.387]

Running SMT solver (8)... 0.004 sec
Found point (-5,-6,-5,-4,-6,-5,-6,-6,-5,-5,-6,-6,-7,-21/4,-13/4,-6,-21/4,-17/4,-17/4,-7,-5,-21/4,-17/4,-13/4,-13/4,-17/4,-5,-17/4,-17/4,-19/4)
Checking... Minimizing (27,84)... (27,9), 0.025 sec
Inserting... 

MAXIMIZE
Subject To
  eq0: -1 x1 -1 x8 +1 x27 = 6
  eq1: +1 x11 -1 x18 -1 x30 = 3
  eq2: -1 x12 +1 x16 = 0
  eq3: -1 x17 +1 x29 = 1
  eq4: -1 x16 = 6
  eq5: +1 x25 -1 x26 = 1
  eq6: -1 x11 +1 x12 = 0
  eq7: -1 x27 = 5
  eq8: -1 x9 +1 x10 = 0
  eq9: -1 x2 -1 x14 +1 x23 = 7
  eq10: +1 x4 -1 x15 -1 x30 = 4
  eq11: +1 x6 -1 x7 = 1
  eq12: +1 x3 -1 x14 -1 x30 = 5
  eq13: +1 x6 -1 x13 = 2
  eq14: -1 x24 +1 x27 -1 x30 = 3
  eq15: -1 x18 +1 x29 = 0
  eq16: +1 x4 -1 x21 = 1
  eq17: +1 x6 -1 x23 -1 x30 = 4
  eq18: -1 x24 +1 x25 = 0
  eq19: -1 x5 +1 x21 = 1
  eq20: +1 x16 -1 x19 -1 x30 = 3
  eq21: +1 x7 -1 x20 = 1
  eq22: -1 x22 +1 x23 = 1
  eq23: -1 x2 -1 x8 +1 x11 = 6
  eq24: +1 x15 -1 x28 = 1
  eq25: -1 x9 +1 x27 = 0
  eq26: -1 x1 -1 x14 +1 x15 = 7
  ie0: -1 x16 +1 x26 >= 0
  ie1: +1 x7 >= -6
  ie2: +1 x17 >= -6
  ie3: -1 x14 +1 x18 >= 0
  ie4: +1 x8 >= -6
  ie5: -1 x2 -1 x8 +1 x23 >= 7
  ie6: +1 x1 >= -5
  ie7: -1 x6 +1 x11 >= -1
  ie8: +1 x30 >= -5
END

0.002 sec
[7 ph, smt 0.099, isect 0.194, ins 0.005, tot 0.426]

Running SMT solver (9)... 0.007 sec
Found point (-5,-6,-5,-4,-6,-5,-6,-6,-5,-5,-6,-6,-7,-19/4,-11/4,-6,-19/4,-15/4,-15/4,-7,-5,-19/4,-15/4,-11/4,-11/4,-15/4,-5,-15/4,-15/4,-21/4)
Checking... Minimizing (25,85)... (25,16), 0.027 sec
Inserting... 

MAXIMIZE
Subject To
  eq0: -1 x1 -1 x8 +1 x27 = 6
  eq1: +1 x11 -1 x18 -1 x30 = 3
  eq2: -1 x12 +1 x16 = 0
  eq3: -1 x17 +1 x29 = 1
  eq4: -1 x16 = 6
  eq5: +1 x25 -1 x26 = 1
  eq6: -1 x11 +1 x12 = 0
  eq7: -1 x27 = 5
  eq8: -1 x9 +1 x10 = 0
  eq9: +1 x4 -1 x15 -1 x30 = 4
  eq10: +1 x6 -1 x7 = 1
  eq11: +1 x3 -1 x14 -1 x30 = 5
  eq12: +1 x6 -1 x13 = 2
  eq13: -1 x24 +1 x27 -1 x30 = 3
  eq14: -1 x18 +1 x29 = 0
  eq15: +1 x4 -1 x21 = 1
  eq16: +1 x6 -1 x23 -1 x30 = 4
  eq17: -1 x24 +1 x25 = 0
  eq18: -1 x5 +1 x21 = 1
  eq19: +1 x16 -1 x19 -1 x30 = 3
  eq20: +1 x7 -1 x20 = 1
  eq21: -1 x22 +1 x23 = 1
  eq22: -1 x2 -1 x8 +1 x11 = 6
  eq23: +1 x15 -1 x28 = 1
  eq24: -1 x9 +1 x27 = 0
  ie0: -1 x16 +1 x26 >= 0
  ie1: +1 x2 +1 x3 -1 x6 >= -6
  ie2: +1 x1 +1 x3 -1 x4 >= -6
  ie3: +1 x1 -1 x4 +1 x14 >= -6
  ie4: +1 x8 >= -6
  ie5: -1 x2 -1 x8 +1 x23 >= 7
  ie6: -1 x6 +1 x23 >= 1
  ie7: +1 x1 >= -5
  ie8: +1 x21 >= -5
  ie9: -1 x6 +1 x11 >= -1
  ie10: +1 x4 -1 x6 >= 0
  ie11: +1 x7 >= -6
  ie12: +1 x17 >= -6
  ie13: +1 x3 -1 x8 >= 0
  ie14: -1 x14 +1 x18 >= 0
  ie15: -1 x1 -1 x8 +1 x15 >= 7
END

0.004 sec
[6 ph, smt 0.106, isect 0.221, ins 0.008, tot 0.471]

Running SMT solver (10)... 0.004 sec
Found point (-39/8,-6,-5,-4,-6,-5,-6,-6,-39/8,-39/8,-6,-6,-7,-19/4,-11/4,-6,-19/4,-15/4,-15/4,-7,-5,-19/4,-15/4,-21/8,-21/8,-29/8,-39/8,-15/4,-15/4,-21/4)
Checking... Minimizing (25,85)... (25,18), 0.028 sec
Inserting... 

MAXIMIZE
Subject To
  eq0: -1 x1 -1 x8 +1 x27 = 6
  eq1: +1 x11 -1 x18 -1 x30 = 3
  eq2: -1 x12 +1 x16 = 0
  eq3: -1 x17 +1 x29 = 1
  eq4: -1 x16 = 6
  eq5: +1 x25 -1 x26 = 1
  eq6: -1 x11 +1 x12 = 0
  eq7: -1 x21 = 5
  eq8: -1 x9 +1 x10 = 0
  eq9: +1 x4 -1 x15 -1 x30 = 4
  eq10: +1 x6 -1 x7 = 1
  eq11: +1 x3 -1 x14 -1 x30 = 5
  eq12: +1 x6 -1 x13 = 2
  eq13: -1 x24 +1 x27 -1 x30 = 3
  eq14: -1 x18 +1 x29 = 0
  eq15: +1 x4 -1 x21 = 1
  eq16: +1 x6 -1 x23 -1 x30 = 4
  eq17: -1 x24 +1 x25 = 0
  eq18: -1 x5 +1 x21 = 1
  eq19: +1 x16 -1 x19 -1 x30 = 3
  eq20: +1 x7 -1 x20 = 1
  eq21: -1 x22 +1 x23 = 1
  eq22: -1 x2 -1 x8 +1 x11 = 6
  eq23: +1 x15 -1 x28 = 1
  eq24: -1 x9 +1 x27 = 0
  ie0: -1 x16 +1 x26 >= 0
  ie1: +1 x27 >= -5
  ie2: +1 x2 +1 x3 -1 x6 >= -6
  ie3: +1 x29 >= -6
  ie4: +1 x1 -1 x4 +1 x14 >= -6
  ie5: +1 x8 >= -6
  ie6: -1 x2 -1 x8 +1 x23 >= 7
  ie7: +1 x2 >= -6
  ie8: -1 x6 +1 x23 >= 1
  ie9: +1 x1 >= -5
  ie10: -1 x6 +1 x11 >= -1
  ie11: +1 x4 -1 x6 >= 0
  ie12: +1 x7 >= -6
  ie13: +1 x17 >= -6
  ie14: +1 x3 -1 x8 >= 0
  ie15: -1 x14 +1 x18 >= 0
  ie16: -1 x1 +1 x4 -1 x8 >= 6
  ie17: -1 x1 -1 x8 +1 x15 >= 7
END

0.006 sec
[5 ph, smt 0.110, isect 0.249, ins 0.014, tot 0.516]

Running SMT solver (11)... 0.019 sec
Found point (-5,-6,-15/4,-11/4,-19/4,-15/4,-19/4,-6,-5,-5,-6,-6,-7,-19/4,-11/4,-6,-6,-5,-5,-23/4,-15/4,-19/4,-15/4,-4,-4,-5,-5,-15/4,-5,-4)
Checking... Minimizing (30,82)... (28,6), 0.023 sec
Inserting... 

MAXIMIZE
Subject To
  eq0: -1 x1 -1 x8 +1 x27 = 6
  eq1: -1 x17 = 6
  eq2: -1 x12 +1 x16 = 0
  eq3: -1 x17 +1 x29 = 1
  eq4: -1 x16 = 6
  eq5: +1 x25 -1 x26 = 1
  eq6: -1 x11 +1 x12 = 0
  eq7: -1 x27 = 5
  eq8: -1 x9 +1 x10 = 0
  eq9: -1 x2 -1 x14 +1 x23 = 7
  eq10: +1 x4 -1 x15 -1 x30 = 4
  eq11: -1 x14 +1 x23 -1 x30 = 5
  eq12: +1 x6 -1 x7 = 1
  eq13: +1 x3 -1 x14 -1 x30 = 5
  eq14: +1 x24 -1 x27 = 1
  eq15: +1 x11 -1 x19 -1 x30 = 3
  eq16: -1 x18 +1 x29 = 0
  eq17: +1 x4 -1 x21 = 1
  eq18: +1 x6 -1 x23 -1 x30 = 4
  eq19: -1 x24 +1 x25 = 0
  eq20: -1 x5 +1 x21 = 1
  eq21: +1 x7 -1 x20 = 1
  eq22: +1 x11 -1 x13 = 1
  eq23: -1 x22 +1 x23 = 1
  eq24: -1 x2 -1 x8 +1 x11 = 6
  eq25: +1 x15 -1 x28 = 1
  eq26: -1 x9 +1 x27 = 0
  eq27: -1 x1 -1 x14 +1 x15 = 7
  ie0: +1 x15 -1 x19 >= 0
  ie1: +1 x3 -1 x11 >= 2
  ie2: +1 x1 >= -5
  ie3: +1 x19 >= -6
  ie4: +1 x8 >= -6
  ie5: -1 x2 -1 x8 +1 x23 >= 7
END

0.000 sec
[6 ph, smt 0.129, isect 0.272, ins 0.014, tot 0.565]

Running SMT solver (12)... 0.007 sec
Found point (-4,-5,-6,-4,-6,-5,-6,-6,-4,-4,-5,-5,-7,-7,-4,-5,-5,-4,-5,-7,-5,-6,-5,-3,-3,-4,-4,-5,-4,-4)
Checking... Minimizing (29,78)... (29,5), 0.021 sec
Inserting... 

MAXIMIZE
Subject To
  eq0: -1 x1 -1 x8 +1 x27 = 6
  eq1: -1 x12 +1 x16 = 0
  eq2: -1 x17 +1 x29 = 1
  eq3: +1 x25 -1 x26 = 1
  eq4: -1 x11 +1 x12 = 0
  eq5: -1 x8 +1 x11 = 1
  eq6: -1 x21 = 5
  eq7: -1 x9 +1 x10 = 0
  eq8: -1 x2 -1 x14 +1 x23 = 7
  eq9: +1 x4 -1 x15 -1 x30 = 4
  eq10: -1 x7 = 6
  eq11: +1 x6 -1 x7 = 1
  eq12: +1 x3 -1 x14 -1 x30 = 5
  eq13: +1 x6 -1 x13 = 2
  eq14: +1 x24 -1 x27 = 1
  eq15: -1 x18 +1 x29 = 0
  eq16: +1 x4 -1 x21 = 1
  eq17: +1 x6 -1 x23 -1 x30 = 4
  eq18: -1 x11 +1 x18 = 1
  eq19: +1 x8 -1 x19 -1 x30 = 3
  eq20: -1 x24 +1 x25 = 0
  eq21: -1 x5 +1 x21 = 1
  eq22: +1 x7 -1 x20 = 1
  eq23: -1 x22 +1 x23 = 1
  eq24: -1 x2 -1 x8 +1 x11 = 6
  eq25: -1 x8 = 6
  eq26: +1 x15 -1 x28 = 1
  eq27: -1 x9 +1 x27 = 0
  eq28: -1 x1 -1 x14 +1 x15 = 7
  ie0: +1 x30 >= -5
  ie1: +1 x19 >= -6
  ie2: +1 x30 >= -4
  ie3: +1 x1 +1 x19 -1 x24 >= -6
  ie4: -1 x2 -1 x14 +1 x18 >= 6
END

0.000 sec
[7 ph, smt 0.136, isect 0.292, ins 0.015, tot 0.600]

Running SMT solver (13)... 0.005 sec
Found point (-31/8,-39/8,-49/8,-4,-6,-5,-6,-6,-31/8,-31/8,-39/8,-39/8,-7,-57/8,-4,-39/8,-39/8,-31/8,-5,-7,-5,-6,-5,-23/8,-23/8,-31/8,-31/8,-5,-31/8,-4)
Checking... Minimizing (28,78)... (28,8), 0.023 sec
Inserting... 

MAXIMIZE
Subject To
  eq0: -1 x1 -1 x8 +1 x27 = 6
  eq1: -1 x12 +1 x16 = 0
  eq2: -1 x17 +1 x29 = 1
  eq3: +1 x25 -1 x26 = 1
  eq4: -1 x11 +1 x12 = 0
  eq5: -1 x21 = 5
  eq6: -1 x9 +1 x10 = 0
  eq7: -1 x2 -1 x14 +1 x23 = 7
  eq8: +1 x4 -1 x15 -1 x30 = 4
  eq9: -1 x7 = 6
  eq10: +1 x6 -1 x7 = 1
  eq11: +1 x3 -1 x14 -1 x30 = 5
  eq12: +1 x6 -1 x13 = 2
  eq13: +1 x24 -1 x27 = 1
  eq14: -1 x18 +1 x29 = 0
  eq15: +1 x4 -1 x21 = 1
  eq16: +1 x6 -1 x23 -1 x30 = 4
  eq17: -1 x11 +1 x18 = 1
  eq18: +1 x8 -1 x19 -1 x30 = 3
  eq19: -1 x24 +1 x25 = 0
  eq20: -1 x5 +1 x21 = 1
  eq21: +1 x7 -1 x20 = 1
  eq22: -1 x22 +1 x23 = 1
  eq23: -1 x2 -1 x8 +1 x11 = 6
  eq24: -1 x8 = 6
  eq25: +1 x15 -1 x28 = 1
  eq26: -1 x9 +1 x27 = 0
  eq27: -1 x1 -1 x14 +1 x15 = 7
  ie0: +1 x27 >= -5
  ie1: +1 x19 >= -6
  ie2: +1 x2 >= -5
  ie3: +1 x1 +1 x19 -1 x24 >= -6
  ie4: -1 x2 -1 x14 +1 x18 >= 6
  ie5: +1 x2 -1 x3 +1 x14 >= -7
  ie6: +1 x30 >= -5
  ie7: +1 x30 >= -4
END

0.002 sec
[7 ph, smt 0.141, isect 0.316, ins 0.017, tot 0.639]

Running SMT solver (14)... 0.005 sec
Found point (-33/8,-41/8,-47/8,-4,-6,-5,-6,-6,-33/8,-33/8,-41/8,-41/8,-7,-55/8,-4,-41/8,-41/8,-33/8,-5,-7,-5,-6,-5,-25/8,-25/8,-33/8,-33/8,-5,-33/8,-4)
Checking... Minimizing (28,79)... (28,8), 0.024 sec
Inserting... 

MAXIMIZE
Subject To
  eq0: -1 x1 -1 x8 +1 x27 = 6
  eq1: -1 x12 +1 x16 = 0
  eq2: -1 x17 +1 x29 = 1
  eq3: +1 x25 -1 x26 = 1
  eq4: -1 x11 +1 x12 = 0
  eq5: -1 x21 = 5
  eq6: -1 x9 +1 x10 = 0
  eq7: -1 x2 -1 x14 +1 x23 = 7
  eq8: +1 x4 -1 x15 -1 x30 = 4
  eq9: -1 x7 = 6
  eq10: +1 x6 -1 x7 = 1
  eq11: +1 x3 -1 x14 -1 x30 = 5
  eq12: +1 x6 -1 x13 = 2
  eq13: +1 x24 -1 x27 = 1
  eq14: -1 x18 +1 x29 = 0
  eq15: +1 x4 -1 x21 = 1
  eq16: +1 x6 -1 x23 -1 x30 = 4
  eq17: -1 x11 +1 x18 = 1
  eq18: +1 x8 -1 x19 -1 x30 = 3
  eq19: -1 x24 +1 x25 = 0
  eq20: -1 x5 +1 x21 = 1
  eq21: +1 x7 -1 x20 = 1
  eq22: -1 x22 +1 x23 = 1
  eq23: -1 x2 -1 x8 +1 x11 = 6
  eq24: -1 x8 = 6
  eq25: +1 x15 -1 x28 = 1
  eq26: -1 x9 +1 x27 = 0
  eq27: -1 x1 -1 x14 +1 x15 = 7
  ie0: +1 x27 >= -5
  ie1: +1 x19 >= -6
  ie2: -1 x2 >= 5
  ie3: +1 x1 +1 x19 -1 x24 >= -6
  ie4: -1 x2 -1 x14 +1 x18 >= 6
  ie5: +1 x2 -1 x3 +1 x14 >= -7
  ie6: +1 x30 >= -5
  ie7: +1 x30 >= -4
END

0.001 sec
[8 ph, smt 0.146, isect 0.339, ins 0.017, tot 0.676]

Running SMT solver (15)... 0.007 sec
Found point (-25/6,-31/6,-35/6,-4,-6,-5,-6,-6,-25/6,-25/6,-31/6,-31/6,-7,-20/3,-23/6,-31/6,-5,-4,-29/6,-7,-5,-35/6,-29/6,-3,-3,-4,-25/6,-29/6,-4,-25/6)
Checking... Minimizing (28,80)... (28,8), 0.024 sec
Inserting... 

MAXIMIZE
Subject To
  eq0: -1 x1 -1 x8 +1 x27 = 6
  eq1: +1 x11 -1 x18 -1 x30 = 3
  eq2: -1 x12 +1 x16 = 0
  eq3: -1 x17 +1 x29 = 1
  eq4: +1 x25 -1 x26 = 1
  eq5: -1 x11 +1 x12 = 0
  eq6: -1 x21 = 5
  eq7: -1 x9 +1 x10 = 0
  eq8: -1 x2 -1 x14 +1 x23 = 7
  eq9: +1 x4 -1 x15 -1 x30 = 4
  eq10: -1 x7 = 6
  eq11: +1 x6 -1 x7 = 1
  eq12: +1 x3 -1 x14 -1 x30 = 5
  eq13: +1 x6 -1 x13 = 2
  eq14: -1 x24 +1 x27 -1 x30 = 3
  eq15: -1 x18 +1 x29 = 0
  eq16: +1 x4 -1 x21 = 1
  eq17: +1 x6 -1 x23 -1 x30 = 4
  eq18: +1 x8 -1 x19 -1 x30 = 3
  eq19: -1 x24 +1 x25 = 0
  eq20: -1 x5 +1 x21 = 1
  eq21: +1 x7 -1 x20 = 1
  eq22: -1 x22 +1 x23 = 1
  eq23: -1 x2 -1 x8 +1 x11 = 6
  eq24: -1 x8 = 6
  eq25: +1 x15 -1 x28 = 1
  eq26: -1 x9 +1 x27 = 0
  eq27: -1 x1 -1 x14 +1 x15 = 7
  ie0: +1 x27 >= -5
  ie1: +1 x29 >= -6
  ie2: +1 x17 >= -6
  ie3: +1 x19 >= -6
  ie4: -1 x2 >= 5
  ie5: +1 x30 >= -5
  ie6: -1 x11 +1 x18 >= 1
  ie7: -1 x2 +1 x11 -1 x14 >= 6
END

0.003 sec
[8 ph, smt 0.153, isect 0.363, ins 0.020, tot 0.718]

Running SMT solver (16)... 0.004 sec
Found point (-25/6,-31/6,-35/6,-4,-6,-5,-6,-6,-25/6,-25/6,-31/6,-31/6,-7,-71/12,-37/12,-31/6,-17/4,-13/4,-49/12,-7,-5,-61/12,-49/12,-9/4,-9/4,-13/4,-25/6,-49/12,-13/4,-59/12)
Checking... Minimizing (28,83)... (28,5), 0.024 sec
Inserting... 

MAXIMIZE
Subject To
  eq0: -1 x1 -1 x8 +1 x27 = 6
  eq1: +1 x11 -1 x18 -1 x30 = 3
  eq2: -1 x12 +1 x16 = 0
  eq3: -1 x17 +1 x29 = 1
  eq4: +1 x25 -1 x26 = 1
  eq5: -1 x11 +1 x12 = 0
  eq6: -1 x21 = 5
  eq7: -1 x9 +1 x10 = 0
  eq8: -1 x2 -1 x14 +1 x23 = 7
  eq9: +1 x4 -1 x15 -1 x30 = 4
  eq10: -1 x7 = 6
  eq11: +1 x6 -1 x7 = 1
  eq12: +1 x3 -1 x14 -1 x30 = 5
  eq13: +1 x6 -1 x13 = 2
  eq14: -1 x24 +1 x27 -1 x30 = 3
  eq15: -1 x18 +1 x29 = 0
  eq16: +1 x4 -1 x21 = 1
  eq17: +1 x6 -1 x23 -1 x30 = 4
  eq18: +1 x8 -1 x19 -1 x30 = 3
  eq19: -1 x24 +1 x25 = 0
  eq20: -1 x5 +1 x21 = 1
  eq21: +1 x7 -1 x20 = 1
  eq22: -1 x22 +1 x23 = 1
  eq23: -1 x2 -1 x8 +1 x11 = 6
  eq24: -1 x8 = 6
  eq25: +1 x15 -1 x28 = 1
  eq26: -1 x9 +1 x27 = 0
  eq27: -1 x1 -1 x14 +1 x15 = 7
  ie0: +1 x27 >= -5
  ie1: +1 x30 >= -5
  ie2: +1 x29 >= -6
  ie3: +1 x19 >= -6
  ie4: -1 x2 -1 x8 +1 x23 >= 7
END

0.003 sec
[8 ph, smt 0.157, isect 0.388, ins 0.023, tot 0.757]

Running SMT solver (17)... 0.004 sec
Found point (-31/8,-39/8,-49/8,-4,-6,-5,-6,-6,-31/8,-31/8,-39/8,-39/8,-7,-25/4,-25/8,-39/8,-4,-3,-33/8,-7,-5,-41/8,-33/8,-2,-2,-3,-31/8,-33/8,-3,-39/8)
Checking... Minimizing (28,79)... (28,8), 0.023 sec
Inserting... 

MAXIMIZE
Subject To
  eq0: -1 x1 -1 x8 +1 x27 = 6
  eq1: +1 x11 -1 x18 -1 x30 = 3
  eq2: -1 x12 +1 x16 = 0
  eq3: -1 x17 +1 x29 = 1
  eq4: +1 x25 -1 x26 = 1
  eq5: -1 x11 +1 x12 = 0
  eq6: -1 x21 = 5
  eq7: -1 x9 +1 x10 = 0
  eq8: -1 x2 -1 x14 +1 x23 = 7
  eq9: +1 x4 -1 x15 -1 x30 = 4
  eq10: -1 x7 = 6
  eq11: +1 x6 -1 x7 = 1
  eq12: +1 x3 -1 x14 -1 x30 = 5
  eq13: +1 x6 -1 x13 = 2
  eq14: -1 x24 +1 x27 -1 x30 = 3
  eq15: -1 x18 +1 x29 = 0
  eq16: +1 x4 -1 x21 = 1
  eq17: +1 x6 -1 x23 -1 x30 = 4
  eq18: +1 x8 -1 x19 -1 x30 = 3
  eq19: -1 x24 +1 x25 = 0
  eq20: -1 x5 +1 x21 = 1
  eq21: +1 x7 -1 x20 = 1
  eq22: -1 x22 +1 x23 = 1
  eq23: -1 x2 -1 x8 +1 x11 = 6
  eq24: -1 x8 = 6
  eq25: +1 x15 -1 x28 = 1
  eq26: -1 x9 +1 x27 = 0
  eq27: -1 x1 -1 x14 +1 x15 = 7
  ie0: +1 x27 >= -5
  ie1: +1 x29 >= -6
  ie2: +1 x17 >= -6
  ie3: +1 x19 >= -6
  ie4: +1 x2 >= -5
  ie5: +1 x30 >= -5
  ie6: -1 x11 +1 x18 >= 1
  ie7: -1 x2 +1 x11 -1 x14 >= 6
END

0.003 sec
[8 ph, smt 0.161, isect 0.411, ins 0.026, tot 0.795]

Running SMT solver (18)... 0.005 sec
Found point (-25/6,-5,-35/6,-4,-6,-5,-6,-6,-25/6,-25/6,-5,-5,-7,-23/4,-35/12,-5,-47/12,-35/12,-47/12,-7,-5,-59/12,-47/12,-25/12,-25/12,-37/12,-25/6,-47/12,-35/12,-61/12)
Checking... Minimizing (27,83)... (27,10), 0.026 sec
Inserting... 

MAXIMIZE
Subject To
  eq0: -1 x1 -1 x8 +1 x27 = 6
  eq1: +1 x11 -1 x18 -1 x30 = 3
  eq2: -1 x12 +1 x16 = 0
  eq3: -1 x17 +1 x29 = 1
  eq4: +1 x25 -1 x26 = 1
  eq5: -1 x11 +1 x12 = 0
  eq6: -1 x8 +1 x11 = 1
  eq7: -1 x21 = 5
  eq8: -1 x9 +1 x10 = 0
  eq9: -1 x7 = 6
  eq10: +1 x4 -1 x15 -1 x30 = 4
  eq11: +1 x6 -1 x7 = 1
  eq12: +1 x3 -1 x14 -1 x30 = 5
  eq13: +1 x6 -1 x13 = 2
  eq14: -1 x24 +1 x27 -1 x30 = 3
  eq15: -1 x18 +1 x29 = 0
  eq16: +1 x4 -1 x21 = 1
  eq17: +1 x6 -1 x23 -1 x30 = 4
  eq18: +1 x8 -1 x19 -1 x30 = 3
  eq19: -1 x24 +1 x25 = 0
  eq20: -1 x5 +1 x21 = 1
  eq21: +1 x7 -1 x20 = 1
  eq22: -1 x22 +1 x23 = 1
  eq23: -1 x2 -1 x8 +1 x11 = 6
  eq24: -1 x8 = 6
  eq25: +1 x15 -1 x28 = 1
  eq26: -1 x9 +1 x27 = 0
  ie0: +1 x27 >= -5
  ie1: -1 x3 +1 x8 >= -2
  ie2: +1 x1 +1 x3 -1 x4 >= -6
  ie3: +1 x29 >= -6
  ie4: +1 x1 -1 x4 +1 x14 >= -6
  ie5: +1 x19 >= -6
  ie6: +1 x3 -1 x8 >= 0
  ie7: -1 x14 +1 x18 >= 0
  ie8: -1 x2 -1 x8 +1 x23 >= 7
  ie9: -1 x1 +1 x4 -1 x8 >= 6
END

0.000 sec
[9 ph, smt 0.165, isect 0.437, ins 0.026, tot 0.835]

Running SMT solver (19)... 0.005 sec
Found point (-25/6,-31/6,-59/12,-4,-6,-5,-6,-6,-25/6,-25/6,-31/6,-31/6,-7,-29/6,-35/12,-31/6,-49/12,-37/12,-47/12,-7,-5,-59/12,-47/12,-25/12,-25/12,-37/12,-25/6,-47/12,-37/12,-61/12)
Checking... Minimizing (26,84)... (26,17), 0.029 sec
Inserting... 

MAXIMIZE
Subject To
  eq0: -1 x1 -1 x8 +1 x27 = 6
  eq1: +1 x11 -1 x18 -1 x30 = 3
  eq2: -1 x12 +1 x16 = 0
  eq3: -1 x17 +1 x29 = 1
  eq4: +1 x25 -1 x26 = 1
  eq5: -1 x11 +1 x12 = 0
  eq6: -1 x21 = 5
  eq7: -1 x9 +1 x10 = 0
  eq8: -1 x7 = 6
  eq9: +1 x4 -1 x15 -1 x30 = 4
  eq10: +1 x6 -1 x7 = 1
  eq11: +1 x3 -1 x14 -1 x30 = 5
  eq12: +1 x6 -1 x13 = 2
  eq13: -1 x24 +1 x27 -1 x30 = 3
  eq14: -1 x18 +1 x29 = 0
  eq15: +1 x4 -1 x21 = 1
  eq16: +1 x6 -1 x23 -1 x30 = 4
  eq17: +1 x8 -1 x19 -1 x30 = 3
  eq18: -1 x24 +1 x25 = 0
  eq19: -1 x5 +1 x21 = 1
  eq20: +1 x7 -1 x20 = 1
  eq21: -1 x22 +1 x23 = 1
  eq22: -1 x2 -1 x8 +1 x11 = 6
  eq23: -1 x8 = 6
  eq24: +1 x15 -1 x28 = 1
  eq25: -1 x9 +1 x27 = 0
  ie0: +1 x27 >= -5
  ie1: -1 x3 +1 x8 >= -2
  ie2: +1 x2 +1 x3 -1 x6 >= -6
  ie3: +1 x16 >= -6
  ie4: +1 x1 +1 x3 -1 x4 >= -6
  ie5: +1 x29 >= -6
  ie6: +1 x25 >= -6
  ie7: +1 x19 >= -6
  ie8: +1 x1 -1 x4 +1 x14 >= -6
  ie9: -1 x2 -1 x8 +1 x23 >= 7
  ie10: -1 x6 +1 x23 >= 1
  ie11: -1 x2 -1 x8 +1 x27 >= 6
  ie12: +1 x3 -1 x8 >= 0
  ie13: -1 x14 +1 x18 >= 0
  ie14: -1 x1 +1 x4 -1 x8 >= 6
  ie15: -1 x2 +1 x6 -1 x8 >= 6
  ie16: -1 x1 -1 x8 +1 x15 >= 7
END

0.006 sec
[8 ph, smt 0.171, isect 0.466, ins 0.032, tot 0.884]

Running SMT solver (20)... 0.004 sec
Found point (-29/6,-35/6,-31/6,-4,-6,-5,-6,-6,-29/6,-29/6,-35/6,-35/6,-7,-25/4,-49/12,-35/6,-71/12,-59/12,-61/12,-7,-5,-73/12,-61/12,-47/12,-47/12,-59/12,-29/6,-61/12,-59/12,-47/12)
Checking... Minimizing (28,79)... (28,7), 0.024 sec
Inserting... 

MAXIMIZE
Subject To
  eq0: -1 x1 -1 x8 +1 x27 = 6
  eq1: -1 x12 +1 x16 = 0
  eq2: -1 x17 +1 x29 = 1
  eq3: +1 x25 -1 x26 = 1
  eq4: -1 x11 +1 x12 = 0
  eq5: -1 x21 = 5
  eq6: -1 x9 +1 x10 = 0
  eq7: -1 x2 -1 x14 +1 x23 = 7
  eq8: +1 x4 -1 x15 -1 x30 = 4
  eq9: -1 x1 -1 x19 +1 x24 = 6
  eq10: -1 x7 = 6
  eq11: +1 x6 -1 x7 = 1
  eq12: +1 x3 -1 x14 -1 x30 = 5
  eq13: +1 x6 -1 x13 = 2
  eq14: -1 x8 = 6
  eq15: -1 x18 +1 x29 = 0
  eq16: +1 x4 -1 x21 = 1
  eq17: +1 x6 -1 x23 -1 x30 = 4
  eq18: +1 x8 -1 x19 -1 x30 = 3
  eq19: -1 x24 +1 x25 = 0
  eq20: -1 x5 +1 x21 = 1
  eq21: +1 x7 -1 x20 = 1
  eq22: -1 x22 +1 x23 = 1
  eq23: -1 x2 -1 x8 +1 x11 = 6
  eq24: -1 x2 +1 x18 -1 x19 = 6
  eq25: +1 x15 -1 x28 = 1
  eq26: -1 x9 +1 x27 = 0
  eq27: -1 x1 -1 x14 +1 x15 = 7
  ie0: +1 x17 >= -6
  ie1: +1 x27 >= -5
  ie2: +1 x30 >= -5
  ie3: +1 x29 >= -6
  ie4: +1 x19 >= -6
  ie5: -1 x2 >= 5
  ie6: +1 x30 >= -4
END

0.001 sec
[9 ph, smt 0.175, isect 0.490, ins 0.033, tot 0.921]

Running SMT solver (21)... 0.004 sec
Found point (-31/8,-39/8,-49/8,-4,-6,-5,-6,-6,-31/8,-31/8,-39/8,-39/8,-7,-29/4,-33/8,-39/8,-5,-4,-41/8,-7,-5,-49/8,-41/8,-3,-3,-4,-31/8,-41/8,-4,-31/8)
Checking... Minimizing (28,78)... (28,7), 0.024 sec
Inserting... 

MAXIMIZE
Subject To
  eq0: -1 x1 -1 x8 +1 x27 = 6
  eq1: -1 x12 +1 x16 = 0
  eq2: -1 x17 +1 x29 = 1
  eq3: +1 x25 -1 x26 = 1
  eq4: -1 x11 +1 x12 = 0
  eq5: -1 x21 = 5
  eq6: -1 x9 +1 x10 = 0
  eq7: -1 x2 -1 x14 +1 x23 = 7
  eq8: +1 x4 -1 x15 -1 x30 = 4
  eq9: -1 x1 -1 x19 +1 x24 = 6
  eq10: -1 x7 = 6
  eq11: +1 x6 -1 x7 = 1
  eq12: +1 x3 -1 x14 -1 x30 = 5
  eq13: +1 x6 -1 x13 = 2
  eq14: -1 x8 = 6
  eq15: -1 x18 +1 x29 = 0
  eq16: +1 x4 -1 x21 = 1
  eq17: +1 x6 -1 x23 -1 x30 = 4
  eq18: +1 x8 -1 x19 -1 x30 = 3
  eq19: -1 x24 +1 x25 = 0
  eq20: -1 x5 +1 x21 = 1
  eq21: +1 x7 -1 x20 = 1
  eq22: -1 x22 +1 x23 = 1
  eq23: -1 x2 -1 x8 +1 x11 = 6
  eq24: -1 x2 +1 x18 -1 x19 = 6
  eq25: +1 x15 -1 x28 = 1
  eq26: -1 x9 +1 x27 = 0
  eq27: -1 x1 -1 x14 +1 x15 = 7
  ie0: +1 x17 >= -6
  ie1: +1 x27 >= -5
  ie2: +1 x30 >= -5
  ie3: +1 x29 >= -6
  ie4: +1 x19 >= -6
  ie5: +1 x2 >= -5
  ie6: +1 x30 >= -4
END

0.001 sec
[10 ph, smt 0.179, isect 0.513, ins 0.034, tot 0.958]

Running SMT solver (22)... 0.005 sec
Found point (-31/8,-39/8,-49/8,-4,-6,-5,-6,-6,-31/8,-31/8,-39/8,-39/8,-7,-97/16,-47/16,-39/8,-61/16,-45/16,-63/16,-7,-5,-79/16,-63/16,-29/16,-29/16,-45/16,-31/8,-63/16,-45/16,-81/16)
Checking... Minimizing (28,83)... (28,6), 0.025 sec
Inserting... 

MAXIMIZE
Subject To
  eq0: -1 x1 -1 x3 +1 x4 = 6
  eq1: +1 x11 -1 x18 -1 x30 = 3
  eq2: -1 x1 -1 x8 +1 x27 = 6
  eq3: -1 x12 +1 x16 = 0
  eq4: -1 x17 +1 x29 = 1
  eq5: +1 x25 -1 x26 = 1
  eq6: -1 x11 +1 x12 = 0
  eq7: -1 x21 = 5
  eq8: -1 x9 +1 x10 = 0
  eq9: -1 x7 = 6
  eq10: +1 x4 -1 x15 -1 x30 = 4
  eq11: +1 x6 -1 x7 = 1
  eq12: +1 x3 -1 x14 -1 x30 = 5
  eq13: +1 x6 -1 x13 = 2
  eq14: -1 x24 +1 x27 -1 x30 = 3
  eq15: -1 x18 +1 x29 = 0
  eq16: +1 x4 -1 x21 = 1
  eq17: +1 x6 -1 x23 -1 x30 = 4
  eq18: +1 x8 -1 x19 -1 x30 = 3
  eq19: -1 x24 +1 x25 = 0
  eq20: -1 x2 -1 x3 +1 x6 = 6
  eq21: -1 x5 +1 x21 = 1
  eq22: +1 x7 -1 x20 = 1
  eq23: -1 x22 +1 x23 = 1
  eq24: -1 x2 -1 x8 +1 x11 = 6
  eq25: -1 x8 = 6
  eq26: +1 x15 -1 x28 = 1
  eq27: -1 x9 +1 x27 = 0
  ie0: +1 x27 >= -5
  ie1: +1 x29 >= -6
  ie2: -1 x1 -1 x3 +1 x27 >= 6
  ie3: +1 x19 >= -6
  ie4: -1 x3 +1 x19 >= 0
  ie5: -1 x2 -1 x3 +1 x23 >= 7
END

0.001 sec
[11 ph, smt 0.183, isect 0.538, ins 0.035, tot 0.997]

Running SMT solver (23)... 0.006 sec
Found point (-5,-47/8,-39/8,-31/8,-47/8,-5,-6,-6,-5,-5,-47/8,-47/8,-7,-19/4,-11/4,-47/8,-19/4,-15/4,-31/8,-7,-39/8,-39/8,-31/8,-23/8,-23/8,-31/8,-5,-15/4,-15/4,-41/8)
Checking... Minimizing (26,84)... (26,16), 0.027 sec
Inserting... 

MAXIMIZE
Subject To
  eq0: -1 x1 -1 x8 +1 x27 = 6
  eq1: +1 x11 -1 x18 -1 x30 = 3
  eq2: -1 x12 +1 x16 = 0
  eq3: -1 x17 +1 x29 = 1
  eq4: +1 x25 -1 x26 = 1
  eq5: -1 x11 +1 x12 = 0
  eq6: -1 x27 = 5
  eq7: -1 x9 +1 x10 = 0
  eq8: -1 x7 = 6
  eq9: +1 x4 -1 x15 -1 x30 = 4
  eq10: +1 x6 -1 x7 = 1
  eq11: +1 x3 -1 x14 -1 x30 = 5
  eq12: +1 x6 -1 x13 = 2
  eq13: -1 x24 +1 x27 -1 x30 = 3
  eq14: -1 x18 +1 x29 = 0
  eq15: +1 x4 -1 x21 = 1
  eq16: +1 x6 -1 x23 -1 x30 = 4
  eq17: +1 x8 -1 x19 -1 x30 = 3
  eq18: -1 x24 +1 x25 = 0
  eq19: -1 x5 +1 x21 = 1
  eq20: +1 x7 -1 x20 = 1
  eq21: -1 x22 +1 x23 = 1
  eq22: -1 x2 -1 x8 +1 x11 = 6
  eq23: -1 x8 = 6
  eq24: +1 x15 -1 x28 = 1
  eq25: -1 x9 +1 x27 = 0
  ie0: +1 x2 +1 x3 -1 x6 >= -6
  ie1: -1 x3 +1 x8 >= -2
  ie2: +1 x1 +1 x3 -1 x4 >= -6
  ie3: +1 x16 >= -6
  ie4: +1 x29 >= -6
  ie5: +1 x25 >= -6
  ie6: +1 x19 >= -6
  ie7: +1 x1 -1 x4 +1 x14 >= -6
  ie8: -1 x2 -1 x8 +1 x23 >= 7
  ie9: -1 x6 +1 x23 >= 1
  ie10: +1 x21 >= -5
  ie11: -1 x2 -1 x8 +1 x27 >= 6
  ie12: +1 x4 -1 x6 >= 0
  ie13: +1 x3 -1 x8 >= 0
  ie14: -1 x14 +1 x18 >= 0
  ie15: -1 x1 -1 x8 +1 x15 >= 7
END

0.003 sec
[11 ph, smt 0.190, isect 0.565, ins 0.038, tot 1.041]

Running SMT solver (24)... 0.008 sec
Found point (-5,-6,-2,-3,-5,-3,-4,-6,-5,-5,-6,-6,-7,-2,-2,-6,-5,-4,-4,-5,-4,-3,-2,-3,-3,-4,-5,-3,-4,-5)
Checking... Minimizing (29,83)... (27,8), 0.021 sec
Inserting... 

MAXIMIZE
Subject To
  eq0: -1 x1 -1 x8 +1 x27 = 6
  eq1: +1 x11 -1 x18 -1 x30 = 3
  eq2: -1 x12 +1 x16 = 0
  eq3: -1 x17 +1 x29 = 1
  eq4: -1 x16 = 6
  eq5: +1 x25 -1 x26 = 1
  eq6: -1 x11 +1 x12 = 0
  eq7: -1 x27 = 5
  eq8: -1 x9 +1 x10 = 0
  eq9: +1 x4 -1 x15 -1 x30 = 4
  eq10: -1 x14 +1 x23 -1 x30 = 5
  eq11: +1 x6 -1 x7 = 1
  eq12: -1 x24 +1 x27 -1 x30 = 3
  eq13: -1 x6 +1 x23 = 1
  eq14: +1 x11 -1 x19 -1 x30 = 3
  eq15: -1 x18 +1 x29 = 0
  eq16: +1 x4 -1 x21 = 1
  eq17: +1 x6 -1 x23 -1 x30 = 4
  eq18: -1 x24 +1 x25 = 0
  eq19: +1 x3 -1 x6 = 1
  eq20: -1 x5 +1 x21 = 1
  eq21: +1 x7 -1 x20 = 1
  eq22: +1 x11 -1 x13 = 1
  eq23: -1 x22 +1 x23 = 1
  eq24: -1 x2 -1 x8 +1 x11 = 6
  eq25: +1 x15 -1 x28 = 1
  eq26: -1 x9 +1 x27 = 0
  ie0: +1 x15 -1 x23 >= 0
  ie1: +1 x15 -1 x19 >= 0
  ie2: +1 x7 >= -6
  ie3: +1 x1 -1 x4 +1 x14 >= -6
  ie4: +1 x8 >= -6
  ie5: -1 x2 -1 x8 +1 x23 >= 7
  ie6: +1 x1 >= -5
  ie7: +1 x21 >= -5
END

0.000 sec
[12 ph, smt 0.197, isect 0.586, ins 0.038, tot 1.078]

Running SMT solver (25)... 0.004 sec
Found point (-19/4,-6,-3,-4,-6,-4,-5,-6,-19/4,-19/4,-6,-6,-7,-3,-3,-6,-5,-4,-4,-6,-5,-4,-3,-11/4,-11/4,-15/4,-19/4,-4,-4,-5)
Checking... Minimizing (29,83)... (27,10), 0.024 sec
Inserting... 

MAXIMIZE
Subject To
  eq0: -1 x1 -1 x8 +1 x27 = 6
  eq1: +1 x11 -1 x18 -1 x30 = 3
  eq2: -1 x12 +1 x16 = 0
  eq3: -1 x17 +1 x29 = 1
  eq4: -1 x16 = 6
  eq5: +1 x25 -1 x26 = 1
  eq6: -1 x11 +1 x12 = 0
  eq7: -1 x21 = 5
  eq8: -1 x9 +1 x10 = 0
  eq9: +1 x4 -1 x15 -1 x30 = 4
  eq10: -1 x14 +1 x23 -1 x30 = 5
  eq11: +1 x6 -1 x7 = 1
  eq12: -1 x24 +1 x27 -1 x30 = 3
  eq13: -1 x6 +1 x23 = 1
  eq14: +1 x11 -1 x19 -1 x30 = 3
  eq15: -1 x18 +1 x29 = 0
  eq16: +1 x4 -1 x21 = 1
  eq17: +1 x6 -1 x23 -1 x30 = 4
  eq18: -1 x24 +1 x25 = 0
  eq19: +1 x3 -1 x6 = 1
  eq20: -1 x5 +1 x21 = 1
  eq21: +1 x7 -1 x20 = 1
  eq22: +1 x11 -1 x13 = 1
  eq23: -1 x22 +1 x23 = 1
  eq24: -1 x2 -1 x8 +1 x11 = 6
  eq25: +1 x15 -1 x28 = 1
  eq26: -1 x9 +1 x27 = 0
  ie0: +1 x15 -1 x23 >= 0
  ie1: +1 x27 >= -5
  ie2: -1 x16 +1 x26 >= 0
  ie3: +1 x7 >= -6
  ie4: +1 x3 -1 x8 >= 0
  ie5: +1 x8 >= -6
  ie6: -1 x2 -1 x8 +1 x23 >= 7
  ie7: -1 x1 +1 x4 -1 x8 >= 6
  ie8: +1 x2 >= -6
  ie9: +1 x1 >= -5
END

0.000 sec
[13 ph, smt 0.201, isect 0.610, ins 0.039, tot 1.114]

Running SMT solver (26)... 0.004 sec
Found point (-14/3,-6,-3,-4,-6,-23/6,-29/6,-6,-14/3,-14/3,-6,-6,-7,-3,-3,-6,-5,-4,-4,-35/6,-5,-23/6,-17/6,-8/3,-8/3,-11/3,-14/3,-4,-4,-5)
Checking... Minimizing (29,83)... (27,11), 0.024 sec
Inserting... 

MAXIMIZE
Subject To
  eq0: -1 x1 -1 x8 +1 x27 = 6
  eq1: +1 x11 -1 x18 -1 x30 = 3
  eq2: -1 x12 +1 x16 = 0
  eq3: -1 x17 +1 x29 = 1
  eq4: -1 x16 = 6
  eq5: +1 x25 -1 x26 = 1
  eq6: -1 x11 +1 x12 = 0
  eq7: -1 x21 = 5
  eq8: -1 x9 +1 x10 = 0
  eq9: +1 x4 -1 x15 -1 x30 = 4
  eq10: +1 x6 -1 x7 = 1
  eq11: -1 x24 +1 x27 -1 x30 = 3
  eq12: -1 x6 +1 x23 = 1
  eq13: +1 x11 -1 x19 -1 x30 = 3
  eq14: -1 x18 +1 x29 = 0
  eq15: +1 x4 -1 x21 = 1
  eq16: +1 x6 -1 x23 -1 x30 = 4
  eq17: -1 x24 +1 x25 = 0
  eq18: -1 x14 +1 x15 -1 x30 = 5
  eq19: +1 x3 -1 x4 = 1
  eq20: -1 x5 +1 x21 = 1
  eq21: +1 x7 -1 x20 = 1
  eq22: +1 x11 -1 x13 = 1
  eq23: -1 x22 +1 x23 = 1
  eq24: -1 x2 -1 x8 +1 x11 = 6
  eq25: +1 x15 -1 x28 = 1
  eq26: -1 x9 +1 x27 = 0
  ie0: -1 x16 +1 x26 >= 0
  ie1: +1 x27 >= -5
  ie2: +1 x7 >= -6
  ie3: +1 x2 +1 x3 -1 x6 >= -6
  ie4: +1 x3 -1 x8 >= 0
  ie5: +1 x8 >= -6
  ie6: -1 x2 -1 x8 +1 x23 >= 7
  ie7: -1 x1 +1 x4 -1 x8 >= 6
  ie8: -1 x15 +1 x23 >= 0
  ie9: +1 x2 >= -6
  ie10: +1 x1 >= -5
END

0.003 sec
[14 ph, smt 0.205, isect 0.634, ins 0.042, tot 1.153]

Running SMT solver (27)... 0.004 sec
Found point (-5,-6,-23/8,-31/8,-47/8,-15/4,-19/4,-6,-5,-5,-6,-6,-7,-23/8,-23/8,-6,-5,-4,-4,-23/4,-39/8,-15/4,-11/4,-3,-3,-4,-5,-31/8,-4,-5)
Checking... Minimizing (29,83)... (27,8), 0.021 sec
Inserting... 

MAXIMIZE
Subject To
  eq0: -1 x1 -1 x8 +1 x27 = 6
  eq1: +1 x11 -1 x18 -1 x30 = 3
  eq2: -1 x12 +1 x16 = 0
  eq3: -1 x17 +1 x29 = 1
  eq4: -1 x16 = 6
  eq5: +1 x25 -1 x26 = 1
  eq6: -1 x11 +1 x12 = 0
  eq7: -1 x27 = 5
  eq8: -1 x9 +1 x10 = 0
  eq9: +1 x4 -1 x15 -1 x30 = 4
  eq10: +1 x6 -1 x7 = 1
  eq11: -1 x24 +1 x27 -1 x30 = 3
  eq12: -1 x6 +1 x23 = 1
  eq13: +1 x11 -1 x19 -1 x30 = 3
  eq14: -1 x18 +1 x29 = 0
  eq15: +1 x4 -1 x21 = 1
  eq16: +1 x6 -1 x23 -1 x30 = 4
  eq17: -1 x24 +1 x25 = 0
  eq18: -1 x14 +1 x15 -1 x30 = 5
  eq19: +1 x3 -1 x4 = 1
  eq20: -1 x5 +1 x21 = 1
  eq21: +1 x7 -1 x20 = 1
  eq22: +1 x11 -1 x13 = 1
  eq23: -1 x22 +1 x23 = 1
  eq24: -1 x2 -1 x8 +1 x11 = 6
  eq25: +1 x15 -1 x28 = 1
  eq26: -1 x9 +1 x27 = 0
  ie0: +1 x15 -1 x19 >= 0
  ie1: +1 x7 >= -6
  ie2: +1 x2 +1 x3 -1 x6 >= -6
  ie3: +1 x8 >= -6
  ie4: -1 x2 -1 x8 +1 x23 >= 7
  ie5: -1 x15 +1 x23 >= 0
  ie6: +1 x1 >= -5
  ie7: +1 x21 >= -5
END

0.003 sec
[15 ph, smt 0.210, isect 0.655, ins 0.044, tot 1.189]

Running SMT solver (28)... 0.006 sec
Found point (-5,-6,-35/12,-23/6,-35/6,-15/4,-19/4,-6,-5,-5,-6,-6,-7,-35/12,-17/6,-6,-5,-4,-4,-23/4,-29/6,-15/4,-11/4,-3,-3,-4,-5,-23/6,-4,-5)
Checking... Minimizing (28,83)... (26,13), 0.023 sec
Inserting... 

MAXIMIZE
Subject To
  eq0: -1 x1 -1 x8 +1 x27 = 6
  eq1: +1 x11 -1 x18 -1 x30 = 3
  eq2: -1 x12 +1 x16 = 0
  eq3: -1 x17 +1 x29 = 1
  eq4: -1 x16 = 6
  eq5: +1 x25 -1 x26 = 1
  eq6: -1 x11 +1 x12 = 0
  eq7: -1 x27 = 5
  eq8: -1 x9 +1 x10 = 0
  eq9: +1 x4 -1 x15 -1 x30 = 4
  eq10: +1 x6 -1 x7 = 1
  eq11: +1 x3 -1 x14 -1 x30 = 5
  eq12: -1 x24 +1 x27 -1 x30 = 3
  eq13: -1 x6 +1 x23 = 1
  eq14: +1 x11 -1 x19 -1 x30 = 3
  eq15: -1 x18 +1 x29 = 0
  eq16: +1 x4 -1 x21 = 1
  eq17: +1 x6 -1 x23 -1 x30 = 4
  eq18: -1 x24 +1 x25 = 0
  eq19: -1 x5 +1 x21 = 1
  eq20: +1 x7 -1 x20 = 1
  eq21: +1 x11 -1 x13 = 1
  eq22: -1 x22 +1 x23 = 1
  eq23: -1 x2 -1 x8 +1 x11 = 6
  eq24: +1 x15 -1 x28 = 1
  eq25: -1 x9 +1 x27 = 0
  ie0: +1 x15 -1 x19 >= 0
  ie1: +1 x7 >= -6
  ie2: -1 x3 +1 x23 >= 0
  ie3: +1 x2 +1 x3 -1 x6 >= -6
  ie4: +1 x3 -1 x11 >= 2
  ie5: +1 x1 -1 x4 +1 x14 >= -6
  ie6: +1 x3 -1 x8 >= 0
  ie7: -1 x3 +1 x28 >= -3
  ie8: +1 x8 >= -6
  ie9: -1 x2 -1 x8 +1 x23 >= 7
  ie10: -1 x3 +1 x15 >= 0
  ie11: +1 x1 >= -5
  ie12: +1 x21 >= -5
END

0.003 sec
[14 ph, smt 0.216, isect 0.678, ins 0.048, tot 1.230]

Running SMT solver (29)... 0.004 sec
Found point (-5,-6,-25/6,-23/6,-35/6,-13/3,-16/3,-6,-5,-5,-6,-6,-7,-25/6,-17/6,-6,-5,-4,-4,-19/3,-29/6,-13/3,-10/3,-3,-3,-4,-5,-23/6,-4,-5)
Checking... Minimizing (27,84)... (26,10), 0.022 sec
Inserting... 

MAXIMIZE
Subject To
  eq0: -1 x1 -1 x8 +1 x27 = 6
  eq1: +1 x11 -1 x18 -1 x30 = 3
  eq2: -1 x12 +1 x16 = 0
  eq3: -1 x17 +1 x29 = 1
  eq4: -1 x16 = 6
  eq5: +1 x25 -1 x26 = 1
  eq6: -1 x11 +1 x12 = 0
  eq7: -1 x27 = 5
  eq8: -1 x9 +1 x10 = 0
  eq9: +1 x4 -1 x15 -1 x30 = 4
  eq10: +1 x6 -1 x7 = 1
  eq11: +1 x3 -1 x14 -1 x30 = 5
  eq12: -1 x24 +1 x27 -1 x30 = 3
  eq13: -1 x6 +1 x23 = 1
  eq14: -1 x18 +1 x29 = 0
  eq15: +1 x4 -1 x21 = 1
  eq16: +1 x6 -1 x23 -1 x30 = 4
  eq17: -1 x24 +1 x25 = 0
  eq18: -1 x5 +1 x21 = 1
  eq19: +1 x16 -1 x19 -1 x30 = 3
  eq20: +1 x7 -1 x20 = 1
  eq21: +1 x11 -1 x13 = 1
  eq22: -1 x22 +1 x23 = 1
  eq23: -1 x2 -1 x8 +1 x11 = 6
  eq24: +1 x15 -1 x28 = 1
  eq25: -1 x9 +1 x27 = 0
  ie0: +1 x7 >= -6
  ie1: +1 x2 +1 x3 -1 x6 >= -6
  ie2: +1 x1 -1 x4 +1 x14 >= -6
  ie3: +1 x3 -1 x8 >= 0
  ie4: -1 x14 +1 x18 >= 0
  ie5: +1 x8 >= -6
  ie6: -1 x2 -1 x8 +1 x23 >= 7
  ie7: -1 x1 +1 x4 -1 x8 >= 6
  ie8: +1 x1 >= -5
  ie9: +1 x21 >= -5
END

0.001 sec
[15 ph, smt 0.220, isect 0.701, ins 0.048, tot 1.265]

Running SMT solver (30)... 0.004 sec
Found point (-29/6,-6,-23/6,-4,-6,-25/6,-31/6,-6,-29/6,-29/6,-6,-6,-7,-23/6,-3,-6,-5,-4,-4,-37/6,-5,-25/6,-19/6,-17/6,-17/6,-23/6,-29/6,-4,-4,-5)
Checking... Minimizing (28,83)... (26,15), 0.025 sec
Inserting... 

MAXIMIZE
Subject To
  eq0: -1 x1 -1 x8 +1 x27 = 6
  eq1: +1 x11 -1 x18 -1 x30 = 3
  eq2: -1 x12 +1 x16 = 0
  eq3: -1 x17 +1 x29 = 1
  eq4: -1 x16 = 6
  eq5: +1 x25 -1 x26 = 1
  eq6: -1 x11 +1 x12 = 0
  eq7: -1 x21 = 5
  eq8: -1 x9 +1 x10 = 0
  eq9: +1 x4 -1 x15 -1 x30 = 4
  eq10: +1 x6 -1 x7 = 1
  eq11: +1 x3 -1 x14 -1 x30 = 5
  eq12: -1 x24 +1 x27 -1 x30 = 3
  eq13: -1 x6 +1 x23 = 1
  eq14: +1 x11 -1 x19 -1 x30 = 3
  eq15: -1 x18 +1 x29 = 0
  eq16: +1 x4 -1 x21 = 1
  eq17: +1 x6 -1 x23 -1 x30 = 4
  eq18: -1 x24 +1 x25 = 0
  eq19: -1 x5 +1 x21 = 1
  eq20: +1 x7 -1 x20 = 1
  eq21: +1 x11 -1 x13 = 1
  eq22: -1 x22 +1 x23 = 1
  eq23: -1 x2 -1 x8 +1 x11 = 6
  eq24: +1 x15 -1 x28 = 1
  eq25: -1 x9 +1 x27 = 0
  ie0: -1 x16 +1 x26 >= 0
  ie1: +1 x27 >= -5
  ie2: +1 x7 >= -6
  ie3: -1 x3 +1 x23 >= 0
  ie4: +1 x2 +1 x3 -1 x6 >= -6
  ie5: +1 x3 -1 x11 >= 2
  ie6: +1 x1 -1 x4 +1 x14 >= -6
  ie7: +1 x3 -1 x8 >= 0
  ie8: -1 x3 +1 x28 >= -3
  ie9: +1 x8 >= -6
  ie10: -1 x2 -1 x8 +1 x23 >= 7
  ie11: -1 x1 +1 x4 -1 x8 >= 6
  ie12: -1 x3 +1 x15 >= 0
  ie13: +1 x2 >= -6
  ie14: +1 x1 >= -5
END

0.004 sec
[14 ph, smt 0.224, isect 0.726, ins 0.052, tot 1.307]

Running SMT solver (31)... 0.004 sec
Found point (-29/6,-6,-25/6,-4,-6,-13/3,-16/3,-6,-29/6,-29/6,-6,-6,-7,-25/6,-3,-6,-5,-4,-4,-19/3,-5,-13/3,-10/3,-17/6,-17/6,-23/6,-29/6,-4,-4,-5)
Checking... Minimizing (27,84)... (26,12), 0.025 sec
Inserting... 

MAXIMIZE
Subject To
  eq0: -1 x1 -1 x8 +1 x27 = 6
  eq1: +1 x11 -1 x18 -1 x30 = 3
  eq2: -1 x12 +1 x16 = 0
  eq3: -1 x17 +1 x29 = 1
  eq4: -1 x16 = 6
  eq5: +1 x25 -1 x26 = 1
  eq6: -1 x11 +1 x12 = 0
  eq7: -1 x21 = 5
  eq8: -1 x9 +1 x10 = 0
  eq9: +1 x4 -1 x15 -1 x30 = 4
  eq10: +1 x6 -1 x7 = 1
  eq11: +1 x3 -1 x14 -1 x30 = 5
  eq12: -1 x24 +1 x27 -1 x30 = 3
  eq13: -1 x6 +1 x23 = 1
  eq14: -1 x18 +1 x29 = 0
  eq15: +1 x4 -1 x21 = 1
  eq16: +1 x6 -1 x23 -1 x30 = 4
  eq17: -1 x24 +1 x25 = 0
  eq18: -1 x5 +1 x21 = 1
  eq19: +1 x16 -1 x19 -1 x30 = 3
  eq20: +1 x7 -1 x20 = 1
  eq21: +1 x11 -1 x13 = 1
  eq22: -1 x22 +1 x23 = 1
  eq23: -1 x2 -1 x8 +1 x11 = 6
  eq24: +1 x15 -1 x28 = 1
  eq25: -1 x9 +1 x27 = 0
  ie0: -1 x16 +1 x26 >= 0
  ie1: +1 x27 >= -5
  ie2: +1 x7 >= -6
  ie3: +1 x2 +1 x3 -1 x6 >= -6
  ie4: +1 x1 -1 x4 +1 x14 >= -6
  ie5: +1 x3 -1 x8 >= 0
  ie6: -1 x14 +1 x18 >= 0
  ie7: +1 x8 >= -6
  ie8: -1 x2 -1 x8 +1 x23 >= 7
  ie9: -1 x1 +1 x4 -1 x8 >= 6
  ie10: +1 x2 >= -6
  ie11: +1 x1 >= -5
END

0.001 sec
[15 ph, smt 0.228, isect 0.751, ins 0.053, tot 1.345]

Running SMT solver (32)... 0.004 sec
Found point (-5,-6,-17/4,-13/4,-21/4,-17/4,-21/4,-6,-5,-5,-6,-6,-7,-35/8,-19/8,-6,-41/8,-33/8,-33/8,-25/4,-17/4,-35/8,-27/8,-25/8,-25/8,-33/8,-5,-27/8,-33/8,-39/8)
Checking... Minimizing (27,84)... (27,8), 0.025 sec
Inserting... 

MAXIMIZE
Subject To
  eq0: -1 x1 -1 x8 +1 x27 = 6
  eq1: +1 x11 -1 x18 -1 x30 = 3
  eq2: -1 x12 +1 x16 = 0
  eq3: -1 x17 +1 x29 = 1
  eq4: -1 x16 = 6
  eq5: +1 x25 -1 x26 = 1
  eq6: -1 x11 +1 x12 = 0
  eq7: -1 x27 = 5
  eq8: -1 x9 +1 x10 = 0
  eq9: -1 x2 -1 x14 +1 x23 = 7
  eq10: +1 x4 -1 x15 -1 x30 = 4
  eq11: +1 x6 -1 x7 = 1
  eq12: +1 x3 -1 x14 -1 x30 = 5
  eq13: -1 x24 +1 x27 -1 x30 = 3
  eq14: -1 x18 +1 x29 = 0
  eq15: +1 x4 -1 x21 = 1
  eq16: +1 x6 -1 x23 -1 x30 = 4
  eq17: -1 x24 +1 x25 = 0
  eq18: -1 x5 +1 x21 = 1
  eq19: +1 x16 -1 x19 -1 x30 = 3
  eq20: +1 x7 -1 x20 = 1
  eq21: +1 x11 -1 x13 = 1
  eq22: -1 x22 +1 x23 = 1
  eq23: -1 x2 -1 x8 +1 x11 = 6
  eq24: +1 x15 -1 x28 = 1
  eq25: -1 x9 +1 x27 = 0
  eq26: -1 x1 -1 x14 +1 x15 = 7
  ie0: -1 x16 +1 x26 >= 0
  ie1: +1 x7 >= -6
  ie2: +1 x17 >= -6
  ie3: -1 x14 +1 x18 >= 0
  ie4: +1 x8 >= -6
  ie5: -1 x2 -1 x8 +1 x23 >= 7
  ie6: +1 x1 >= -5
  ie7: +1 x30 >= -5
END

0.001 sec
[16 ph, smt 0.232, isect 0.776, ins 0.054, tot 1.383]

Running SMT solver (33)... 0.004 sec
Found point (-5,-6,-31/8,-23/8,-39/8,-31/8,-39/8,-6,-5,-5,-6,-6,-7,-4,-2,-6,-41/8,-33/8,-33/8,-47/8,-31/8,-4,-3,-25/8,-25/8,-33/8,-5,-3,-33/8,-39/8)
Checking... Minimizing (28,83)... (27,9), 0.026 sec
Inserting... 

MAXIMIZE
Subject To
  eq0: -1 x1 -1 x8 +1 x27 = 6
  eq1: +1 x11 -1 x18 -1 x30 = 3
  eq2: -1 x12 +1 x16 = 0
  eq3: -1 x17 +1 x29 = 1
  eq4: -1 x16 = 6
  eq5: +1 x25 -1 x26 = 1
  eq6: -1 x11 +1 x12 = 0
  eq7: -1 x27 = 5
  eq8: -1 x9 +1 x10 = 0
  eq9: -1 x2 -1 x14 +1 x23 = 7
  eq10: +1 x4 -1 x15 -1 x30 = 4
  eq11: +1 x6 -1 x7 = 1
  eq12: +1 x3 -1 x14 -1 x30 = 5
  eq13: -1 x24 +1 x27 -1 x30 = 3
  eq14: +1 x11 -1 x19 -1 x30 = 3
  eq15: -1 x18 +1 x29 = 0
  eq16: +1 x4 -1 x21 = 1
  eq17: +1 x6 -1 x23 -1 x30 = 4
  eq18: -1 x24 +1 x25 = 0
  eq19: -1 x5 +1 x21 = 1
  eq20: +1 x7 -1 x20 = 1
  eq21: +1 x11 -1 x13 = 1
  eq22: -1 x22 +1 x23 = 1
  eq23: -1 x2 -1 x8 +1 x11 = 6
  eq24: +1 x15 -1 x28 = 1
  eq25: -1 x9 +1 x27 = 0
  eq26: -1 x1 -1 x14 +1 x15 = 7
  ie0: -1 x16 +1 x26 >= 0
  ie1: +1 x15 -1 x19 >= 0
  ie2: +1 x7 >= -6
  ie3: +1 x3 -1 x11 >= 2
  ie4: +1 x17 >= -6
  ie5: +1 x8 >= -6
  ie6: -1 x2 -1 x8 +1 x23 >= 7
  ie7: +1 x1 >= -5
  ie8: +1 x30 >= -5
END

0.003 sec
[16 ph, smt 0.236, isect 0.802, ins 0.056, tot 1.424]

Running SMT solver (34)... 0.007 sec
Found point (-25/6,-31/6,-35/6,-4,-6,-5,-6,-71/12,-49/12,-49/12,-61/12,-61/12,-7,-31/4,-59/12,-61/12,-6,-5,-35/6,-7,-5,-83/12,-71/12,-4,-4,-5,-49/12,-71/12,-5,-37/12)
Checking... Minimizing (27,76)... (27,9), 0.023 sec
Inserting... 

MAXIMIZE
Subject To
  eq0: -1 x1 -1 x8 +1 x27 = 6
  eq1: -1 x17 = 6
  eq2: -1 x12 +1 x16 = 0
  eq3: -1 x17 +1 x29 = 1
  eq4: +1 x25 -1 x26 = 1
  eq5: -1 x11 +1 x12 = 0
  eq6: -1 x21 = 5
  eq7: -1 x9 +1 x10 = 0
  eq8: -1 x2 -1 x14 +1 x23 = 7
  eq9: +1 x4 -1 x15 -1 x30 = 4
  eq10: -1 x1 -1 x19 +1 x24 = 6
  eq11: -1 x7 = 6
  eq12: +1 x6 -1 x7 = 1
  eq13: +1 x3 -1 x14 -1 x30 = 5
  eq14: +1 x6 -1 x13 = 2
  eq15: -1 x18 +1 x29 = 0
  eq16: +1 x4 -1 x21 = 1
  eq17: +1 x6 -1 x23 -1 x30 = 4
  eq18: -1 x24 +1 x25 = 0
  eq19: -1 x5 +1 x21 = 1
  eq20: +1 x7 -1 x20 = 1
  eq21: -1 x22 +1 x23 = 1
  eq22: -1 x2 -1 x8 +1 x11 = 6
  eq23: -1 x2 +1 x18 -1 x19 = 6
  eq24: +1 x15 -1 x28 = 1
  eq25: -1 x9 +1 x27 = 0
  eq26: -1 x1 -1 x14 +1 x15 = 7
  ie0: +1 x23 >= -6
  ie1: +1 x27 >= -5
  ie2: -1 x2 -1 x8 +1 x19 +1 x30 >= 2
  ie3: +1 x19 >= -6
  ie4: -1 x2 -1 x14 +1 x18 >= 6
  ie5: +1 x8 >= -6
  ie6: -1 x2 +1 x30 >= 2
  ie7: +1 x1 >= -5
  ie8: -1 x2 -1 x8 +1 x18 +1 x30 >= 2
END

0.000 sec
[17 ph, smt 0.243, isect 0.824, ins 0.057, tot 1.463]

Running SMT solver (35)... 0.007 sec
Found point (-39/8,-47/8,-39/8,-15/4,-23/4,-19/4,-23/4,-39/8,-15/4,-15/4,-19/4,-19/4,-27/4,-57/8,-5,-19/4,-6,-5,-41/8,-27/4,-19/4,-7,-6,-4,-4,-5,-15/4,-6,-5,-11/4)
Checking... Minimizing (27,76)... (27,11), 0.024 sec
Inserting... 

MAXIMIZE
Subject To
  eq0: -1 x1 -1 x8 +1 x27 = 6
  eq1: -1 x17 = 6
  eq2: -1 x12 +1 x16 = 0
  eq3: -1 x17 +1 x29 = 1
  eq4: +1 x25 -1 x26 = 1
  eq5: -1 x11 +1 x12 = 0
  eq6: -1 x15 = 5
  eq7: -1 x9 +1 x10 = 0
  eq8: -1 x2 -1 x14 +1 x23 = 7
  eq9: +1 x4 -1 x15 -1 x30 = 4
  eq10: -1 x23 = 6
  eq11: -1 x1 -1 x19 +1 x24 = 6
  eq12: +1 x6 -1 x7 = 1
  eq13: +1 x3 -1 x14 -1 x30 = 5
  eq14: +1 x6 -1 x13 = 2
  eq15: -1 x18 +1 x29 = 0
  eq16: +1 x4 -1 x21 = 1
  eq17: +1 x6 -1 x23 -1 x30 = 4
  eq18: -1 x24 +1 x25 = 0
  eq19: -1 x5 +1 x21 = 1
  eq20: +1 x7 -1 x20 = 1
  eq21: -1 x22 +1 x23 = 1
  eq22: -1 x2 -1 x8 +1 x11 = 6
  eq23: -1 x2 +1 x18 -1 x19 = 6
  eq24: +1 x15 -1 x28 = 1
  eq25: -1 x9 +1 x27 = 0
  eq26: -1 x1 -1 x14 +1 x15 = 7
  ie0: +1 x7 >= -6
  ie1: +1 x27 >= -5
  ie2: -1 x3 +1 x8 >= -2
  ie3: -1 x2 -1 x8 +1 x19 +1 x30 >= 2
  ie4: +1 x19 >= -6
  ie5: +1 x8 >= -6
  ie6: -1 x2 +1 x30 >= 2
  ie7: -1 x3 +1 x27 >= -2
  ie8: +1 x1 >= -5
  ie9: -1 x6 +1 x11 >= -1
  ie10: -1 x2 -1 x8 +1 x18 +1 x30 >= 2
END

0.000 sec
[18 ph, smt 0.250, isect 0.848, ins 0.057, tot 1.503]

Running SMT solver (36)... 0.006 sec
Found point (-5,-6,-29/8,-21/8,-37/8,-29/8,-37/8,-19/4,-15/4,-15/4,-19/4,-19/4,-23/4,-47/8,-31/8,-19/4,-6,-5,-5,-45/8,-29/8,-47/8,-39/8,-4,-4,-5,-15/4,-39/8,-5,-11/4)
Checking... Minimizing (27,76)... (27,11), 0.027 sec
Inserting... 

MAXIMIZE
Subject To
  eq0: -1 x1 -1 x8 +1 x27 = 6
  eq1: -1 x17 = 6
  eq2: -1 x12 +1 x16 = 0
  eq3: -1 x17 +1 x29 = 1
  eq4: +1 x25 -1 x26 = 1
  eq5: -1 x11 +1 x12 = 0
  eq6: -1 x1 = 5
  eq7: -1 x9 +1 x10 = 0
  eq8: -1 x2 -1 x14 +1 x23 = 7
  eq9: +1 x4 -1 x15 -1 x30 = 4
  eq10: -1 x1 -1 x19 +1 x24 = 6
  eq11: +1 x6 -1 x7 = 1
  eq12: +1 x3 -1 x14 -1 x30 = 5
  eq13: -1 x18 +1 x29 = 0
  eq14: +1 x4 -1 x21 = 1
  eq15: +1 x6 -1 x23 -1 x30 = 4
  eq16: -1 x24 +1 x25 = 0
  eq17: -1 x5 +1 x21 = 1
  eq18: +1 x7 -1 x20 = 1
  eq19: -1 x2 = 6
  eq20: +1 x11 -1 x13 = 1
  eq21: -1 x22 +1 x23 = 1
  eq22: -1 x2 -1 x8 +1 x11 = 6
  eq23: -1 x2 +1 x18 -1 x19 = 6
  eq24: +1 x15 -1 x28 = 1
  eq25: -1 x9 +1 x27 = 0
  eq26: -1 x1 -1 x14 +1 x15 = 7
  ie0: +1 x7 >= -6
  ie1: +1 x27 >= -5
  ie2: -1 x3 +1 x8 >= -2
  ie3: +1 x23 >= -6
  ie4: -1 x2 -1 x14 +1 x18 >= 6
  ie5: -1 x2 +1 x30 >= 2
  ie6: -1 x3 +1 x27 >= -2
  ie7: +1 x6 -1 x11 >= 1
  ie8: +1 x4 -1 x11 >= 1
  ie9: -1 x2 -1 x8 +1 x18 +1 x30 >= 2
  ie10: -1 x2 +1 x11 -1 x14 >= 6
END

0.002 sec
[18 ph, smt 0.256, isect 0.876, ins 0.059, tot 1.547]

Running SMT solver (37)... 0.006 sec
Found point (-5,-6,-19/4,-15/4,-23/4,-19/4,-23/4,-71/12,-59/12,-59/12,-71/12,-71/12,-83/12,-35/6,-23/6,-71/12,-6,-5,-5,-27/4,-19/4,-35/6,-29/6,-4,-4,-5,-59/12,-29/6,-5,-47/12)
Checking... Minimizing (27,79)... (27,7), 0.026 sec
Inserting... 

MAXIMIZE
Subject To
  eq0: -1 x1 -1 x8 +1 x27 = 6
  eq1: -1 x17 = 6
  eq2: -1 x12 +1 x16 = 0
  eq3: -1 x17 +1 x29 = 1
  eq4: +1 x25 -1 x26 = 1
  eq5: -1 x11 +1 x12 = 0
  eq6: -1 x1 = 5
  eq7: -1 x9 +1 x10 = 0
  eq8: -1 x2 -1 x14 +1 x23 = 7
  eq9: +1 x4 -1 x15 -1 x30 = 4
  eq10: -1 x1 -1 x19 +1 x24 = 6
  eq11: +1 x6 -1 x7 = 1
  eq12: +1 x3 -1 x14 -1 x30 = 5
  eq13: -1 x18 +1 x29 = 0
  eq14: +1 x4 -1 x21 = 1
  eq15: +1 x6 -1 x23 -1 x30 = 4
  eq16: -1 x24 +1 x25 = 0
  eq17: -1 x5 +1 x21 = 1
  eq18: +1 x7 -1 x20 = 1
  eq19: -1 x2 = 6
  eq20: +1 x11 -1 x13 = 1
  eq21: -1 x22 +1 x23 = 1
  eq22: -1 x2 -1 x8 +1 x11 = 6
  eq23: -1 x2 +1 x18 -1 x19 = 6
  eq24: +1 x15 -1 x28 = 1
  eq25: -1 x9 +1 x27 = 0
  eq26: -1 x1 -1 x14 +1 x15 = 7
  ie0: -1 x2 +1 x30 >= 2
  ie1: -1 x3 +1 x27 >= -2
  ie2: +1 x27 >= -5
  ie3: -1 x2 -1 x8 +1 x29 >= 6
  ie4: -1 x3 +1 x8 >= -2
  ie5: -1 x14 +1 x18 >= 0
  ie6: -1 x2 -1 x8 +1 x23 >= 7
END

0.002 sec
[18 ph, smt 0.262, isect 0.902, ins 0.062, tot 1.590]

Running SMT solver (38)... 0.004 sec
Found point (-5,-6,-7/2,-5/2,-9/2,-7/2,-9/2,-23/4,-19/4,-19/4,-23/4,-23/4,-27/4,-19/4,-11/4,-23/4,-6,-5,-5,-11/2,-7/2,-19/4,-15/4,-4,-4,-5,-19/4,-15/4,-5,-15/4)
Checking... Minimizing (28,78)... (28,5), 0.024 sec
Inserting... 

MAXIMIZE
Subject To
  eq0: -1 x1 -1 x8 +1 x27 = 6
  eq1: -1 x17 = 6
  eq2: -1 x12 +1 x16 = 0
  eq3: -1 x17 +1 x29 = 1
  eq4: +1 x25 -1 x26 = 1
  eq5: -1 x11 +1 x12 = 0
  eq6: -1 x1 = 5
  eq7: -1 x9 +1 x10 = 0
  eq8: -1 x2 -1 x14 +1 x23 = 7
  eq9: +1 x4 -1 x15 -1 x30 = 4
  eq10: -1 x1 -1 x19 +1 x24 = 6
  eq11: +1 x6 -1 x7 = 1
  eq12: +1 x3 -1 x14 -1 x30 = 5
  eq13: +1 x11 -1 x19 -1 x30 = 3
  eq14: -1 x18 +1 x29 = 0
  eq15: +1 x4 -1 x21 = 1
  eq16: +1 x6 -1 x23 -1 x30 = 4
  eq17: -1 x24 +1 x25 = 0
  eq18: -1 x5 +1 x21 = 1
  eq19: +1 x7 -1 x20 = 1
  eq20: -1 x2 = 6
  eq21: +1 x11 -1 x13 = 1
  eq22: -1 x22 +1 x23 = 1
  eq23: -1 x2 -1 x8 +1 x11 = 6
  eq24: -1 x2 +1 x18 -1 x19 = 6
  eq25: +1 x15 -1 x28 = 1
  eq26: -1 x9 +1 x27 = 0
  eq27: -1 x1 -1 x14 +1 x15 = 7
  ie0: +1 x15 -1 x19 >= 0
  ie1: +1 x27 >= -5
  ie2: -1 x2 -1 x8 +1 x29 >= 6
  ie3: +1 x3 -1 x11 >= 2
  ie4: -1 x2 -1 x8 +1 x23 >= 7
END

0.001 sec
[19 ph, smt 0.266, isect 0.927, ins 0.063, tot 1.627]

Running SMT solver (39)... 0.004 sec
Found point (-5,-6,-5/2,-3/2,-7/2,-5/2,-7/2,-29/6,-23/6,-23/6,-29/6,-29/6,-35/6,-14/3,-8/3,-29/6,-6,-5,-5,-9/2,-5/2,-14/3,-11/3,-4,-4,-5,-23/6,-11/3,-5,-17/6)
Checking... Minimizing (30,77)... (28,4), 0.026 sec
Inserting... 

MAXIMIZE
Subject To
  eq0: -1 x1 -1 x8 +1 x27 = 6
  eq1: -1 x17 = 6
  eq2: -1 x12 +1 x16 = 0
  eq3: -1 x17 +1 x29 = 1
  eq4: +1 x25 -1 x26 = 1
  eq5: -1 x11 +1 x12 = 0
  eq6: -1 x1 = 5
  eq7: -1 x9 +1 x10 = 0
  eq8: -1 x2 -1 x14 +1 x23 = 7
  eq9: +1 x4 -1 x15 -1 x30 = 4
  eq10: -1 x1 -1 x19 +1 x24 = 6
  eq11: +1 x6 -1 x7 = 1
  eq12: +1 x3 -1 x14 -1 x30 = 5
  eq13: +1 x11 -1 x19 -1 x30 = 3
  eq14: -1 x18 +1 x29 = 0
  eq15: -1 x1 -1 x19 +1 x25 = 6
  eq16: +1 x4 -1 x21 = 1
  eq17: +1 x6 -1 x23 -1 x30 = 4
  eq18: -1 x5 +1 x21 = 1
  eq19: +1 x7 -1 x20 = 1
  eq20: -1 x2 -1 x19 +1 x29 = 6
  eq21: -1 x2 = 6
  eq22: +1 x11 -1 x13 = 1
  eq23: -1 x22 +1 x23 = 1
  eq24: -1 x2 -1 x8 +1 x11 = 6
  eq25: +1 x15 -1 x28 = 1
  eq26: -1 x9 +1 x27 = 0
  eq27: -1 x1 -1 x14 +1 x15 = 7
  ie0: +1 x15 -1 x19 >= 0
  ie1: +1 x27 >= -5
  ie2: -1 x2 +1 x11 -1 x19 >= 6
  ie3: -1 x2 -1 x19 +1 x23 >= 7
END

0.001 sec
[20 ph, smt 0.269, isect 0.953, ins 0.063, tot 1.666]

Running SMT solver (40)... 0.004 sec
Found point (-5,-6,-23/6,-17/6,-29/6,-23/6,-29/6,-6,-5,-5,-6,-6,-7,-15/4,-7/4,-6,-59/12,-47/12,-47/12,-35/6,-23/6,-15/4,-11/4,-35/12,-35/12,-47/12,-5,-11/4,-47/12,-61/12)
Checking... Minimizing (26,84)... (25,20), 0.031 sec
Inserting... 

MAXIMIZE
Subject To
  eq0: -1 x1 -1 x8 +1 x27 = 6
  eq1: +1 x11 -1 x18 -1 x30 = 3
  eq2: -1 x12 +1 x16 = 0
  eq3: -1 x17 +1 x29 = 1
  eq4: -1 x16 = 6
  eq5: +1 x25 -1 x26 = 1
  eq6: -1 x11 +1 x12 = 0
  eq7: -1 x27 = 5
  eq8: -1 x9 +1 x10 = 0
  eq9: +1 x4 -1 x15 -1 x30 = 4
  eq10: +1 x6 -1 x7 = 1
  eq11: +1 x3 -1 x14 -1 x30 = 5
  eq12: -1 x24 +1 x27 -1 x30 = 3
  eq13: +1 x11 -1 x19 -1 x30 = 3
  eq14: -1 x18 +1 x29 = 0
  eq15: +1 x4 -1 x21 = 1
  eq16: +1 x6 -1 x23 -1 x30 = 4
  eq17: -1 x24 +1 x25 = 0
  eq18: -1 x5 +1 x21 = 1
  eq19: +1 x7 -1 x20 = 1
  eq20: +1 x11 -1 x13 = 1
  eq21: -1 x22 +1 x23 = 1
  eq22: -1 x2 -1 x8 +1 x11 = 6
  eq23: +1 x15 -1 x28 = 1
  eq24: -1 x9 +1 x27 = 0
  ie0: -1 x16 +1 x26 >= 0
  ie1: +1 x15 -1 x19 >= 0
  ie2: -1 x3 +1 x23 >= 0
  ie3: +1 x2 +1 x3 -1 x6 >= -6
  ie4: +1 x1 +1 x3 -1 x4 >= -6
  ie5: +1 x1 -1 x4 +1 x14 >= -6
  ie6: -1 x3 +1 x28 >= -3
  ie7: +1 x8 >= -6
  ie8: -1 x2 -1 x8 +1 x23 >= 7
  ie9: -1 x3 +1 x15 >= 0
  ie10: -1 x6 +1 x23 >= 1
  ie11: +1 x1 >= -5
  ie12: +1 x21 >= -5
  ie13: +1 x7 >= -6
  ie14: +1 x3 -1 x11 >= 2
  ie15: +1 x17 >= -6
  ie16: +1 x3 -1 x8 >= 0
  ie17: -1 x3 +1 x6 >= -1
  ie18: -1 x3 +1 x4 >= -1
  ie19: -1 x1 -1 x8 +1 x15 >= 7
END

0.003 sec
[20 ph, smt 0.274, isect 0.984, ins 0.067, tot 1.714]

Running SMT solver (41)... 0.004 sec
Found point (-5,-6,-33/8,-27/8,-43/8,-35/8,-43/8,-6,-5,-5,-6,-6,-7,-4,-9/4,-6,-39/8,-31/8,-31/8,-51/8,-35/8,-17/4,-13/4,-23/8,-23/8,-31/8,-5,-13/4,-31/8,-41/8)
Checking... Minimizing (25,85)... (25,15), 0.030 sec
Inserting... 

MAXIMIZE
Subject To
  eq0: -1 x1 -1 x8 +1 x27 = 6
  eq1: +1 x11 -1 x18 -1 x30 = 3
  eq2: -1 x12 +1 x16 = 0
  eq3: -1 x17 +1 x29 = 1
  eq4: -1 x16 = 6
  eq5: +1 x25 -1 x26 = 1
  eq6: -1 x11 +1 x12 = 0
  eq7: -1 x27 = 5
  eq8: -1 x9 +1 x10 = 0
  eq9: +1 x4 -1 x15 -1 x30 = 4
  eq10: +1 x6 -1 x7 = 1
  eq11: +1 x3 -1 x14 -1 x30 = 5
  eq12: -1 x24 +1 x27 -1 x30 = 3
  eq13: -1 x18 +1 x29 = 0
  eq14: +1 x4 -1 x21 = 1
  eq15: +1 x6 -1 x23 -1 x30 = 4
  eq16: -1 x24 +1 x25 = 0
  eq17: -1 x5 +1 x21 = 1
  eq18: +1 x16 -1 x19 -1 x30 = 3
  eq19: +1 x7 -1 x20 = 1
  eq20: +1 x11 -1 x13 = 1
  eq21: -1 x22 +1 x23 = 1
  eq22: -1 x2 -1 x8 +1 x11 = 6
  eq23: +1 x15 -1 x28 = 1
  eq24: -1 x9 +1 x27 = 0
  ie0: -1 x16 +1 x26 >= 0
  ie1: +1 x7 >= -6
  ie2: +1 x2 +1 x3 -1 x6 >= -6
  ie3: +1 x1 +1 x3 -1 x4 >= -6
  ie4: +1 x17 >= -6
  ie5: +1 x1 -1 x4 +1 x14 >= -6
  ie6: +1 x3 -1 x8 >= 0
  ie7: -1 x14 +1 x18 >= 0
  ie8: +1 x8 >= -6
  ie9: -1 x2 -1 x8 +1 x23 >= 7
  ie10: -1 x1 +1 x4 -1 x8 >= 6
  ie11: -1 x6 +1 x23 >= 1
  ie12: +1 x1 >= -5
  ie13: +1 x21 >= -5
  ie14: -1 x1 -1 x8 +1 x15 >= 7
END

0.003 sec
[20 ph, smt 0.278, isect 1.013, ins 0.070, tot 1.760]

Running SMT solver (42)... 0.004 sec
Found point (-49/10,-6,-41/10,-4,-6,-22/5,-27/5,-6,-49/10,-49/10,-6,-6,-7,-39/10,-14/5,-6,-24/5,-19/5,-19/5,-32/5,-5,-21/5,-16/5,-27/10,-27/10,-37/10,-49/10,-19/5,-19/5,-26/5)
Checking... Minimizing (25,85)... (25,16), 0.030 sec
Inserting... 

MAXIMIZE
Subject To
  eq0: -1 x1 -1 x8 +1 x27 = 6
  eq1: +1 x11 -1 x18 -1 x30 = 3
  eq2: -1 x12 +1 x16 = 0
  eq3: -1 x17 +1 x29 = 1
  eq4: -1 x16 = 6
  eq5: +1 x25 -1 x26 = 1
  eq6: -1 x11 +1 x12 = 0
  eq7: -1 x21 = 5
  eq8: -1 x9 +1 x10 = 0
  eq9: +1 x4 -1 x15 -1 x30 = 4
  eq10: +1 x6 -1 x7 = 1
  eq11: +1 x3 -1 x14 -1 x30 = 5
  eq12: -1 x24 +1 x27 -1 x30 = 3
  eq13: -1 x18 +1 x29 = 0
  eq14: +1 x4 -1 x21 = 1
  eq15: +1 x6 -1 x23 -1 x30 = 4
  eq16: -1 x24 +1 x25 = 0
  eq17: -1 x5 +1 x21 = 1
  eq18: +1 x16 -1 x19 -1 x30 = 3
  eq19: +1 x7 -1 x20 = 1
  eq20: +1 x11 -1 x13 = 1
  eq21: -1 x22 +1 x23 = 1
  eq22: -1 x2 -1 x8 +1 x11 = 6
  eq23: +1 x15 -1 x28 = 1
  eq24: -1 x9 +1 x27 = 0
  ie0: -1 x16 +1 x26 >= 0
  ie1: +1 x27 >= -5
  ie2: +1 x2 +1 x3 -1 x6 >= -6
  ie3: +1 x29 >= -6
  ie4: +1 x1 -1 x4 +1 x14 >= -6
  ie5: +1 x8 >= -6
  ie6: -1 x2 -1 x8 +1 x23 >= 7
  ie7: +1 x2 >= -6
  ie8: -1 x6 +1 x23 >= 1
  ie9: +1 x1 >= -5
  ie10: +1 x7 >= -6
  ie11: +1 x17 >= -6
  ie12: +1 x3 -1 x8 >= 0
  ie13: -1 x14 +1 x18 >= 0
  ie14: -1 x1 +1 x4 -1 x8 >= 6
  ie15: -1 x1 -1 x8 +1 x15 >= 7
END

0.003 sec
[20 ph, smt 0.282, isect 1.044, ins 0.073, tot 1.806]

Running SMT solver (43)... 0.004 sec
Found point (-79/16,-6,-63/16,-4,-6,-33/8,-41/8,-6,-79/16,-79/16,-6,-6,-7,-61/16,-23/8,-6,-39/8,-31/8,-31/8,-49/8,-5,-4,-3,-45/16,-45/16,-61/16,-79/16,-31/8,-31/8,-41/8)
Checking... Minimizing (26,84)... (25,21), 0.034 sec
Inserting... 

MAXIMIZE
Subject To
  eq0: -1 x1 -1 x8 +1 x27 = 6
  eq1: +1 x11 -1 x18 -1 x30 = 3
  eq2: -1 x12 +1 x16 = 0
  eq3: -1 x17 +1 x29 = 1
  eq4: -1 x16 = 6
  eq5: +1 x25 -1 x26 = 1
  eq6: -1 x11 +1 x12 = 0
  eq7: -1 x21 = 5
  eq8: -1 x9 +1 x10 = 0
  eq9: +1 x4 -1 x15 -1 x30 = 4
  eq10: +1 x6 -1 x7 = 1
  eq11: +1 x3 -1 x14 -1 x30 = 5
  eq12: -1 x24 +1 x27 -1 x30 = 3
  eq13: +1 x11 -1 x19 -1 x30 = 3
  eq14: -1 x18 +1 x29 = 0
  eq15: +1 x4 -1 x21 = 1
  eq16: +1 x6 -1 x23 -1 x30 = 4
  eq17: -1 x24 +1 x25 = 0
  eq18: -1 x5 +1 x21 = 1
  eq19: +1 x7 -1 x20 = 1
  eq20: +1 x11 -1 x13 = 1
  eq21: -1 x22 +1 x23 = 1
  eq22: -1 x2 -1 x8 +1 x11 = 6
  eq23: +1 x15 -1 x28 = 1
  eq24: -1 x9 +1 x27 = 0
  ie0: -1 x16 +1 x26 >= 0
  ie1: +1 x27 >= -5
  ie2: -1 x3 +1 x23 >= 0
  ie3: +1 x2 +1 x3 -1 x6 >= -6
  ie4: +1 x29 >= -6
  ie5: +1 x1 -1 x4 +1 x14 >= -6
  ie6: -1 x3 +1 x28 >= -3
  ie7: +1 x8 >= -6
  ie8: -1 x2 -1 x8 +1 x23 >= 7
  ie9: -1 x3 +1 x15 >= 0
  ie10: +1 x2 >= -6
  ie11: -1 x6 +1 x23 >= 1
  ie12: +1 x1 >= -5
  ie13: +1 x7 >= -6
  ie14: +1 x3 -1 x11 >= 2
  ie15: +1 x17 >= -6
  ie16: +1 x3 -1 x8 >= 0
  ie17: -1 x3 +1 x6 >= -1
  ie18: -1 x1 +1 x4 -1 x8 >= 6
  ie19: -1 x3 +1 x4 >= -1
  ie20: -1 x1 -1 x8 +1 x15 >= 7
END

0.003 sec
[20 ph, smt 0.286, isect 1.078, ins 0.076, tot 1.857]

Running SMT solver (44)... 0.005 sec
Found point (-5,-6,-17/4,-13/4,-21/4,-17/4,-21/4,-5,-4,-4,-5,-5,-25/4,-25/4,-17/4,-5,-6,-5,-5,-25/4,-17/4,-25/4,-21/4,-4,-4,-5,-4,-21/4,-5,-3)
Checking... Minimizing (27,76)... (27,10), 0.026 sec
Inserting... 

MAXIMIZE
Subject To
  eq0: -1 x1 -1 x8 +1 x27 = 6
  eq1: -1 x17 = 6
  eq2: -1 x12 +1 x16 = 0
  eq3: -1 x17 +1 x29 = 1
  eq4: +1 x25 -1 x26 = 1
  eq5: -1 x11 +1 x12 = 0
  eq6: -1 x1 = 5
  eq7: -1 x9 +1 x10 = 0
  eq8: -1 x2 -1 x14 +1 x23 = 7
  eq9: +1 x4 -1 x15 -1 x30 = 4
  eq10: -1 x1 -1 x19 +1 x24 = 6
  eq11: +1 x6 -1 x7 = 1
  eq12: +1 x3 -1 x14 -1 x30 = 5
  eq13: +1 x6 -1 x13 = 2
  eq14: -1 x18 +1 x29 = 0
  eq15: +1 x4 -1 x21 = 1
  eq16: +1 x6 -1 x23 -1 x30 = 4
  eq17: -1 x24 +1 x25 = 0
  eq18: -1 x5 +1 x21 = 1
  eq19: +1 x7 -1 x20 = 1
  eq20: -1 x2 = 6
  eq21: -1 x22 +1 x23 = 1
  eq22: -1 x2 -1 x8 +1 x11 = 6
  eq23: -1 x2 +1 x18 -1 x19 = 6
  eq24: +1 x15 -1 x28 = 1
  eq25: -1 x9 +1 x27 = 0
  eq26: -1 x1 -1 x14 +1 x15 = 7
  ie0: +1 x7 >= -6
  ie1: +1 x27 >= -5
  ie2: -1 x3 +1 x8 >= -2
  ie3: +1 x23 >= -6
  ie4: -1 x2 -1 x14 +1 x18 >= 6
  ie5: -1 x2 +1 x30 >= 2
  ie6: -1 x3 +1 x27 >= -2
  ie7: -1 x6 +1 x11 >= -1
  ie8: -1 x2 -1 x8 +1 x18 +1 x30 >= 2
  ie9: -1 x2 +1 x11 -1 x14 >= 6
END

0.001 sec
[21 ph, smt 0.292, isect 1.105, ins 0.077, tot 1.897]

Running SMT solver (45)... 0.006 sec
Found point (-31/8,-39/8,-5,-23/8,-39/8,-31/8,-39/8,-39/8,-11/4,-11/4,-15/4,-15/4,-47/8,-65/8,-5,-15/4,-47/8,-39/8,-6,-47/8,-31/8,-7,-6,-31/8,-31/8,-39/8,-11/4,-6,-39/8,-15/8)
Checking... Minimizing (28,76)... (28,5), 0.027 sec
Inserting... 

MAXIMIZE
Subject To
  eq0: -1 x1 -1 x8 +1 x27 = 6
  eq1: -1 x12 +1 x16 = 0
  eq2: -1 x17 +1 x29 = 1
  eq3: +1 x25 -1 x26 = 1
  eq4: -1 x11 +1 x12 = 0
  eq5: -1 x15 = 5
  eq6: -1 x9 +1 x10 = 0
  eq7: -1 x2 -1 x14 +1 x23 = 7
  eq8: +1 x4 -1 x15 -1 x30 = 4
  eq9: -1 x23 = 6
  eq10: -1 x1 -1 x19 +1 x24 = 6
  eq11: +1 x6 -1 x7 = 1
  eq12: +1 x3 -1 x14 -1 x30 = 5
  eq13: +1 x6 -1 x13 = 2
  eq14: -1 x18 +1 x29 = 0
  eq15: -1 x19 = 6
  eq16: +1 x4 -1 x21 = 1
  eq17: +1 x6 -1 x23 -1 x30 = 4
  eq18: +1 x8 -1 x19 -1 x30 = 3
  eq19: -1 x24 +1 x25 = 0
  eq20: -1 x5 +1 x21 = 1
  eq21: +1 x7 -1 x20 = 1
  eq22: -1 x22 +1 x23 = 1
  eq23: -1 x2 -1 x8 +1 x11 = 6
  eq24: -1 x2 +1 x18 -1 x19 = 6
  eq25: +1 x15 -1 x28 = 1
  eq26: -1 x9 +1 x27 = 0
  eq27: -1 x1 -1 x14 +1 x15 = 7
  ie0: -1 x2 +1 x30 >= 2
  ie1: +1 x17 >= -6
  ie2: +1 x27 >= -5
  ie3: +1 x29 >= -6
  ie4: +1 x8 >= -6
END

0.001 sec
[22 ph, smt 0.298, isect 1.131, ins 0.078, tot 1.939]

Running SMT solver (46)... 0.005 sec
Found point (-31/8,-39/8,-97/16,-63/16,-95/16,-79/16,-95/16,-95/16,-61/16,-61/16,-77/16,-77/16,-111/16,-65/8,-5,-77/16,-47/8,-39/8,-6,-111/16,-79/16,-7,-6,-31/8,-31/8,-39/8,-61/16,-6,-39/8,-47/16)
Checking... Minimizing (28,78)... (28,7), 0.028 sec
Inserting... 

MAXIMIZE
Subject To
  eq0: -1 x1 -1 x8 +1 x27 = 6
  eq1: -1 x12 +1 x16 = 0
  eq2: -1 x17 +1 x29 = 1
  eq3: +1 x25 -1 x26 = 1
  eq4: -1 x11 +1 x12 = 0
  eq5: -1 x15 = 5
  eq6: -1 x9 +1 x10 = 0
  eq7: -1 x2 -1 x14 +1 x23 = 7
  eq8: +1 x4 -1 x15 -1 x30 = 4
  eq9: -1 x23 = 6
  eq10: -1 x1 -1 x19 +1 x24 = 6
  eq11: +1 x6 -1 x7 = 1
  eq12: +1 x3 -1 x14 -1 x30 = 5
  eq13: +1 x6 -1 x13 = 2
  eq14: -1 x18 +1 x29 = 0
  eq15: -1 x19 = 6
  eq16: +1 x4 -1 x21 = 1
  eq17: +1 x6 -1 x23 -1 x30 = 4
  eq18: +1 x8 -1 x19 -1 x30 = 3
  eq19: -1 x24 +1 x25 = 0
  eq20: -1 x5 +1 x21 = 1
  eq21: +1 x7 -1 x20 = 1
  eq22: -1 x22 +1 x23 = 1
  eq23: -1 x2 -1 x8 +1 x11 = 6
  eq24: -1 x2 +1 x18 -1 x19 = 6
  eq25: +1 x15 -1 x28 = 1
  eq26: -1 x9 +1 x27 = 0
  eq27: -1 x1 -1 x14 +1 x15 = 7
  ie0: +1 x17 >= -6
  ie1: +1 x27 >= -5
  ie2: -1 x3 +1 x15 >= 0
  ie3: +1 x2 -1 x3 +1 x14 >= -7
  ie4: +1 x29 >= -6
  ie5: -1 x3 +1 x28 >= -3
  ie6: +1 x8 >= -6
END

0.001 sec
[23 ph, smt 0.302, isect 1.159, ins 0.079, tot 1.982]

Running SMT solver (47)... 0.012 sec
Found point (-59/12,-71/12,-29/6,-15/4,-23/4,-19/4,-23/4,-71/12,-29/6,-29/6,-35/6,-35/6,-41/6,-85/12,-5,-35/6,-6,-5,-61/12,-27/4,-19/4,-7,-6,-4,-4,-5,-29/6,-6,-5,-11/4)
Checking... Minimizing (27,76)... (27,12), 0.028 sec
Inserting... 

MAXIMIZE
Subject To
  eq0: -1 x1 -1 x8 +1 x27 = 6
  eq1: -1 x17 = 6
  eq2: -1 x12 +1 x16 = 0
  eq3: -1 x17 +1 x29 = 1
  eq4: +1 x25 -1 x26 = 1
  eq5: -1 x11 +1 x12 = 0
  eq6: -1 x15 = 5
  eq7: -1 x9 +1 x10 = 0
  eq8: -1 x2 -1 x14 +1 x23 = 7
  eq9: +1 x4 -1 x15 -1 x30 = 4
  eq10: -1 x23 = 6
  eq11: -1 x1 -1 x19 +1 x24 = 6
  eq12: +1 x6 -1 x7 = 1
  eq13: +1 x3 -1 x14 -1 x30 = 5
  eq14: -1 x18 +1 x29 = 0
  eq15: +1 x4 -1 x21 = 1
  eq16: +1 x6 -1 x23 -1 x30 = 4
  eq17: -1 x24 +1 x25 = 0
  eq18: -1 x5 +1 x21 = 1
  eq19: +1 x7 -1 x20 = 1
  eq20: +1 x11 -1 x13 = 1
  eq21: -1 x22 +1 x23 = 1
  eq22: -1 x2 -1 x8 +1 x11 = 6
  eq23: -1 x2 +1 x18 -1 x19 = 6
  eq24: +1 x15 -1 x28 = 1
  eq25: -1 x9 +1 x27 = 0
  eq26: -1 x1 -1 x14 +1 x15 = 7
  ie0: +1 x7 >= -6
  ie1: +1 x27 >= -5
  ie2: -1 x3 +1 x8 >= -2
  ie3: -1 x2 -1 x8 +1 x19 +1 x30 >= 2
  ie4: +1 x19 >= -6
  ie5: +1 x8 >= -6
  ie6: -1 x2 +1 x30 >= 2
  ie7: -1 x3 +1 x27 >= -2
  ie8: +1 x6 -1 x11 >= 1
  ie9: +1 x1 >= -5
  ie10: +1 x4 -1 x11 >= 1
  ie11: -1 x2 -1 x8 +1 x18 +1 x30 >= 2
END

0.001 sec
[24 ph, smt 0.314, isect 1.187, ins 0.079, tot 2.031]

Running SMT solver (48)... 0.006 sec
No more solutions found



Solution:

\\\\\\\\\\\\\\\\\\\\\\\\\\\\\\\\\\\\\\\\ file 0

MAXIMIZE
Subject To
  eq0: -1 x1 -1 x8 +1 x27 = 6
  eq1: -1 x17 = 6
  eq2: -1 x12 +1 x16 = 0
  eq3: -1 x17 +1 x29 = 1
  eq4: +1 x25 -1 x26 = 1
  eq5: -1 x11 +1 x12 = 0
  eq6: -1 x15 = 5
  eq7: -1 x9 +1 x10 = 0
  eq8: -1 x2 -1 x14 +1 x23 = 7
  eq9: +1 x4 -1 x15 -1 x30 = 4
  eq10: -1 x23 = 6
  eq11: -1 x1 -1 x19 +1 x24 = 6
  eq12: +1 x6 -1 x7 = 1
  eq13: +1 x3 -1 x14 -1 x30 = 5
  eq14: -1 x18 +1 x29 = 0
  eq15: +1 x4 -1 x21 = 1
  eq16: +1 x6 -1 x23 -1 x30 = 4
  eq17: -1 x24 +1 x25 = 0
  eq18: -1 x5 +1 x21 = 1
  eq19: +1 x7 -1 x20 = 1
  eq20: +1 x11 -1 x13 = 1
  eq21: -1 x22 +1 x23 = 1
  eq22: -1 x2 -1 x8 +1 x11 = 6
  eq23: -1 x2 +1 x18 -1 x19 = 6
  eq24: +1 x15 -1 x28 = 1
  eq25: -1 x9 +1 x27 = 0
  eq26: -1 x1 -1 x14 +1 x15 = 7
  ie0: +1 x7 >= -6
  ie1: +1 x27 >= -5
  ie2: -1 x3 +1 x8 >= -2
  ie3: -1 x2 -1 x8 +1 x19 +1 x30 >= 2
  ie4: +1 x19 >= -6
  ie5: +1 x8 >= -6
  ie6: -1 x2 +1 x30 >= 2
  ie7: -1 x3 +1 x27 >= -2
  ie8: +1 x6 -1 x11 >= 1
  ie9: +1 x1 >= -5
  ie10: +1 x4 -1 x11 >= 1
  ie11: -1 x2 -1 x8 +1 x18 +1 x30 >= 2
END

\\\\\\\\\\\\\\\\\\\\\\\\\\\\\\\\\\\\\\\\ file 1

MAXIMIZE
Subject To
  eq0: -1 x1 -1 x8 +1 x27 = 6
  eq1: -1 x12 +1 x16 = 0
  eq2: -1 x17 +1 x29 = 1
  eq3: +1 x25 -1 x26 = 1
  eq4: -1 x11 +1 x12 = 0
  eq5: -1 x15 = 5
  eq6: -1 x9 +1 x10 = 0
  eq7: -1 x2 -1 x14 +1 x23 = 7
  eq8: +1 x4 -1 x15 -1 x30 = 4
  eq9: -1 x23 = 6
  eq10: -1 x1 -1 x19 +1 x24 = 6
  eq11: +1 x6 -1 x7 = 1
  eq12: +1 x3 -1 x14 -1 x30 = 5
  eq13: +1 x6 -1 x13 = 2
  eq14: -1 x18 +1 x29 = 0
  eq15: -1 x19 = 6
  eq16: +1 x4 -1 x21 = 1
  eq17: +1 x6 -1 x23 -1 x30 = 4
  eq18: +1 x8 -1 x19 -1 x30 = 3
  eq19: -1 x24 +1 x25 = 0
  eq20: -1 x5 +1 x21 = 1
  eq21: +1 x7 -1 x20 = 1
  eq22: -1 x22 +1 x23 = 1
  eq23: -1 x2 -1 x8 +1 x11 = 6
  eq24: -1 x2 +1 x18 -1 x19 = 6
  eq25: +1 x15 -1 x28 = 1
  eq26: -1 x9 +1 x27 = 0
  eq27: -1 x1 -1 x14 +1 x15 = 7
  ie0: +1 x17 >= -6
  ie1: +1 x27 >= -5
  ie2: -1 x3 +1 x15 >= 0
  ie3: +1 x2 -1 x3 +1 x14 >= -7
  ie4: +1 x29 >= -6
  ie5: -1 x3 +1 x28 >= -3
  ie6: +1 x8 >= -6
END

\\\\\\\\\\\\\\\\\\\\\\\\\\\\\\\\\\\\\\\\ file 2

MAXIMIZE
Subject To
  eq0: -1 x1 -1 x8 +1 x27 = 6
  eq1: -1 x12 +1 x16 = 0
  eq2: -1 x17 +1 x29 = 1
  eq3: +1 x25 -1 x26 = 1
  eq4: -1 x11 +1 x12 = 0
  eq5: -1 x15 = 5
  eq6: -1 x9 +1 x10 = 0
  eq7: -1 x2 -1 x14 +1 x23 = 7
  eq8: +1 x4 -1 x15 -1 x30 = 4
  eq9: -1 x23 = 6
  eq10: -1 x1 -1 x19 +1 x24 = 6
  eq11: +1 x6 -1 x7 = 1
  eq12: +1 x3 -1 x14 -1 x30 = 5
  eq13: +1 x6 -1 x13 = 2
  eq14: -1 x18 +1 x29 = 0
  eq15: -1 x19 = 6
  eq16: +1 x4 -1 x21 = 1
  eq17: +1 x6 -1 x23 -1 x30 = 4
  eq18: +1 x8 -1 x19 -1 x30 = 3
  eq19: -1 x24 +1 x25 = 0
  eq20: -1 x5 +1 x21 = 1
  eq21: +1 x7 -1 x20 = 1
  eq22: -1 x22 +1 x23 = 1
  eq23: -1 x2 -1 x8 +1 x11 = 6
  eq24: -1 x2 +1 x18 -1 x19 = 6
  eq25: +1 x15 -1 x28 = 1
  eq26: -1 x9 +1 x27 = 0
  eq27: -1 x1 -1 x14 +1 x15 = 7
  ie0: -1 x2 +1 x30 >= 2
  ie1: +1 x17 >= -6
  ie2: +1 x27 >= -5
  ie3: +1 x29 >= -6
  ie4: +1 x8 >= -6
END

\\\\\\\\\\\\\\\\\\\\\\\\\\\\\\\\\\\\\\\\ file 3

MAXIMIZE
Subject To
  eq0: -1 x1 -1 x8 +1 x27 = 6
  eq1: -1 x17 = 6
  eq2: -1 x12 +1 x16 = 0
  eq3: -1 x17 +1 x29 = 1
  eq4: +1 x25 -1 x26 = 1
  eq5: -1 x11 +1 x12 = 0
  eq6: -1 x1 = 5
  eq7: -1 x9 +1 x10 = 0
  eq8: -1 x2 -1 x14 +1 x23 = 7
  eq9: +1 x4 -1 x15 -1 x30 = 4
  eq10: -1 x1 -1 x19 +1 x24 = 6
  eq11: +1 x6 -1 x7 = 1
  eq12: +1 x3 -1 x14 -1 x30 = 5
  eq13: +1 x6 -1 x13 = 2
  eq14: -1 x18 +1 x29 = 0
  eq15: +1 x4 -1 x21 = 1
  eq16: +1 x6 -1 x23 -1 x30 = 4
  eq17: -1 x24 +1 x25 = 0
  eq18: -1 x5 +1 x21 = 1
  eq19: +1 x7 -1 x20 = 1
  eq20: -1 x2 = 6
  eq21: -1 x22 +1 x23 = 1
  eq22: -1 x2 -1 x8 +1 x11 = 6
  eq23: -1 x2 +1 x18 -1 x19 = 6
  eq24: +1 x15 -1 x28 = 1
  eq25: -1 x9 +1 x27 = 0
  eq26: -1 x1 -1 x14 +1 x15 = 7
  ie0: +1 x7 >= -6
  ie1: +1 x27 >= -5
  ie2: -1 x3 +1 x8 >= -2
  ie3: +1 x23 >= -6
  ie4: -1 x2 -1 x14 +1 x18 >= 6
  ie5: -1 x2 +1 x30 >= 2
  ie6: -1 x3 +1 x27 >= -2
  ie7: -1 x6 +1 x11 >= -1
  ie8: -1 x2 -1 x8 +1 x18 +1 x30 >= 2
  ie9: -1 x2 +1 x11 -1 x14 >= 6
END

\\\\\\\\\\\\\\\\\\\\\\\\\\\\\\\\\\\\\\\\ file 4

MAXIMIZE
Subject To
  eq0: -1 x1 -1 x8 +1 x27 = 6
  eq1: +1 x11 -1 x18 -1 x30 = 3
  eq2: -1 x12 +1 x16 = 0
  eq3: -1 x17 +1 x29 = 1
  eq4: -1 x16 = 6
  eq5: +1 x25 -1 x26 = 1
  eq6: -1 x11 +1 x12 = 0
  eq7: -1 x21 = 5
  eq8: -1 x9 +1 x10 = 0
  eq9: +1 x4 -1 x15 -1 x30 = 4
  eq10: +1 x6 -1 x7 = 1
  eq11: +1 x3 -1 x14 -1 x30 = 5
  eq12: -1 x24 +1 x27 -1 x30 = 3
  eq13: +1 x11 -1 x19 -1 x30 = 3
  eq14: -1 x18 +1 x29 = 0
  eq15: +1 x4 -1 x21 = 1
  eq16: +1 x6 -1 x23 -1 x30 = 4
  eq17: -1 x24 +1 x25 = 0
  eq18: -1 x5 +1 x21 = 1
  eq19: +1 x7 -1 x20 = 1
  eq20: +1 x11 -1 x13 = 1
  eq21: -1 x22 +1 x23 = 1
  eq22: -1 x2 -1 x8 +1 x11 = 6
  eq23: +1 x15 -1 x28 = 1
  eq24: -1 x9 +1 x27 = 0
  ie0: -1 x16 +1 x26 >= 0
  ie1: +1 x27 >= -5
  ie2: -1 x3 +1 x23 >= 0
  ie3: +1 x2 +1 x3 -1 x6 >= -6
  ie4: +1 x29 >= -6
  ie5: +1 x1 -1 x4 +1 x14 >= -6
  ie6: -1 x3 +1 x28 >= -3
  ie7: +1 x8 >= -6
  ie8: -1 x2 -1 x8 +1 x23 >= 7
  ie9: -1 x3 +1 x15 >= 0
  ie10: +1 x2 >= -6
  ie11: -1 x6 +1 x23 >= 1
  ie12: +1 x1 >= -5
  ie13: +1 x7 >= -6
  ie14: +1 x3 -1 x11 >= 2
  ie15: +1 x17 >= -6
  ie16: +1 x3 -1 x8 >= 0
  ie17: -1 x3 +1 x6 >= -1
  ie18: -1 x1 +1 x4 -1 x8 >= 6
  ie19: -1 x3 +1 x4 >= -1
  ie20: -1 x1 -1 x8 +1 x15 >= 7
END

\\\\\\\\\\\\\\\\\\\\\\\\\\\\\\\\\\\\\\\\ file 5

MAXIMIZE
Subject To
  eq0: -1 x1 -1 x8 +1 x27 = 6
  eq1: +1 x11 -1 x18 -1 x30 = 3
  eq2: -1 x12 +1 x16 = 0
  eq3: -1 x17 +1 x29 = 1
  eq4: -1 x16 = 6
  eq5: +1 x25 -1 x26 = 1
  eq6: -1 x11 +1 x12 = 0
  eq7: -1 x21 = 5
  eq8: -1 x9 +1 x10 = 0
  eq9: +1 x4 -1 x15 -1 x30 = 4
  eq10: +1 x6 -1 x7 = 1
  eq11: +1 x3 -1 x14 -1 x30 = 5
  eq12: -1 x24 +1 x27 -1 x30 = 3
  eq13: -1 x18 +1 x29 = 0
  eq14: +1 x4 -1 x21 = 1
  eq15: +1 x6 -1 x23 -1 x30 = 4
  eq16: -1 x24 +1 x25 = 0
  eq17: -1 x5 +1 x21 = 1
  eq18: +1 x16 -1 x19 -1 x30 = 3
  eq19: +1 x7 -1 x20 = 1
  eq20: +1 x11 -1 x13 = 1
  eq21: -1 x22 +1 x23 = 1
  eq22: -1 x2 -1 x8 +1 x11 = 6
  eq23: +1 x15 -1 x28 = 1
  eq24: -1 x9 +1 x27 = 0
  ie0: -1 x16 +1 x26 >= 0
  ie1: +1 x27 >= -5
  ie2: +1 x2 +1 x3 -1 x6 >= -6
  ie3: +1 x29 >= -6
  ie4: +1 x1 -1 x4 +1 x14 >= -6
  ie5: +1 x8 >= -6
  ie6: -1 x2 -1 x8 +1 x23 >= 7
  ie7: +1 x2 >= -6
  ie8: -1 x6 +1 x23 >= 1
  ie9: +1 x1 >= -5
  ie10: +1 x7 >= -6
  ie11: +1 x17 >= -6
  ie12: +1 x3 -1 x8 >= 0
  ie13: -1 x14 +1 x18 >= 0
  ie14: -1 x1 +1 x4 -1 x8 >= 6
  ie15: -1 x1 -1 x8 +1 x15 >= 7
END

\\\\\\\\\\\\\\\\\\\\\\\\\\\\\\\\\\\\\\\\ file 6

MAXIMIZE
Subject To
  eq0: -1 x1 -1 x8 +1 x27 = 6
  eq1: +1 x11 -1 x18 -1 x30 = 3
  eq2: -1 x12 +1 x16 = 0
  eq3: -1 x17 +1 x29 = 1
  eq4: -1 x16 = 6
  eq5: +1 x25 -1 x26 = 1
  eq6: -1 x11 +1 x12 = 0
  eq7: -1 x27 = 5
  eq8: -1 x9 +1 x10 = 0
  eq9: +1 x4 -1 x15 -1 x30 = 4
  eq10: +1 x6 -1 x7 = 1
  eq11: +1 x3 -1 x14 -1 x30 = 5
  eq12: -1 x24 +1 x27 -1 x30 = 3
  eq13: -1 x18 +1 x29 = 0
  eq14: +1 x4 -1 x21 = 1
  eq15: +1 x6 -1 x23 -1 x30 = 4
  eq16: -1 x24 +1 x25 = 0
  eq17: -1 x5 +1 x21 = 1
  eq18: +1 x16 -1 x19 -1 x30 = 3
  eq19: +1 x7 -1 x20 = 1
  eq20: +1 x11 -1 x13 = 1
  eq21: -1 x22 +1 x23 = 1
  eq22: -1 x2 -1 x8 +1 x11 = 6
  eq23: +1 x15 -1 x28 = 1
  eq24: -1 x9 +1 x27 = 0
  ie0: -1 x16 +1 x26 >= 0
  ie1: +1 x7 >= -6
  ie2: +1 x2 +1 x3 -1 x6 >= -6
  ie3: +1 x1 +1 x3 -1 x4 >= -6
  ie4: +1 x17 >= -6
  ie5: +1 x1 -1 x4 +1 x14 >= -6
  ie6: +1 x3 -1 x8 >= 0
  ie7: -1 x14 +1 x18 >= 0
  ie8: +1 x8 >= -6
  ie9: -1 x2 -1 x8 +1 x23 >= 7
  ie10: -1 x1 +1 x4 -1 x8 >= 6
  ie11: -1 x6 +1 x23 >= 1
  ie12: +1 x1 >= -5
  ie13: +1 x21 >= -5
  ie14: -1 x1 -1 x8 +1 x15 >= 7
END

\\\\\\\\\\\\\\\\\\\\\\\\\\\\\\\\\\\\\\\\ file 7

MAXIMIZE
Subject To
  eq0: -1 x1 -1 x8 +1 x27 = 6
  eq1: +1 x11 -1 x18 -1 x30 = 3
  eq2: -1 x12 +1 x16 = 0
  eq3: -1 x17 +1 x29 = 1
  eq4: -1 x16 = 6
  eq5: +1 x25 -1 x26 = 1
  eq6: -1 x11 +1 x12 = 0
  eq7: -1 x27 = 5
  eq8: -1 x9 +1 x10 = 0
  eq9: +1 x4 -1 x15 -1 x30 = 4
  eq10: +1 x6 -1 x7 = 1
  eq11: +1 x3 -1 x14 -1 x30 = 5
  eq12: -1 x24 +1 x27 -1 x30 = 3
  eq13: +1 x11 -1 x19 -1 x30 = 3
  eq14: -1 x18 +1 x29 = 0
  eq15: +1 x4 -1 x21 = 1
  eq16: +1 x6 -1 x23 -1 x30 = 4
  eq17: -1 x24 +1 x25 = 0
  eq18: -1 x5 +1 x21 = 1
  eq19: +1 x7 -1 x20 = 1
  eq20: +1 x11 -1 x13 = 1
  eq21: -1 x22 +1 x23 = 1
  eq22: -1 x2 -1 x8 +1 x11 = 6
  eq23: +1 x15 -1 x28 = 1
  eq24: -1 x9 +1 x27 = 0
  ie0: -1 x16 +1 x26 >= 0
  ie1: +1 x15 -1 x19 >= 0
  ie2: -1 x3 +1 x23 >= 0
  ie3: +1 x2 +1 x3 -1 x6 >= -6
  ie4: +1 x1 +1 x3 -1 x4 >= -6
  ie5: +1 x1 -1 x4 +1 x14 >= -6
  ie6: -1 x3 +1 x28 >= -3
  ie7: +1 x8 >= -6
  ie8: -1 x2 -1 x8 +1 x23 >= 7
  ie9: -1 x3 +1 x15 >= 0
  ie10: -1 x6 +1 x23 >= 1
  ie11: +1 x1 >= -5
  ie12: +1 x21 >= -5
  ie13: +1 x7 >= -6
  ie14: +1 x3 -1 x11 >= 2
  ie15: +1 x17 >= -6
  ie16: +1 x3 -1 x8 >= 0
  ie17: -1 x3 +1 x6 >= -1
  ie18: -1 x3 +1 x4 >= -1
  ie19: -1 x1 -1 x8 +1 x15 >= 7
END

\\\\\\\\\\\\\\\\\\\\\\\\\\\\\\\\\\\\\\\\ file 8

MAXIMIZE
Subject To
  eq0: -1 x1 -1 x8 +1 x27 = 6
  eq1: -1 x17 = 6
  eq2: -1 x12 +1 x16 = 0
  eq3: -1 x17 +1 x29 = 1
  eq4: +1 x25 -1 x26 = 1
  eq5: -1 x11 +1 x12 = 0
  eq6: -1 x1 = 5
  eq7: -1 x9 +1 x10 = 0
  eq8: -1 x2 -1 x14 +1 x23 = 7
  eq9: +1 x4 -1 x15 -1 x30 = 4
  eq10: -1 x1 -1 x19 +1 x24 = 6
  eq11: +1 x6 -1 x7 = 1
  eq12: +1 x3 -1 x14 -1 x30 = 5
  eq13: +1 x11 -1 x19 -1 x30 = 3
  eq14: -1 x18 +1 x29 = 0
  eq15: -1 x1 -1 x19 +1 x25 = 6
  eq16: +1 x4 -1 x21 = 1
  eq17: +1 x6 -1 x23 -1 x30 = 4
  eq18: -1 x5 +1 x21 = 1
  eq19: +1 x7 -1 x20 = 1
  eq20: -1 x2 -1 x19 +1 x29 = 6
  eq21: -1 x2 = 6
  eq22: +1 x11 -1 x13 = 1
  eq23: -1 x22 +1 x23 = 1
  eq24: -1 x2 -1 x8 +1 x11 = 6
  eq25: +1 x15 -1 x28 = 1
  eq26: -1 x9 +1 x27 = 0
  eq27: -1 x1 -1 x14 +1 x15 = 7
  ie0: +1 x15 -1 x19 >= 0
  ie1: +1 x27 >= -5
  ie2: -1 x2 +1 x11 -1 x19 >= 6
  ie3: -1 x2 -1 x19 +1 x23 >= 7
END

\\\\\\\\\\\\\\\\\\\\\\\\\\\\\\\\\\\\\\\\ file 9

MAXIMIZE
Subject To
  eq0: -1 x1 -1 x8 +1 x27 = 6
  eq1: -1 x17 = 6
  eq2: -1 x12 +1 x16 = 0
  eq3: -1 x17 +1 x29 = 1
  eq4: +1 x25 -1 x26 = 1
  eq5: -1 x11 +1 x12 = 0
  eq6: -1 x1 = 5
  eq7: -1 x9 +1 x10 = 0
  eq8: -1 x2 -1 x14 +1 x23 = 7
  eq9: +1 x4 -1 x15 -1 x30 = 4
  eq10: -1 x1 -1 x19 +1 x24 = 6
  eq11: +1 x6 -1 x7 = 1
  eq12: +1 x3 -1 x14 -1 x30 = 5
  eq13: +1 x11 -1 x19 -1 x30 = 3
  eq14: -1 x18 +1 x29 = 0
  eq15: +1 x4 -1 x21 = 1
  eq16: +1 x6 -1 x23 -1 x30 = 4
  eq17: -1 x24 +1 x25 = 0
  eq18: -1 x5 +1 x21 = 1
  eq19: +1 x7 -1 x20 = 1
  eq20: -1 x2 = 6
  eq21: +1 x11 -1 x13 = 1
  eq22: -1 x22 +1 x23 = 1
  eq23: -1 x2 -1 x8 +1 x11 = 6
  eq24: -1 x2 +1 x18 -1 x19 = 6
  eq25: +1 x15 -1 x28 = 1
  eq26: -1 x9 +1 x27 = 0
  eq27: -1 x1 -1 x14 +1 x15 = 7
  ie0: +1 x15 -1 x19 >= 0
  ie1: +1 x27 >= -5
  ie2: -1 x2 -1 x8 +1 x29 >= 6
  ie3: +1 x3 -1 x11 >= 2
  ie4: -1 x2 -1 x8 +1 x23 >= 7
END

\\\\\\\\\\\\\\\\\\\\\\\\\\\\\\\\\\\\\\\\ file 10

MAXIMIZE
Subject To
  eq0: -1 x1 -1 x8 +1 x27 = 6
  eq1: -1 x17 = 6
  eq2: -1 x12 +1 x16 = 0
  eq3: -1 x17 +1 x29 = 1
  eq4: +1 x25 -1 x26 = 1
  eq5: -1 x11 +1 x12 = 0
  eq6: -1 x1 = 5
  eq7: -1 x9 +1 x10 = 0
  eq8: -1 x2 -1 x14 +1 x23 = 7
  eq9: +1 x4 -1 x15 -1 x30 = 4
  eq10: -1 x1 -1 x19 +1 x24 = 6
  eq11: +1 x6 -1 x7 = 1
  eq12: +1 x3 -1 x14 -1 x30 = 5
  eq13: -1 x18 +1 x29 = 0
  eq14: +1 x4 -1 x21 = 1
  eq15: +1 x6 -1 x23 -1 x30 = 4
  eq16: -1 x24 +1 x25 = 0
  eq17: -1 x5 +1 x21 = 1
  eq18: +1 x7 -1 x20 = 1
  eq19: -1 x2 = 6
  eq20: +1 x11 -1 x13 = 1
  eq21: -1 x22 +1 x23 = 1
  eq22: -1 x2 -1 x8 +1 x11 = 6
  eq23: -1 x2 +1 x18 -1 x19 = 6
  eq24: +1 x15 -1 x28 = 1
  eq25: -1 x9 +1 x27 = 0
  eq26: -1 x1 -1 x14 +1 x15 = 7
  ie0: -1 x2 +1 x30 >= 2
  ie1: -1 x3 +1 x27 >= -2
  ie2: +1 x27 >= -5
  ie3: -1 x2 -1 x8 +1 x29 >= 6
  ie4: -1 x3 +1 x8 >= -2
  ie5: -1 x14 +1 x18 >= 0
  ie6: -1 x2 -1 x8 +1 x23 >= 7
END

\\\\\\\\\\\\\\\\\\\\\\\\\\\\\\\\\\\\\\\\ file 11

MAXIMIZE
Subject To
  eq0: -1 x1 -1 x8 +1 x27 = 6
  eq1: -1 x17 = 6
  eq2: -1 x12 +1 x16 = 0
  eq3: -1 x17 +1 x29 = 1
  eq4: +1 x25 -1 x26 = 1
  eq5: -1 x11 +1 x12 = 0
  eq6: -1 x1 = 5
  eq7: -1 x9 +1 x10 = 0
  eq8: -1 x2 -1 x14 +1 x23 = 7
  eq9: +1 x4 -1 x15 -1 x30 = 4
  eq10: -1 x1 -1 x19 +1 x24 = 6
  eq11: +1 x6 -1 x7 = 1
  eq12: +1 x3 -1 x14 -1 x30 = 5
  eq13: -1 x18 +1 x29 = 0
  eq14: +1 x4 -1 x21 = 1
  eq15: +1 x6 -1 x23 -1 x30 = 4
  eq16: -1 x24 +1 x25 = 0
  eq17: -1 x5 +1 x21 = 1
  eq18: +1 x7 -1 x20 = 1
  eq19: -1 x2 = 6
  eq20: +1 x11 -1 x13 = 1
  eq21: -1 x22 +1 x23 = 1
  eq22: -1 x2 -1 x8 +1 x11 = 6
  eq23: -1 x2 +1 x18 -1 x19 = 6
  eq24: +1 x15 -1 x28 = 1
  eq25: -1 x9 +1 x27 = 0
  eq26: -1 x1 -1 x14 +1 x15 = 7
  ie0: +1 x7 >= -6
  ie1: +1 x27 >= -5
  ie2: -1 x3 +1 x8 >= -2
  ie3: +1 x23 >= -6
  ie4: -1 x2 -1 x14 +1 x18 >= 6
  ie5: -1 x2 +1 x30 >= 2
  ie6: -1 x3 +1 x27 >= -2
  ie7: +1 x6 -1 x11 >= 1
  ie8: +1 x4 -1 x11 >= 1
  ie9: -1 x2 -1 x8 +1 x18 +1 x30 >= 2
  ie10: -1 x2 +1 x11 -1 x14 >= 6
END

\\\\\\\\\\\\\\\\\\\\\\\\\\\\\\\\\\\\\\\\ file 12

MAXIMIZE
Subject To
  eq0: -1 x1 -1 x8 +1 x27 = 6
  eq1: -1 x17 = 6
  eq2: -1 x12 +1 x16 = 0
  eq3: -1 x17 +1 x29 = 1
  eq4: +1 x25 -1 x26 = 1
  eq5: -1 x11 +1 x12 = 0
  eq6: -1 x15 = 5
  eq7: -1 x9 +1 x10 = 0
  eq8: -1 x2 -1 x14 +1 x23 = 7
  eq9: +1 x4 -1 x15 -1 x30 = 4
  eq10: -1 x23 = 6
  eq11: -1 x1 -1 x19 +1 x24 = 6
  eq12: +1 x6 -1 x7 = 1
  eq13: +1 x3 -1 x14 -1 x30 = 5
  eq14: +1 x6 -1 x13 = 2
  eq15: -1 x18 +1 x29 = 0
  eq16: +1 x4 -1 x21 = 1
  eq17: +1 x6 -1 x23 -1 x30 = 4
  eq18: -1 x24 +1 x25 = 0
  eq19: -1 x5 +1 x21 = 1
  eq20: +1 x7 -1 x20 = 1
  eq21: -1 x22 +1 x23 = 1
  eq22: -1 x2 -1 x8 +1 x11 = 6
  eq23: -1 x2 +1 x18 -1 x19 = 6
  eq24: +1 x15 -1 x28 = 1
  eq25: -1 x9 +1 x27 = 0
  eq26: -1 x1 -1 x14 +1 x15 = 7
  ie0: +1 x7 >= -6
  ie1: +1 x27 >= -5
  ie2: -1 x3 +1 x8 >= -2
  ie3: -1 x2 -1 x8 +1 x19 +1 x30 >= 2
  ie4: +1 x19 >= -6
  ie5: +1 x8 >= -6
  ie6: -1 x2 +1 x30 >= 2
  ie7: -1 x3 +1 x27 >= -2
  ie8: +1 x1 >= -5
  ie9: -1 x6 +1 x11 >= -1
  ie10: -1 x2 -1 x8 +1 x18 +1 x30 >= 2
END

\\\\\\\\\\\\\\\\\\\\\\\\\\\\\\\\\\\\\\\\ file 13

MAXIMIZE
Subject To
  eq0: -1 x1 -1 x8 +1 x27 = 6
  eq1: -1 x17 = 6
  eq2: -1 x12 +1 x16 = 0
  eq3: -1 x17 +1 x29 = 1
  eq4: +1 x25 -1 x26 = 1
  eq5: -1 x11 +1 x12 = 0
  eq6: -1 x21 = 5
  eq7: -1 x9 +1 x10 = 0
  eq8: -1 x2 -1 x14 +1 x23 = 7
  eq9: +1 x4 -1 x15 -1 x30 = 4
  eq10: -1 x1 -1 x19 +1 x24 = 6
  eq11: -1 x7 = 6
  eq12: +1 x6 -1 x7 = 1
  eq13: +1 x3 -1 x14 -1 x30 = 5
  eq14: +1 x6 -1 x13 = 2
  eq15: -1 x18 +1 x29 = 0
  eq16: +1 x4 -1 x21 = 1
  eq17: +1 x6 -1 x23 -1 x30 = 4
  eq18: -1 x24 +1 x25 = 0
  eq19: -1 x5 +1 x21 = 1
  eq20: +1 x7 -1 x20 = 1
  eq21: -1 x22 +1 x23 = 1
  eq22: -1 x2 -1 x8 +1 x11 = 6
  eq23: -1 x2 +1 x18 -1 x19 = 6
  eq24: +1 x15 -1 x28 = 1
  eq25: -1 x9 +1 x27 = 0
  eq26: -1 x1 -1 x14 +1 x15 = 7
  ie0: +1 x23 >= -6
  ie1: +1 x27 >= -5
  ie2: -1 x2 -1 x8 +1 x19 +1 x30 >= 2
  ie3: +1 x19 >= -6
  ie4: -1 x2 -1 x14 +1 x18 >= 6
  ie5: +1 x8 >= -6
  ie6: -1 x2 +1 x30 >= 2
  ie7: +1 x1 >= -5
  ie8: -1 x2 -1 x8 +1 x18 +1 x30 >= 2
END

\\\\\\\\\\\\\\\\\\\\\\\\\\\\\\\\\\\\\\\\ file 14

MAXIMIZE
Subject To
  eq0: -1 x1 -1 x8 +1 x27 = 6
  eq1: +1 x11 -1 x18 -1 x30 = 3
  eq2: -1 x12 +1 x16 = 0
  eq3: -1 x17 +1 x29 = 1
  eq4: -1 x16 = 6
  eq5: +1 x25 -1 x26 = 1
  eq6: -1 x11 +1 x12 = 0
  eq7: -1 x27 = 5
  eq8: -1 x9 +1 x10 = 0
  eq9: -1 x2 -1 x14 +1 x23 = 7
  eq10: +1 x4 -1 x15 -1 x30 = 4
  eq11: +1 x6 -1 x7 = 1
  eq12: +1 x3 -1 x14 -1 x30 = 5
  eq13: -1 x24 +1 x27 -1 x30 = 3
  eq14: +1 x11 -1 x19 -1 x30 = 3
  eq15: -1 x18 +1 x29 = 0
  eq16: +1 x4 -1 x21 = 1
  eq17: +1 x6 -1 x23 -1 x30 = 4
  eq18: -1 x24 +1 x25 = 0
  eq19: -1 x5 +1 x21 = 1
  eq20: +1 x7 -1 x20 = 1
  eq21: +1 x11 -1 x13 = 1
  eq22: -1 x22 +1 x23 = 1
  eq23: -1 x2 -1 x8 +1 x11 = 6
  eq24: +1 x15 -1 x28 = 1
  eq25: -1 x9 +1 x27 = 0
  eq26: -1 x1 -1 x14 +1 x15 = 7
  ie0: -1 x16 +1 x26 >= 0
  ie1: +1 x15 -1 x19 >= 0
  ie2: +1 x7 >= -6
  ie3: +1 x3 -1 x11 >= 2
  ie4: +1 x17 >= -6
  ie5: +1 x8 >= -6
  ie6: -1 x2 -1 x8 +1 x23 >= 7
  ie7: +1 x1 >= -5
  ie8: +1 x30 >= -5
END

\\\\\\\\\\\\\\\\\\\\\\\\\\\\\\\\\\\\\\\\ file 15

MAXIMIZE
Subject To
  eq0: -1 x1 -1 x8 +1 x27 = 6
  eq1: +1 x11 -1 x18 -1 x30 = 3
  eq2: -1 x12 +1 x16 = 0
  eq3: -1 x17 +1 x29 = 1
  eq4: -1 x16 = 6
  eq5: +1 x25 -1 x26 = 1
  eq6: -1 x11 +1 x12 = 0
  eq7: -1 x27 = 5
  eq8: -1 x9 +1 x10 = 0
  eq9: -1 x2 -1 x14 +1 x23 = 7
  eq10: +1 x4 -1 x15 -1 x30 = 4
  eq11: +1 x6 -1 x7 = 1
  eq12: +1 x3 -1 x14 -1 x30 = 5
  eq13: -1 x24 +1 x27 -1 x30 = 3
  eq14: -1 x18 +1 x29 = 0
  eq15: +1 x4 -1 x21 = 1
  eq16: +1 x6 -1 x23 -1 x30 = 4
  eq17: -1 x24 +1 x25 = 0
  eq18: -1 x5 +1 x21 = 1
  eq19: +1 x16 -1 x19 -1 x30 = 3
  eq20: +1 x7 -1 x20 = 1
  eq21: +1 x11 -1 x13 = 1
  eq22: -1 x22 +1 x23 = 1
  eq23: -1 x2 -1 x8 +1 x11 = 6
  eq24: +1 x15 -1 x28 = 1
  eq25: -1 x9 +1 x27 = 0
  eq26: -1 x1 -1 x14 +1 x15 = 7
  ie0: -1 x16 +1 x26 >= 0
  ie1: +1 x7 >= -6
  ie2: +1 x17 >= -6
  ie3: -1 x14 +1 x18 >= 0
  ie4: +1 x8 >= -6
  ie5: -1 x2 -1 x8 +1 x23 >= 7
  ie6: +1 x1 >= -5
  ie7: +1 x30 >= -5
END

\\\\\\\\\\\\\\\\\\\\\\\\\\\\\\\\\\\\\\\\ file 16

MAXIMIZE
Subject To
  eq0: -1 x1 -1 x8 +1 x27 = 6
  eq1: +1 x11 -1 x18 -1 x30 = 3
  eq2: -1 x12 +1 x16 = 0
  eq3: -1 x17 +1 x29 = 1
  eq4: +1 x25 -1 x26 = 1
  eq5: -1 x11 +1 x12 = 0
  eq6: -1 x27 = 5
  eq7: -1 x9 +1 x10 = 0
  eq8: -1 x7 = 6
  eq9: +1 x4 -1 x15 -1 x30 = 4
  eq10: +1 x6 -1 x7 = 1
  eq11: +1 x3 -1 x14 -1 x30 = 5
  eq12: +1 x6 -1 x13 = 2
  eq13: -1 x24 +1 x27 -1 x30 = 3
  eq14: -1 x18 +1 x29 = 0
  eq15: +1 x4 -1 x21 = 1
  eq16: +1 x6 -1 x23 -1 x30 = 4
  eq17: +1 x8 -1 x19 -1 x30 = 3
  eq18: -1 x24 +1 x25 = 0
  eq19: -1 x5 +1 x21 = 1
  eq20: +1 x7 -1 x20 = 1
  eq21: -1 x22 +1 x23 = 1
  eq22: -1 x2 -1 x8 +1 x11 = 6
  eq23: -1 x8 = 6
  eq24: +1 x15 -1 x28 = 1
  eq25: -1 x9 +1 x27 = 0
  ie0: +1 x2 +1 x3 -1 x6 >= -6
  ie1: -1 x3 +1 x8 >= -2
  ie2: +1 x1 +1 x3 -1 x4 >= -6
  ie3: +1 x16 >= -6
  ie4: +1 x29 >= -6
  ie5: +1 x25 >= -6
  ie6: +1 x19 >= -6
  ie7: +1 x1 -1 x4 +1 x14 >= -6
  ie8: -1 x2 -1 x8 +1 x23 >= 7
  ie9: -1 x6 +1 x23 >= 1
  ie10: +1 x21 >= -5
  ie11: -1 x2 -1 x8 +1 x27 >= 6
  ie12: +1 x4 -1 x6 >= 0
  ie13: +1 x3 -1 x8 >= 0
  ie14: -1 x14 +1 x18 >= 0
  ie15: -1 x1 -1 x8 +1 x15 >= 7
END

\\\\\\\\\\\\\\\\\\\\\\\\\\\\\\\\\\\\\\\\ file 17

MAXIMIZE
Subject To
  eq0: -1 x1 -1 x3 +1 x4 = 6
  eq1: +1 x11 -1 x18 -1 x30 = 3
  eq2: -1 x1 -1 x8 +1 x27 = 6
  eq3: -1 x12 +1 x16 = 0
  eq4: -1 x17 +1 x29 = 1
  eq5: +1 x25 -1 x26 = 1
  eq6: -1 x11 +1 x12 = 0
  eq7: -1 x21 = 5
  eq8: -1 x9 +1 x10 = 0
  eq9: -1 x7 = 6
  eq10: +1 x4 -1 x15 -1 x30 = 4
  eq11: +1 x6 -1 x7 = 1
  eq12: +1 x3 -1 x14 -1 x30 = 5
  eq13: +1 x6 -1 x13 = 2
  eq14: -1 x24 +1 x27 -1 x30 = 3
  eq15: -1 x18 +1 x29 = 0
  eq16: +1 x4 -1 x21 = 1
  eq17: +1 x6 -1 x23 -1 x30 = 4
  eq18: +1 x8 -1 x19 -1 x30 = 3
  eq19: -1 x24 +1 x25 = 0
  eq20: -1 x2 -1 x3 +1 x6 = 6
  eq21: -1 x5 +1 x21 = 1
  eq22: +1 x7 -1 x20 = 1
  eq23: -1 x22 +1 x23 = 1
  eq24: -1 x2 -1 x8 +1 x11 = 6
  eq25: -1 x8 = 6
  eq26: +1 x15 -1 x28 = 1
  eq27: -1 x9 +1 x27 = 0
  ie0: +1 x27 >= -5
  ie1: +1 x29 >= -6
  ie2: -1 x1 -1 x3 +1 x27 >= 6
  ie3: +1 x19 >= -6
  ie4: -1 x3 +1 x19 >= 0
  ie5: -1 x2 -1 x3 +1 x23 >= 7
END

\\\\\\\\\\\\\\\\\\\\\\\\\\\\\\\\\\\\\\\\ file 18

MAXIMIZE
Subject To
  eq0: -1 x1 -1 x8 +1 x27 = 6
  eq1: -1 x12 +1 x16 = 0
  eq2: -1 x17 +1 x29 = 1
  eq3: +1 x25 -1 x26 = 1
  eq4: -1 x11 +1 x12 = 0
  eq5: -1 x21 = 5
  eq6: -1 x9 +1 x10 = 0
  eq7: -1 x2 -1 x14 +1 x23 = 7
  eq8: +1 x4 -1 x15 -1 x30 = 4
  eq9: -1 x1 -1 x19 +1 x24 = 6
  eq10: -1 x7 = 6
  eq11: +1 x6 -1 x7 = 1
  eq12: +1 x3 -1 x14 -1 x30 = 5
  eq13: +1 x6 -1 x13 = 2
  eq14: -1 x8 = 6
  eq15: -1 x18 +1 x29 = 0
  eq16: +1 x4 -1 x21 = 1
  eq17: +1 x6 -1 x23 -1 x30 = 4
  eq18: +1 x8 -1 x19 -1 x30 = 3
  eq19: -1 x24 +1 x25 = 0
  eq20: -1 x5 +1 x21 = 1
  eq21: +1 x7 -1 x20 = 1
  eq22: -1 x22 +1 x23 = 1
  eq23: -1 x2 -1 x8 +1 x11 = 6
  eq24: -1 x2 +1 x18 -1 x19 = 6
  eq25: +1 x15 -1 x28 = 1
  eq26: -1 x9 +1 x27 = 0
  eq27: -1 x1 -1 x14 +1 x15 = 7
  ie0: +1 x17 >= -6
  ie1: +1 x27 >= -5
  ie2: +1 x30 >= -5
  ie3: +1 x29 >= -6
  ie4: +1 x19 >= -6
  ie5: +1 x2 >= -5
  ie6: +1 x30 >= -4
END

\\\\\\\\\\\\\\\\\\\\\\\\\\\\\\\\\\\\\\\\ file 19

MAXIMIZE
Subject To
  eq0: -1 x1 -1 x8 +1 x27 = 6
  eq1: -1 x12 +1 x16 = 0
  eq2: -1 x17 +1 x29 = 1
  eq3: +1 x25 -1 x26 = 1
  eq4: -1 x11 +1 x12 = 0
  eq5: -1 x21 = 5
  eq6: -1 x9 +1 x10 = 0
  eq7: -1 x2 -1 x14 +1 x23 = 7
  eq8: +1 x4 -1 x15 -1 x30 = 4
  eq9: -1 x1 -1 x19 +1 x24 = 6
  eq10: -1 x7 = 6
  eq11: +1 x6 -1 x7 = 1
  eq12: +1 x3 -1 x14 -1 x30 = 5
  eq13: +1 x6 -1 x13 = 2
  eq14: -1 x8 = 6
  eq15: -1 x18 +1 x29 = 0
  eq16: +1 x4 -1 x21 = 1
  eq17: +1 x6 -1 x23 -1 x30 = 4
  eq18: +1 x8 -1 x19 -1 x30 = 3
  eq19: -1 x24 +1 x25 = 0
  eq20: -1 x5 +1 x21 = 1
  eq21: +1 x7 -1 x20 = 1
  eq22: -1 x22 +1 x23 = 1
  eq23: -1 x2 -1 x8 +1 x11 = 6
  eq24: -1 x2 +1 x18 -1 x19 = 6
  eq25: +1 x15 -1 x28 = 1
  eq26: -1 x9 +1 x27 = 0
  eq27: -1 x1 -1 x14 +1 x15 = 7
  ie0: +1 x17 >= -6
  ie1: +1 x27 >= -5
  ie2: +1 x30 >= -5
  ie3: +1 x29 >= -6
  ie4: +1 x19 >= -6
  ie5: -1 x2 >= 5
  ie6: +1 x30 >= -4
END

\\\\\\\\\\\\\\\\\\\\\\\\\\\\\\\\\\\\\\\\ file 20

MAXIMIZE
Subject To
  eq0: -1 x1 -1 x8 +1 x27 = 6
  eq1: +1 x11 -1 x18 -1 x30 = 3
  eq2: -1 x12 +1 x16 = 0
  eq3: -1 x17 +1 x29 = 1
  eq4: +1 x25 -1 x26 = 1
  eq5: -1 x11 +1 x12 = 0
  eq6: -1 x21 = 5
  eq7: -1 x9 +1 x10 = 0
  eq8: -1 x7 = 6
  eq9: +1 x4 -1 x15 -1 x30 = 4
  eq10: +1 x6 -1 x7 = 1
  eq11: +1 x3 -1 x14 -1 x30 = 5
  eq12: +1 x6 -1 x13 = 2
  eq13: -1 x24 +1 x27 -1 x30 = 3
  eq14: -1 x18 +1 x29 = 0
  eq15: +1 x4 -1 x21 = 1
  eq16: +1 x6 -1 x23 -1 x30 = 4
  eq17: +1 x8 -1 x19 -1 x30 = 3
  eq18: -1 x24 +1 x25 = 0
  eq19: -1 x5 +1 x21 = 1
  eq20: +1 x7 -1 x20 = 1
  eq21: -1 x22 +1 x23 = 1
  eq22: -1 x2 -1 x8 +1 x11 = 6
  eq23: -1 x8 = 6
  eq24: +1 x15 -1 x28 = 1
  eq25: -1 x9 +1 x27 = 0
  ie0: +1 x27 >= -5
  ie1: -1 x3 +1 x8 >= -2
  ie2: +1 x2 +1 x3 -1 x6 >= -6
  ie3: +1 x16 >= -6
  ie4: +1 x1 +1 x3 -1 x4 >= -6
  ie5: +1 x29 >= -6
  ie6: +1 x25 >= -6
  ie7: +1 x19 >= -6
  ie8: +1 x1 -1 x4 +1 x14 >= -6
  ie9: -1 x2 -1 x8 +1 x23 >= 7
  ie10: -1 x6 +1 x23 >= 1
  ie11: -1 x2 -1 x8 +1 x27 >= 6
  ie12: +1 x3 -1 x8 >= 0
  ie13: -1 x14 +1 x18 >= 0
  ie14: -1 x1 +1 x4 -1 x8 >= 6
  ie15: -1 x2 +1 x6 -1 x8 >= 6
  ie16: -1 x1 -1 x8 +1 x15 >= 7
END

\\\\\\\\\\\\\\\\\\\\\\\\\\\\\\\\\\\\\\\\ file 21

MAXIMIZE
Subject To
  eq0: -1 x1 -1 x8 +1 x27 = 6
  eq1: +1 x11 -1 x18 -1 x30 = 3
  eq2: -1 x12 +1 x16 = 0
  eq3: -1 x17 +1 x29 = 1
  eq4: +1 x25 -1 x26 = 1
  eq5: -1 x11 +1 x12 = 0
  eq6: -1 x21 = 5
  eq7: -1 x9 +1 x10 = 0
  eq8: -1 x2 -1 x14 +1 x23 = 7
  eq9: +1 x4 -1 x15 -1 x30 = 4
  eq10: -1 x7 = 6
  eq11: +1 x6 -1 x7 = 1
  eq12: +1 x3 -1 x14 -1 x30 = 5
  eq13: +1 x6 -1 x13 = 2
  eq14: -1 x24 +1 x27 -1 x30 = 3
  eq15: -1 x18 +1 x29 = 0
  eq16: +1 x4 -1 x21 = 1
  eq17: +1 x6 -1 x23 -1 x30 = 4
  eq18: +1 x8 -1 x19 -1 x30 = 3
  eq19: -1 x24 +1 x25 = 0
  eq20: -1 x5 +1 x21 = 1
  eq21: +1 x7 -1 x20 = 1
  eq22: -1 x22 +1 x23 = 1
  eq23: -1 x2 -1 x8 +1 x11 = 6
  eq24: -1 x8 = 6
  eq25: +1 x15 -1 x28 = 1
  eq26: -1 x9 +1 x27 = 0
  eq27: -1 x1 -1 x14 +1 x15 = 7
  ie0: +1 x27 >= -5
  ie1: +1 x29 >= -6
  ie2: +1 x17 >= -6
  ie3: +1 x19 >= -6
  ie4: +1 x2 >= -5
  ie5: +1 x30 >= -5
  ie6: -1 x11 +1 x18 >= 1
  ie7: -1 x2 +1 x11 -1 x14 >= 6
END

\\\\\\\\\\\\\\\\\\\\\\\\\\\\\\\\\\\\\\\\ file 22

MAXIMIZE
Subject To
  eq0: -1 x1 -1 x8 +1 x27 = 6
  eq1: +1 x11 -1 x18 -1 x30 = 3
  eq2: -1 x12 +1 x16 = 0
  eq3: -1 x17 +1 x29 = 1
  eq4: +1 x25 -1 x26 = 1
  eq5: -1 x11 +1 x12 = 0
  eq6: -1 x21 = 5
  eq7: -1 x9 +1 x10 = 0
  eq8: -1 x2 -1 x14 +1 x23 = 7
  eq9: +1 x4 -1 x15 -1 x30 = 4
  eq10: -1 x7 = 6
  eq11: +1 x6 -1 x7 = 1
  eq12: +1 x3 -1 x14 -1 x30 = 5
  eq13: +1 x6 -1 x13 = 2
  eq14: -1 x24 +1 x27 -1 x30 = 3
  eq15: -1 x18 +1 x29 = 0
  eq16: +1 x4 -1 x21 = 1
  eq17: +1 x6 -1 x23 -1 x30 = 4
  eq18: +1 x8 -1 x19 -1 x30 = 3
  eq19: -1 x24 +1 x25 = 0
  eq20: -1 x5 +1 x21 = 1
  eq21: +1 x7 -1 x20 = 1
  eq22: -1 x22 +1 x23 = 1
  eq23: -1 x2 -1 x8 +1 x11 = 6
  eq24: -1 x8 = 6
  eq25: +1 x15 -1 x28 = 1
  eq26: -1 x9 +1 x27 = 0
  eq27: -1 x1 -1 x14 +1 x15 = 7
  ie0: +1 x27 >= -5
  ie1: +1 x30 >= -5
  ie2: +1 x29 >= -6
  ie3: +1 x19 >= -6
  ie4: -1 x2 -1 x8 +1 x23 >= 7
END

\\\\\\\\\\\\\\\\\\\\\\\\\\\\\\\\\\\\\\\\ file 23

MAXIMIZE
Subject To
  eq0: -1 x1 -1 x8 +1 x27 = 6
  eq1: +1 x11 -1 x18 -1 x30 = 3
  eq2: -1 x12 +1 x16 = 0
  eq3: -1 x17 +1 x29 = 1
  eq4: +1 x25 -1 x26 = 1
  eq5: -1 x11 +1 x12 = 0
  eq6: -1 x21 = 5
  eq7: -1 x9 +1 x10 = 0
  eq8: -1 x2 -1 x14 +1 x23 = 7
  eq9: +1 x4 -1 x15 -1 x30 = 4
  eq10: -1 x7 = 6
  eq11: +1 x6 -1 x7 = 1
  eq12: +1 x3 -1 x14 -1 x30 = 5
  eq13: +1 x6 -1 x13 = 2
  eq14: -1 x24 +1 x27 -1 x30 = 3
  eq15: -1 x18 +1 x29 = 0
  eq16: +1 x4 -1 x21 = 1
  eq17: +1 x6 -1 x23 -1 x30 = 4
  eq18: +1 x8 -1 x19 -1 x30 = 3
  eq19: -1 x24 +1 x25 = 0
  eq20: -1 x5 +1 x21 = 1
  eq21: +1 x7 -1 x20 = 1
  eq22: -1 x22 +1 x23 = 1
  eq23: -1 x2 -1 x8 +1 x11 = 6
  eq24: -1 x8 = 6
  eq25: +1 x15 -1 x28 = 1
  eq26: -1 x9 +1 x27 = 0
  eq27: -1 x1 -1 x14 +1 x15 = 7
  ie0: +1 x27 >= -5
  ie1: +1 x29 >= -6
  ie2: +1 x17 >= -6
  ie3: +1 x19 >= -6
  ie4: -1 x2 >= 5
  ie5: +1 x30 >= -5
  ie6: -1 x11 +1 x18 >= 1
  ie7: -1 x2 +1 x11 -1 x14 >= 6
END

\\\\\\\\\\\\\\\\\\\\\\\\\\\\\\\\\\\\\\\\ end



24 polyhedra, 48 rounds, smt 0.320 sec, isect 1.187 sec, insert 0.079 sec, total 2.043 sec
Preprocessing 0.009 sec, super total 2.052 sec
Comparing... 0.210 sec.  Solution matches input.
