k1 = 21/10000
k2 = 7/5000
k3 = 17/2000000000
k4 = 7/500000000
k5 = 40
k6 = 21/25
k7 = 5100000
k8 = 650000
k9 = 23/10000
k10 = 39/10000
k11 = 11/20000
k12 = 37/50000
k13 = 1/400
k14 = 69/1000000
k15 = 11/10000
k16 = 7/25000
k17 = 1/10000
k18 = 1/10000
k19 = 7800000
k20 = 2300000
k21 = 47/10000
k22 = 21/10000
k23 = 40000
k24 = 40000
k25 = 40000
k26 = 602000000000000000000000
k27 = 7/100000
k28 = 21/2500000000000
k29 = 1000000000
k30 = 163034574770491/20000000000
k31 = 249192409162643/1000000000
k32 = 100
k33 = 100
k34 = 100
k35 = 328437241399281/1000000000
k36 = 61581982762347/125000000
k37 = 0
k38 = 0
k39 = 133539963932179/1000000000
k40 = 509483771339917/1000000000
k41 = 1
k42 = 15000000000000007/10000000000
k43 = 2999999999999773/4000000000
k44 = 50000000000010963/100000000000
