k58*x49 - k61
k58*x45 + k58*x46 + k58*x47 + k58*x48 - k62
k59*x23 + k58*x26 + k58*x27 + k58*x28 + k58*x29 + k59*x30 + k59*x31 + k59*x32 + k59*x33 + k59*x34 + k58*x35 + k58*x36 + k58*x38 + k58*x39 + k58*x40 + k58*x41 + k58*x46 + k58*x47 + k58*x48 + k59*x50 - k63
k59*x23 + k59*x24 + k59*x31 + k59*x32 + k59*x33 + k59*x34 + k59*x50 - k64
k59*x22 + k59*x23 + k59*x32 + k59*x33 + k59*x34 + k59*x50 - k65
k59*x21 + k59*x23 + k59*x34 + k59*x50 - k66
k59*x20 + k59*x23 + k59*x50 - k67
k59*x19 + k59*x23 + k59*x33 + k59*x34 + k59*x50 - k68
k58*x17 + k58*x18 + k58*x37 + k58*x40 + k58*x41 + k58*x47 - k69
k58*x16 + k58*x17 + k58*x18 + k58*x27 + k58*x28 + k58*x29 + k58*x35 + k58*x36 + k58*x40 + k58*x41 + k58*x46 + k58*x47 - k70
k58*x13 + k58*x17 + k58*x37 + k58*x40 + k58*x47 - k71
k58*x13 + k58*x16 + k58*x17 + k58*x27 + k58*x28 + k58*x29 + k58*x35 + k58*x36 + k58*x40 + k58*x46 + k58*x47 - k72
k58*x12 + k58*x18 + k58*x29 + k58*x40 + k58*x41 - k73
k58*x12 + k58*x13 + k58*x29 + k58*x40 - k74
k58*x11 + k58*x17 + k58*x28 + k58*x35 + k58*x36 + k58*x46 + k58*x47 - k75
k58*x10 + k58*x14 + k58*x44 - k76
k58*x9 + k58*x15 + 2*k58*x16 + 2*k58*x18 + 2*k58*x27 + 2*k58*x28 + 2*k58*x29 + k58*x35 + 2*k58*x40 + 2*k58*x41 - k77
k58*x9 + 2*k58*x13 + k58*x15 + 2*k58*x16 + 2*k58*x27 + 2*k58*x28 + 2*k58*x29 + k58*x35 + 2*k58*x40 - k78
k58*x9 + 2*k58*x11 + k58*x15 + 2*k58*x28 + k58*x35 - k79
4*k58*x9 + 4*k58*x15 + 8*k58*x18 + 8*k59*x23 + 8*k58*x26 + 8*k58*x27 + 8*k58*x28 + 8*k58*x29 + 8*k59*x30 + 8*k59*x31 + 8*k59*x32 + 8*k59*x33 + 8*k59*x34 + 4*k58*x35 + 8*k58*x37 + 8*k58*x38 + 8*k58*x39 + 16*k58*x40 + 16*k58*x41 + 8*k58*x47 + 8*k58*x48 + 8*k59*x50 - k80
4*k58*x9 + 8*k58*x13 + 4*k58*x15 + 8*k59*x23 + 8*k58*x26 + 8*k58*x27 + 8*k58*x28 + 8*k58*x29 + 8*k59*x30 + 8*k59*x31 + 8*k59*x32 + 8*k59*x33 + 8*k59*x34 + 4*k58*x35 + 8*k58*x37 + 8*k58*x38 + 8*k58*x39 + 16*k58*x40 + 8*k58*x41 + 8*k58*x47 + 8*k58*x48 + 8*k59*x50 - k81
k58*x8 + k58*x9 - k82
k58*x7 + k58*x10 + k58*x43 + k58*x44 - k83
k58*x6 + k58*x10 + k58*x15 + k58*x42 + k58*x43 + k58*x44 - k84
k58*x6 + k58*x8 + k58*x10 + 2*k58*x17 + k58*x35 + 2*k58*x36 + k58*x42 + k58*x43 + k58*x44 + 2*k58*x46 + 2*k58*x47 - k85
k58*x4 + k58*x5 - k86
k58*x2 + k58*x3 + k58*x4 - k87
k57*x1 + k58*x2 + k58*x4 + k60*x25 - k88
