((-1) * (k1*x1*x3 - k2*x2) + 1 * (k44*x25 - k45*x1)) / k57
(1 * (k1*x1*x3 - k2*x2) + (-1) * (k3*x5*x2 - k4*x4)) / k58
((-1) * (k1*x1*x3 - k2*x2)) / k58
(1 * (k3*x5*x2 - k4*x4)) / k58
((-1) * (k3*x5*x2 - k4*x4)) / k58
(1 * (k42*x42 - k43*x6)) / k58
((-1) * (k36*x42*x7 - k37*x43)) / k58
((-1) * (x6 * (k46*x15*x8 - k47*x42*x9)) + (-1) * (x6 * (k48*x28*x8 - k49*x35*x9)) + (-1) * (k56 / (k56 + x49) * x10 * (k52*x35*x8*x8*x8 - k53*x36*x9*x9*x9))) / k58
(1 * (x6 * (k46*x15*x8 - k47*x42*x9)) + 1 * (x6 * (k48*x28*x8 - k49*x35*x9)) + 1 * (k56 / (k56 + x49) * x10 * (k52*x35*x8*x8*x8 - k53*x36*x9*x9*x9))) / k58
(1 * (k40*x44 - k41*x10)) / k58
((-1) * (k7*x27*x11 - k8*x28)) / k58
((-1) * (k9*x27*x12 - k10*x29)) / k58
(1 * (k32*x40 - k33*x13*x41)) / k58
((-1) * (k38*x43*x14 - k39*x44)) / k58
((-1) * (x6 * (k46*x15*x8 - k47*x42*x9))) / k58
((-1) * (k5*x16*x26 - k6*x27)) / k58
(1 * (k26*x47 - k27*x17*x48)) / k58
(1 * (k34*x41 - k35*x18*x39)) / k58
((-1) * (k17*x32*x19 - k18*x33)) / k59
((-1) * (k54*x34*x20 - k55*x50)) / k59
((-1) * (k19*x33*x21 - k20*x34)) / k59
((-1) * (k15*x31*x22 - k16*x32)) / k59
(1 * (k21*x50)) / k59
((-1) * (k13*x24*x30 - k14*x31)) / k59
((-1) * (k44*x25 - k45*x1)) / k60
((-1) * (k5*x16*x26 - k6*x27) + (-1) * (k11*x26 - k12*x30)) / k58
(1 * (k5*x16*x26 - k6*x27) + (-1) * (k7*x27*x11 - k8*x28) + (-1) * (k9*x27*x12 - k10*x29)) / k58
(1 * (k7*x27*x11 - k8*x28) + (-1) * (x6 * (k48*x28*x8 - k49*x35*x9))) / k58
(1 * (k9*x27*x12 - k10*x29) + (-1) * (k30*x29*x37 - k31*x40)) / k58
(1 * (k11*x26 - k12*x30) + (-1) * (k13*x24*x30 - k14*x31) + 1 * (k50*x38) + 1 * (k51*x39)) / k59
(1 * (k13*x24*x30 - k14*x31) + (-1) * (k15*x31*x22 - k16*x32)) / k59
((-1) * (k17*x32*x19 - k18*x33) + 1 * (k15*x31*x22 - k16*x32)) / k59
((-1) * (k19*x33*x21 - k20*x34) + 1 * (k17*x32*x19 - k18*x33)) / k59
(1 * (k19*x33*x21 - k20*x34) + (-1) * (k54*x34*x20 - k55*x50)) / k59
(1 * (x6 * (k48*x28*x8 - k49*x35*x9)) + (-1) * (k56 / (k56 + x49) * x10 * (k52*x35*x8*x8*x8 - k53*x36*x9*x9*x9))) / k58
((-1) * (k22*x36*x45 - k23*x46) + 1 * (k56 / (k56 + x49) * x10 * (k52*x35*x8*x8*x8 - k53*x36*x9*x9*x9))) / k58
((-1) * (k24*x46*x37 - k25*x47) + (-1) * (k30*x29*x37 - k31*x40)) / k58
(1 * (k28*x48 - k29*x45*x38) + (-1) * (k50*x38)) / k58
(1 * (k34*x41 - k35*x18*x39) + (-1) * (k51*x39)) / k58
(1 * (k30*x29*x37 - k31*x40) + (-1) * (k32*x40 - k33*x13*x41)) / k58
(1 * (k32*x40 - k33*x13*x41) + (-1) * (k34*x41 - k35*x18*x39)) / k58
((-1) * (k36*x42*x7 - k37*x43) + (-1) * (k42*x42 - k43*x6) + 1 * (x6 * (k46*x15*x8 - k47*x42*x9))) / k58
(1 * (k36*x42*x7 - k37*x43) + (-1) * (k38*x43*x14 - k39*x44)) / k58
(1 * (k38*x43*x14 - k39*x44) + (-1) * (k40*x44 - k41*x10)) / k58
((-1) * (k22*x36*x45 - k23*x46) + 1 * (k28*x48 - k29*x45*x38)) / k58
(1 * (k22*x36*x45 - k23*x46) + (-1) * (k24*x46*x37 - k25*x47)) / k58
(1 * (k24*x46*x37 - k25*x47) + (-1) * (k26*x47 - k27*x17*x48)) / k58
(1 * (k26*x47 - k27*x17*x48) + (-1) * (k28*x48 - k29*x45*x38)) / k58
0 / k58
((-1) * (k21*x50) + 1 * (k54*x34*x20 - k55*x50)) / k59
