k1*x15 + k1*x16 + k1*x17 + k1*x18 + k1*x19 + k1*x20 + k1*x21 + k1*x22 - k52
k1*x12 + k1*x13 + k1*x14 + k1*x21 + k1*x22 - k53
k1*x10 + k1*x11 + k1*x13 + k1*x14 + k1*x19 + k1*x20 + k1*x21 + k1*x22 - k54
k1*x6 + k1*x7 + k1*x8 + k1*x9 + k1*x23 - k55
k1*x2 + k1*x3 + 2*k1*x4 + 2*k1*x5 + 2*k1*x7 + 2*k1*x8 + 2*k1*x11 + 2*k1*x13 + 2*k1*x16 + 2*k1*x17 + 2*k1*x19 + 2*k1*x21 - k56
k1*x1 + k1*x3 + 2*k1*x4 + 2*k1*x5 + 2*k1*x7 + 2*k1*x8 + 2*k1*x11 + 2*k1*x13 + 2*k1*x16 + 2*k1*x17 + 2*k1*x19 + 2*k1*x21 - k57
