
----------------------------------------------------------------------
This is SMTcut v4.6.4 by Christoph Lueders -- http://wrogn.com
Python 3.7.6 (default, Jan  8 2020, 19:59:22) 
[GCC 7.3.0] x86_64
pysmt 0.9.0, gmpy2 2.0.8
Datetime: 2020-06-23T20:11:03+02:00
Command line: BIOMD0000000028 --z3
Flags: no-ppone no-ppsmt no-pp2x2 dump justone solver=z3


Model: BIOMD0000000028
Logfile: db/BIOMD0000000028/ep11-z3-Linux-smtlog.txt
Loading polyhedra...  done.
Possible combinations: 10^9.1 in 19 bags
Bag sizes: 8 6 8 3 12 24 1 1 1 1 1 1 2 1 2 2 7 5 14

Minimizing (7,0)... (7,0)


Running SMT solver (1)... 0.010 sec
Found point (-3,-2,-2,-2,0,-1,0,0,-1,-2,-2,-1,-1,-1,-2,-2)
Checking... Minimizing (13,50)... (13,12), 0.017 sec
Inserting... 

MAXIMIZE
Subject To
  eq0: -1 x4 -1 x6 +1 x11 = 1
  eq1: -1 x16 = 2
  eq2: -1 x1 -1 x5 +1 x10 = 1
  eq3: -1 x1 = 3
  eq4: -1 x3 -1 x5 +1 x8 = 2
  eq5: -1 x1 -1 x5 +1 x9 = 2
  eq6: -1 x10 = 2
  eq7: -1 x2 -1 x6 +1 x12 = 2
  eq8: -1 x3 -1 x6 +1 x14 = 2
  eq9: -1 x11 +1 x13 = 1
  eq10: +1 x14 -1 x15 = 1
  eq11: +1 x12 -1 x16 = 1
  eq12: -1 x2 -1 x5 +1 x7 = 2
  ie0: +1 x7 >= -3
  ie1: +1 x5 -1 x6 >= 0
  ie2: +1 x1 +1 x6 -1 x14 >= -3
  ie3: +1 x1 +1 x6 -1 x12 >= -3
  ie4: +1 x15 >= -2
  ie5: +1 x4 >= -3
  ie6: +1 x3 +1 x6 -1 x11 >= -1
  ie7: +1 x8 >= -2
  ie8: -1 x3 -1 x6 +1 x13 >= 2
  ie9: +1 x14 >= -2
  ie10: -1 x4 -1 x6 +1 x7 >= -1
  ie11: -1 x4 -1 x6 +1 x12 >= 1
END

0.000 sec
[1 ph, smt 0.010, isect 0.017, ins 0.000, tot 0.068]

Running SMT solver (2)... 0.003 sec
Found point (-3,-2,-1,-1,0,-1,0,1,-1,-2,-1,-1,0,0,-2,-2)
Checking... Minimizing (14,50)... (14,9), 0.011 sec
Inserting... 

MAXIMIZE
Subject To
  eq0: -1 x4 -1 x6 +1 x11 = 1
  eq1: -1 x16 = 2
  eq2: -1 x1 -1 x5 +1 x10 = 1
  eq3: -1 x1 = 3
  eq4: -1 x1 -1 x5 +1 x9 = 2
  eq5: -1 x2 -1 x5 +1 x7 = 2
  eq6: -1 x4 -1 x6 +1 x12 = 1
  eq7: -1 x10 = 2
  eq8: -1 x2 -1 x6 +1 x12 = 2
  eq9: -1 x3 -1 x6 +1 x14 = 2
  eq10: -1 x11 +1 x13 = 1
  eq11: +1 x12 -1 x16 = 1
  eq12: -1 x3 -1 x5 +1 x8 = 2
  eq13: -1 x1 -1 x6 +1 x15 = 2
  ie0: +1 x5 -1 x6 >= 0
  ie1: -1 x1 -1 x6 +1 x14 >= 3
  ie2: +1 x1 +1 x6 -1 x12 >= -3
  ie3: +1 x3 +1 x6 -1 x11 >= -1
  ie4: +1 x8 >= -2
  ie5: -1 x3 -1 x6 +1 x13 >= 2
  ie6: +1 x14 >= -2
  ie7: -1 x4 -1 x6 +1 x7 >= -1
  ie8: -1 x4 -1 x6 +1 x14 >= 1
END

0.000 sec
[2 ph, smt 0.013, isect 0.027, ins 0.000, tot 0.091]

Running SMT solver (3)... 0.001 sec
Found point (-3,-2,-5/4,-5/4,0,-1,0,3/4,-1,-2,-5/4,-1,-1/4,-1/4,-2,-2)
Checking... Minimizing (13,50)... (13,13), 0.012 sec
Inserting... 

MAXIMIZE
Subject To
  eq0: -1 x4 -1 x6 +1 x11 = 1
  eq1: -1 x16 = 2
  eq2: -1 x1 -1 x5 +1 x10 = 1
  eq3: -1 x1 = 3
  eq4: -1 x3 -1 x5 +1 x8 = 2
  eq5: -1 x1 -1 x5 +1 x9 = 2
  eq6: -1 x10 = 2
  eq7: -1 x2 -1 x6 +1 x12 = 2
  eq8: -1 x3 -1 x6 +1 x14 = 2
  eq9: -1 x11 +1 x13 = 1
  eq10: +1 x12 -1 x16 = 1
  eq11: -1 x2 -1 x5 +1 x7 = 2
  eq12: -1 x1 -1 x6 +1 x15 = 2
  ie0: +1 x7 >= -3
  ie1: +1 x5 -1 x6 >= 0
  ie2: -1 x1 -1 x6 +1 x14 >= 3
  ie3: +1 x1 +1 x6 -1 x12 >= -3
  ie4: +1 x4 >= -3
  ie5: +1 x3 >= -3
  ie6: +1 x3 +1 x6 -1 x11 >= -1
  ie7: +1 x8 >= -2
  ie8: -1 x3 -1 x6 +1 x13 >= 2
  ie9: +1 x14 >= -2
  ie10: -1 x4 -1 x6 +1 x7 >= -1
  ie11: -1 x4 -1 x6 +1 x12 >= 1
  ie12: -1 x4 -1 x6 +1 x14 >= 1
END

0.003 sec
[2 ph, smt 0.014, isect 0.040, ins 0.003, tot 0.117]

Running SMT solver (4)... 0.002 sec
Found point (-3,-2,-2,-7/4,0,-1,0,0,-1,-2,-7/4,-1,-1,-1,-2,-2)
Checking... Minimizing (13,50)... (13,11), 0.012 sec
Inserting... 

MAXIMIZE
Subject To
  eq0: -1 x4 -1 x6 +1 x11 = 1
  eq1: -1 x16 = 2
  eq2: -1 x1 -1 x5 +1 x10 = 1
  eq3: -1 x1 = 3
  eq4: -1 x3 -1 x5 +1 x8 = 2
  eq5: -1 x1 -1 x5 +1 x9 = 2
  eq6: -1 x10 = 2
  eq7: -1 x2 -1 x6 +1 x12 = 2
  eq8: -1 x3 -1 x6 +1 x14 = 2
  eq9: -1 x3 -1 x6 +1 x13 = 2
  eq10: +1 x14 -1 x15 = 1
  eq11: +1 x12 -1 x16 = 1
  eq12: -1 x2 -1 x5 +1 x7 = 2
  ie0: +1 x7 >= -3
  ie1: +1 x5 -1 x6 >= 0
  ie2: +1 x1 +1 x6 -1 x14 >= -3
  ie3: +1 x1 +1 x6 -1 x12 >= -3
  ie4: +1 x15 >= -2
  ie5: +1 x4 >= -3
  ie6: -1 x3 -1 x6 +1 x11 >= 1
  ie7: +1 x8 >= -2
  ie8: +1 x14 >= -2
  ie9: -1 x4 -1 x6 +1 x7 >= -1
  ie10: -1 x4 -1 x6 +1 x12 >= 1
END

0.001 sec
[2 ph, smt 0.017, isect 0.052, ins 0.004, tot 0.142]

Running SMT solver (5)... 0.001 sec
Found point (-3,-2,-2,-3/4,0,-1,0,0,-1,-2,-3/4,-1,-1,-1,-2,-2)
Checking... Minimizing (13,49)... (13,11), 0.011 sec
Inserting... 

MAXIMIZE
Subject To
  eq0: -1 x4 -1 x6 +1 x11 = 1
  eq1: -1 x16 = 2
  eq2: -1 x1 -1 x5 +1 x10 = 1
  eq3: -1 x1 = 3
  eq4: -1 x3 -1 x5 +1 x8 = 2
  eq5: -1 x1 -1 x5 +1 x9 = 2
  eq6: -1 x10 = 2
  eq7: -1 x2 -1 x6 +1 x12 = 2
  eq8: -1 x3 -1 x6 +1 x14 = 2
  eq9: -1 x3 -1 x6 +1 x13 = 2
  eq10: +1 x14 -1 x15 = 1
  eq11: +1 x12 -1 x16 = 1
  eq12: -1 x2 -1 x5 +1 x7 = 2
  ie0: +1 x5 -1 x6 >= 0
  ie1: +1 x1 +1 x6 -1 x14 >= -3
  ie2: +1 x1 +1 x6 -1 x12 >= -3
  ie3: +1 x15 >= -2
  ie4: +1 x4 >= -3
  ie5: -1 x3 +1 x4 >= 1
  ie6: -1 x3 -1 x6 +1 x12 >= 2
  ie7: +1 x8 >= -2
  ie8: +1 x14 >= -2
  ie9: -1 x4 -1 x6 +1 x7 >= -1
  ie10: -1 x4 -1 x6 +1 x8 >= 1
END

0.000 sec
[3 ph, smt 0.018, isect 0.063, ins 0.004, tot 0.165]

Running SMT solver (6)... 0.002 sec
Found point (-3,-2,-1,1,0,-1,0,1,-1,-2,1,-1,0,0,-2,-2)
Checking... Minimizing (13,50)... (13,11), 0.012 sec
Inserting... 

MAXIMIZE
Subject To
  eq0: -1 x4 -1 x6 +1 x11 = 1
  eq1: -1 x16 = 2
  eq2: -1 x1 -1 x5 +1 x10 = 1
  eq3: -1 x1 = 3
  eq4: -1 x3 -1 x5 +1 x8 = 2
  eq5: -1 x1 -1 x5 +1 x9 = 2
  eq6: -1 x10 = 2
  eq7: -1 x2 -1 x6 +1 x12 = 2
  eq8: -1 x3 -1 x6 +1 x14 = 2
  eq9: -1 x3 -1 x6 +1 x13 = 2
  eq10: +1 x12 -1 x16 = 1
  eq11: -1 x2 -1 x5 +1 x7 = 2
  eq12: -1 x1 -1 x6 +1 x15 = 2
  ie0: +1 x7 >= -3
  ie1: +1 x5 -1 x6 >= 0
  ie2: -1 x1 -1 x6 +1 x14 >= 3
  ie3: +1 x1 +1 x6 -1 x12 >= -3
  ie4: -1 x2 +1 x4 >= 1
  ie5: -1 x3 -1 x6 +1 x11 >= 1
  ie6: -1 x2 -1 x6 +1 x14 >= 2
  ie7: +1 x8 >= -2
  ie8: -1 x3 -1 x6 +1 x10 >= 0
  ie9: -1 x4 -1 x6 +1 x8 >= 1
  ie10: -1 x4 -1 x6 +1 x7 >= -1
END

0.002 sec
[4 ph, smt 0.020, isect 0.074, ins 0.006, tot 0.190]

Running SMT solver (7)... 0.002 sec
Found point (-3,-2,-4/3,-7/6,0,-1,0,2/3,-1,-2,-7/6,-1,-1/3,-1/3,-2,-2)
Checking... Minimizing (13,50)... (13,12), 0.012 sec
Inserting... 

MAXIMIZE
Subject To
  eq0: -1 x4 -1 x6 +1 x11 = 1
  eq1: -1 x16 = 2
  eq2: -1 x1 -1 x5 +1 x10 = 1
  eq3: -1 x1 = 3
  eq4: -1 x3 -1 x5 +1 x8 = 2
  eq5: -1 x1 -1 x5 +1 x9 = 2
  eq6: -1 x10 = 2
  eq7: -1 x2 -1 x6 +1 x12 = 2
  eq8: -1 x3 -1 x6 +1 x14 = 2
  eq9: -1 x3 -1 x6 +1 x13 = 2
  eq10: +1 x12 -1 x16 = 1
  eq11: -1 x2 -1 x5 +1 x7 = 2
  eq12: -1 x1 -1 x6 +1 x15 = 2
  ie0: +1 x7 >= -3
  ie1: +1 x5 -1 x6 >= 0
  ie2: -1 x1 -1 x6 +1 x14 >= 3
  ie3: +1 x1 +1 x6 -1 x12 >= -3
  ie4: +1 x4 >= -3
  ie5: +1 x3 >= -3
  ie6: -1 x3 -1 x6 +1 x11 >= 1
  ie7: +1 x8 >= -2
  ie8: +1 x14 >= -2
  ie9: -1 x4 -1 x6 +1 x7 >= -1
  ie10: -1 x4 -1 x6 +1 x12 >= 1
  ie11: -1 x4 -1 x6 +1 x14 >= 1
END

0.002 sec
[4 ph, smt 0.022, isect 0.086, ins 0.008, tot 0.217]

Running SMT solver (8)... 0.002 sec
Found point (-1,-3,-3,-3,-1,0,-2,-2,0,-1,-2,-1,-1,-1,-2,-2)
Checking... Minimizing (13,51)... (13,14), 0.014 sec
Inserting... 

MAXIMIZE
Subject To
  eq0: -1 x4 -1 x6 +1 x11 = 1
  eq1: -1 x16 = 2
  eq2: -1 x1 -1 x5 +1 x10 = 1
  eq3: -1 x4 = 3
  eq4: -1 x3 -1 x5 +1 x8 = 2
  eq5: -1 x1 -1 x5 +1 x9 = 2
  eq6: -1 x8 = 2
  eq7: -1 x2 -1 x6 +1 x12 = 2
  eq8: -1 x3 -1 x6 +1 x14 = 2
  eq9: -1 x11 +1 x13 = 1
  eq10: +1 x14 -1 x15 = 1
  eq11: +1 x12 -1 x16 = 1
  eq12: -1 x2 -1 x5 +1 x7 = 2
  ie0: +1 x7 >= -3
  ie1: -1 x3 -1 x5 +1 x13 >= 2
  ie2: +1 x1 +1 x6 -1 x14 >= -3
  ie3: +1 x1 +1 x6 -1 x12 >= -3
  ie4: +1 x15 >= -2
  ie5: +1 x1 -1 x3 >= 1
  ie6: +1 x11 >= -2
  ie7: +1 x9 >= -2
  ie8: +1 x7 >= -2
  ie9: +1 x14 >= -2
  ie10: +1 x2 >= -3
  ie11: -1 x4 -1 x6 +1 x7 >= -1
  ie12: -1 x4 -1 x6 +1 x12 >= 1
  ie13: -1 x1 -1 x5 +1 x15 >= 0
END

0.000 sec
[5 ph, smt 0.024, isect 0.100, ins 0.008, tot 0.243]

Running SMT solver (9)... 0.002 sec
Found point (-1,-9/4,-3,-3,-1,0,-5/4,-2,0,-1,-2,-1/4,-1,-1,-2,-5/4)
Checking... Minimizing (13,51)... (13,16), 0.013 sec
Inserting... 

MAXIMIZE
Subject To
  eq0: -1 x4 -1 x6 +1 x11 = 1
  eq1: -1 x1 -1 x5 +1 x10 = 1
  eq2: -1 x4 = 3
  eq3: -1 x3 -1 x5 +1 x8 = 2
  eq4: -1 x1 -1 x5 +1 x9 = 2
  eq5: -1 x15 = 2
  eq6: -1 x2 -1 x6 +1 x12 = 2
  eq7: -1 x3 -1 x6 +1 x14 = 2
  eq8: -1 x11 +1 x13 = 1
  eq9: -1 x8 = 2
  eq10: +1 x14 -1 x15 = 1
  eq11: +1 x12 -1 x16 = 1
  eq12: -1 x2 -1 x5 +1 x7 = 2
  ie0: -1 x3 -1 x5 +1 x13 >= 2
  ie1: +1 x1 +1 x6 -1 x14 >= -3
  ie2: +1 x1 +1 x6 -1 x12 >= -3
  ie3: +1 x3 >= -3
  ie4: +1 x9 >= -2
  ie5: +1 x16 >= -3
  ie6: -1 x4 -1 x6 +1 x7 >= -1
  ie7: -1 x4 -1 x6 +1 x12 >= 1
  ie8: +1 x1 -1 x3 >= 1
  ie9: +1 x1 >= -3
  ie10: -1 x2 -1 x5 +1 x9 >= 2
  ie11: +1 x7 >= -2
  ie12: -1 x4 -1 x6 +1 x14 >= 1
  ie13: +1 x2 >= -3
  ie14: +1 x11 >= -2
  ie15: -1 x1 -1 x5 +1 x15 >= 0
END

0.002 sec
[5 ph, smt 0.026, isect 0.113, ins 0.010, tot 0.269]

Running SMT solver (10)... 0.002 sec
Found point (-1,-3,-2,-2,-1,0,-2,-1,0,-1,-1,-1,0,0,-1,-2)
Checking... Minimizing (14,50)... (14,9), 0.010 sec
Inserting... 

MAXIMIZE
Subject To
  eq0: -1 x4 -1 x6 +1 x11 = 1
  eq1: -1 x16 = 2
  eq2: -1 x1 -1 x5 +1 x10 = 1
  eq3: -1 x2 = 3
  eq4: -1 x1 -1 x5 +1 x9 = 2
  eq5: -1 x2 -1 x5 +1 x7 = 2
  eq6: -1 x4 -1 x6 +1 x12 = 1
  eq7: -1 x7 = 2
  eq8: -1 x2 -1 x6 +1 x12 = 2
  eq9: -1 x3 -1 x6 +1 x14 = 2
  eq10: -1 x11 +1 x13 = 1
  eq11: +1 x14 -1 x15 = 1
  eq12: +1 x12 -1 x16 = 1
  eq13: -1 x3 -1 x5 +1 x8 = 2
  ie0: -1 x3 -1 x5 +1 x13 >= 2
  ie1: +1 x1 +1 x6 -1 x14 >= -3
  ie2: +1 x1 +1 x6 -1 x12 >= -3
  ie3: +1 x1 -1 x2 >= 1
  ie4: +1 x9 >= -2
  ie5: +1 x3 +1 x6 -1 x11 >= -1
  ie6: +1 x8 >= -2
  ie7: -1 x1 -1 x5 +1 x16 >= 0
  ie8: -1 x1 -1 x5 +1 x15 >= 0
END

0.000 sec
[6 ph, smt 0.028, isect 0.123, ins 0.010, tot 0.290]

Running SMT solver (11)... 0.003 sec
Found point (-1,-3,-9/4,-9/4,-1,0,-2,-5/4,0,-1,-5/4,-1,-1/4,-1/4,-5/4,-2)
Checking... Minimizing (13,50)... (13,12), 0.011 sec
Inserting... 

MAXIMIZE
Subject To
  eq0: -1 x4 -1 x6 +1 x11 = 1
  eq1: -1 x16 = 2
  eq2: -1 x1 -1 x5 +1 x10 = 1
  eq3: -1 x2 = 3
  eq4: -1 x3 -1 x5 +1 x8 = 2
  eq5: -1 x1 -1 x5 +1 x9 = 2
  eq6: -1 x7 = 2
  eq7: -1 x2 -1 x6 +1 x12 = 2
  eq8: -1 x3 -1 x6 +1 x14 = 2
  eq9: -1 x11 +1 x13 = 1
  eq10: +1 x14 -1 x15 = 1
  eq11: +1 x12 -1 x16 = 1
  eq12: -1 x2 -1 x5 +1 x7 = 2
  ie0: -1 x3 -1 x5 +1 x13 >= 2
  ie1: +1 x1 +1 x6 -1 x14 >= -3
  ie2: +1 x1 +1 x6 -1 x12 >= -3
  ie3: +1 x4 >= -3
  ie4: +1 x1 -1 x2 >= 1
  ie5: +1 x9 >= -2
  ie6: +1 x3 +1 x6 -1 x11 >= -1
  ie7: +1 x8 >= -2
  ie8: -1 x1 -1 x5 +1 x16 >= 0
  ie9: -1 x4 -1 x6 +1 x7 >= -1
  ie10: -1 x4 -1 x6 +1 x12 >= 1
  ie11: -1 x1 -1 x5 +1 x15 >= 0
END

0.001 sec
[6 ph, smt 0.032, isect 0.134, ins 0.011, tot 0.316]

Running SMT solver (12)... 0.002 sec
Found point (-1,-3,-7/4,-7/4,-1,0,-2,-3/4,0,-1,-3/4,-1,1/4,1/4,-3/4,-2)
Checking... Minimizing (13,49)... (13,11), 0.011 sec
Inserting... 

MAXIMIZE
Subject To
  eq0: -1 x4 -1 x6 +1 x11 = 1
  eq1: -1 x16 = 2
  eq2: -1 x1 -1 x5 +1 x10 = 1
  eq3: -1 x2 = 3
  eq4: -1 x3 -1 x5 +1 x8 = 2
  eq5: -1 x1 -1 x5 +1 x9 = 2
  eq6: -1 x7 = 2
  eq7: -1 x2 -1 x6 +1 x12 = 2
  eq8: -1 x3 -1 x6 +1 x14 = 2
  eq9: -1 x11 +1 x13 = 1
  eq10: +1 x14 -1 x15 = 1
  eq11: +1 x12 -1 x16 = 1
  eq12: -1 x2 -1 x5 +1 x7 = 2
  ie0: -1 x3 -1 x5 +1 x13 >= 2
  ie1: +1 x1 +1 x6 -1 x14 >= -3
  ie2: +1 x1 +1 x6 -1 x12 >= -3
  ie3: +1 x1 -1 x2 >= 1
  ie4: +1 x9 >= -2
  ie5: -1 x2 +1 x4 >= 1
  ie6: -1 x2 -1 x6 +1 x14 >= 2
  ie7: -1 x1 -1 x5 +1 x16 >= 0
  ie8: -1 x4 -1 x6 +1 x8 >= 1
  ie9: -1 x4 -1 x6 +1 x7 >= -1
  ie10: -1 x1 -1 x5 +1 x15 >= 0
END

0.000 sec
[7 ph, smt 0.033, isect 0.145, ins 0.012, tot 0.338]

Running SMT solver (13)... 0.002 sec
Found point (-1/6,-2,-11/6,-3,-2,0,-2,-11/6,-1/6,-7/6,-2,0,-1,1/6,-5/6,-1)
Checking... Minimizing (13,50)... (13,13), 0.012 sec
Inserting... 

MAXIMIZE
Subject To
  eq0: -1 x4 -1 x6 +1 x11 = 1
  eq1: -1 x11 = 2
  eq2: -1 x1 -1 x5 +1 x10 = 1
  eq3: -1 x4 = 3
  eq4: -1 x3 -1 x5 +1 x8 = 2
  eq5: -1 x1 -1 x5 +1 x9 = 2
  eq6: -1 x7 = 2
  eq7: -1 x2 -1 x6 +1 x12 = 2
  eq8: -1 x3 -1 x6 +1 x14 = 2
  eq9: -1 x11 +1 x13 = 1
  eq10: +1 x14 -1 x15 = 1
  eq11: +1 x12 -1 x16 = 1
  eq12: -1 x2 -1 x5 +1 x7 = 2
  ie0: -1 x3 -1 x5 +1 x13 >= 2
  ie1: +1 x1 +1 x6 -1 x14 >= -3
  ie2: +1 x1 +1 x6 -1 x12 >= -3
  ie3: +1 x15 >= -2
  ie4: +1 x1 -1 x2 >= 1
  ie5: +1 x9 >= -2
  ie6: +1 x2 >= -3
  ie7: +1 x8 >= -2
  ie8: -1 x1 -1 x5 +1 x16 >= 0
  ie9: +1 x14 >= -2
  ie10: +1 x16 >= -3
  ie11: +1 x5 >= -2
  ie12: -1 x1 -1 x5 +1 x15 >= 0
END

0.000 sec
[8 ph, smt 0.036, isect 0.157, ins 0.012, tot 0.362]

Running SMT solver (14)... 0.003 sec
Found point (-1,-1,-2,-3,-2,0,-1,-2,-1,-2,-2,1,-1,0,-1,0)
Checking... Minimizing (14,50)... (14,6), 0.011 sec
Inserting... 

MAXIMIZE
Subject To
  eq0: -1 x4 -1 x6 +1 x11 = 1
  eq1: -1 x11 = 2
  eq2: -1 x1 -1 x5 +1 x10 = 1
  eq3: -1 x4 = 3
  eq4: -1 x3 -1 x5 +1 x8 = 2
  eq5: -1 x1 -1 x5 +1 x9 = 2
  eq6: -1 x2 -1 x5 +1 x9 = 2
  eq7: -1 x10 = 2
  eq8: -1 x2 -1 x6 +1 x12 = 2
  eq9: -1 x3 -1 x6 +1 x14 = 2
  eq10: -1 x11 +1 x13 = 1
  eq11: +1 x14 -1 x15 = 1
  eq12: +1 x12 -1 x16 = 1
  eq13: -1 x2 -1 x5 +1 x7 = 2
  ie0: -1 x3 -1 x5 +1 x14 >= 2
  ie1: -1 x3 -1 x5 +1 x13 >= 2
  ie2: +1 x15 >= -2
  ie3: +1 x8 >= -2
  ie4: +1 x14 >= -2
  ie5: +1 x5 >= -2
END

0.000 sec
[9 ph, smt 0.038, isect 0.167, ins 0.012, tot 0.385]

Running SMT solver (15)... 0.001 sec
Found point (-1,-5/4,-2,-3,-2,0,-5/4,-2,-1,-2,-2,3/4,-1,0,-1,-1/4)
Checking... Minimizing (13,50)... (13,13), 0.011 sec
Inserting... 

MAXIMIZE
Subject To
  eq0: -1 x4 -1 x6 +1 x11 = 1
  eq1: -1 x11 = 2
  eq2: -1 x1 -1 x5 +1 x10 = 1
  eq3: -1 x4 = 3
  eq4: -1 x3 -1 x5 +1 x8 = 2
  eq5: -1 x1 -1 x5 +1 x9 = 2
  eq6: -1 x10 = 2
  eq7: -1 x2 -1 x6 +1 x12 = 2
  eq8: -1 x3 -1 x6 +1 x14 = 2
  eq9: -1 x11 +1 x13 = 1
  eq10: +1 x14 -1 x15 = 1
  eq11: +1 x12 -1 x16 = 1
  eq12: -1 x2 -1 x5 +1 x7 = 2
  ie0: -1 x3 -1 x5 +1 x14 >= 2
  ie1: +1 x7 >= -3
  ie2: -1 x3 -1 x5 +1 x13 >= 2
  ie3: +1 x1 +1 x6 -1 x12 >= -3
  ie4: +1 x15 >= -2
  ie5: +1 x2 >= -3
  ie6: -1 x2 -1 x5 +1 x9 >= 2
  ie7: +1 x8 >= -2
  ie8: +1 x7 >= -2
  ie9: +1 x14 >= -2
  ie10: +1 x16 >= -3
  ie11: +1 x5 >= -2
  ie12: -1 x4 -1 x6 +1 x7 >= -1
END

0.002 sec
[9 ph, smt 0.040, isect 0.179, ins 0.013, tot 0.409]

Running SMT solver (16)... 0.001 sec
Found point (-3/4,-3/4,-2,-3,-2,0,-3/4,-2,-3/4,-7/4,-2,5/4,-1,0,-1,1/4)
Checking... Minimizing (14,51)... (14,7), 0.011 sec
Inserting... 

MAXIMIZE
Subject To
  eq0: -1 x4 -1 x6 +1 x11 = 1
  eq1: -1 x11 = 2
  eq2: -1 x1 -1 x5 +1 x10 = 1
  eq3: -1 x4 = 3
  eq4: -1 x3 -1 x5 +1 x8 = 2
  eq5: -1 x1 -1 x5 +1 x9 = 2
  eq6: -1 x2 -1 x5 +1 x9 = 2
  eq7: -1 x8 = 2
  eq8: -1 x2 -1 x6 +1 x12 = 2
  eq9: -1 x3 -1 x6 +1 x14 = 2
  eq10: -1 x11 +1 x13 = 1
  eq11: +1 x14 -1 x15 = 1
  eq12: +1 x12 -1 x16 = 1
  eq13: -1 x2 -1 x5 +1 x7 = 2
  ie0: +1 x1 +1 x6 -1 x14 >= -3
  ie1: +1 x15 >= -2
  ie2: +1 x5 >= -2
  ie3: +1 x1 -1 x3 >= 1
  ie4: +1 x9 >= -2
  ie5: +1 x14 >= -2
  ie6: -1 x1 -1 x5 +1 x15 >= 0
END

0.000 sec
[10 ph, smt 0.041, isect 0.190, ins 0.013, tot 0.432]

Running SMT solver (17)... 0.001 sec
Found point (-3/4,-1,-2,-3,-2,0,-1,-2,-3/4,-7/4,-2,1,-1,0,-1,0)
Checking... Minimizing (13,51)... (13,13), 0.012 sec
Inserting... 

MAXIMIZE
Subject To
  eq0: -1 x4 -1 x6 +1 x11 = 1
  eq1: -1 x11 = 2
  eq2: -1 x1 -1 x5 +1 x10 = 1
  eq3: -1 x4 = 3
  eq4: -1 x3 -1 x5 +1 x8 = 2
  eq5: -1 x1 -1 x5 +1 x9 = 2
  eq6: -1 x8 = 2
  eq7: -1 x2 -1 x6 +1 x12 = 2
  eq8: -1 x3 -1 x6 +1 x14 = 2
  eq9: -1 x11 +1 x13 = 1
  eq10: +1 x14 -1 x15 = 1
  eq11: +1 x12 -1 x16 = 1
  eq12: -1 x2 -1 x5 +1 x7 = 2
  ie0: +1 x7 >= -3
  ie1: +1 x1 +1 x6 -1 x14 >= -3
  ie2: +1 x1 +1 x6 -1 x12 >= -3
  ie3: +1 x15 >= -2
  ie4: +1 x1 -1 x3 >= 1
  ie5: +1 x9 >= -2
  ie6: -1 x2 -1 x5 +1 x9 >= 2
  ie7: +1 x7 >= -2
  ie8: +1 x14 >= -2
  ie9: +1 x16 >= -3
  ie10: +1 x5 >= -2
  ie11: -1 x4 -1 x6 +1 x7 >= -1
  ie12: -1 x1 -1 x5 +1 x15 >= 0
END

0.003 sec
[9 ph, smt 0.042, isect 0.202, ins 0.017, tot 0.459]

Running SMT solver (18)... 0.002 sec
Found point (0,0,-1,-3,-2,0,0,-1,0,-1,-2,2,-1,1,0,1)
Checking... Minimizing (15,50)... (15,4), 0.010 sec
Inserting... 

MAXIMIZE
Subject To
  eq0: -1 x4 -1 x6 +1 x11 = 1
  eq1: -1 x3 -1 x5 +1 x13 = 2
  eq2: -1 x11 = 2
  eq3: -1 x5 = 2
  eq4: -1 x1 -1 x5 +1 x10 = 1
  eq5: -1 x4 = 3
  eq6: -1 x3 -1 x5 +1 x8 = 2
  eq7: -1 x1 -1 x5 +1 x9 = 2
  eq8: -1 x2 -1 x5 +1 x9 = 2
  eq9: -1 x2 -1 x6 +1 x12 = 2
  eq10: -1 x3 -1 x6 +1 x14 = 2
  eq11: -1 x11 +1 x13 = 1
  eq12: +1 x14 -1 x15 = 1
  eq13: +1 x12 -1 x16 = 1
  eq14: -1 x2 -1 x5 +1 x7 = 2
  ie0: -1 x1 -1 x5 +1 x8 >= 1
  ie1: +1 x10 >= -2
  ie2: +1 x1 +1 x6 -1 x14 >= -3
  ie3: -1 x1 -1 x5 +1 x15 >= 0
END

0.000 sec
[10 ph, smt 0.044, isect 0.212, ins 0.017, tot 0.480]

Running SMT solver (19)... 0.001 sec
Found point (1/4,1/4,-1,-3,-2,0,1/4,-1,1/4,-3/4,-2,9/4,-1,1,0,5/4)
Checking... Minimizing (15,51)... (15,4), 0.010 sec
Inserting... 

MAXIMIZE
Subject To
  eq0: -1 x4 -1 x6 +1 x11 = 1
  eq1: -1 x3 -1 x5 +1 x13 = 2
  eq2: -1 x11 = 2
  eq3: -1 x5 = 2
  eq4: -1 x1 -1 x5 +1 x10 = 1
  eq5: -1 x4 = 3
  eq6: -1 x3 -1 x5 +1 x8 = 2
  eq7: -1 x1 -1 x5 +1 x9 = 2
  eq8: -1 x2 -1 x5 +1 x9 = 2
  eq9: -1 x2 -1 x6 +1 x12 = 2
  eq10: -1 x3 -1 x6 +1 x14 = 2
  eq11: -1 x11 +1 x13 = 1
  eq12: +1 x14 -1 x15 = 1
  eq13: +1 x12 -1 x16 = 1
  eq14: -1 x2 -1 x5 +1 x7 = 2
  ie0: +1 x1 -1 x3 >= 1
  ie1: -1 x3 -1 x5 +1 x9 >= 2
  ie2: +1 x1 +1 x6 -1 x14 >= -3
  ie3: -1 x1 -1 x5 +1 x15 >= 0
END

0.001 sec
[11 ph, smt 0.046, isect 0.222, ins 0.018, tot 0.503]

Running SMT solver (20)... 0.001 sec
Found point (0,0,-5/4,-3,-2,0,0,-5/4,0,-1,-2,2,-1,3/4,-1/4,1)
Checking... Minimizing (14,51)... (14,7), 0.011 sec
Inserting... 

MAXIMIZE
Subject To
  eq0: -1 x4 -1 x6 +1 x11 = 1
  eq1: -1 x11 = 2
  eq2: -1 x5 = 2
  eq3: -1 x1 -1 x5 +1 x10 = 1
  eq4: -1 x4 = 3
  eq5: -1 x3 -1 x5 +1 x8 = 2
  eq6: -1 x1 -1 x5 +1 x9 = 2
  eq7: -1 x2 -1 x5 +1 x9 = 2
  eq8: -1 x2 -1 x6 +1 x12 = 2
  eq9: -1 x3 -1 x6 +1 x14 = 2
  eq10: -1 x11 +1 x13 = 1
  eq11: +1 x14 -1 x15 = 1
  eq12: +1 x12 -1 x16 = 1
  eq13: -1 x2 -1 x5 +1 x7 = 2
  ie0: -1 x3 -1 x5 +1 x13 >= 2
  ie1: -1 x3 -1 x5 +1 x9 >= 2
  ie2: +1 x1 +1 x6 -1 x14 >= -3
  ie3: +1 x8 >= -2
  ie4: +1 x1 -1 x3 >= 1
  ie5: +1 x9 >= -2
  ie6: -1 x1 -1 x5 +1 x15 >= 0
END

0.002 sec
[11 ph, smt 0.047, isect 0.234, ins 0.020, tot 0.528]

Running SMT solver (21)... 0.002 sec
Found point (-1/3,-1/3,-7/6,-3,-2,0,-1/3,-7/6,-1/3,-4/3,-2,5/3,-1,5/6,-1/6,2/3)
Checking... Minimizing (14,50)... (14,7), 0.011 sec
Inserting... 

MAXIMIZE
Subject To
  eq0: -1 x4 -1 x6 +1 x11 = 1
  eq1: -1 x11 = 2
  eq2: -1 x5 = 2
  eq3: -1 x1 -1 x5 +1 x10 = 1
  eq4: -1 x4 = 3
  eq5: -1 x3 -1 x5 +1 x8 = 2
  eq6: -1 x1 -1 x5 +1 x9 = 2
  eq7: -1 x2 -1 x5 +1 x9 = 2
  eq8: -1 x2 -1 x6 +1 x12 = 2
  eq9: -1 x3 -1 x6 +1 x14 = 2
  eq10: -1 x11 +1 x13 = 1
  eq11: +1 x14 -1 x15 = 1
  eq12: +1 x12 -1 x16 = 1
  eq13: -1 x2 -1 x5 +1 x7 = 2
  ie0: -1 x3 -1 x5 +1 x13 >= 2
  ie1: +1 x1 +1 x6 -1 x14 >= -3
  ie2: +1 x10 >= -2
  ie3: +1 x8 >= -2
  ie4: -1 x1 -1 x5 +1 x8 >= 1
  ie5: +1 x9 >= -2
  ie6: -1 x1 -1 x5 +1 x15 >= 0
END

0.001 sec
[11 ph, smt 0.049, isect 0.245, ins 0.021, tot 0.551]

Running SMT solver (22)... 0.002 sec
Found point (-1/3,-1/2,-7/6,-3,-2,0,-1/2,-7/6,-1/3,-4/3,-2,3/2,-1,5/6,-1/6,1/2)
Checking... Minimizing (13,50)... (13,13), 0.012 sec
Inserting... 

MAXIMIZE
Subject To
  eq0: -1 x4 -1 x6 +1 x11 = 1
  eq1: -1 x11 = 2
  eq2: -1 x5 = 2
  eq3: -1 x1 -1 x5 +1 x10 = 1
  eq4: -1 x4 = 3
  eq5: -1 x3 -1 x5 +1 x8 = 2
  eq6: -1 x1 -1 x5 +1 x9 = 2
  eq7: -1 x2 -1 x6 +1 x12 = 2
  eq8: -1 x3 -1 x6 +1 x14 = 2
  eq9: -1 x11 +1 x13 = 1
  eq10: +1 x14 -1 x15 = 1
  eq11: +1 x12 -1 x16 = 1
  eq12: -1 x2 -1 x5 +1 x7 = 2
  ie0: +1 x7 >= -3
  ie1: -1 x3 -1 x5 +1 x13 >= 2
  ie2: -1 x1 -1 x5 +1 x8 >= 1
  ie3: +1 x1 +1 x6 -1 x14 >= -3
  ie4: +1 x1 +1 x6 -1 x12 >= -3
  ie5: +1 x10 >= -2
  ie6: +1 x9 >= -2
  ie7: -1 x2 -1 x5 +1 x9 >= 2
  ie8: +1 x8 >= -2
  ie9: +1 x7 >= -2
  ie10: -1 x1 -1 x5 +1 x7 >= 1
  ie11: +1 x16 >= -3
  ie12: -1 x1 -1 x5 +1 x15 >= 0
END

0.002 sec
[11 ph, smt 0.051, isect 0.257, ins 0.023, tot 0.578]

Running SMT solver (23)... 0.002 sec
Found point (-1/4,-11/8,-9/8,-3,-2,0,-11/8,-9/8,-1/4,-5/4,-2,5/8,-1,7/8,-1/8,-3/8)
Checking... Minimizing (13,50)... (13,12), 0.012 sec
Inserting... 

MAXIMIZE
Subject To
  eq0: -1 x4 -1 x6 +1 x11 = 1
  eq1: -1 x11 = 2
  eq2: -1 x5 = 2
  eq3: -1 x1 -1 x5 +1 x10 = 1
  eq4: -1 x4 = 3
  eq5: -1 x3 -1 x5 +1 x8 = 2
  eq6: -1 x1 -1 x5 +1 x9 = 2
  eq7: -1 x2 -1 x6 +1 x12 = 2
  eq8: -1 x3 -1 x6 +1 x14 = 2
  eq9: -1 x11 +1 x13 = 1
  eq10: +1 x14 -1 x15 = 1
  eq11: +1 x12 -1 x16 = 1
  eq12: -1 x2 -1 x5 +1 x7 = 2
  ie0: +1 x7 >= -3
  ie1: -1 x3 -1 x5 +1 x13 >= 2
  ie2: +1 x1 +1 x6 -1 x14 >= -3
  ie3: +1 x1 +1 x6 -1 x12 >= -3
  ie4: +1 x1 -1 x2 >= 1
  ie5: +1 x9 >= -2
  ie6: +1 x8 >= -2
  ie7: +1 x7 >= -2
  ie8: -1 x1 -1 x5 +1 x16 >= 0
  ie9: +1 x16 >= -3
  ie10: -1 x2 -1 x5 +1 x8 >= 2
  ie11: -1 x1 -1 x5 +1 x15 >= 0
END

0.002 sec
[12 ph, smt 0.052, isect 0.269, ins 0.025, tot 0.604]

Running SMT solver (24)... 0.002 sec
Found point (0,-1,-5/4,-3,-2,0,-1,-5/4,0,-1,-2,1,-1,3/4,-1/4,0)
Checking... Minimizing (13,51)... (13,13), 0.012 sec
Inserting... 

MAXIMIZE
Subject To
  eq0: -1 x4 -1 x6 +1 x11 = 1
  eq1: -1 x11 = 2
  eq2: -1 x5 = 2
  eq3: -1 x1 -1 x5 +1 x10 = 1
  eq4: -1 x4 = 3
  eq5: -1 x3 -1 x5 +1 x8 = 2
  eq6: -1 x1 -1 x5 +1 x9 = 2
  eq7: -1 x2 -1 x6 +1 x12 = 2
  eq8: -1 x3 -1 x6 +1 x14 = 2
  eq9: -1 x11 +1 x13 = 1
  eq10: +1 x14 -1 x15 = 1
  eq11: +1 x12 -1 x16 = 1
  eq12: -1 x2 -1 x5 +1 x7 = 2
  ie0: +1 x7 >= -3
  ie1: -1 x3 -1 x5 +1 x13 >= 2
  ie2: +1 x1 +1 x6 -1 x14 >= -3
  ie3: +1 x1 +1 x6 -1 x12 >= -3
  ie4: +1 x1 -1 x3 >= 1
  ie5: +1 x9 >= -2
  ie6: -1 x3 -1 x5 +1 x9 >= 2
  ie7: -1 x2 -1 x5 +1 x9 >= 2
  ie8: +1 x8 >= -2
  ie9: +1 x7 >= -2
  ie10: +1 x16 >= -3
  ie11: -1 x3 -1 x5 +1 x7 >= 2
  ie12: -1 x1 -1 x5 +1 x15 >= 0
END

0.003 sec
[12 ph, smt 0.054, isect 0.281, ins 0.029, tot 0.631]

Running SMT solver (25)... 0.003 sec
Found point (-11/4,-3,-2,-9/4,-1/4,0,-5/4,-1/4,-1,-2,-5/4,-1,-1/4,0,-1,-2)
Checking... Minimizing (14,50)... (14,10), 0.011 sec
Inserting... 

MAXIMIZE
Subject To
  eq0: -1 x4 -1 x6 +1 x11 = 1
  eq1: -1 x3 -1 x5 +1 x13 = 2
  eq2: -1 x16 = 2
  eq3: -1 x1 -1 x5 +1 x10 = 1
  eq4: -1 x2 = 3
  eq5: -1 x3 -1 x5 +1 x8 = 2
  eq6: -1 x1 -1 x5 +1 x9 = 2
  eq7: -1 x10 = 2
  eq8: -1 x2 -1 x6 +1 x12 = 2
  eq9: -1 x3 -1 x6 +1 x14 = 2
  eq10: -1 x11 +1 x13 = 1
  eq11: +1 x14 -1 x15 = 1
  eq12: +1 x12 -1 x16 = 1
  eq13: -1 x2 -1 x5 +1 x7 = 2
  ie0: -1 x3 -1 x5 +1 x14 >= 2
  ie1: +1 x7 >= -3
  ie2: +1 x1 +1 x6 -1 x14 >= -3
  ie3: +1 x1 +1 x6 -1 x12 >= -3
  ie4: +1 x15 >= -2
  ie5: +1 x4 >= -3
  ie6: +1 x8 >= -2
  ie7: +1 x7 >= -2
  ie8: +1 x14 >= -2
  ie9: -1 x4 -1 x6 +1 x7 >= -1
END

0.000 sec
[13 ph, smt 0.056, isect 0.292, ins 0.029, tot 0.655]

Running SMT solver (26)... 0.002 sec
Found point (-11/4,-3,-2,-2,-1/4,0,-5/4,-1/4,-1,-2,-1,-1,0,0,-1,-2)
Checking... Minimizing (14,50)... (14,9), 0.010 sec
Inserting... 

MAXIMIZE
Subject To
  eq0: -1 x4 -1 x6 +1 x11 = 1
  eq1: -1 x16 = 2
  eq2: -1 x1 -1 x5 +1 x10 = 1
  eq3: -1 x2 = 3
  eq4: -1 x1 -1 x5 +1 x9 = 2
  eq5: -1 x2 -1 x5 +1 x7 = 2
  eq6: -1 x4 -1 x6 +1 x12 = 1
  eq7: -1 x10 = 2
  eq8: -1 x2 -1 x6 +1 x12 = 2
  eq9: -1 x3 -1 x6 +1 x14 = 2
  eq10: -1 x11 +1 x13 = 1
  eq11: +1 x14 -1 x15 = 1
  eq12: +1 x12 -1 x16 = 1
  eq13: -1 x3 -1 x5 +1 x8 = 2
  ie0: -1 x3 -1 x5 +1 x14 >= 2
  ie1: -1 x3 -1 x5 +1 x13 >= 2
  ie2: +1 x1 +1 x6 -1 x12 >= -3
  ie3: +1 x3 +1 x6 -1 x11 >= -1
  ie4: +1 x8 >= -2
  ie5: +1 x7 >= -2
  ie6: +1 x14 >= -2
  ie7: -1 x4 -1 x6 +1 x7 >= -1
  ie8: -1 x4 -1 x6 +1 x8 >= 1
END

0.000 sec
[14 ph, smt 0.058, isect 0.303, ins 0.029, tot 0.677]

Running SMT solver (27)... 0.001 sec
Found point (-17/6,-3,-13/6,-13/6,-1/6,0,-7/6,-1/3,-1,-2,-7/6,-1,-1/6,-1/6,-7/6,-2)
Checking... Minimizing (13,50)... (13,14), 0.012 sec
Inserting... 

MAXIMIZE
Subject To
  eq0: -1 x4 -1 x6 +1 x11 = 1
  eq1: -1 x16 = 2
  eq2: -1 x1 -1 x5 +1 x10 = 1
  eq3: -1 x2 = 3
  eq4: -1 x3 -1 x5 +1 x8 = 2
  eq5: -1 x1 -1 x5 +1 x9 = 2
  eq6: -1 x10 = 2
  eq7: -1 x2 -1 x6 +1 x12 = 2
  eq8: -1 x3 -1 x6 +1 x14 = 2
  eq9: -1 x11 +1 x13 = 1
  eq10: +1 x14 -1 x15 = 1
  eq11: +1 x12 -1 x16 = 1
  eq12: -1 x2 -1 x5 +1 x7 = 2
  ie0: -1 x3 -1 x5 +1 x14 >= 2
  ie1: +1 x7 >= -3
  ie2: -1 x3 -1 x5 +1 x13 >= 2
  ie3: +1 x1 +1 x6 -1 x14 >= -3
  ie4: +1 x1 +1 x6 -1 x12 >= -3
  ie5: +1 x15 >= -2
  ie6: +1 x4 >= -3
  ie7: +1 x3 +1 x6 -1 x11 >= -1
  ie8: -1 x4 -1 x6 +1 x12 >= 1
  ie9: +1 x8 >= -2
  ie10: +1 x7 >= -2
  ie11: +1 x14 >= -2
  ie12: -1 x4 -1 x6 +1 x7 >= -1
  ie13: -1 x4 -1 x6 +1 x8 >= 1
END

0.003 sec
[13 ph, smt 0.059, isect 0.315, ins 0.032, tot 0.703]

Running SMT solver (28)... 0.002 sec
Found point (-8/3,-3,-11/6,-11/6,-1/3,0,-4/3,-1/6,-1,-2,-5/6,-1,1/6,1/6,-5/6,-2)
Checking... Minimizing (13,50)... (13,12), 0.011 sec
Inserting... 

MAXIMIZE
Subject To
  eq0: -1 x4 -1 x6 +1 x11 = 1
  eq1: -1 x16 = 2
  eq2: -1 x1 -1 x5 +1 x10 = 1
  eq3: -1 x2 = 3
  eq4: -1 x3 -1 x5 +1 x8 = 2
  eq5: -1 x1 -1 x5 +1 x9 = 2
  eq6: -1 x10 = 2
  eq7: -1 x2 -1 x6 +1 x12 = 2
  eq8: -1 x3 -1 x6 +1 x14 = 2
  eq9: -1 x11 +1 x13 = 1
  eq10: +1 x14 -1 x15 = 1
  eq11: +1 x12 -1 x16 = 1
  eq12: -1 x2 -1 x5 +1 x7 = 2
  ie0: -1 x3 -1 x5 +1 x14 >= 2
  ie1: +1 x7 >= -3
  ie2: -1 x3 -1 x5 +1 x13 >= 2
  ie3: +1 x1 +1 x6 -1 x14 >= -3
  ie4: +1 x1 +1 x6 -1 x12 >= -3
  ie5: -1 x2 +1 x4 >= 1
  ie6: +1 x3 +1 x6 -1 x11 >= -1
  ie7: -1 x2 -1 x6 +1 x14 >= 2
  ie8: +1 x8 >= -2
  ie9: +1 x7 >= -2
  ie10: -1 x4 -1 x6 +1 x8 >= 1
  ie11: -1 x4 -1 x6 +1 x7 >= -1
END

0.000 sec
[14 ph, smt 0.061, isect 0.326, ins 0.032, tot 0.726]

Running SMT solver (29)... 0.003 sec
Found point (-3,-3,-13/6,-11/6,0,0,-1,-1/6,-1,-2,-5/6,-1,-1/6,-1/6,-7/6,-2)
Checking... Minimizing (13,50)... (13,10), 0.011 sec
Inserting... 

MAXIMIZE
Subject To
  eq0: -1 x4 -1 x6 +1 x11 = 1
  eq1: -1 x16 = 2
  eq2: -1 x1 -1 x5 +1 x10 = 1
  eq3: -1 x2 = 3
  eq4: -1 x3 -1 x5 +1 x8 = 2
  eq5: -1 x1 -1 x5 +1 x9 = 2
  eq6: -1 x10 = 2
  eq7: -1 x2 -1 x6 +1 x12 = 2
  eq8: -1 x3 -1 x6 +1 x14 = 2
  eq9: -1 x3 -1 x6 +1 x13 = 2
  eq10: +1 x14 -1 x15 = 1
  eq11: +1 x12 -1 x16 = 1
  eq12: -1 x2 -1 x5 +1 x7 = 2
  ie0: +1 x7 >= -3
  ie1: +1 x5 -1 x6 >= 0
  ie2: +1 x1 +1 x6 -1 x14 >= -3
  ie3: +1 x1 +1 x6 -1 x12 >= -3
  ie4: -1 x2 +1 x4 >= 1
  ie5: +1 x1 >= -3
  ie6: -1 x2 -1 x6 +1 x14 >= 2
  ie7: +1 x8 >= -2
  ie8: -1 x4 -1 x6 +1 x8 >= 1
  ie9: -1 x4 -1 x6 +1 x7 >= -1
END

0.000 sec
[15 ph, smt 0.063, isect 0.337, ins 0.032, tot 0.750]

Running SMT solver (30)... 0.002 sec
Found point (-17/6,-3,-2,-11/6,-1/6,0,-7/6,-1/6,-1,-2,-5/6,-1,0,0,-1,-2)
Checking... Minimizing (13,50)... (13,10), 0.011 sec
Inserting... 

MAXIMIZE
Subject To
  eq0: -1 x4 -1 x6 +1 x11 = 1
  eq1: -1 x16 = 2
  eq2: -1 x1 -1 x5 +1 x10 = 1
  eq3: -1 x2 = 3
  eq4: -1 x3 -1 x5 +1 x8 = 2
  eq5: -1 x1 -1 x5 +1 x9 = 2
  eq6: -1 x10 = 2
  eq7: -1 x2 -1 x6 +1 x12 = 2
  eq8: -1 x3 -1 x6 +1 x14 = 2
  eq9: -1 x3 -1 x6 +1 x13 = 2
  eq10: +1 x14 -1 x15 = 1
  eq11: +1 x12 -1 x16 = 1
  eq12: -1 x2 -1 x5 +1 x7 = 2
  ie0: +1 x7 >= -3
  ie1: -1 x3 -1 x5 +1 x13 >= 2
  ie2: +1 x1 +1 x6 -1 x14 >= -3
  ie3: -1 x2 +1 x4 >= 1
  ie4: -1 x3 -1 x6 +1 x11 >= 1
  ie5: -1 x2 -1 x6 +1 x14 >= 2
  ie6: +1 x8 >= -2
  ie7: +1 x7 >= -2
  ie8: -1 x4 -1 x6 +1 x8 >= 1
  ie9: -1 x4 -1 x6 +1 x7 >= -1
END

0.003 sec
[15 ph, smt 0.065, isect 0.348, ins 0.035, tot 0.775]

Running SMT solver (31)... 0.002 sec
Found point (-23/8,-3,-9/4,-17/8,-1/8,0,-9/8,-3/8,-1,-2,-9/8,-1,-1/4,-1/4,-5/4,-2)
Checking... Minimizing (13,50)... (13,11), 0.012 sec
Inserting... 

MAXIMIZE
Subject To
  eq0: -1 x4 -1 x6 +1 x11 = 1
  eq1: -1 x16 = 2
  eq2: -1 x1 -1 x5 +1 x10 = 1
  eq3: -1 x2 = 3
  eq4: -1 x3 -1 x5 +1 x8 = 2
  eq5: -1 x1 -1 x5 +1 x9 = 2
  eq6: -1 x10 = 2
  eq7: -1 x2 -1 x6 +1 x12 = 2
  eq8: -1 x3 -1 x6 +1 x14 = 2
  eq9: -1 x3 -1 x6 +1 x13 = 2
  eq10: +1 x14 -1 x15 = 1
  eq11: +1 x12 -1 x16 = 1
  eq12: -1 x2 -1 x5 +1 x7 = 2
  ie0: +1 x7 >= -3
  ie1: -1 x3 -1 x5 +1 x13 >= 2
  ie2: +1 x1 +1 x6 -1 x14 >= -3
  ie3: +1 x15 >= -2
  ie4: +1 x4 >= -3
  ie5: -1 x3 -1 x6 +1 x11 >= 1
  ie6: +1 x8 >= -2
  ie7: +1 x7 >= -2
  ie8: -1 x4 -1 x6 +1 x8 >= 1
  ie9: -1 x4 -1 x6 +1 x7 >= -1
  ie10: -1 x4 -1 x6 +1 x12 >= 1
END

0.002 sec
[16 ph, smt 0.067, isect 0.360, ins 0.036, tot 0.800]

Running SMT solver (32)... 0.002 sec
Found point (-23/8,-23/8,-3,-17/8,-1/8,0,-1,-9/8,-1,-2,-9/8,-7/8,-1,-1,-2,-15/8)
Checking... Minimizing (14,50)... (14,5), 0.011 sec
Inserting... 

MAXIMIZE
Subject To
  eq0: -1 x4 -1 x6 +1 x11 = 1
  eq1: -1 x1 -1 x5 +1 x10 = 1
  eq2: -1 x3 = 3
  eq3: -1 x3 -1 x5 +1 x8 = 2
  eq4: -1 x1 -1 x5 +1 x9 = 2
  eq5: -1 x2 -1 x5 +1 x9 = 2
  eq6: -1 x15 = 2
  eq7: -1 x2 -1 x6 +1 x12 = 2
  eq8: -1 x3 -1 x6 +1 x14 = 2
  eq9: -1 x3 -1 x6 +1 x13 = 2
  eq10: -1 x10 = 2
  eq11: +1 x14 -1 x15 = 1
  eq12: +1 x12 -1 x16 = 1
  eq13: -1 x2 -1 x5 +1 x7 = 2
  ie0: -1 x3 -1 x5 +1 x13 >= 2
  ie1: +1 x8 >= -2
  ie2: +1 x4 >= -3
  ie3: -1 x4 -1 x6 +1 x8 >= 1
  ie4: -1 x4 -1 x6 +1 x7 >= -1
END

0.000 sec
[17 ph, smt 0.068, isect 0.370, ins 0.037, tot 0.823]

Running SMT solver (33)... 0.002 sec
Found point (-17/6,-35/12,-3,-13/6,-1/6,0,-13/12,-7/6,-1,-2,-7/6,-11/12,-1,-1,-2,-23/12)
Checking... Minimizing (13,50)... (13,11), 0.012 sec
Inserting... 

MAXIMIZE
Subject To
  eq0: -1 x4 -1 x6 +1 x11 = 1
  eq1: -1 x1 -1 x5 +1 x10 = 1
  eq2: -1 x3 = 3
  eq3: -1 x3 -1 x5 +1 x8 = 2
  eq4: -1 x1 -1 x5 +1 x9 = 2
  eq5: -1 x15 = 2
  eq6: -1 x2 -1 x6 +1 x12 = 2
  eq7: -1 x3 -1 x6 +1 x14 = 2
  eq8: -1 x3 -1 x6 +1 x13 = 2
  eq9: -1 x10 = 2
  eq10: +1 x14 -1 x15 = 1
  eq11: +1 x12 -1 x16 = 1
  eq12: -1 x2 -1 x5 +1 x7 = 2
  ie0: -1 x3 -1 x5 +1 x13 >= 2
  ie1: +1 x1 +1 x6 -1 x12 >= -3
  ie2: +1 x4 >= -3
  ie3: +1 x2 >= -3
  ie4: -1 x2 -1 x5 +1 x9 >= 2
  ie5: +1 x8 >= -2
  ie6: +1 x7 >= -2
  ie7: -1 x4 -1 x6 +1 x8 >= 1
  ie8: +1 x16 >= -3
  ie9: -1 x4 -1 x6 +1 x7 >= -1
  ie10: -1 x4 -1 x6 +1 x12 >= 1
END

0.002 sec
[17 ph, smt 0.070, isect 0.382, ins 0.038, tot 0.848]

Running SMT solver (34)... 0.002 sec
Found point (-3,-17/6,-8/3,-5/3,0,-1/6,-5/6,-2/3,-1,-2,-5/6,-1,-5/6,-5/6,-11/6,-2)
Checking... Minimizing (13,50)... (13,9), 0.011 sec
Inserting... 

MAXIMIZE
Subject To
  eq0: -1 x4 -1 x6 +1 x11 = 1
  eq1: -1 x16 = 2
  eq2: -1 x1 -1 x5 +1 x10 = 1
  eq3: -1 x1 = 3
  eq4: -1 x3 -1 x5 +1 x8 = 2
  eq5: -1 x1 -1 x5 +1 x9 = 2
  eq6: -1 x10 = 2
  eq7: -1 x2 -1 x6 +1 x12 = 2
  eq8: -1 x3 -1 x6 +1 x14 = 2
  eq9: -1 x3 -1 x6 +1 x13 = 2
  eq10: +1 x14 -1 x15 = 1
  eq11: +1 x12 -1 x16 = 1
  eq12: -1 x2 -1 x5 +1 x7 = 2
  ie0: +1 x7 >= -3
  ie1: +1 x5 -1 x6 >= 0
  ie2: +1 x1 +1 x6 -1 x14 >= -3
  ie3: +1 x1 +1 x6 -1 x12 >= -3
  ie4: -1 x2 +1 x4 >= 1
  ie5: -1 x2 -1 x6 +1 x14 >= 2
  ie6: +1 x8 >= -2
  ie7: -1 x4 -1 x6 +1 x8 >= 1
  ie8: -1 x4 -1 x6 +1 x7 >= -1
END

0.001 sec
[17 ph, smt 0.072, isect 0.393, ins 0.040, tot 0.873]

Running SMT solver (35)... 0.001 sec
No more solutions found



Solution:

\\\\\\\\\\\\\\\\\\\\\\\\\\\\\\\\\\\\\\\\ file 0

MAXIMIZE
Subject To
  eq0: -1 x4 -1 x6 +1 x11 = 1
  eq1: -1 x16 = 2
  eq2: -1 x1 -1 x5 +1 x10 = 1
  eq3: -1 x1 = 3
  eq4: -1 x3 -1 x5 +1 x8 = 2
  eq5: -1 x1 -1 x5 +1 x9 = 2
  eq6: -1 x10 = 2
  eq7: -1 x2 -1 x6 +1 x12 = 2
  eq8: -1 x3 -1 x6 +1 x14 = 2
  eq9: -1 x3 -1 x6 +1 x13 = 2
  eq10: +1 x14 -1 x15 = 1
  eq11: +1 x12 -1 x16 = 1
  eq12: -1 x2 -1 x5 +1 x7 = 2
  ie0: +1 x7 >= -3
  ie1: +1 x5 -1 x6 >= 0
  ie2: +1 x1 +1 x6 -1 x14 >= -3
  ie3: +1 x1 +1 x6 -1 x12 >= -3
  ie4: -1 x2 +1 x4 >= 1
  ie5: -1 x2 -1 x6 +1 x14 >= 2
  ie6: +1 x8 >= -2
  ie7: -1 x4 -1 x6 +1 x8 >= 1
  ie8: -1 x4 -1 x6 +1 x7 >= -1
END

\\\\\\\\\\\\\\\\\\\\\\\\\\\\\\\\\\\\\\\\ file 1

MAXIMIZE
Subject To
  eq0: -1 x4 -1 x6 +1 x11 = 1
  eq1: -1 x1 -1 x5 +1 x10 = 1
  eq2: -1 x3 = 3
  eq3: -1 x3 -1 x5 +1 x8 = 2
  eq4: -1 x1 -1 x5 +1 x9 = 2
  eq5: -1 x15 = 2
  eq6: -1 x2 -1 x6 +1 x12 = 2
  eq7: -1 x3 -1 x6 +1 x14 = 2
  eq8: -1 x3 -1 x6 +1 x13 = 2
  eq9: -1 x10 = 2
  eq10: +1 x14 -1 x15 = 1
  eq11: +1 x12 -1 x16 = 1
  eq12: -1 x2 -1 x5 +1 x7 = 2
  ie0: -1 x3 -1 x5 +1 x13 >= 2
  ie1: +1 x1 +1 x6 -1 x12 >= -3
  ie2: +1 x4 >= -3
  ie3: +1 x2 >= -3
  ie4: -1 x2 -1 x5 +1 x9 >= 2
  ie5: +1 x8 >= -2
  ie6: +1 x7 >= -2
  ie7: -1 x4 -1 x6 +1 x8 >= 1
  ie8: +1 x16 >= -3
  ie9: -1 x4 -1 x6 +1 x7 >= -1
  ie10: -1 x4 -1 x6 +1 x12 >= 1
END

\\\\\\\\\\\\\\\\\\\\\\\\\\\\\\\\\\\\\\\\ file 2

MAXIMIZE
Subject To
  eq0: -1 x4 -1 x6 +1 x11 = 1
  eq1: -1 x16 = 2
  eq2: -1 x1 -1 x5 +1 x10 = 1
  eq3: -1 x2 = 3
  eq4: -1 x3 -1 x5 +1 x8 = 2
  eq5: -1 x1 -1 x5 +1 x9 = 2
  eq6: -1 x10 = 2
  eq7: -1 x2 -1 x6 +1 x12 = 2
  eq8: -1 x3 -1 x6 +1 x14 = 2
  eq9: -1 x3 -1 x6 +1 x13 = 2
  eq10: +1 x14 -1 x15 = 1
  eq11: +1 x12 -1 x16 = 1
  eq12: -1 x2 -1 x5 +1 x7 = 2
  ie0: +1 x7 >= -3
  ie1: -1 x3 -1 x5 +1 x13 >= 2
  ie2: +1 x1 +1 x6 -1 x14 >= -3
  ie3: +1 x15 >= -2
  ie4: +1 x4 >= -3
  ie5: -1 x3 -1 x6 +1 x11 >= 1
  ie6: +1 x8 >= -2
  ie7: +1 x7 >= -2
  ie8: -1 x4 -1 x6 +1 x8 >= 1
  ie9: -1 x4 -1 x6 +1 x7 >= -1
  ie10: -1 x4 -1 x6 +1 x12 >= 1
END

\\\\\\\\\\\\\\\\\\\\\\\\\\\\\\\\\\\\\\\\ file 3

MAXIMIZE
Subject To
  eq0: -1 x4 -1 x6 +1 x11 = 1
  eq1: -1 x16 = 2
  eq2: -1 x1 -1 x5 +1 x10 = 1
  eq3: -1 x2 = 3
  eq4: -1 x3 -1 x5 +1 x8 = 2
  eq5: -1 x1 -1 x5 +1 x9 = 2
  eq6: -1 x10 = 2
  eq7: -1 x2 -1 x6 +1 x12 = 2
  eq8: -1 x3 -1 x6 +1 x14 = 2
  eq9: -1 x3 -1 x6 +1 x13 = 2
  eq10: +1 x14 -1 x15 = 1
  eq11: +1 x12 -1 x16 = 1
  eq12: -1 x2 -1 x5 +1 x7 = 2
  ie0: +1 x7 >= -3
  ie1: -1 x3 -1 x5 +1 x13 >= 2
  ie2: +1 x1 +1 x6 -1 x14 >= -3
  ie3: -1 x2 +1 x4 >= 1
  ie4: -1 x3 -1 x6 +1 x11 >= 1
  ie5: -1 x2 -1 x6 +1 x14 >= 2
  ie6: +1 x8 >= -2
  ie7: +1 x7 >= -2
  ie8: -1 x4 -1 x6 +1 x8 >= 1
  ie9: -1 x4 -1 x6 +1 x7 >= -1
END

\\\\\\\\\\\\\\\\\\\\\\\\\\\\\\\\\\\\\\\\ file 4

MAXIMIZE
Subject To
  eq0: -1 x4 -1 x6 +1 x11 = 1
  eq1: -1 x16 = 2
  eq2: -1 x1 -1 x5 +1 x10 = 1
  eq3: -1 x2 = 3
  eq4: -1 x3 -1 x5 +1 x8 = 2
  eq5: -1 x1 -1 x5 +1 x9 = 2
  eq6: -1 x10 = 2
  eq7: -1 x2 -1 x6 +1 x12 = 2
  eq8: -1 x3 -1 x6 +1 x14 = 2
  eq9: -1 x11 +1 x13 = 1
  eq10: +1 x14 -1 x15 = 1
  eq11: +1 x12 -1 x16 = 1
  eq12: -1 x2 -1 x5 +1 x7 = 2
  ie0: -1 x3 -1 x5 +1 x14 >= 2
  ie1: +1 x7 >= -3
  ie2: -1 x3 -1 x5 +1 x13 >= 2
  ie3: +1 x1 +1 x6 -1 x14 >= -3
  ie4: +1 x1 +1 x6 -1 x12 >= -3
  ie5: -1 x2 +1 x4 >= 1
  ie6: +1 x3 +1 x6 -1 x11 >= -1
  ie7: -1 x2 -1 x6 +1 x14 >= 2
  ie8: +1 x8 >= -2
  ie9: +1 x7 >= -2
  ie10: -1 x4 -1 x6 +1 x8 >= 1
  ie11: -1 x4 -1 x6 +1 x7 >= -1
END

\\\\\\\\\\\\\\\\\\\\\\\\\\\\\\\\\\\\\\\\ file 5

MAXIMIZE
Subject To
  eq0: -1 x4 -1 x6 +1 x11 = 1
  eq1: -1 x16 = 2
  eq2: -1 x1 -1 x5 +1 x10 = 1
  eq3: -1 x2 = 3
  eq4: -1 x3 -1 x5 +1 x8 = 2
  eq5: -1 x1 -1 x5 +1 x9 = 2
  eq6: -1 x10 = 2
  eq7: -1 x2 -1 x6 +1 x12 = 2
  eq8: -1 x3 -1 x6 +1 x14 = 2
  eq9: -1 x11 +1 x13 = 1
  eq10: +1 x14 -1 x15 = 1
  eq11: +1 x12 -1 x16 = 1
  eq12: -1 x2 -1 x5 +1 x7 = 2
  ie0: -1 x3 -1 x5 +1 x14 >= 2
  ie1: +1 x7 >= -3
  ie2: -1 x3 -1 x5 +1 x13 >= 2
  ie3: +1 x1 +1 x6 -1 x14 >= -3
  ie4: +1 x1 +1 x6 -1 x12 >= -3
  ie5: +1 x15 >= -2
  ie6: +1 x4 >= -3
  ie7: +1 x3 +1 x6 -1 x11 >= -1
  ie8: -1 x4 -1 x6 +1 x12 >= 1
  ie9: +1 x8 >= -2
  ie10: +1 x7 >= -2
  ie11: +1 x14 >= -2
  ie12: -1 x4 -1 x6 +1 x7 >= -1
  ie13: -1 x4 -1 x6 +1 x8 >= 1
END

\\\\\\\\\\\\\\\\\\\\\\\\\\\\\\\\\\\\\\\\ file 6

MAXIMIZE
Subject To
  eq0: -1 x4 -1 x6 +1 x11 = 1
  eq1: -1 x11 = 2
  eq2: -1 x5 = 2
  eq3: -1 x1 -1 x5 +1 x10 = 1
  eq4: -1 x4 = 3
  eq5: -1 x3 -1 x5 +1 x8 = 2
  eq6: -1 x1 -1 x5 +1 x9 = 2
  eq7: -1 x2 -1 x6 +1 x12 = 2
  eq8: -1 x3 -1 x6 +1 x14 = 2
  eq9: -1 x11 +1 x13 = 1
  eq10: +1 x14 -1 x15 = 1
  eq11: +1 x12 -1 x16 = 1
  eq12: -1 x2 -1 x5 +1 x7 = 2
  ie0: +1 x7 >= -3
  ie1: -1 x3 -1 x5 +1 x13 >= 2
  ie2: +1 x1 +1 x6 -1 x14 >= -3
  ie3: +1 x1 +1 x6 -1 x12 >= -3
  ie4: +1 x1 -1 x3 >= 1
  ie5: +1 x9 >= -2
  ie6: -1 x3 -1 x5 +1 x9 >= 2
  ie7: -1 x2 -1 x5 +1 x9 >= 2
  ie8: +1 x8 >= -2
  ie9: +1 x7 >= -2
  ie10: +1 x16 >= -3
  ie11: -1 x3 -1 x5 +1 x7 >= 2
  ie12: -1 x1 -1 x5 +1 x15 >= 0
END

\\\\\\\\\\\\\\\\\\\\\\\\\\\\\\\\\\\\\\\\ file 7

MAXIMIZE
Subject To
  eq0: -1 x4 -1 x6 +1 x11 = 1
  eq1: -1 x11 = 2
  eq2: -1 x5 = 2
  eq3: -1 x1 -1 x5 +1 x10 = 1
  eq4: -1 x4 = 3
  eq5: -1 x3 -1 x5 +1 x8 = 2
  eq6: -1 x1 -1 x5 +1 x9 = 2
  eq7: -1 x2 -1 x6 +1 x12 = 2
  eq8: -1 x3 -1 x6 +1 x14 = 2
  eq9: -1 x11 +1 x13 = 1
  eq10: +1 x14 -1 x15 = 1
  eq11: +1 x12 -1 x16 = 1
  eq12: -1 x2 -1 x5 +1 x7 = 2
  ie0: +1 x7 >= -3
  ie1: -1 x3 -1 x5 +1 x13 >= 2
  ie2: +1 x1 +1 x6 -1 x14 >= -3
  ie3: +1 x1 +1 x6 -1 x12 >= -3
  ie4: +1 x1 -1 x2 >= 1
  ie5: +1 x9 >= -2
  ie6: +1 x8 >= -2
  ie7: +1 x7 >= -2
  ie8: -1 x1 -1 x5 +1 x16 >= 0
  ie9: +1 x16 >= -3
  ie10: -1 x2 -1 x5 +1 x8 >= 2
  ie11: -1 x1 -1 x5 +1 x15 >= 0
END

\\\\\\\\\\\\\\\\\\\\\\\\\\\\\\\\\\\\\\\\ file 8

MAXIMIZE
Subject To
  eq0: -1 x4 -1 x6 +1 x11 = 1
  eq1: -1 x11 = 2
  eq2: -1 x5 = 2
  eq3: -1 x1 -1 x5 +1 x10 = 1
  eq4: -1 x4 = 3
  eq5: -1 x3 -1 x5 +1 x8 = 2
  eq6: -1 x1 -1 x5 +1 x9 = 2
  eq7: -1 x2 -1 x6 +1 x12 = 2
  eq8: -1 x3 -1 x6 +1 x14 = 2
  eq9: -1 x11 +1 x13 = 1
  eq10: +1 x14 -1 x15 = 1
  eq11: +1 x12 -1 x16 = 1
  eq12: -1 x2 -1 x5 +1 x7 = 2
  ie0: +1 x7 >= -3
  ie1: -1 x3 -1 x5 +1 x13 >= 2
  ie2: -1 x1 -1 x5 +1 x8 >= 1
  ie3: +1 x1 +1 x6 -1 x14 >= -3
  ie4: +1 x1 +1 x6 -1 x12 >= -3
  ie5: +1 x10 >= -2
  ie6: +1 x9 >= -2
  ie7: -1 x2 -1 x5 +1 x9 >= 2
  ie8: +1 x8 >= -2
  ie9: +1 x7 >= -2
  ie10: -1 x1 -1 x5 +1 x7 >= 1
  ie11: +1 x16 >= -3
  ie12: -1 x1 -1 x5 +1 x15 >= 0
END

\\\\\\\\\\\\\\\\\\\\\\\\\\\\\\\\\\\\\\\\ file 9

MAXIMIZE
Subject To
  eq0: -1 x4 -1 x6 +1 x11 = 1
  eq1: -1 x11 = 2
  eq2: -1 x1 -1 x5 +1 x10 = 1
  eq3: -1 x4 = 3
  eq4: -1 x3 -1 x5 +1 x8 = 2
  eq5: -1 x1 -1 x5 +1 x9 = 2
  eq6: -1 x8 = 2
  eq7: -1 x2 -1 x6 +1 x12 = 2
  eq8: -1 x3 -1 x6 +1 x14 = 2
  eq9: -1 x11 +1 x13 = 1
  eq10: +1 x14 -1 x15 = 1
  eq11: +1 x12 -1 x16 = 1
  eq12: -1 x2 -1 x5 +1 x7 = 2
  ie0: +1 x7 >= -3
  ie1: +1 x1 +1 x6 -1 x14 >= -3
  ie2: +1 x1 +1 x6 -1 x12 >= -3
  ie3: +1 x15 >= -2
  ie4: +1 x1 -1 x3 >= 1
  ie5: +1 x9 >= -2
  ie6: -1 x2 -1 x5 +1 x9 >= 2
  ie7: +1 x7 >= -2
  ie8: +1 x14 >= -2
  ie9: +1 x16 >= -3
  ie10: +1 x5 >= -2
  ie11: -1 x4 -1 x6 +1 x7 >= -1
  ie12: -1 x1 -1 x5 +1 x15 >= 0
END

\\\\\\\\\\\\\\\\\\\\\\\\\\\\\\\\\\\\\\\\ file 10

MAXIMIZE
Subject To
  eq0: -1 x4 -1 x6 +1 x11 = 1
  eq1: -1 x11 = 2
  eq2: -1 x1 -1 x5 +1 x10 = 1
  eq3: -1 x4 = 3
  eq4: -1 x3 -1 x5 +1 x8 = 2
  eq5: -1 x1 -1 x5 +1 x9 = 2
  eq6: -1 x10 = 2
  eq7: -1 x2 -1 x6 +1 x12 = 2
  eq8: -1 x3 -1 x6 +1 x14 = 2
  eq9: -1 x11 +1 x13 = 1
  eq10: +1 x14 -1 x15 = 1
  eq11: +1 x12 -1 x16 = 1
  eq12: -1 x2 -1 x5 +1 x7 = 2
  ie0: -1 x3 -1 x5 +1 x14 >= 2
  ie1: +1 x7 >= -3
  ie2: -1 x3 -1 x5 +1 x13 >= 2
  ie3: +1 x1 +1 x6 -1 x12 >= -3
  ie4: +1 x15 >= -2
  ie5: +1 x2 >= -3
  ie6: -1 x2 -1 x5 +1 x9 >= 2
  ie7: +1 x8 >= -2
  ie8: +1 x7 >= -2
  ie9: +1 x14 >= -2
  ie10: +1 x16 >= -3
  ie11: +1 x5 >= -2
  ie12: -1 x4 -1 x6 +1 x7 >= -1
END

\\\\\\\\\\\\\\\\\\\\\\\\\\\\\\\\\\\\\\\\ file 11

MAXIMIZE
Subject To
  eq0: -1 x4 -1 x6 +1 x11 = 1
  eq1: -1 x11 = 2
  eq2: -1 x1 -1 x5 +1 x10 = 1
  eq3: -1 x4 = 3
  eq4: -1 x3 -1 x5 +1 x8 = 2
  eq5: -1 x1 -1 x5 +1 x9 = 2
  eq6: -1 x7 = 2
  eq7: -1 x2 -1 x6 +1 x12 = 2
  eq8: -1 x3 -1 x6 +1 x14 = 2
  eq9: -1 x11 +1 x13 = 1
  eq10: +1 x14 -1 x15 = 1
  eq11: +1 x12 -1 x16 = 1
  eq12: -1 x2 -1 x5 +1 x7 = 2
  ie0: -1 x3 -1 x5 +1 x13 >= 2
  ie1: +1 x1 +1 x6 -1 x14 >= -3
  ie2: +1 x1 +1 x6 -1 x12 >= -3
  ie3: +1 x15 >= -2
  ie4: +1 x1 -1 x2 >= 1
  ie5: +1 x9 >= -2
  ie6: +1 x2 >= -3
  ie7: +1 x8 >= -2
  ie8: -1 x1 -1 x5 +1 x16 >= 0
  ie9: +1 x14 >= -2
  ie10: +1 x16 >= -3
  ie11: +1 x5 >= -2
  ie12: -1 x1 -1 x5 +1 x15 >= 0
END

\\\\\\\\\\\\\\\\\\\\\\\\\\\\\\\\\\\\\\\\ file 12

MAXIMIZE
Subject To
  eq0: -1 x4 -1 x6 +1 x11 = 1
  eq1: -1 x16 = 2
  eq2: -1 x1 -1 x5 +1 x10 = 1
  eq3: -1 x2 = 3
  eq4: -1 x3 -1 x5 +1 x8 = 2
  eq5: -1 x1 -1 x5 +1 x9 = 2
  eq6: -1 x7 = 2
  eq7: -1 x2 -1 x6 +1 x12 = 2
  eq8: -1 x3 -1 x6 +1 x14 = 2
  eq9: -1 x11 +1 x13 = 1
  eq10: +1 x14 -1 x15 = 1
  eq11: +1 x12 -1 x16 = 1
  eq12: -1 x2 -1 x5 +1 x7 = 2
  ie0: -1 x3 -1 x5 +1 x13 >= 2
  ie1: +1 x1 +1 x6 -1 x14 >= -3
  ie2: +1 x1 +1 x6 -1 x12 >= -3
  ie3: +1 x1 -1 x2 >= 1
  ie4: +1 x9 >= -2
  ie5: -1 x2 +1 x4 >= 1
  ie6: -1 x2 -1 x6 +1 x14 >= 2
  ie7: -1 x1 -1 x5 +1 x16 >= 0
  ie8: -1 x4 -1 x6 +1 x8 >= 1
  ie9: -1 x4 -1 x6 +1 x7 >= -1
  ie10: -1 x1 -1 x5 +1 x15 >= 0
END

\\\\\\\\\\\\\\\\\\\\\\\\\\\\\\\\\\\\\\\\ file 13

MAXIMIZE
Subject To
  eq0: -1 x4 -1 x6 +1 x11 = 1
  eq1: -1 x16 = 2
  eq2: -1 x1 -1 x5 +1 x10 = 1
  eq3: -1 x2 = 3
  eq4: -1 x3 -1 x5 +1 x8 = 2
  eq5: -1 x1 -1 x5 +1 x9 = 2
  eq6: -1 x7 = 2
  eq7: -1 x2 -1 x6 +1 x12 = 2
  eq8: -1 x3 -1 x6 +1 x14 = 2
  eq9: -1 x11 +1 x13 = 1
  eq10: +1 x14 -1 x15 = 1
  eq11: +1 x12 -1 x16 = 1
  eq12: -1 x2 -1 x5 +1 x7 = 2
  ie0: -1 x3 -1 x5 +1 x13 >= 2
  ie1: +1 x1 +1 x6 -1 x14 >= -3
  ie2: +1 x1 +1 x6 -1 x12 >= -3
  ie3: +1 x4 >= -3
  ie4: +1 x1 -1 x2 >= 1
  ie5: +1 x9 >= -2
  ie6: +1 x3 +1 x6 -1 x11 >= -1
  ie7: +1 x8 >= -2
  ie8: -1 x1 -1 x5 +1 x16 >= 0
  ie9: -1 x4 -1 x6 +1 x7 >= -1
  ie10: -1 x4 -1 x6 +1 x12 >= 1
  ie11: -1 x1 -1 x5 +1 x15 >= 0
END

\\\\\\\\\\\\\\\\\\\\\\\\\\\\\\\\\\\\\\\\ file 14

MAXIMIZE
Subject To
  eq0: -1 x4 -1 x6 +1 x11 = 1
  eq1: -1 x16 = 2
  eq2: -1 x1 -1 x5 +1 x10 = 1
  eq3: -1 x1 = 3
  eq4: -1 x3 -1 x5 +1 x8 = 2
  eq5: -1 x1 -1 x5 +1 x9 = 2
  eq6: -1 x10 = 2
  eq7: -1 x2 -1 x6 +1 x12 = 2
  eq8: -1 x3 -1 x6 +1 x14 = 2
  eq9: -1 x3 -1 x6 +1 x13 = 2
  eq10: +1 x12 -1 x16 = 1
  eq11: -1 x2 -1 x5 +1 x7 = 2
  eq12: -1 x1 -1 x6 +1 x15 = 2
  ie0: +1 x7 >= -3
  ie1: +1 x5 -1 x6 >= 0
  ie2: -1 x1 -1 x6 +1 x14 >= 3
  ie3: +1 x1 +1 x6 -1 x12 >= -3
  ie4: +1 x4 >= -3
  ie5: +1 x3 >= -3
  ie6: -1 x3 -1 x6 +1 x11 >= 1
  ie7: +1 x8 >= -2
  ie8: +1 x14 >= -2
  ie9: -1 x4 -1 x6 +1 x7 >= -1
  ie10: -1 x4 -1 x6 +1 x12 >= 1
  ie11: -1 x4 -1 x6 +1 x14 >= 1
END

\\\\\\\\\\\\\\\\\\\\\\\\\\\\\\\\\\\\\\\\ file 15

MAXIMIZE
Subject To
  eq0: -1 x4 -1 x6 +1 x11 = 1
  eq1: -1 x16 = 2
  eq2: -1 x1 -1 x5 +1 x10 = 1
  eq3: -1 x1 = 3
  eq4: -1 x3 -1 x5 +1 x8 = 2
  eq5: -1 x1 -1 x5 +1 x9 = 2
  eq6: -1 x10 = 2
  eq7: -1 x2 -1 x6 +1 x12 = 2
  eq8: -1 x3 -1 x6 +1 x14 = 2
  eq9: -1 x3 -1 x6 +1 x13 = 2
  eq10: +1 x12 -1 x16 = 1
  eq11: -1 x2 -1 x5 +1 x7 = 2
  eq12: -1 x1 -1 x6 +1 x15 = 2
  ie0: +1 x7 >= -3
  ie1: +1 x5 -1 x6 >= 0
  ie2: -1 x1 -1 x6 +1 x14 >= 3
  ie3: +1 x1 +1 x6 -1 x12 >= -3
  ie4: -1 x2 +1 x4 >= 1
  ie5: -1 x3 -1 x6 +1 x11 >= 1
  ie6: -1 x2 -1 x6 +1 x14 >= 2
  ie7: +1 x8 >= -2
  ie8: -1 x3 -1 x6 +1 x10 >= 0
  ie9: -1 x4 -1 x6 +1 x8 >= 1
  ie10: -1 x4 -1 x6 +1 x7 >= -1
END

\\\\\\\\\\\\\\\\\\\\\\\\\\\\\\\\\\\\\\\\ file 16

MAXIMIZE
Subject To
  eq0: -1 x4 -1 x6 +1 x11 = 1
  eq1: -1 x16 = 2
  eq2: -1 x1 -1 x5 +1 x10 = 1
  eq3: -1 x1 = 3
  eq4: -1 x3 -1 x5 +1 x8 = 2
  eq5: -1 x1 -1 x5 +1 x9 = 2
  eq6: -1 x10 = 2
  eq7: -1 x2 -1 x6 +1 x12 = 2
  eq8: -1 x3 -1 x6 +1 x14 = 2
  eq9: -1 x3 -1 x6 +1 x13 = 2
  eq10: +1 x14 -1 x15 = 1
  eq11: +1 x12 -1 x16 = 1
  eq12: -1 x2 -1 x5 +1 x7 = 2
  ie0: +1 x7 >= -3
  ie1: +1 x5 -1 x6 >= 0
  ie2: +1 x1 +1 x6 -1 x14 >= -3
  ie3: +1 x1 +1 x6 -1 x12 >= -3
  ie4: +1 x15 >= -2
  ie5: +1 x4 >= -3
  ie6: -1 x3 -1 x6 +1 x11 >= 1
  ie7: +1 x8 >= -2
  ie8: +1 x14 >= -2
  ie9: -1 x4 -1 x6 +1 x7 >= -1
  ie10: -1 x4 -1 x6 +1 x12 >= 1
END

\\\\\\\\\\\\\\\\\\\\\\\\\\\\\\\\\\\\\\\\ end



17 polyhedra, 35 rounds, smt 0.073 sec, isect 0.393 sec, insert 0.040 sec, total 0.876 sec
Preprocessing 0.006 sec, super total 0.883 sec
Comparing... 0.043 sec.  Solution matches input.
