
----------------------------------------------------------------------
This is ptcut v3.5.1
Python 3.7.7 (default, Mar 23 2020, 23:19:08) [MSC v.1916 64 bit (AMD64)]
numpy 1.18.1, sympy 1.5.1, gmpy2 2.1.0a5
It is now 2020-04-03T22:39:01+02:00
Command line: ..\trop\ptcut.py BIOMD0000000638 -e11 --no-cache=n --maxruntime 3600 --maxmem 41393M --comment "concurrent=1, timeout=3600"

----------------------------------------------------------------------
Solving BIOMD0000000638 with ep=1/11, round=0, complex=False, sumup=False, keep_coeff=False, paramwise=True, complete=False, filter=0, fusion=False, algorithm 3, resort=False, bbox=False, common=9, qdisjoint=False, nonewton=False, mul_denom=False, convexhull=(False, 2, 4, 0.5, 2), likeness 14, backend PPL_C_Polyhedron
Comment: concurrent=1, timeout=3600
Random seed: 2P2N27MS6RKCQ
Effective epsilon: 1/11.0

Loading tropical system... done.
Loading polyhedra... done.

Sorting ascending...
Dimension: 21
Formulas: 25
Order: 13 17 15 19 7 22 5 8 14 21 10 18 11 9 23 12 24 0 1 16 2 6 3 4 20
Possible combinations: 3 * 3 * 4 * 5 * 6 * 6 * 8 * 8 * 8 * 9 * 10 * 10 * 12 * 15 * 15 * 16 * 16 * 20 * 20 * 20 * 25 * 25 * 30 * 36 * 64 = 713,288,035,860,480,000,000,000,000 (10^27)
 Applying common planes (codim=0, hs=23)...
 [1/25 (#13)]: 3 => 3 (-), dim=20.0, hs=24.3
 [2/25 (#17)]: 3 => 3 (-), dim=20.0, hs=25.0
 [3/25 (#15)]: 4 => 4 (-), dim=20.0, hs=24.8
 [4/25 (#19)]: 5 => 5 (-), dim=20.0, hs=26.2
 [5/25 (#7)]: 6 => 3 (3 incl), dim=20.0, hs=25.3
  Removed: 7.3,7.4,7.5
 [6/25 (#22)]: 6 => 6 (-), dim=20.0, hs=22.5
 [7/25 (#5)]: 8 => 8 (-), dim=20.0, hs=26.2
 [8/25 (#8)]: 8 => 8 (-), dim=20.0, hs=24.9
 [9/25 (#14)]: 8 => 8 (-), dim=20.0, hs=26.2
 [10/25 (#21)]: 9 => 1 (8 empty), dim=20.0, hs=23.0
  Removed: 21.1,21.2,21.3,21.4,21.5,21.6,21.7,21.8
 [11/25 (#10)]: 10 => 10 (-), dim=20.0, hs=25.8
 [12/25 (#18)]: 10 => 10 (-), dim=20.0, hs=27.1
 [13/25 (#11)]: 12 => 8 (4 incl), dim=20.0, hs=25.8
  Removed: 11.8,11.9,11.10,11.11
 [14/25 (#9)]: 15 => 15 (-), dim=20.0, hs=26.7
 [15/25 (#23)]: 15 => 15 (-), dim=20.0, hs=22.8
 [16/25 (#12)]: 16 => 16 (-), dim=20.0, hs=24.8
 [17/25 (#24)]: 16 => 16 (-), dim=20.0, hs=22.8
 [18/25 (#0)]: 20 => 20 (-), dim=20.0, hs=24.8
 [19/25 (#1)]: 20 => 20 (-), dim=20.0, hs=24.6
 [20/25 (#16)]: 20 => 16 (4 incl), dim=20.0, hs=24.9
  Removed: 16.19,16.18,16.3,16.7
 [21/25 (#2)]: 25 => 21 (4 incl), dim=20.0, hs=24.8
  Removed: 2.16,2.1,2.11,2.21
 [22/25 (#6)]: 25 => 25 (-), dim=20.0, hs=24.8
 [23/25 (#3)]: 30 => 30 (-), dim=20.0, hs=25.4
 [24/25 (#4)]: 36 => 36 (-), dim=20.0, hs=26.4
 [25/25 (#20)]: 64 => 64 (-), dim=20.0, hs=23.6
 Applying common planes (codim=1, hs=24)...
 [1/24 (#13)]: 3 => 3 (-), dim=19.0, hs=24.3
 [2/24 (#17)]: 3 => 3 (-), dim=19.0, hs=25.0
 [3/24 (#15)]: 4 => 4 (-), dim=19.0, hs=24.8
 [4/24 (#19)]: 5 => 5 (-), dim=19.0, hs=26.2
 [5/24 (#7)]: 3 => 3 (-), dim=19.0, hs=25.3
 [6/24 (#22)]: 6 => 6 (-), dim=19.0, hs=23.2
 [7/24 (#5)]: 8 => 4 (4 empty), dim=19.0, hs=26.8
  Removed: 5.0,5.2,5.4,5.5
 [8/24 (#8)]: 8 => 4 (4 empty), dim=19.0, hs=25.2
  Removed: 8.0,8.2,8.4,8.6
 [9/24 (#14)]: 8 => 8 (-), dim=19.0, hs=26.5
 [10/24 (#10)]: 10 => 5 (5 empty), dim=19.0, hs=26.2
  Removed: 10.0,10.2,10.3,10.4,10.5
 [11/24 (#18)]: 10 => 10 (-), dim=19.0, hs=27.2
 [12/24 (#11)]: 8 => 8 (-), dim=19.0, hs=26.8
 [13/24 (#9)]: 15 => 10 (5 empty), dim=19.0, hs=27.1
  Removed: 9.5,9.7,9.8,9.9,9.10
 [14/24 (#23)]: 15 => 15 (-), dim=19.0, hs=23.7
 [15/24 (#12)]: 16 => 16 (-), dim=19.0, hs=24.8
 [16/24 (#24)]: 16 => 16 (-), dim=19.0, hs=23.7
 [17/24 (#0)]: 20 => 5 (15 incl), dim=19.0, hs=24.8
  Removed: 0.0,0.1,0.2,0.4,0.5,0.6,0.8,0.9,0.10,0.12,0.13,0.14,0.16,0.17,0.18
 [18/24 (#1)]: 20 => 4 (4 empty, 12 incl), dim=19.0, hs=23.8
  Removed: 1.0,1.1,1.2,1.3,1.5,1.6,1.7,1.8,1.10,1.11,1.12,1.13,1.15,1.16,1.17,1.18
 [19/24 (#16)]: 16 => 16 (-), dim=19.0, hs=24.9
 [20/24 (#2)]: 21 => 21 (-), dim=19.0, hs=25.6
 [21/24 (#6)]: 25 => 25 (-), dim=19.0, hs=25.6
 [22/24 (#3)]: 30 => 30 (-), dim=19.0, hs=26.4
 [23/24 (#4)]: 36 => 36 (-), dim=19.0, hs=27.4
 [24/24 (#20)]: 64 => 64 (-), dim=19.0, hs=23.4
 Savings: factor 9,642 (10^4), 1 formulas
[1/23 (#13, #17)]: 3 * 3 = 9 => 9 (-), dim=18.0, hs=25.3
 Applying common planes (codim=0, hs=13)...
 [1/23 (w1)]: 9 => 9 (-), dim=18.0, hs=28.7
 [2/23 (#15)]: 4 => 4 (-), dim=19.0, hs=27.5
 [3/23 (#19)]: 5 => 5 (-), dim=19.0, hs=29.0
 [4/23 (#7)]: 3 => 3 (-), dim=19.0, hs=26.7
 [5/23 (#22)]: 6 => 6 (-), dim=18.7, hs=25.3
 [6/23 (#5)]: 4 => 4 (-), dim=19.0, hs=27.2
 [7/23 (#8)]: 4 => 4 (-), dim=19.0, hs=27.2
 [8/23 (#14)]: 8 => 8 (-), dim=19.0, hs=29.0
 [9/23 (#10)]: 5 => 5 (-), dim=19.0, hs=28.6
 [10/23 (#18)]: 10 => 10 (-), dim=19.0, hs=29.9
 [11/23 (#11)]: 8 => 8 (-), dim=19.0, hs=28.0
 [12/23 (#9)]: 10 => 10 (-), dim=19.0, hs=29.1
 [13/23 (#23)]: 15 => 15 (-), dim=18.6, hs=25.6
 [14/23 (#12)]: 16 => 13 (3 incl), dim=19.0, hs=26.7
  Removed: 12.0,12.8,12.4
 [15/23 (#24)]: 16 => 14 (2 empty), dim=18.4, hs=25.4
  Removed: 24.14,24.15
 [16/23 (#0)]: 5 => 5 (-), dim=19.0, hs=25.6
 [17/23 (#1)]: 4 => 4 (-), dim=19.0, hs=25.8
 [18/23 (#16)]: 16 => 12 (4 incl), dim=19.0, hs=26.8
  Removed: 16.0,16.8,16.4,16.12
 [19/23 (#2)]: 21 => 21 (-), dim=19.0, hs=29.2
 [20/23 (#6)]: 25 => 25 (-), dim=19.0, hs=30.6
 [21/23 (#3)]: 30 => 30 (-), dim=19.0, hs=30.9
 [22/23 (#4)]: 36 => 36 (-), dim=19.0, hs=31.8
 [23/23 (#20)]: 64 => 50 (14 incl), dim=19.0, hs=28.5
  Removed: 20.56,20.58,20.59,20.60,20.63,20.61,20.24,20.25,20.26,20.27,20.28,20.29,20.30,20.57
 Savings: factor 2.4005860805860806, 0 formulas
[2/23 (w1, #7)]: 9 * 3 = 27 => 21 (3 empty, 3 incl), dim=17.0, hs=29.1
[3/23 (w2, #15)]: 21 * 4 = 84 => 84 (-), dim=16.0, hs=30.0
[4/23 (w3, #5)]: 84 * 4 = 336 => 28 (308 incl), dim=16.0, hs=31.9
 Applying common planes (codim=1, hs=5)...
 [1/20 (w4)]: 28 => 28 (-), dim=16.0, hs=31.9
 [2/20 (#19)]: 5 => 5 (-), dim=18.0, hs=31.6
 [3/20 (#22)]: 6 => 5 (1 empty), dim=17.8, hs=27.4
  Removed: 22.4
 [4/20 (#8)]: 4 => 4 (-), dim=18.0, hs=30.2
 [5/20 (#14)]: 8 => 8 (-), dim=18.0, hs=31.0
 [6/20 (#10)]: 5 => 5 (-), dim=18.0, hs=31.4
 [7/20 (#18)]: 10 => 10 (-), dim=18.0, hs=31.1
 [8/20 (#11)]: 8 => 8 (-), dim=18.0, hs=30.0
 [9/20 (#9)]: 10 => 10 (-), dim=18.0, hs=30.8
 [10/20 (#23)]: 15 => 14 (1 empty), dim=17.6, hs=27.9
  Removed: 23.11
 [11/20 (#12)]: 13 => 13 (-), dim=18.0, hs=29.7
 [12/20 (#24)]: 14 => 13 (1 empty), dim=17.5, hs=27.5
  Removed: 24.13
 [13/20 (#0)]: 5 => 5 (-), dim=18.0, hs=27.4
 [14/20 (#1)]: 4 => 4 (-), dim=18.0, hs=28.8
 [15/20 (#16)]: 12 => 12 (-), dim=18.0, hs=27.4
 [16/20 (#2)]: 21 => 14 (4 empty, 3 incl), dim=18.0, hs=30.7
  Removed: 2.4,2.14,2.19,2.20,2.22,2.23,2.24
 [17/20 (#6)]: 25 => 20 (5 empty), dim=18.0, hs=31.7
  Removed: 6.11,6.14,6.17,6.20,6.23
 [18/20 (#3)]: 30 => 30 (-), dim=18.0, hs=33.3
 [19/20 (#4)]: 36 => 36 (-), dim=18.0, hs=33.8
 [20/20 (#20)]: 50 => 38 (12 incl), dim=18.0, hs=30.1
  Removed: 20.5,20.37,20.13,20.45,20.16,20.17,20.18,20.19,20.20,20.53,20.22,20.23
 Savings: factor 3.415991902834008, 0 formulas
[5/23 (w4, #8)]: 28 * 4 = 112 => 7 (8 empty, 97 incl), dim=16.0, hs=33.3
 Applying common planes (codim=1, hs=2)...
 [1/19 (w5)]: 7 => 7 (-), dim=16.0, hs=33.3
 [2/19 (#19)]: 5 => 5 (-), dim=17.0, hs=32.6
 [3/19 (#22)]: 5 => 5 (-), dim=16.8, hs=28.2
 [4/19 (#14)]: 8 => 8 (-), dim=17.0, hs=31.2
 [5/19 (#10)]: 5 => 5 (-), dim=17.0, hs=32.0
 [6/19 (#18)]: 10 => 10 (-), dim=17.0, hs=32.1
 [7/19 (#11)]: 8 => 8 (-), dim=17.0, hs=31.0
 [8/19 (#9)]: 10 => 10 (-), dim=17.0, hs=31.8
 [9/19 (#23)]: 14 => 13 (1 empty), dim=16.7, hs=28.6
  Removed: 23.9
 [10/19 (#12)]: 13 => 13 (-), dim=17.0, hs=29.7
 [11/19 (#24)]: 13 => 12 (1 empty), dim=16.5, hs=28.2
  Removed: 24.11
 [12/19 (#0)]: 5 => 5 (-), dim=17.0, hs=28.4
 [13/19 (#1)]: 4 => 4 (-), dim=17.0, hs=29.5
 [14/19 (#16)]: 12 => 12 (-), dim=17.0, hs=28.4
 [15/19 (#2)]: 14 => 14 (-), dim=17.0, hs=31.1
 [16/19 (#6)]: 20 => 20 (-), dim=17.0, hs=32.5
 [17/19 (#3)]: 30 => 25 (5 empty), dim=17.0, hs=33.2
  Removed: 3.15,3.16,3.17,3.18,3.19
 [18/19 (#4)]: 36 => 36 (-), dim=17.0, hs=34.6
 [19/19 (#20)]: 38 => 28 (10 incl), dim=17.1, hs=29.8
  Removed: 20.32,20.33,20.34,20.3,20.36,20.38,20.39,20.11,20.43,20.51
 Savings: factor 1.9, 0 formulas
[6/23 (w5, #1)]: 7 * 4 = 28 => 12 (6 empty, 10 incl), dim=15.0, hs=30.3
[7/23 (w6, #19)]: 12 * 5 = 60 => 60 (-), dim=14.0, hs=32.0
[8/23 (w7, #22)]: 60 * 5 = 300 => 110 (136 empty, 54 incl), dim=13.0, hs=28.8
[9/23 (w8, #10)]: 110 * 5 = 550 => 30 (268 empty, 252 incl), dim=13.0, hs=31.0
 Applying common planes (codim=1, hs=4)...
 [1/15 (w9)]: 30 => 30 (-), dim=13.0, hs=31.0
 [2/15 (#14)]: 8 => 8 (-), dim=16.0, hs=34.2
 [3/15 (#18)]: 10 => 10 (-), dim=16.0, hs=33.8
 [4/15 (#11)]: 8 => 8 (-), dim=16.0, hs=34.0
 [5/15 (#9)]: 10 => 10 (-), dim=16.0, hs=34.8
 [6/15 (#23)]: 13 => 12 (1 empty), dim=15.8, hs=31.1
  Removed: 23.7
 [7/15 (#12)]: 13 => 13 (-), dim=16.0, hs=32.7
 [8/15 (#24)]: 12 => 11 (1 empty), dim=15.5, hs=30.5
  Removed: 24.9
 [9/15 (#0)]: 5 => 5 (-), dim=16.0, hs=29.8
 [10/15 (#16)]: 12 => 8 (4 incl), dim=16.0, hs=28.5
  Removed: 16.16,16.17,16.10,16.6
 [11/15 (#2)]: 14 => 14 (-), dim=16.0, hs=33.6
 [12/15 (#6)]: 20 => 20 (-), dim=16.0, hs=35.5
 [13/15 (#3)]: 25 => 14 (5 empty, 6 incl), dim=16.0, hs=33.5
  Removed: 3.5,3.8,3.10,3.11,3.12,3.13,3.14,3.20,3.21,3.26,3.27
 [14/15 (#4)]: 36 => 36 (-), dim=16.0, hs=37.1
 [15/15 (#20)]: 28 => 20 (8 incl), dim=16.1, hs=31.4
  Removed: 20.0,20.2,20.4,20.6,20.7,20.9,20.41,20.49
 Savings: factor 4.431818181818182, 0 formulas
[10/23 (w9, #0)]: 30 * 5 = 150 => 95 (37 empty, 18 incl), dim=12.0, hs=27.7
[11/23 (w10, #14)]: 95 * 8 = 760 => 71 (411 empty, 278 incl), dim=11.0, hs=26.8
[12/23 (w11, #11)]: 71 * 8 = 568 => 53 (305 empty, 210 incl), dim=10.0, hs=26.4
[13/23 (w12, #16)]: 53 * 8 = 424 => 80 (163 empty, 181 incl), dim=8.8, hs=24.4
[14/23 (w13, #18)]: 80 * 10 = 800 => 180 (397 empty, 223 incl), dim=8.0, hs=24.4
[15/23 (w14, #9)]: 180 * 10 = 1800 => 156 (1274 empty, 370 incl), dim=7.0, hs=24.2
[16/23 (w15, #24)]: 156 * 11 = 1716 => 177 (1016 empty, 523 incl), dim=6.7, hs=24.1
[17/23 (w16, #23)]: 177 * 12 = 2124 => 156 (1302 empty, 666 incl), dim=6.7, hs=23.9
[18/23 (w17, #12)]: 156 * 13 = 2028 => 74 (1493 empty, 461 incl), dim=5.8, hs=23.9
[19/23 (w18, #2)]: 74 * 14 = 1036 => 24 (856 empty, 156 incl), dim=4.9, hs=23.5
 Applying common planes (codim=1, hs=1)...
 [1/5 (w19)]: 24 => 24 (-), dim=4.9, hs=23.5
 [2/5 (#6)]: 20 => 20 (-), dim=15.0, hs=31.7
 [3/5 (#3)]: 14 => 13 (1 empty), dim=15.0, hs=29.9
  Removed: 3.3
 [4/5 (#4)]: 36 => 30 (6 empty), dim=15.0, hs=33.1
  Removed: 4.34,4.9,4.14,4.19,4.24,4.31
 [5/5 (#20)]: 20 => 17 (3 incl), dim=15.2, hs=28.4
  Removed: 20.55,20.47,20.15
 Savings: factor 1.5203619909502262, 0 formulas
[20/23 (w19, #3)]: 24 * 13 = 312 => 15 (260 empty, 37 incl), dim=4.1, hs=23.8
 Applying common planes (codim=0, hs=2)...
 [1/4 (w20)]: 15 => 15 (-), dim=4.1, hs=23.8
 [2/4 (#6)]: 20 => 20 (-), dim=15.0, hs=31.7
 [3/4 (#4)]: 30 => 30 (-), dim=15.0, hs=33.1
 [4/4 (#20)]: 17 => 17 (-), dim=15.2, hs=28.4
 Savings: factor 1.0, 0 formulas
[21/23 (#20, w20)]: 17 * 15 = 255 => 15 (188 empty, 52 incl), dim=4.1, hs=23.8
[22/23 (#6, w21)]: 20 * 15 = 300 => 13 (213 empty, 74 incl), dim=3.6, hs=23.7
[23/23 (#4, w22)]: 30 * 13 = 390 => 13 (338 empty, 39 incl), dim=3.2, hs=23.2
Total time: 32.306 sec, total intersections: 16,263, total inclusion tests: 178,811
Common plane time: 13.723 sec
Solutions: 13, dim=3.2, hs=23.2, max=180, maxin=2124
f-vector: [0, 0, 2, 6, 5]
Canonicalizing...
Saving solutions... 
Calculation done.
Peak memory: working set 0.234 GiB, pagefile 0.236 GiB
Memory: pmem(rss=77406208, vms=70811648, num_page_faults=108037, peak_wset=251510784, wset=77406208, peak_paged_pool=545648, paged_pool=545472, peak_nonpaged_pool=53568, nonpaged_pool=43632, pagefile=70811648, peak_pagefile=253530112, private=70811648)
