
----------------------------------------------------------------------
This is SMTcut v4.6.4 by Christoph Lueders -- http://wrogn.com
Python 3.7.6 (default, Jan  8 2020, 19:59:22) 
[GCC 7.3.0] x86_64
pysmt 0.9.0, gmpy2 2.0.8
Datetime: 2020-06-23T20:12:19+02:00
Command line: BIOMD0000000638 --msat
Flags: no-ppone no-ppsmt no-pp2x2 dump justone solver=msat


Model: BIOMD0000000638
Logfile: db/BIOMD0000000638/ep11-msat-Linux-smtlog.txt
Loading polyhedra...  done.
Possible combinations: 10^26.9 in 25 bags
Bag sizes: 20 20 25 30 36 8 25 6 8 15 10 12 16 3 8 4 20 3 10 5 64 9 6 15 16

Minimizing (0,0)... (0,0)


Running SMT solver (1)... 0.313 sec
Found point (-1,9/4,-1,0,1,-1,0,13/4,9/4,1,0,13/4,5/4,9/4,9/4,5/4,-2,-2,0,-1,-3)
Checking... Minimizing (19,140)... (19,10), 0.036 sec
Inserting... 

MAXIMIZE
Subject To
  eq0: -1 x3 -1 x17 +1 x18 = 1
  eq1: +1 x12 -1 x15 = 1
  eq2: +1 x7 +1 x10 -1 x19 = 1
  eq3: -1 x7 +1 x14 -1 x15 = 0
  eq4: -1 x11 +1 x20 -1 x21 = 2
  eq5: -1 x21 = 3
  eq6: -1 x13 +1 x16 = 0
  eq7: +1 x5 +1 x7 -1 x19 = 1
  eq8: -1 x4 -1 x17 +1 x20 = 1
  eq9: -1 x1 +1 x17 -1 x21 = 2
  eq10: -1 x17 +1 x18 = 0
  eq11: -1 x2 +1 x13 -1 x21 = 2
  eq12: -1 x9 +1 x16 -1 x21 = 2
  eq13: +1 x15 -1 x16 = 1
  eq14: -1 x7 +1 x8 -1 x12 = 0
  eq15: +1 x7 +1 x19 -1 x20 = 1
  eq16: +1 x7 -1 x18 +1 x19 = 2
  eq17: -1 x6 +1 x18 -1 x21 = 2
  eq18: -1 x18 = 2
  ie0: -1 x13 +1 x14 >= 0
  ie1: +1 x2 -1 x6 >= 0
  ie2: -1 x4 +1 x16 -1 x17 >= 1
  ie3: -1 x7 +1 x13 >= -2
  ie4: +1 x7 >= 0
  ie5: -1 x6 +1 x8 >= 0
  ie6: +1 x1 -1 x7 >= -2
  ie7: +1 x5 -1 x7 +1 x17 -1 x19 >= -2
  ie8: -1 x7 >= -3
  ie9: +1 x3 +1 x13 -1 x14 >= -2
END

0.000 sec
[1 ph, smt 0.313, isect 0.036, ins 0.000, tot 0.475]

Running SMT solver (2)... 0.031 sec
Found point (-1,0,-1,0,3,-1,-2,1,0,3,0,5,-1,0,2,-1,-2,-2,2,-1,-3)
Checking... Minimizing (20,141)... (19,10), 0.030 sec
Inserting... 

MAXIMIZE
Subject To
  eq0: +1 x14 -1 x16 = 1
  eq1: -1 x6 +1 x7 +1 x10 = 2
  eq2: -1 x3 +1 x5 +1 x7 = 2
  eq3: -1 x7 +1 x14 -1 x19 = 0
  eq4: +1 x7 +1 x12 -1 x15 = 1
  eq5: -1 x7 +1 x14 -1 x15 = 0
  eq6: -1 x11 +1 x20 -1 x21 = 2
  eq7: -1 x21 = 3
  eq8: -1 x13 +1 x16 = 0
  eq9: -1 x4 -1 x17 +1 x20 = 1
  eq10: -1 x1 +1 x17 -1 x21 = 2
  eq11: -1 x17 +1 x18 = 0
  eq12: -1 x2 +1 x13 -1 x21 = 2
  eq13: -1 x9 +1 x16 -1 x21 = 2
  eq14: +1 x8 -1 x14 = 1
  eq15: -1 x6 +1 x18 -1 x21 = 2
  eq16: +1 x7 +1 x19 -1 x20 = 1
  eq17: -1 x3 -1 x17 +1 x18 = 1
  eq18: -1 x18 = 2
  ie0: +1 x5 -1 x7 +1 x13 -1 x15 >= -2
  ie1: +1 x2 -1 x6 >= 0
  ie2: +1 x3 -1 x4 -1 x17 >= -1
  ie3: -1 x14 +1 x18 >= -2
  ie4: -1 x3 +1 x12 >= 1
  ie5: -1 x7 +1 x9 -1 x12 >= -3
  ie6: +1 x2 -1 x3 +1 x5 >= 0
  ie7: -1 x6 +1 x19 >= 1
  ie8: -1 x6 +1 x8 >= 0
  ie9: +1 x5 -1 x7 +1 x17 -1 x19 >= -2
END

0.000 sec
[2 ph, smt 0.343, isect 0.066, ins 0.000, tot 0.541]

Running SMT solver (3)... 0.121 sec
Found point (-1,9/4,-1,1/4,-1,-1,2,13/4,9/4,-1,1/4,13/4,5/4,9/4,9/4,5/4,-2,-2,-2,-3/4,-3)
Checking... Minimizing (19,137)... (19,7), 0.022 sec
Inserting... 

MAXIMIZE
Subject To
  eq0: -1 x5 -1 x17 +1 x19 = 1
  eq1: -1 x3 -1 x17 +1 x18 = 1
  eq2: -1 x19 = 2
  eq3: +1 x12 -1 x15 = 1
  eq4: -1 x11 +1 x20 -1 x21 = 2
  eq5: -1 x21 = 3
  eq6: -1 x13 +1 x16 = 0
  eq7: -1 x17 +1 x19 = 0
  eq8: -1 x4 -1 x17 +1 x20 = 1
  eq9: -1 x1 +1 x17 -1 x21 = 2
  eq10: -1 x2 +1 x13 -1 x21 = 2
  eq11: -1 x3 -1 x13 +1 x14 = 2
  eq12: -1 x9 +1 x16 -1 x21 = 2
  eq13: +1 x15 -1 x16 = 1
  eq14: +1 x8 -1 x14 = 1
  eq15: -1 x10 +1 x19 -1 x21 = 2
  eq16: +1 x7 -1 x18 +1 x19 = 2
  eq17: -1 x6 +1 x18 -1 x21 = 2
  eq18: -1 x18 = 2
  ie0: +1 x14 -1 x18 >= 2
  ie1: -1 x4 -1 x17 +1 x18 >= -1
  ie2: -1 x19 +1 x20 >= 0
  ie3: +1 x2 -1 x10 >= 0
  ie4: +1 x3 -1 x4 -1 x17 >= -1
  ie5: +1 x2 -1 x17 >= 0
  ie6: -1 x4 +1 x16 -1 x17 >= 1
END

0.000 sec
[3 ph, smt 0.464, isect 0.088, ins 0.000, tot 0.689]

Running SMT solver (4)... 0.043 sec
Found point (-1,-1,-1,-1,-1,-1,1,0,-1,-1,-1,0,-2,-1,-1,-2,-2,-2,-2,-2,-3)
Checking... Minimizing (21,138)... (20,2), 0.019 sec
Inserting... 

MAXIMIZE
Subject To
  eq0: -1 x5 -1 x17 +1 x19 = 1
  eq1: -1 x20 = 2
  eq2: +1 x12 -1 x15 = 1
  eq3: -1 x7 +1 x14 -1 x19 = 0
  eq4: -1 x11 +1 x20 -1 x21 = 2
  eq5: -1 x21 = 3
  eq6: -1 x13 +1 x16 = 0
  eq7: -1 x17 +1 x20 = 0
  eq8: -1 x4 -1 x17 +1 x20 = 1
  eq9: -1 x1 +1 x17 -1 x21 = 2
  eq10: -1 x2 +1 x13 -1 x21 = 2
  eq11: -1 x3 -1 x13 +1 x14 = 2
  eq12: -1 x9 +1 x16 -1 x21 = 2
  eq13: +1 x15 -1 x16 = 1
  eq14: +1 x8 -1 x14 = 1
  eq15: -1 x6 +1 x18 -1 x21 = 2
  eq16: -1 x10 +1 x19 -1 x21 = 2
  eq17: +1 x7 +1 x19 -1 x20 = 1
  eq18: +1 x7 -1 x18 +1 x19 = 1
  eq19: -1 x3 -1 x17 +1 x18 = 1
  ie0: +1 x5 -1 x7 +1 x17 -1 x19 >= -2
  ie1: -1 x5 +1 x15 -1 x17 >= 1
END

0.000 sec
[4 ph, smt 0.508, isect 0.107, ins 0.000, tot 0.756]

Running SMT solver (5)... 0.033 sec
Found point (-1,-1/6,-1,-1/6,-1,-1,11/6,5/6,-1/6,-1,-1/6,5/6,-7/6,-1/6,-1/6,-7/6,-2,-2,-2,-7/6,-3)
Checking... Minimizing (19,138)... (19,6), 0.020 sec
Inserting... 

MAXIMIZE
Subject To
  eq0: -1 x5 -1 x17 +1 x19 = 1
  eq1: -1 x3 -1 x17 +1 x18 = 1
  eq2: -1 x19 = 2
  eq3: +1 x12 -1 x15 = 1
  eq4: -1 x7 +1 x14 -1 x19 = 0
  eq5: -1 x11 +1 x20 -1 x21 = 2
  eq6: -1 x21 = 3
  eq7: -1 x13 +1 x16 = 0
  eq8: -1 x17 +1 x19 = 0
  eq9: -1 x4 -1 x17 +1 x20 = 1
  eq10: -1 x1 +1 x17 -1 x21 = 2
  eq11: -1 x2 +1 x13 -1 x21 = 2
  eq12: -1 x3 -1 x13 +1 x14 = 2
  eq13: -1 x9 +1 x16 -1 x21 = 2
  eq14: +1 x15 -1 x16 = 1
  eq15: +1 x8 -1 x14 = 1
  eq16: -1 x10 +1 x19 -1 x21 = 2
  eq17: -1 x6 +1 x18 -1 x21 = 2
  eq18: -1 x18 = 2
  ie0: -1 x14 +1 x18 >= -2
  ie1: -1 x19 +1 x20 >= 0
  ie2: +1 x2 -1 x10 >= 0
  ie3: +1 x3 -1 x4 -1 x17 >= -1
  ie4: +1 x2 -1 x17 >= 0
  ie5: -1 x4 +1 x16 -1 x17 >= 1
END

0.002 sec
[5 ph, smt 0.541, isect 0.127, ins 0.002, tot 0.816]

Running SMT solver (6)... 0.013 sec
Found point (-1,9/8,-1,3/4,1,-1,0,17/8,9/8,1,3/4,17/8,1/8,9/8,9/8,1/8,-2,-2,0,-1/4,-3)
Checking... Minimizing (18,140)... (18,15), 0.027 sec
Inserting... 

MAXIMIZE
Subject To
  eq0: +1 x12 -1 x15 = 1
  eq1: +1 x7 +1 x10 -1 x19 = 1
  eq2: -1 x7 +1 x14 -1 x15 = 0
  eq3: -1 x11 +1 x20 -1 x21 = 2
  eq4: -1 x21 = 3
  eq5: -1 x13 +1 x16 = 0
  eq6: +1 x5 +1 x7 -1 x19 = 1
  eq7: -1 x4 -1 x17 +1 x20 = 1
  eq8: -1 x1 +1 x17 -1 x21 = 2
  eq9: -1 x17 +1 x18 = 0
  eq10: -1 x2 +1 x13 -1 x21 = 2
  eq11: -1 x9 +1 x16 -1 x21 = 2
  eq12: +1 x15 -1 x16 = 1
  eq13: -1 x6 +1 x18 -1 x21 = 2
  eq14: -1 x7 +1 x8 -1 x12 = 0
  eq15: +1 x7 -1 x18 +1 x19 = 2
  eq16: -1 x3 -1 x17 +1 x18 = 1
  eq17: -1 x18 = 2
  ie0: +1 x14 -1 x18 >= 2
  ie1: -1 x4 -1 x17 +1 x18 >= -1
  ie2: -1 x13 +1 x14 >= 0
  ie3: +1 x4 >= -1
  ie4: -1 x18 +1 x20 >= 1
  ie5: +1 x3 -1 x4 -1 x17 >= -1
  ie6: +1 x2 -1 x6 >= 0
  ie7: -1 x4 +1 x16 -1 x17 >= 1
  ie8: +1 x2 +1 x4 -1 x13 >= -1
  ie9: -1 x7 +1 x13 >= -2
  ie10: +1 x7 >= 0
  ie11: -1 x6 +1 x8 >= 0
  ie12: +1 x1 -1 x7 >= -2
  ie13: -1 x7 >= -3
  ie14: +1 x3 +1 x13 -1 x14 >= -2
END

0.002 sec
[5 ph, smt 0.554, isect 0.154, ins 0.004, tot 0.863]

Running SMT solver (7)... 0.041 sec
Found point (-1,1/4,-1,0,2,-1,-1,5/4,1/4,2,0,13/4,-3/4,1/4,5/4,-3/4,-2,-2,1,-1,-3)
Checking... Minimizing (20,140)... (19,8), 0.023 sec
Inserting... 

MAXIMIZE
Subject To
  eq0: +1 x14 -1 x16 = 1
  eq1: -1 x6 +1 x7 +1 x10 = 2
  eq2: -1 x3 +1 x5 +1 x7 = 2
  eq3: -1 x7 +1 x14 -1 x15 = 0
  eq4: +1 x7 +1 x12 -1 x15 = 1
  eq5: -1 x11 +1 x20 -1 x21 = 2
  eq6: -1 x21 = 3
  eq7: -1 x13 +1 x16 = 0
  eq8: -1 x4 -1 x17 +1 x20 = 1
  eq9: -1 x1 +1 x17 -1 x21 = 2
  eq10: -1 x17 +1 x18 = 0
  eq11: -1 x2 +1 x13 -1 x21 = 2
  eq12: -1 x9 +1 x16 -1 x21 = 2
  eq13: +1 x8 -1 x14 = 1
  eq14: -1 x6 +1 x18 -1 x21 = 2
  eq15: +1 x7 +1 x19 -1 x20 = 1
  eq16: +1 x7 -1 x18 +1 x19 = 2
  eq17: -1 x3 -1 x17 +1 x18 = 1
  eq18: -1 x18 = 2
  ie0: +1 x5 -1 x7 +1 x13 -1 x15 >= -2
  ie1: +1 x2 -1 x6 >= 0
  ie2: -1 x4 +1 x16 -1 x17 >= 1
  ie3: -1 x3 +1 x12 >= 1
  ie4: -1 x7 +1 x9 -1 x12 >= -3
  ie5: -1 x6 +1 x19 >= 1
  ie6: -1 x6 +1 x8 >= 0
  ie7: +1 x5 -1 x7 +1 x17 -1 x19 >= -2
END

0.002 sec
[6 ph, smt 0.595, isect 0.178, ins 0.006, tot 0.934]

Running SMT solver (8)... 0.007 sec
Found point (-1,1/4,-1,1/8,2,-1,-1,5/4,1/4,2,1/8,13/4,-3/4,1/4,5/4,-3/4,-2,-2,1,-7/8,-3)
Checking... Minimizing (19,140)... (18,13), 0.027 sec
Inserting... 

MAXIMIZE
Subject To
  eq0: +1 x14 -1 x16 = 1
  eq1: -1 x6 +1 x7 +1 x10 = 2
  eq2: -1 x3 +1 x5 +1 x7 = 2
  eq3: -1 x7 +1 x14 -1 x15 = 0
  eq4: +1 x7 +1 x12 -1 x15 = 1
  eq5: -1 x11 +1 x20 -1 x21 = 2
  eq6: -1 x21 = 3
  eq7: -1 x13 +1 x16 = 0
  eq8: -1 x4 -1 x17 +1 x20 = 1
  eq9: -1 x1 +1 x17 -1 x21 = 2
  eq10: -1 x17 +1 x18 = 0
  eq11: -1 x2 +1 x13 -1 x21 = 2
  eq12: -1 x9 +1 x16 -1 x21 = 2
  eq13: +1 x8 -1 x14 = 1
  eq14: -1 x6 +1 x18 -1 x21 = 2
  eq15: +1 x7 -1 x18 +1 x19 = 2
  eq16: -1 x3 -1 x17 +1 x18 = 1
  eq17: -1 x18 = 2
  ie0: +1 x14 -1 x18 >= 2
  ie1: -1 x4 -1 x17 +1 x18 >= -1
  ie2: +1 x4 >= -1
  ie3: -1 x18 +1 x20 >= 1
  ie4: +1 x5 -1 x7 +1 x13 -1 x15 >= -2
  ie5: +1 x2 -1 x6 >= 0
  ie6: +1 x3 -1 x4 -1 x17 >= -1
  ie7: -1 x4 +1 x16 -1 x17 >= 1
  ie8: +1 x2 +1 x4 -1 x13 >= -1
  ie9: -1 x7 +1 x9 -1 x12 >= -3
  ie10: -1 x3 +1 x12 >= 1
  ie11: -1 x6 +1 x19 >= 1
  ie12: -1 x6 +1 x8 >= 0
END

0.004 sec
[5 ph, smt 0.602, isect 0.205, ins 0.010, tot 0.977]

Running SMT solver (9)... 0.030 sec
Found point (-11/12,-1/2,-13/12,-2/3,17/12,-1,-1/2,5/12,-7/12,17/12,-7/12,17/12,-3/2,-7/12,-1/12,-19/12,-23/12,-2,-1/12,-19/12,-3)
Checking... Minimizing (19,141)... (18,18), 0.035 sec
Inserting... 

MAXIMIZE
Subject To
  eq0: +1 x14 -1 x16 = 1
  eq1: +1 x7 +1 x10 -1 x19 = 1
  eq2: -1 x7 +1 x14 -1 x15 = 0
  eq3: -1 x7 +1 x14 -1 x19 = 0
  eq4: +1 x7 +1 x12 -1 x15 = 1
  eq5: -1 x21 = 3
  eq6: -1 x11 +1 x20 -1 x21 = 2
  eq7: +1 x5 +1 x7 -1 x19 = 1
  eq8: -1 x4 -1 x17 +1 x20 = 1
  eq9: -1 x1 +1 x17 -1 x21 = 2
  eq10: -1 x2 +1 x13 -1 x21 = 2
  eq11: -1 x9 +1 x16 -1 x21 = 2
  eq12: +1 x8 -1 x14 = 1
  eq13: -1 x6 +1 x18 -1 x21 = 2
  eq14: -1 x3 -1 x13 +1 x16 = 1
  eq15: +1 x7 +1 x19 -1 x20 = 1
  eq16: -1 x3 -1 x17 +1 x18 = 1
  eq17: -1 x18 = 2
  ie0: +1 x3 -1 x5 -1 x7 >= -2
  ie1: -1 x7 +1 x13 >= -2
  ie2: -1 x7 +1 x21 >= -3
  ie3: -1 x6 +1 x8 >= 0
  ie4: -1 x7 >= -3
  ie5: -1 x7 +1 x17 >= -2
  ie6: +1 x1 +1 x3 -1 x17 >= -1
  ie7: -1 x3 >= 1
  ie8: +1 x5 -1 x7 +1 x13 -1 x15 >= -2
  ie9: +1 x2 -1 x6 >= 0
  ie10: +1 x3 -1 x4 -1 x17 >= -1
  ie11: -1 x14 +1 x18 >= -2
  ie12: -1 x6 +1 x10 >= 0
  ie13: -1 x7 +1 x9 -1 x12 >= -3
  ie14: +1 x1 -1 x7 >= -2
  ie15: -1 x3 +1 x7 -1 x17 +1 x19 >= 2
  ie16: +1 x10 -1 x17 >= 0
  ie17: +1 x5 -1 x7 +1 x17 -1 x19 >= -2
END

0.000 sec
[6 ph, smt 0.632, isect 0.239, ins 0.010, tot 1.047]

Running SMT solver (10)... 0.037 sec
Found point (-7/8,1/2,-9/8,1/4,-5/8,-1,3/2,11/8,3/8,-1/2,3/8,11/8,-1/2,3/8,3/8,-5/8,-15/8,-2,-3/2,-5/8,-3)
Checking... Minimizing (17,137)... (17,17), 0.028 sec
Inserting... 

MAXIMIZE
Subject To
  eq0: -1 x5 -1 x17 +1 x19 = 1
  eq1: +1 x12 -1 x15 = 1
  eq2: -1 x11 +1 x20 -1 x21 = 2
  eq3: -1 x21 = 3
  eq4: -1 x4 -1 x17 +1 x20 = 1
  eq5: -1 x1 +1 x17 -1 x21 = 2
  eq6: -1 x2 +1 x13 -1 x21 = 2
  eq7: -1 x3 -1 x13 +1 x14 = 2
  eq8: -1 x9 +1 x16 -1 x21 = 2
  eq9: +1 x15 -1 x16 = 1
  eq10: +1 x8 -1 x14 = 1
  eq11: -1 x6 +1 x18 -1 x21 = 2
  eq12: -1 x10 +1 x19 -1 x21 = 2
  eq13: -1 x3 -1 x13 +1 x16 = 1
  eq14: +1 x7 -1 x18 +1 x19 = 2
  eq15: -1 x3 -1 x17 +1 x18 = 1
  eq16: -1 x18 = 2
  ie0: +1 x14 -1 x18 >= 2
  ie1: -1 x5 -1 x17 +1 x20 >= 1
  ie2: +1 x2 +1 x4 -1 x13 >= -1
  ie3: +1 x2 +1 x4 -1 x16 >= -1
  ie4: -1 x6 +1 x8 >= 0
  ie5: -1 x4 -1 x17 +1 x18 >= -1
  ie6: -1 x3 +1 x5 >= 0
  ie7: +1 x1 +1 x3 -1 x17 >= -1
  ie8: -1 x5 -1 x17 +1 x18 >= 0
  ie9: -1 x3 >= 1
  ie10: +1 x3 -1 x4 -1 x17 >= -1
  ie11: +1 x2 -1 x6 >= 0
  ie12: -1 x4 +1 x16 -1 x17 >= 1
  ie13: -1 x5 +1 x15 -1 x17 >= 1
  ie14: +1 x19 >= -3
  ie15: +1 x20 >= -2
  ie16: +1 x10 -1 x17 >= 0
END

0.002 sec
[6 ph, smt 0.669, isect 0.267, ins 0.012, tot 1.119]

Running SMT solver (11)... 0.080 sec
Found point (-1/6,2/3,-11/6,-11/6,-11/6,-1,11/6,5/6,-1/6,-1,-1,5/6,-1/3,-1/6,-1/6,-7/6,-7/6,-2,-2,-2,-3)
Checking... Minimizing (20,138)... (19,6), 0.022 sec
Inserting... 

MAXIMIZE
Subject To
  eq0: -1 x5 -1 x17 +1 x19 = 1
  eq1: -1 x20 = 2
  eq2: -1 x5 -1 x17 +1 x20 = 1
  eq3: +1 x12 -1 x15 = 1
  eq4: -1 x7 +1 x14 -1 x19 = 0
  eq5: -1 x11 +1 x20 -1 x21 = 2
  eq6: -1 x21 = 3
  eq7: -1 x4 -1 x17 +1 x20 = 1
  eq8: -1 x1 +1 x17 -1 x21 = 2
  eq9: -1 x2 +1 x13 -1 x21 = 2
  eq10: -1 x3 -1 x13 +1 x14 = 2
  eq11: -1 x9 +1 x16 -1 x21 = 2
  eq12: +1 x15 -1 x16 = 1
  eq13: +1 x8 -1 x14 = 1
  eq14: -1 x6 +1 x18 -1 x21 = 2
  eq15: -1 x10 +1 x19 -1 x21 = 2
  eq16: -1 x5 -1 x13 +1 x16 = 1
  eq17: -1 x3 -1 x17 +1 x18 = 1
  eq18: -1 x18 = 2
  ie0: +1 x17 >= -2
  ie1: +1 x1 +1 x3 -1 x17 >= -1
  ie2: +1 x2 -1 x11 >= 0
  ie3: +1 x2 -1 x17 >= 0
  ie4: -1 x14 +1 x18 >= -2
  ie5: -1 x4 +1 x16 -1 x17 >= 1
END

0.002 sec
[7 ph, smt 0.749, isect 0.289, ins 0.014, tot 1.228]

Running SMT solver (12)... 0.045 sec
Found point (-9/10,-9/10,-11/10,-11/10,-3/10,-1,1/5,0,-1,-1/5,-1,0,-19/10,-1,-1,-2,-19/10,-2,-6/5,-2,-3)
Checking... Minimizing (20,138)... (19,5), 0.021 sec
Inserting... 

MAXIMIZE
Subject To
  eq0: -1 x5 -1 x17 +1 x19 = 1
  eq1: -1 x20 = 2
  eq2: +1 x12 -1 x15 = 1
  eq3: -1 x7 +1 x14 -1 x19 = 0
  eq4: -1 x4 -1 x13 +1 x16 = 1
  eq5: -1 x11 +1 x20 -1 x21 = 2
  eq6: -1 x21 = 3
  eq7: -1 x4 -1 x17 +1 x20 = 1
  eq8: -1 x1 +1 x17 -1 x21 = 2
  eq9: -1 x2 +1 x13 -1 x21 = 2
  eq10: -1 x3 -1 x13 +1 x14 = 2
  eq11: -1 x9 +1 x16 -1 x21 = 2
  eq12: +1 x15 -1 x16 = 1
  eq13: +1 x8 -1 x14 = 1
  eq14: -1 x6 +1 x18 -1 x21 = 2
  eq15: -1 x10 +1 x19 -1 x21 = 2
  eq16: +1 x7 +1 x19 -1 x20 = 1
  eq17: +1 x7 -1 x18 +1 x19 = 1
  eq18: -1 x3 -1 x17 +1 x18 = 1
  ie0: +1 x7 -1 x17 >= 2
  ie1: +1 x1 +1 x3 -1 x17 >= -1
  ie2: +1 x2 -1 x11 >= 0
  ie3: +1 x5 -1 x7 +1 x17 -1 x19 >= -2
  ie4: -1 x5 +1 x15 -1 x17 >= 1
END

0.002 sec
[7 ph, smt 0.795, isect 0.311, ins 0.015, tot 1.301]

Running SMT solver (13)... 0.067 sec
Found point (2,0,-1,-2,3,1,-2,0,-1,5,1,4,-1,-1,1,-2,1,0,3,0,-3)
Checking... Minimizing (20,135)... (19,11), 0.028 sec
Inserting... 

MAXIMIZE
Subject To
  eq0: +1 x14 -1 x16 = 1
  eq1: -1 x16 = 2
  eq2: -1 x6 +1 x7 +1 x10 = 2
  eq3: -1 x1 -1 x4 +1 x17 = 1
  eq4: -1 x3 +1 x5 +1 x7 = 2
  eq5: -1 x7 +1 x14 -1 x15 = 0
  eq6: +1 x7 +1 x12 -1 x15 = 1
  eq7: -1 x4 -1 x13 +1 x16 = 1
  eq8: -1 x21 = 3
  eq9: -1 x11 +1 x20 -1 x21 = 2
  eq10: -1 x4 -1 x17 +1 x20 = 1
  eq11: -1 x3 -1 x13 +1 x14 = 1
  eq12: -1 x9 +1 x16 -1 x21 = 2
  eq13: +1 x8 -1 x14 = 1
  eq14: -1 x7 = 2
  eq15: +1 x7 +1 x19 -1 x20 = 1
  eq16: -1 x2 -1 x4 +1 x13 = 1
  eq17: +1 x7 -1 x18 +1 x19 = 1
  eq18: -1 x6 +1 x18 -1 x21 = 2
  ie0: +1 x9 -1 x20 >= -2
  ie1: -1 x4 +1 x5 -1 x13 >= -1
  ie2: -1 x9 +1 x10 >= 0
  ie3: -1 x4 +1 x21 >= -1
  ie4: +1 x1 +1 x3 -1 x18 >= -1
  ie5: +1 x2 -1 x9 >= 0
  ie6: +1 x2 -1 x13 >= 0
  ie7: -1 x16 +1 x20 >= 0
  ie8: -1 x3 -1 x13 +1 x18 >= 1
  ie9: -1 x4 +1 x16 -1 x17 >= -1
  ie10: -1 x1 -1 x4 +1 x11 >= 1
END

0.000 sec
[8 ph, smt 0.862, isect 0.338, ins 0.015, tot 1.400]

Running SMT solver (14)... 0.016 sec
Found point (-3/4,-3/4,-5/4,-5/4,11/4,-1,-2,0,-1,3,-1,4,-7/4,-1,1,-2,-7/4,-2,1,-2,-3)
Checking... Minimizing (21,141)... (19,7), 0.024 sec
Inserting... 

MAXIMIZE
Subject To
  eq0: +1 x14 -1 x16 = 1
  eq1: -1 x20 = 2
  eq2: -1 x6 +1 x7 +1 x10 = 2
  eq3: -1 x3 +1 x5 +1 x7 = 2
  eq4: -1 x7 +1 x14 -1 x19 = 0
  eq5: +1 x7 +1 x12 -1 x15 = 1
  eq6: -1 x7 +1 x14 -1 x15 = 0
  eq7: -1 x4 -1 x13 +1 x16 = 1
  eq8: -1 x11 +1 x20 -1 x21 = 2
  eq9: -1 x21 = 3
  eq10: -1 x4 -1 x17 +1 x20 = 1
  eq11: -1 x1 +1 x17 -1 x21 = 2
  eq12: -1 x2 +1 x13 -1 x21 = 2
  eq13: -1 x9 +1 x16 -1 x21 = 2
  eq14: +1 x8 -1 x14 = 1
  eq15: -1 x6 +1 x18 -1 x21 = 2
  eq16: +1 x7 +1 x19 -1 x20 = 1
  eq17: +1 x7 -1 x18 +1 x19 = 1
  eq18: -1 x3 -1 x17 +1 x18 = 1
  ie0: +1 x1 +1 x3 -1 x17 >= -1
  ie1: -1 x6 +1 x19 >= 1
  ie2: +1 x5 -1 x7 +1 x13 -1 x15 >= -2
  ie3: +1 x2 -1 x11 >= 0
  ie4: -1 x3 +1 x12 >= 1
  ie5: +1 x19 -1 x20 >= 0
  ie6: -1 x7 +1 x9 -1 x12 >= -3
END

0.000 sec
[9 ph, smt 0.878, isect 0.363, ins 0.016, tot 1.446]

Running SMT solver (15)... 0.010 sec
Found point (0,0,-2,-2,5/6,-1,-5/6,0,-1,5/3,-1,5/3,-1,-1,-1/6,-2,-1,-2,-1/6,-2,-3)
Checking... Minimizing (21,136)... (19,12), 0.027 sec
Inserting... 

MAXIMIZE
Subject To
  eq0: +1 x14 -1 x16 = 1
  eq1: -1 x20 = 2
  eq2: -1 x1 -1 x4 +1 x17 = 1
  eq3: +1 x7 +1 x10 -1 x19 = 1
  eq4: -1 x3 +1 x5 +1 x7 = 2
  eq5: -1 x7 +1 x14 -1 x19 = 0
  eq6: +1 x7 +1 x12 -1 x15 = 1
  eq7: -1 x7 +1 x14 -1 x15 = 0
  eq8: -1 x4 -1 x13 +1 x16 = 1
  eq9: -1 x11 +1 x20 -1 x21 = 2
  eq10: -1 x21 = 3
  eq11: -1 x4 -1 x17 +1 x20 = 1
  eq12: -1 x9 +1 x16 -1 x21 = 2
  eq13: +1 x8 -1 x14 = 1
  eq14: -1 x6 +1 x18 -1 x21 = 2
  eq15: +1 x7 +1 x19 -1 x20 = 1
  eq16: -1 x2 -1 x4 +1 x13 = 1
  eq17: +1 x7 -1 x18 +1 x19 = 1
  eq18: -1 x3 -1 x17 +1 x18 = 1
  ie0: +1 x2 +1 x3 -1 x8 >= -2
  ie1: +1 x1 +1 x3 -1 x18 >= -1
  ie2: +1 x5 -1 x7 +1 x13 -1 x15 >= -2
  ie3: +1 x2 -1 x11 >= 0
  ie4: +1 x3 -1 x4 -1 x17 >= -1
  ie5: +1 x19 -1 x20 >= 0
  ie6: -1 x7 +1 x9 -1 x12 >= -3
  ie7: -1 x3 +1 x12 >= 1
  ie8: -1 x3 +1 x15 >= 1
  ie9: +1 x6 -1 x7 -1 x10 >= -2
  ie10: +1 x10 -1 x11 >= 0
  ie11: -1 x1 -1 x4 +1 x11 >= 1
END

0.000 sec
[10 ph, smt 0.888, isect 0.390, ins 0.016, tot 1.488]

Running SMT solver (16)... 0.007 sec
Found point (-1/10,-1/10,-19/10,-19/10,9/10,-1,-4/5,0,-1,8/5,-1,8/5,-11/10,-1,-1/5,-2,-11/10,-2,-1/5,-2,-3)
Checking... Minimizing (21,141)... (19,8), 0.025 sec
Inserting... 

MAXIMIZE
Subject To
  eq0: +1 x14 -1 x16 = 1
  eq1: -1 x20 = 2
  eq2: +1 x7 +1 x10 -1 x19 = 1
  eq3: -1 x3 +1 x5 +1 x7 = 2
  eq4: -1 x7 +1 x14 -1 x19 = 0
  eq5: +1 x7 +1 x12 -1 x15 = 1
  eq6: -1 x7 +1 x14 -1 x15 = 0
  eq7: -1 x4 -1 x13 +1 x16 = 1
  eq8: -1 x11 +1 x20 -1 x21 = 2
  eq9: -1 x21 = 3
  eq10: -1 x4 -1 x17 +1 x20 = 1
  eq11: -1 x1 +1 x17 -1 x21 = 2
  eq12: -1 x2 +1 x13 -1 x21 = 2
  eq13: -1 x9 +1 x16 -1 x21 = 2
  eq14: +1 x8 -1 x14 = 1
  eq15: -1 x6 +1 x18 -1 x21 = 2
  eq16: +1 x7 +1 x19 -1 x20 = 1
  eq17: +1 x7 -1 x18 +1 x19 = 1
  eq18: -1 x3 -1 x17 +1 x18 = 1
  ie0: +1 x1 +1 x3 -1 x17 >= -1
  ie1: +1 x5 -1 x7 +1 x13 -1 x15 >= -2
  ie2: +1 x2 -1 x11 >= 0
  ie3: +1 x19 -1 x20 >= 0
  ie4: -1 x7 +1 x9 -1 x12 >= -3
  ie5: -1 x3 +1 x12 >= 1
  ie6: -1 x3 +1 x15 >= 1
  ie7: +1 x6 -1 x7 -1 x10 >= -2
END

0.002 sec
[10 ph, smt 0.896, isect 0.416, ins 0.018, tot 1.528]

Running SMT solver (17)... 0.014 sec
Found point (0,-1,0,-1,4,0,-2,0,-1,4,0,4,-2,-1,1,-2,-1,-1,2,-1,-3)
Checking... Minimizing (22,140)... (20,6), 0.021 sec
Inserting... 

MAXIMIZE
Subject To
  eq0: +1 x14 -1 x16 = 1
  eq1: -1 x16 = 2
  eq2: -1 x6 +1 x7 +1 x10 = 2
  eq3: -1 x7 +1 x14 -1 x15 = 0
  eq4: +1 x7 +1 x12 -1 x15 = 1
  eq5: -1 x3 -1 x13 +1 x18 = 1
  eq6: +1 x5 +1 x7 -1 x15 = 1
  eq7: -1 x4 -1 x13 +1 x16 = 1
  eq8: -1 x13 +1 x16 = 0
  eq9: -1 x11 +1 x20 -1 x21 = 2
  eq10: -1 x21 = 3
  eq11: -1 x17 +1 x20 = 0
  eq12: -1 x1 +1 x17 -1 x21 = 2
  eq13: -1 x2 +1 x13 -1 x21 = 2
  eq14: -1 x9 +1 x16 -1 x21 = 2
  eq15: +1 x8 -1 x14 = 1
  eq16: -1 x7 = 2
  eq17: +1 x7 +1 x19 -1 x20 = 1
  eq18: +1 x7 -1 x18 +1 x19 = 1
  eq19: -1 x6 +1 x18 -1 x21 = 2
  ie0: +1 x9 -1 x20 >= -2
  ie1: +1 x1 +1 x3 -1 x17 >= -1
  ie2: +1 x3 -1 x5 -1 x7 >= -2
  ie3: -1 x4 +1 x16 -1 x17 >= -1
  ie4: -1 x16 +1 x20 >= 0
  ie5: -1 x3 -1 x13 +1 x14 >= 1
END

0.000 sec
[11 ph, smt 0.910, isect 0.436, ins 0.018, tot 1.569]

Running SMT solver (18)... 0.009 sec
Found point (-1/6,-1,-1/6,-1,23/6,-1/6,-2,0,-1,23/6,-1/6,4,-2,-1,1,-2,-7/6,-7/6,11/6,-7/6,-3)
Checking... Minimizing (22,140)... (20,6), 0.021 sec
Inserting... 

MAXIMIZE
Subject To
  eq0: +1 x14 -1 x16 = 1
  eq1: -1 x16 = 2
  eq2: -1 x6 +1 x7 +1 x10 = 2
  eq3: -1 x3 +1 x5 +1 x7 = 2
  eq4: -1 x7 +1 x14 -1 x15 = 0
  eq5: +1 x7 +1 x12 -1 x15 = 1
  eq6: -1 x3 -1 x13 +1 x18 = 1
  eq7: -1 x4 -1 x13 +1 x16 = 1
  eq8: -1 x13 +1 x16 = 0
  eq9: -1 x21 = 3
  eq10: -1 x11 +1 x20 -1 x21 = 2
  eq11: -1 x17 +1 x20 = 0
  eq12: -1 x1 +1 x17 -1 x21 = 2
  eq13: -1 x2 +1 x13 -1 x21 = 2
  eq14: -1 x9 +1 x16 -1 x21 = 2
  eq15: +1 x8 -1 x14 = 1
  eq16: -1 x7 = 2
  eq17: +1 x7 +1 x19 -1 x20 = 1
  eq18: +1 x7 -1 x18 +1 x19 = 1
  eq19: -1 x6 +1 x18 -1 x21 = 2
  ie0: +1 x9 -1 x20 >= -2
  ie1: -1 x4 +1 x5 -1 x13 >= -1
  ie2: -1 x3 +1 x15 >= 1
  ie3: +1 x1 +1 x3 -1 x17 >= -1
  ie4: -1 x4 +1 x16 -1 x17 >= -1
  ie5: -1 x16 +1 x20 >= 0
END

0.002 sec
[11 ph, smt 0.918, isect 0.458, ins 0.020, tot 1.605]

Running SMT solver (19)... 0.009 sec
Found point (0,-5/6,-1/3,-7/6,11/3,-1/6,-2,0,-1,23/6,-1/6,4,-11/6,-1,1,-2,-1,-7/6,11/6,-7/6,-3)
Checking... Minimizing (20,140)... (19,11), 0.025 sec
Inserting... 

MAXIMIZE
Subject To
  eq0: +1 x14 -1 x16 = 1
  eq1: -1 x16 = 2
  eq2: -1 x6 +1 x7 +1 x10 = 2
  eq3: -1 x3 +1 x5 +1 x7 = 2
  eq4: -1 x7 +1 x14 -1 x15 = 0
  eq5: +1 x7 +1 x12 -1 x15 = 1
  eq6: -1 x3 -1 x13 +1 x18 = 1
  eq7: -1 x4 -1 x13 +1 x16 = 1
  eq8: -1 x21 = 3
  eq9: -1 x11 +1 x20 -1 x21 = 2
  eq10: -1 x4 -1 x17 +1 x20 = 1
  eq11: -1 x1 +1 x17 -1 x21 = 2
  eq12: -1 x2 +1 x13 -1 x21 = 2
  eq13: -1 x9 +1 x16 -1 x21 = 2
  eq14: +1 x8 -1 x14 = 1
  eq15: -1 x7 = 2
  eq16: +1 x7 +1 x19 -1 x20 = 1
  eq17: +1 x7 -1 x18 +1 x19 = 1
  eq18: -1 x6 +1 x18 -1 x21 = 2
  ie0: +1 x9 -1 x20 >= -2
  ie1: -1 x4 +1 x5 -1 x13 >= -1
  ie2: -1 x9 +1 x10 >= 0
  ie3: +1 x1 +1 x3 -1 x17 >= -1
  ie4: +1 x1 +1 x3 -1 x18 >= -1
  ie5: -1 x3 +1 x4 >= -1
  ie6: +1 x2 -1 x9 >= 0
  ie7: +1 x2 +1 x4 -1 x13 >= -1
  ie8: -1 x3 +1 x15 >= 1
  ie9: -1 x4 +1 x16 -1 x17 >= -1
  ie10: +1 x3 -1 x4 >= 0
END

0.004 sec
[11 ph, smt 0.928, isect 0.482, ins 0.023, tot 1.648]

Running SMT solver (20)... 0.014 sec
Found point (0,7/6,-2,-11/12,2,-1,-2,7/6,1/6,3,1/12,31/6,1/6,1/6,13/6,-5/6,-1,-2,2,-11/12,-3)
Checking... Minimizing (18,135)... (17,19), 0.037 sec
Inserting... 

MAXIMIZE
Subject To
  eq0: +1 x14 -1 x16 = 1
  eq1: -1 x6 +1 x7 +1 x10 = 2
  eq2: -1 x3 +1 x5 +1 x7 = 2
  eq3: -1 x7 +1 x14 -1 x15 = 0
  eq4: +1 x7 +1 x12 -1 x15 = 1
  eq5: -1 x21 = 3
  eq6: -1 x11 +1 x20 -1 x21 = 2
  eq7: -1 x2 -1 x3 +1 x13 = 1
  eq8: -1 x4 -1 x17 +1 x20 = 1
  eq9: -1 x9 +1 x16 -1 x21 = 2
  eq10: +1 x8 -1 x14 = 1
  eq11: -1 x6 +1 x18 -1 x21 = 2
  eq12: -1 x1 -1 x3 +1 x17 = 1
  eq13: -1 x3 -1 x13 +1 x16 = 1
  eq14: +1 x7 -1 x18 +1 x19 = 2
  eq15: -1 x3 -1 x17 +1 x18 = 1
  eq16: -1 x18 = 2
  ie0: +1 x14 -1 x18 >= 2
  ie1: +1 x2 +1 x3 -1 x8 >= -2
  ie2: +1 x2 +1 x4 -1 x16 >= -1
  ie3: +1 x2 -1 x3 +1 x5 >= 0
  ie4: +1 x2 -1 x3 -1 x13 +1 x21 >= -1
  ie5: -1 x6 +1 x8 >= 0
  ie6: -1 x4 -1 x17 +1 x18 >= -1
  ie7: +1 x1 +1 x3 -1 x18 >= -1
  ie8: -1 x18 +1 x20 >= 1
  ie9: +1 x5 -1 x7 +1 x13 -1 x15 >= -2
  ie10: +1 x2 -1 x17 >= 0
  ie11: +1 x2 -1 x6 >= 0
  ie12: -1 x4 +1 x16 -1 x17 >= 1
  ie13: +1 x3 -1 x4 -1 x17 >= -1
  ie14: -1 x3 +1 x12 >= 1
  ie15: -1 x7 +1 x9 -1 x12 >= -3
  ie16: -1 x6 +1 x19 >= 1
  ie17: +1 x20 >= -2
  ie18: +1 x3 -1 x18 >= 0
END

0.000 sec
[12 ph, smt 0.942, isect 0.520, ins 0.024, tot 1.704]

Running SMT solver (21)... 0.009 sec
Found point (-1/16,9/8,-31/16,-13/16,33/16,-1,-2,19/16,3/16,3,1/8,83/16,1/8,3/16,35/16,-13/16,-17/16,-2,2,-7/8,-3)
Checking... Minimizing (18,140)... (17,17), 0.034 sec
Inserting... 

MAXIMIZE
Subject To
  eq0: +1 x14 -1 x16 = 1
  eq1: -1 x6 +1 x7 +1 x10 = 2
  eq2: -1 x3 +1 x5 +1 x7 = 2
  eq3: -1 x7 +1 x14 -1 x15 = 0
  eq4: +1 x7 +1 x12 -1 x15 = 1
  eq5: -1 x11 +1 x20 -1 x21 = 2
  eq6: -1 x21 = 3
  eq7: -1 x4 -1 x17 +1 x20 = 1
  eq8: -1 x1 +1 x17 -1 x21 = 2
  eq9: -1 x2 +1 x13 -1 x21 = 2
  eq10: -1 x9 +1 x16 -1 x21 = 2
  eq11: +1 x8 -1 x14 = 1
  eq12: -1 x6 +1 x18 -1 x21 = 2
  eq13: -1 x3 -1 x13 +1 x16 = 1
  eq14: +1 x7 -1 x18 +1 x19 = 2
  eq15: -1 x3 -1 x17 +1 x18 = 1
  eq16: -1 x18 = 2
  ie0: +1 x14 -1 x18 >= 2
  ie1: +1 x2 +1 x4 -1 x13 >= -1
  ie2: +1 x2 +1 x4 -1 x16 >= -1
  ie3: +1 x2 -1 x3 +1 x5 >= 0
  ie4: -1 x6 +1 x8 >= 0
  ie5: -1 x4 -1 x17 +1 x18 >= -1
  ie6: +1 x1 +1 x3 -1 x17 >= -1
  ie7: -1 x18 +1 x20 >= 1
  ie8: -1 x3 >= 1
  ie9: +1 x5 -1 x7 +1 x13 -1 x15 >= -2
  ie10: +1 x2 -1 x6 >= 0
  ie11: +1 x3 -1 x4 -1 x17 >= -1
  ie12: -1 x4 +1 x16 -1 x17 >= 1
  ie13: -1 x3 +1 x12 >= 1
  ie14: -1 x7 +1 x9 -1 x12 >= -3
  ie15: -1 x6 +1 x19 >= 1
  ie16: +1 x20 >= -2
END

0.005 sec
[11 ph, smt 0.951, isect 0.553, ins 0.029, tot 1.758]

Running SMT solver (22)... 0.007 sec
Found point (-1/5,7/10,-9/5,-9/10,11/5,-1,-2,9/10,-1/10,3,-1/10,49/10,-3/10,-1/10,19/10,-11/10,-6/5,-2,19/10,-11/10,-3)
Checking... Minimizing (19,141)... (18,13), 0.035 sec
Inserting... 

MAXIMIZE
Subject To
  eq0: +1 x14 -1 x16 = 1
  eq1: -1 x6 +1 x7 +1 x10 = 2
  eq2: -1 x3 +1 x5 +1 x7 = 2
  eq3: -1 x7 +1 x14 -1 x19 = 0
  eq4: +1 x7 +1 x12 -1 x15 = 1
  eq5: -1 x7 +1 x14 -1 x15 = 0
  eq6: -1 x21 = 3
  eq7: -1 x11 +1 x20 -1 x21 = 2
  eq8: -1 x4 -1 x17 +1 x20 = 1
  eq9: -1 x1 +1 x17 -1 x21 = 2
  eq10: -1 x2 +1 x13 -1 x21 = 2
  eq11: -1 x9 +1 x16 -1 x21 = 2
  eq12: +1 x8 -1 x14 = 1
  eq13: -1 x6 +1 x18 -1 x21 = 2
  eq14: -1 x3 -1 x13 +1 x16 = 1
  eq15: +1 x7 +1 x19 -1 x20 = 1
  eq16: -1 x3 -1 x17 +1 x18 = 1
  eq17: -1 x18 = 2
  ie0: +1 x1 +1 x3 -1 x17 >= -1
  ie1: -1 x3 >= 1
  ie2: +1 x5 -1 x7 +1 x13 -1 x15 >= -2
  ie3: +1 x2 -1 x6 >= 0
  ie4: +1 x3 -1 x4 -1 x17 >= -1
  ie5: -1 x14 +1 x18 >= -2
  ie6: -1 x3 +1 x12 >= 1
  ie7: -1 x7 +1 x9 -1 x12 >= -3
  ie8: +1 x2 -1 x3 +1 x5 >= 0
  ie9: -1 x6 +1 x19 >= 1
  ie10: -1 x6 +1 x8 >= 0
  ie11: -1 x3 +1 x7 -1 x17 +1 x19 >= 2
  ie12: +1 x5 -1 x7 +1 x17 -1 x19 >= -2
END

0.003 sec
[10 ph, smt 0.958, isect 0.589, ins 0.033, tot 1.808]

Running SMT solver (23)... 0.029 sec
Found point (5/4,-3/4,-1/4,-5/4,15/4,1,-2,0,-1,5,1,4,-7/4,-1,1,-2,1/4,0,3,0,-3)
Checking... Minimizing (20,140)... (19,9), 0.025 sec
Inserting... 

MAXIMIZE
Subject To
  eq0: +1 x14 -1 x16 = 1
  eq1: -1 x16 = 2
  eq2: -1 x6 +1 x7 +1 x10 = 2
  eq3: -1 x3 +1 x5 +1 x7 = 2
  eq4: -1 x7 +1 x14 -1 x15 = 0
  eq5: +1 x7 +1 x12 -1 x15 = 1
  eq6: -1 x4 -1 x13 +1 x16 = 1
  eq7: -1 x21 = 3
  eq8: -1 x11 +1 x20 -1 x21 = 2
  eq9: -1 x4 -1 x17 +1 x20 = 1
  eq10: -1 x1 +1 x17 -1 x21 = 2
  eq11: -1 x2 +1 x13 -1 x21 = 2
  eq12: -1 x3 -1 x13 +1 x14 = 1
  eq13: -1 x9 +1 x16 -1 x21 = 2
  eq14: +1 x8 -1 x14 = 1
  eq15: -1 x7 = 2
  eq16: +1 x7 +1 x19 -1 x20 = 1
  eq17: +1 x7 -1 x18 +1 x19 = 1
  eq18: -1 x6 +1 x18 -1 x21 = 2
  ie0: +1 x9 -1 x20 >= -2
  ie1: -1 x4 +1 x5 -1 x13 >= -1
  ie2: -1 x9 +1 x10 >= 0
  ie3: +1 x1 +1 x3 -1 x17 >= -1
  ie4: +1 x2 -1 x9 >= 0
  ie5: -1 x16 +1 x20 >= 0
  ie6: +1 x2 +1 x4 -1 x13 >= -1
  ie7: -1 x3 -1 x13 +1 x18 >= 1
  ie8: -1 x4 +1 x16 -1 x17 >= -1
END

0.002 sec
[10 ph, smt 0.987, isect 0.613, ins 0.035, tot 1.868]

Running SMT solver (24)... 0.026 sec
Found point (-1/30,1/10,-59/30,-11/6,-31/30,-1,7/12,2/15,-13/15,-9/20,-13/15,2/15,-9/10,-13/15,-13/15,-28/15,-31/30,-2,-29/20,-28/15,-3)
Checking... Minimizing (18,142)... (18,14), 0.032 sec
Inserting... 

MAXIMIZE
Subject To
  eq0: +1 x12 -1 x15 = 1
  eq1: -1 x7 +1 x14 -1 x19 = 0
  eq2: -1 x21 = 3
  eq3: -1 x11 +1 x20 -1 x21 = 2
  eq4: +1 x5 +1 x7 -1 x19 = 1
  eq5: -1 x4 -1 x17 +1 x20 = 1
  eq6: -1 x1 +1 x17 -1 x21 = 2
  eq7: -1 x2 +1 x13 -1 x21 = 2
  eq8: -1 x3 -1 x13 +1 x14 = 2
  eq9: -1 x9 +1 x16 -1 x21 = 2
  eq10: +1 x15 -1 x16 = 1
  eq11: +1 x8 -1 x14 = 1
  eq12: -1 x6 +1 x18 -1 x21 = 2
  eq13: -1 x10 +1 x19 -1 x21 = 2
  eq14: -1 x3 -1 x13 +1 x16 = 1
  eq15: +1 x7 +1 x19 -1 x20 = 1
  eq16: -1 x3 -1 x17 +1 x18 = 1
  eq17: -1 x18 = 2
  ie0: -1 x7 +1 x17 >= -2
  ie1: +1 x1 +1 x3 -1 x17 >= -1
  ie2: +1 x3 -1 x5 -1 x7 >= -2
  ie3: -1 x3 >= 1
  ie4: +1 x3 -1 x4 -1 x17 >= -1
  ie5: +1 x2 -1 x6 >= 0
  ie6: -1 x14 +1 x18 >= -2
  ie7: -1 x7 +1 x13 >= -2
  ie8: +1 x7 >= 0
  ie9: -1 x6 +1 x8 >= 0
  ie10: -1 x3 +1 x7 -1 x17 +1 x19 >= 2
  ie11: +1 x1 -1 x7 >= -2
  ie12: +1 x5 -1 x7 +1 x17 -1 x19 >= -2
  ie13: -1 x7 >= -3
END

0.000 sec
[11 ph, smt 1.012, isect 0.645, ins 0.035, tot 1.931]

Running SMT solver (25)... 0.045 sec
Found point (-1/7,13/14,-13/7,-23/28,-5/7,-1,6/7,15/14,1/14,1/7,1/28,15/14,-1/14,1/14,1/14,-13/14,-8/7,-2,-6/7,-27/28,-3)
Checking... Minimizing (17,141)... (17,18), 0.033 sec
Inserting... 

MAXIMIZE
Subject To
  eq0: +1 x12 -1 x15 = 1
  eq1: -1 x11 +1 x20 -1 x21 = 2
  eq2: -1 x21 = 3
  eq3: +1 x5 +1 x7 -1 x19 = 1
  eq4: -1 x4 -1 x17 +1 x20 = 1
  eq5: -1 x1 +1 x17 -1 x21 = 2
  eq6: -1 x2 +1 x13 -1 x21 = 2
  eq7: -1 x3 -1 x13 +1 x14 = 2
  eq8: -1 x9 +1 x16 -1 x21 = 2
  eq9: +1 x15 -1 x16 = 1
  eq10: +1 x8 -1 x14 = 1
  eq11: -1 x6 +1 x18 -1 x21 = 2
  eq12: -1 x10 +1 x19 -1 x21 = 2
  eq13: -1 x3 -1 x13 +1 x16 = 1
  eq14: +1 x7 -1 x18 +1 x19 = 2
  eq15: -1 x3 -1 x17 +1 x18 = 1
  eq16: -1 x18 = 2
  ie0: +1 x14 -1 x18 >= 2
  ie1: +1 x3 -1 x5 -1 x7 >= -2
  ie2: +1 x2 +1 x4 -1 x13 >= -1
  ie3: +1 x2 +1 x4 -1 x16 >= -1
  ie4: -1 x7 +1 x13 >= -2
  ie5: -1 x6 +1 x8 >= 0
  ie6: +1 x20 >= -2
  ie7: -1 x7 >= -3
  ie8: -1 x7 +1 x17 >= -2
  ie9: -1 x4 -1 x17 +1 x18 >= -1
  ie10: +1 x1 +1 x3 -1 x17 >= -1
  ie11: -1 x18 +1 x20 >= 1
  ie12: -1 x3 >= 1
  ie13: +1 x3 -1 x4 -1 x17 >= -1
  ie14: +1 x2 -1 x6 >= 0
  ie15: -1 x4 +1 x16 -1 x17 >= 1
  ie16: +1 x7 >= 0
  ie17: +1 x1 -1 x7 >= -2
END

0.000 sec
[12 ph, smt 1.057, isect 0.678, ins 0.035, tot 2.014]

Running SMT solver (26)... 0.013 sec
Found point (-13/20,11/20,-27/20,-7/20,1/5,-1,9/20,6/5,1/5,11/20,0,6/5,-9/20,1/5,1/5,-4/5,-33/20,-2,-9/20,-1,-3)
Checking... Minimizing (18,137)... (18,9), 0.028 sec
Inserting... 

MAXIMIZE
Subject To
  eq0: -1 x5 -1 x17 +1 x19 = 1
  eq1: +1 x12 -1 x15 = 1
  eq2: -1 x21 = 3
  eq3: -1 x11 +1 x20 -1 x21 = 2
  eq4: -1 x4 -1 x17 +1 x20 = 1
  eq5: -1 x1 +1 x17 -1 x21 = 2
  eq6: -1 x2 +1 x13 -1 x21 = 2
  eq7: -1 x3 -1 x13 +1 x14 = 2
  eq8: -1 x9 +1 x16 -1 x21 = 2
  eq9: +1 x15 -1 x16 = 1
  eq10: +1 x8 -1 x14 = 1
  eq11: -1 x6 +1 x18 -1 x21 = 2
  eq12: -1 x10 +1 x19 -1 x21 = 2
  eq13: -1 x3 -1 x13 +1 x16 = 1
  eq14: +1 x7 +1 x19 -1 x20 = 1
  eq15: +1 x7 -1 x18 +1 x19 = 2
  eq16: -1 x3 -1 x17 +1 x18 = 1
  eq17: -1 x18 = 2
  ie0: +1 x7 -1 x17 >= 2
  ie1: +1 x1 +1 x3 -1 x17 >= -1
  ie2: -1 x3 >= 1
  ie3: +1 x2 -1 x6 >= 0
  ie4: -1 x4 +1 x16 -1 x17 >= 1
  ie5: -1 x5 +1 x15 -1 x17 >= 1
  ie6: +1 x7 >= 0
  ie7: -1 x6 +1 x8 >= 0
  ie8: +1 x5 -1 x7 +1 x17 -1 x19 >= -2
END

0.000 sec
[13 ph, smt 1.070, isect 0.706, ins 0.036, tot 2.061]

Running SMT solver (27)... 0.008 sec
Found point (-7/12,13/24,-17/12,-3/8,1/8,-1,11/24,9/8,1/8,13/24,1/24,9/8,-11/24,1/8,1/8,-7/8,-19/12,-2,-11/24,-23/24,-3)
Checking... Minimizing (17,137)... (17,19), 0.031 sec
Inserting... 

MAXIMIZE
Subject To
  eq0: -1 x5 -1 x17 +1 x19 = 1
  eq1: +1 x12 -1 x15 = 1
  eq2: -1 x11 +1 x20 -1 x21 = 2
  eq3: -1 x21 = 3
  eq4: -1 x4 -1 x17 +1 x20 = 1
  eq5: -1 x1 +1 x17 -1 x21 = 2
  eq6: -1 x2 +1 x13 -1 x21 = 2
  eq7: -1 x3 -1 x13 +1 x14 = 2
  eq8: -1 x9 +1 x16 -1 x21 = 2
  eq9: +1 x15 -1 x16 = 1
  eq10: +1 x8 -1 x14 = 1
  eq11: -1 x6 +1 x18 -1 x21 = 2
  eq12: -1 x10 +1 x19 -1 x21 = 2
  eq13: -1 x3 -1 x13 +1 x16 = 1
  eq14: +1 x7 -1 x18 +1 x19 = 2
  eq15: -1 x3 -1 x17 +1 x18 = 1
  eq16: -1 x18 = 2
  ie0: +1 x14 -1 x18 >= 2
  ie1: +1 x2 +1 x4 -1 x13 >= -1
  ie2: +1 x2 +1 x4 -1 x16 >= -1
  ie3: -1 x6 +1 x8 >= 0
  ie4: +1 x7 -1 x17 >= 2
  ie5: -1 x4 -1 x17 +1 x18 >= -1
  ie6: -1 x3 +1 x5 >= 0
  ie7: +1 x1 +1 x3 -1 x17 >= -1
  ie8: -1 x18 +1 x20 >= 1
  ie9: -1 x3 >= 1
  ie10: +1 x3 -1 x4 -1 x17 >= -1
  ie11: +1 x2 -1 x6 >= 0
  ie12: -1 x4 +1 x16 -1 x17 >= 1
  ie13: -1 x7 >= -1
  ie14: -1 x5 +1 x15 -1 x17 >= 1
  ie15: +1 x19 >= -3
  ie16: +1 x7 >= 0
  ie17: +1 x20 >= -2
  ie18: +1 x10 -1 x17 >= 0
END

0.004 sec
[12 ph, smt 1.078, isect 0.738, ins 0.040, tot 2.110]

Running SMT solver (28)... 0.012 sec
Found point (-1/6,5/6,-11/6,-5/6,0,-1,1/6,1,0,5/6,0,1,-1/6,0,0,-1,-7/6,-2,-1/6,-1,-3)
Checking... Minimizing (18,142)... (18,14), 0.033 sec
Inserting... 

MAXIMIZE
Subject To
  eq0: +1 x12 -1 x15 = 1
  eq1: -1 x3 +1 x5 +1 x7 = 2
  eq2: -1 x7 +1 x14 -1 x19 = 0
  eq3: -1 x21 = 3
  eq4: -1 x11 +1 x20 -1 x21 = 2
  eq5: -1 x4 -1 x17 +1 x20 = 1
  eq6: -1 x1 +1 x17 -1 x21 = 2
  eq7: -1 x2 +1 x13 -1 x21 = 2
  eq8: -1 x3 -1 x13 +1 x14 = 2
  eq9: -1 x9 +1 x16 -1 x21 = 2
  eq10: +1 x15 -1 x16 = 1
  eq11: +1 x8 -1 x14 = 1
  eq12: -1 x6 +1 x18 -1 x21 = 2
  eq13: -1 x10 +1 x19 -1 x21 = 2
  eq14: -1 x3 -1 x13 +1 x16 = 1
  eq15: +1 x7 +1 x19 -1 x20 = 1
  eq16: -1 x3 -1 x17 +1 x18 = 1
  eq17: -1 x18 = 2
  ie0: +1 x1 +1 x3 -1 x17 >= -1
  ie1: -1 x3 +1 x5 +1 x17 >= 0
  ie2: -1 x3 >= 1
  ie3: +1 x2 -1 x6 >= 0
  ie4: -1 x6 +1 x10 >= 0
  ie5: -1 x14 +1 x18 >= -2
  ie6: -1 x3 +1 x19 >= 1
  ie7: -1 x3 +1 x15 >= 1
  ie8: +1 x2 -1 x3 +1 x5 >= 0
  ie9: +1 x7 >= 0
  ie10: -1 x6 +1 x8 >= 0
  ie11: -1 x3 +1 x7 -1 x17 +1 x19 >= 2
  ie12: +1 x10 -1 x17 >= 0
  ie13: +1 x5 -1 x7 +1 x17 -1 x19 >= -2
END

0.000 sec
[13 ph, smt 1.090, isect 0.770, ins 0.040, tot 2.160]

Running SMT solver (29)... 0.007 sec
Found point (-1/4,7/8,-7/4,-3/4,1/8,-1,1/8,9/8,1/8,7/8,0,9/8,-1/8,1/8,1/8,-7/8,-5/4,-2,-1/8,-1,-3)
Checking... Minimizing (18,141)... (18,8), 0.029 sec
Inserting... 

MAXIMIZE
Subject To
  eq0: +1 x12 -1 x15 = 1
  eq1: -1 x3 +1 x5 +1 x7 = 2
  eq2: -1 x21 = 3
  eq3: -1 x11 +1 x20 -1 x21 = 2
  eq4: -1 x4 -1 x17 +1 x20 = 1
  eq5: -1 x1 +1 x17 -1 x21 = 2
  eq6: -1 x2 +1 x13 -1 x21 = 2
  eq7: -1 x3 -1 x13 +1 x14 = 2
  eq8: -1 x9 +1 x16 -1 x21 = 2
  eq9: +1 x15 -1 x16 = 1
  eq10: +1 x8 -1 x14 = 1
  eq11: -1 x6 +1 x18 -1 x21 = 2
  eq12: -1 x10 +1 x19 -1 x21 = 2
  eq13: -1 x3 -1 x13 +1 x16 = 1
  eq14: +1 x7 +1 x19 -1 x20 = 1
  eq15: +1 x7 -1 x18 +1 x19 = 2
  eq16: -1 x3 -1 x17 +1 x18 = 1
  eq17: -1 x18 = 2
  ie0: +1 x1 +1 x3 -1 x17 >= -1
  ie1: -1 x3 +1 x5 +1 x17 >= 0
  ie2: -1 x3 >= 1
  ie3: +1 x2 -1 x6 >= 0
  ie4: -1 x4 +1 x16 -1 x17 >= 1
  ie5: +1 x7 >= 0
  ie6: -1 x6 +1 x8 >= 0
  ie7: +1 x5 -1 x7 +1 x17 -1 x19 >= -2
END

0.003 sec
[14 ph, smt 1.097, isect 0.799, ins 0.043, tot 2.203]

Running SMT solver (30)... 0.008 sec
Found point (-1/7,13/14,-13/7,-23/28,1/14,-1,1/14,15/14,1/14,13/14,1/28,15/14,-1/14,1/14,1/14,-13/14,-8/7,-2,-1/14,-27/28,-3)
Checking... Minimizing (17,141)... (17,18), 0.034 sec
Inserting... 

MAXIMIZE
Subject To
  eq0: +1 x12 -1 x15 = 1
  eq1: -1 x3 +1 x5 +1 x7 = 2
  eq2: -1 x11 +1 x20 -1 x21 = 2
  eq3: -1 x21 = 3
  eq4: -1 x4 -1 x17 +1 x20 = 1
  eq5: -1 x1 +1 x17 -1 x21 = 2
  eq6: -1 x2 +1 x13 -1 x21 = 2
  eq7: -1 x3 -1 x13 +1 x14 = 2
  eq8: -1 x9 +1 x16 -1 x21 = 2
  eq9: +1 x15 -1 x16 = 1
  eq10: +1 x8 -1 x14 = 1
  eq11: -1 x6 +1 x18 -1 x21 = 2
  eq12: -1 x10 +1 x19 -1 x21 = 2
  eq13: -1 x3 -1 x13 +1 x16 = 1
  eq14: +1 x7 -1 x18 +1 x19 = 2
  eq15: -1 x3 -1 x17 +1 x18 = 1
  eq16: -1 x18 = 2
  ie0: +1 x14 -1 x18 >= 2
  ie1: -1 x3 +1 x5 +1 x17 >= 0
  ie2: +1 x2 +1 x4 -1 x13 >= -1
  ie3: +1 x2 +1 x4 -1 x16 >= -1
  ie4: +1 x2 -1 x3 +1 x5 >= 0
  ie5: -1 x6 +1 x8 >= 0
  ie6: -1 x4 -1 x17 +1 x18 >= -1
  ie7: -1 x3 +1 x5 >= 0
  ie8: +1 x1 +1 x3 -1 x17 >= -1
  ie9: -1 x18 +1 x20 >= 1
  ie10: -1 x3 >= 1
  ie11: +1 x3 -1 x4 -1 x17 >= -1
  ie12: +1 x2 -1 x6 >= 0
  ie13: -1 x4 +1 x16 -1 x17 >= 1
  ie14: +1 x19 >= -3
  ie15: +1 x7 >= 0
  ie16: +1 x20 >= -2
  ie17: +1 x10 -1 x17 >= 0
END

0.005 sec
[14 ph, smt 1.104, isect 0.833, ins 0.047, tot 2.253]

Running SMT solver (31)... 0.036 sec
Found point (0,1/2,-2,-3/2,1/4,-1,-1/4,1/2,-1/2,1,-1/2,1,-1/2,-1/2,-1/4,-3/2,-1,-2,-1/4,-3/2,-3)
Checking... Minimizing (19,136)... (18,21), 0.041 sec
Inserting... 

MAXIMIZE
Subject To
  eq0: +1 x14 -1 x16 = 1
  eq1: +1 x7 +1 x10 -1 x19 = 1
  eq2: -1 x3 +1 x5 +1 x7 = 2
  eq3: -1 x7 +1 x14 -1 x19 = 0
  eq4: +1 x7 +1 x12 -1 x15 = 1
  eq5: -1 x7 +1 x14 -1 x15 = 0
  eq6: -1 x21 = 3
  eq7: -1 x11 +1 x20 -1 x21 = 2
  eq8: -1 x2 -1 x3 +1 x13 = 1
  eq9: -1 x4 -1 x17 +1 x20 = 1
  eq10: -1 x9 +1 x16 -1 x21 = 2
  eq11: +1 x8 -1 x14 = 1
  eq12: -1 x6 +1 x18 -1 x21 = 2
  eq13: -1 x1 -1 x3 +1 x17 = 1
  eq14: -1 x3 -1 x13 +1 x16 = 1
  eq15: +1 x7 +1 x19 -1 x20 = 1
  eq16: -1 x3 -1 x17 +1 x18 = 1
  eq17: -1 x18 = 2
  ie0: -1 x1 -1 x3 +1 x11 >= 1
  ie1: +1 x2 +1 x3 -1 x8 >= -2
  ie2: -1 x3 +1 x15 >= 1
  ie3: +1 x2 -1 x3 +1 x5 >= 0
  ie4: +1 x2 -1 x3 -1 x13 +1 x21 >= -1
  ie5: -1 x2 -1 x3 +1 x12 >= 1
  ie6: -1 x7 +1 x21 >= -3
  ie7: -1 x6 +1 x8 >= 0
  ie8: +1 x1 +1 x3 -1 x18 >= -1
  ie9: +1 x5 -1 x7 +1 x13 -1 x15 >= -2
  ie10: +1 x2 -1 x17 >= 0
  ie11: +1 x2 -1 x6 >= 0
  ie12: -1 x6 +1 x10 >= 0
  ie13: +1 x3 -1 x4 -1 x17 >= -1
  ie14: -1 x14 +1 x18 >= -2
  ie15: -1 x7 +1 x9 -1 x12 >= -3
  ie16: -1 x3 +1 x12 >= 1
  ie17: +1 x6 -1 x7 -1 x10 >= -2
  ie18: -1 x1 -1 x3 +1 x6 >= 1
  ie19: -1 x3 +1 x7 -1 x17 +1 x19 >= 2
  ie20: +1 x5 -1 x7 +1 x17 -1 x19 >= -2
END

0.000 sec
[15 ph, smt 1.140, isect 0.874, ins 0.048, tot 2.335]

Running SMT solver (32)... 0.008 sec
Found point (-1/18,17/36,-35/18,-17/12,7/24,-1,-17/72,19/36,-17/36,1,-17/36,1,-19/36,-17/36,-17/72,-53/36,-19/18,-2,-17/72,-53/36,-3)
Checking... Minimizing (19,141)... (18,15), 0.037 sec
Inserting... 

MAXIMIZE
Subject To
  eq0: +1 x14 -1 x16 = 1
  eq1: +1 x7 +1 x10 -1 x19 = 1
  eq2: -1 x3 +1 x5 +1 x7 = 2
  eq3: -1 x7 +1 x14 -1 x19 = 0
  eq4: +1 x7 +1 x12 -1 x15 = 1
  eq5: -1 x7 +1 x14 -1 x15 = 0
  eq6: -1 x21 = 3
  eq7: -1 x11 +1 x20 -1 x21 = 2
  eq8: -1 x4 -1 x17 +1 x20 = 1
  eq9: -1 x1 +1 x17 -1 x21 = 2
  eq10: -1 x2 +1 x13 -1 x21 = 2
  eq11: -1 x9 +1 x16 -1 x21 = 2
  eq12: +1 x8 -1 x14 = 1
  eq13: -1 x6 +1 x18 -1 x21 = 2
  eq14: -1 x3 -1 x13 +1 x16 = 1
  eq15: +1 x7 +1 x19 -1 x20 = 1
  eq16: -1 x3 -1 x17 +1 x18 = 1
  eq17: -1 x18 = 2
  ie0: +1 x1 +1 x3 -1 x17 >= -1
  ie1: -1 x3 >= 1
  ie2: +1 x5 -1 x7 +1 x13 -1 x15 >= -2
  ie3: +1 x2 -1 x6 >= 0
  ie4: +1 x3 -1 x4 -1 x17 >= -1
  ie5: -1 x14 +1 x18 >= -2
  ie6: -1 x3 +1 x12 >= 1
  ie7: -1 x7 +1 x9 -1 x12 >= -3
  ie8: -1 x3 +1 x15 >= 1
  ie9: +1 x2 -1 x3 +1 x5 >= 0
  ie10: +1 x6 -1 x7 -1 x10 >= -2
  ie11: -1 x7 +1 x21 >= -3
  ie12: -1 x6 +1 x8 >= 0
  ie13: -1 x3 +1 x7 -1 x17 +1 x19 >= 2
  ie14: +1 x5 -1 x7 +1 x17 -1 x19 >= -2
END

0.007 sec
[14 ph, smt 1.148, isect 0.911, ins 0.055, tot 2.393]

Running SMT solver (33)... 0.023 sec
Found point (-1/2,0,-3/2,-1,-17/24,-1,17/24,1/2,-1/2,-5/24,-1/2,1/2,-1,-1/2,-1/2,-3/2,-3/2,-2,-29/24,-3/2,-3)
Checking... Minimizing (18,138)... (18,10), 0.029 sec
Inserting... 

MAXIMIZE
Subject To
  eq0: -1 x5 -1 x17 +1 x19 = 1
  eq1: +1 x12 -1 x15 = 1
  eq2: -1 x7 +1 x14 -1 x19 = 0
  eq3: -1 x21 = 3
  eq4: -1 x11 +1 x20 -1 x21 = 2
  eq5: -1 x4 -1 x17 +1 x20 = 1
  eq6: -1 x1 +1 x17 -1 x21 = 2
  eq7: -1 x2 +1 x13 -1 x21 = 2
  eq8: -1 x3 -1 x13 +1 x14 = 2
  eq9: -1 x9 +1 x16 -1 x21 = 2
  eq10: +1 x15 -1 x16 = 1
  eq11: +1 x8 -1 x14 = 1
  eq12: -1 x6 +1 x18 -1 x21 = 2
  eq13: -1 x10 +1 x19 -1 x21 = 2
  eq14: -1 x3 -1 x13 +1 x16 = 1
  eq15: +1 x7 +1 x19 -1 x20 = 1
  eq16: -1 x3 -1 x17 +1 x18 = 1
  eq17: -1 x18 = 2
  ie0: +1 x7 -1 x17 >= 2
  ie1: +1 x1 +1 x3 -1 x17 >= -1
  ie2: -1 x3 >= 1
  ie3: +1 x3 -1 x4 -1 x17 >= -1
  ie4: +1 x2 -1 x6 >= 0
  ie5: -1 x14 +1 x18 >= -2
  ie6: -1 x5 +1 x15 -1 x17 >= 1
  ie7: -1 x6 +1 x8 >= 0
  ie8: -1 x3 +1 x7 -1 x17 +1 x19 >= 2
  ie9: +1 x5 -1 x7 +1 x17 -1 x19 >= -2
END

0.002 sec
[14 ph, smt 1.172, isect 0.940, ins 0.057, tot 2.452]

Running SMT solver (34)... 0.014 sec
Found point (0,9/20,-2,-31/20,-19/10,-1,27/20,9/20,-11/20,-9/10,-11/20,9/20,-11/20,-11/20,-11/20,-31/20,-1,-2,-19/10,-31/20,-3)
Checking... Minimizing (17,133)... (17,22), 0.037 sec
Inserting... 

MAXIMIZE
Subject To
  eq0: -1 x5 -1 x17 +1 x19 = 1
  eq1: +1 x12 -1 x15 = 1
  eq2: -1 x7 +1 x14 -1 x19 = 0
  eq3: -1 x21 = 3
  eq4: -1 x11 +1 x20 -1 x21 = 2
  eq5: -1 x2 -1 x3 +1 x13 = 1
  eq6: -1 x4 -1 x17 +1 x20 = 1
  eq7: -1 x3 -1 x13 +1 x14 = 2
  eq8: -1 x9 +1 x16 -1 x21 = 2
  eq9: +1 x15 -1 x16 = 1
  eq10: +1 x8 -1 x14 = 1
  eq11: -1 x6 +1 x18 -1 x21 = 2
  eq12: -1 x1 -1 x3 +1 x17 = 1
  eq13: -1 x10 +1 x19 -1 x21 = 2
  eq14: -1 x3 -1 x13 +1 x16 = 1
  eq15: -1 x3 -1 x17 +1 x18 = 1
  eq16: -1 x18 = 2
  ie0: -1 x1 -1 x3 +1 x11 >= 1
  ie1: +1 x2 +1 x3 -1 x8 >= -2
  ie2: -1 x5 -1 x17 +1 x20 >= 1
  ie3: +1 x2 +1 x4 -1 x16 >= -1
  ie4: +1 x2 -1 x3 -1 x13 +1 x21 >= -1
  ie5: +1 x7 >= 1
  ie6: -1 x6 +1 x8 >= 0
  ie7: +1 x4 -1 x5 -1 x17 >= -1
  ie8: -1 x3 +1 x5 >= 0
  ie9: +1 x1 +1 x3 -1 x18 >= -1
  ie10: -1 x5 -1 x17 +1 x18 >= 0
  ie11: +1 x2 +1 x5 -1 x12 >= -2
  ie12: +1 x3 -1 x4 -1 x17 >= -1
  ie13: +1 x2 -1 x17 >= 0
  ie14: +1 x2 -1 x6 >= 0
  ie15: -1 x4 +1 x16 -1 x17 >= 1
  ie16: -1 x14 +1 x18 >= -2
  ie17: -1 x5 +1 x15 -1 x17 >= 1
  ie18: +1 x19 >= -3
  ie19: -1 x1 -1 x3 +1 x6 >= 1
  ie20: +1 x20 >= -2
  ie21: -1 x3 +1 x7 -1 x17 +1 x19 >= 2
END

0.000 sec
[15 ph, smt 1.185, isect 0.977, ins 0.057, tot 2.508]

Running SMT solver (35)... 0.010 sec
Found point (-1/10,7/20,-19/10,-29/20,-19/10,-1,29/20,9/20,-11/20,-1,-11/20,9/20,-13/20,-11/20,-11/20,-31/20,-11/10,-2,-2,-31/20,-3)
Checking... Minimizing (18,137)... (18,8), 0.026 sec
Inserting... 

MAXIMIZE
Subject To
  eq0: -1 x5 -1 x17 +1 x19 = 1
  eq1: -1 x19 = 2
  eq2: +1 x12 -1 x15 = 1
  eq3: -1 x7 +1 x14 -1 x19 = 0
  eq4: -1 x11 +1 x20 -1 x21 = 2
  eq5: -1 x21 = 3
  eq6: -1 x4 -1 x17 +1 x20 = 1
  eq7: -1 x1 +1 x17 -1 x21 = 2
  eq8: -1 x2 +1 x13 -1 x21 = 2
  eq9: -1 x3 -1 x13 +1 x14 = 2
  eq10: -1 x9 +1 x16 -1 x21 = 2
  eq11: +1 x15 -1 x16 = 1
  eq12: +1 x8 -1 x14 = 1
  eq13: -1 x6 +1 x18 -1 x21 = 2
  eq14: -1 x10 +1 x19 -1 x21 = 2
  eq15: -1 x5 -1 x13 +1 x16 = 1
  eq16: -1 x3 -1 x17 +1 x18 = 1
  eq17: -1 x18 = 2
  ie0: +1 x1 +1 x3 -1 x17 >= -1
  ie1: +1 x3 -1 x4 -1 x17 >= -1
  ie2: +1 x2 -1 x17 >= 0
  ie3: +1 x2 -1 x10 >= 0
  ie4: -1 x4 +1 x16 -1 x17 >= 1
  ie5: -1 x14 +1 x18 >= -2
  ie6: +1 x17 >= -2
  ie7: -1 x19 +1 x20 >= 0
END

0.002 sec
[14 ph, smt 1.195, isect 1.003, ins 0.059, tot 2.550]

Running SMT solver (36)... 0.008 sec
Found point (-1/8,3/8,-15/8,-11/8,-29/16,-1,23/16,1/2,-1/2,-15/16,-1/2,1/2,-5/8,-1/2,-1/2,-3/2,-9/8,-2,-31/16,-3/2,-3)
Checking... Minimizing (17,138)... (17,18), 0.031 sec
Inserting... 

MAXIMIZE
Subject To
  eq0: -1 x5 -1 x17 +1 x19 = 1
  eq1: +1 x12 -1 x15 = 1
  eq2: -1 x7 +1 x14 -1 x19 = 0
  eq3: -1 x11 +1 x20 -1 x21 = 2
  eq4: -1 x21 = 3
  eq5: -1 x4 -1 x17 +1 x20 = 1
  eq6: -1 x1 +1 x17 -1 x21 = 2
  eq7: -1 x2 +1 x13 -1 x21 = 2
  eq8: -1 x3 -1 x13 +1 x14 = 2
  eq9: -1 x9 +1 x16 -1 x21 = 2
  eq10: +1 x15 -1 x16 = 1
  eq11: +1 x8 -1 x14 = 1
  eq12: -1 x6 +1 x18 -1 x21 = 2
  eq13: -1 x10 +1 x19 -1 x21 = 2
  eq14: -1 x3 -1 x13 +1 x16 = 1
  eq15: -1 x3 -1 x17 +1 x18 = 1
  eq16: -1 x18 = 2
  ie0: -1 x5 -1 x17 +1 x20 >= 1
  ie1: +1 x2 +1 x4 -1 x13 >= -1
  ie2: +1 x2 +1 x4 -1 x16 >= -1
  ie3: +1 x7 >= 1
  ie4: -1 x6 +1 x8 >= 0
  ie5: -1 x3 +1 x5 >= 0
  ie6: +1 x1 +1 x3 -1 x17 >= -1
  ie7: -1 x5 -1 x17 +1 x18 >= 0
  ie8: -1 x3 >= 1
  ie9: +1 x3 -1 x4 -1 x17 >= -1
  ie10: +1 x2 -1 x6 >= 0
  ie11: -1 x4 +1 x16 -1 x17 >= 1
  ie12: -1 x14 +1 x18 >= -2
  ie13: -1 x5 +1 x15 -1 x17 >= 1
  ie14: +1 x19 >= -3
  ie15: +1 x20 >= -2
  ie16: -1 x3 +1 x7 -1 x17 +1 x19 >= 2
  ie17: +1 x10 -1 x17 >= 0
END

0.004 sec
[13 ph, smt 1.202, isect 1.034, ins 0.063, tot 2.598]

Running SMT solver (37)... 0.013 sec
No more solutions found



Solution:

\\\\\\\\\\\\\\\\\\\\\\\\\\\\\\\\\\\\\\\\ file 0

MAXIMIZE
Subject To
  eq0: -1 x5 -1 x17 +1 x19 = 1
  eq1: +1 x12 -1 x15 = 1
  eq2: -1 x7 +1 x14 -1 x19 = 0
  eq3: -1 x11 +1 x20 -1 x21 = 2
  eq4: -1 x21 = 3
  eq5: -1 x4 -1 x17 +1 x20 = 1
  eq6: -1 x1 +1 x17 -1 x21 = 2
  eq7: -1 x2 +1 x13 -1 x21 = 2
  eq8: -1 x3 -1 x13 +1 x14 = 2
  eq9: -1 x9 +1 x16 -1 x21 = 2
  eq10: +1 x15 -1 x16 = 1
  eq11: +1 x8 -1 x14 = 1
  eq12: -1 x6 +1 x18 -1 x21 = 2
  eq13: -1 x10 +1 x19 -1 x21 = 2
  eq14: -1 x3 -1 x13 +1 x16 = 1
  eq15: -1 x3 -1 x17 +1 x18 = 1
  eq16: -1 x18 = 2
  ie0: -1 x5 -1 x17 +1 x20 >= 1
  ie1: +1 x2 +1 x4 -1 x13 >= -1
  ie2: +1 x2 +1 x4 -1 x16 >= -1
  ie3: +1 x7 >= 1
  ie4: -1 x6 +1 x8 >= 0
  ie5: -1 x3 +1 x5 >= 0
  ie6: +1 x1 +1 x3 -1 x17 >= -1
  ie7: -1 x5 -1 x17 +1 x18 >= 0
  ie8: -1 x3 >= 1
  ie9: +1 x3 -1 x4 -1 x17 >= -1
  ie10: +1 x2 -1 x6 >= 0
  ie11: -1 x4 +1 x16 -1 x17 >= 1
  ie12: -1 x14 +1 x18 >= -2
  ie13: -1 x5 +1 x15 -1 x17 >= 1
  ie14: +1 x19 >= -3
  ie15: +1 x20 >= -2
  ie16: -1 x3 +1 x7 -1 x17 +1 x19 >= 2
  ie17: +1 x10 -1 x17 >= 0
END

\\\\\\\\\\\\\\\\\\\\\\\\\\\\\\\\\\\\\\\\ file 1

MAXIMIZE
Subject To
  eq0: -1 x5 -1 x17 +1 x19 = 1
  eq1: +1 x12 -1 x15 = 1
  eq2: -1 x7 +1 x14 -1 x19 = 0
  eq3: -1 x21 = 3
  eq4: -1 x11 +1 x20 -1 x21 = 2
  eq5: -1 x4 -1 x17 +1 x20 = 1
  eq6: -1 x1 +1 x17 -1 x21 = 2
  eq7: -1 x2 +1 x13 -1 x21 = 2
  eq8: -1 x3 -1 x13 +1 x14 = 2
  eq9: -1 x9 +1 x16 -1 x21 = 2
  eq10: +1 x15 -1 x16 = 1
  eq11: +1 x8 -1 x14 = 1
  eq12: -1 x6 +1 x18 -1 x21 = 2
  eq13: -1 x10 +1 x19 -1 x21 = 2
  eq14: -1 x3 -1 x13 +1 x16 = 1
  eq15: +1 x7 +1 x19 -1 x20 = 1
  eq16: -1 x3 -1 x17 +1 x18 = 1
  eq17: -1 x18 = 2
  ie0: +1 x7 -1 x17 >= 2
  ie1: +1 x1 +1 x3 -1 x17 >= -1
  ie2: -1 x3 >= 1
  ie3: +1 x3 -1 x4 -1 x17 >= -1
  ie4: +1 x2 -1 x6 >= 0
  ie5: -1 x14 +1 x18 >= -2
  ie6: -1 x5 +1 x15 -1 x17 >= 1
  ie7: -1 x6 +1 x8 >= 0
  ie8: -1 x3 +1 x7 -1 x17 +1 x19 >= 2
  ie9: +1 x5 -1 x7 +1 x17 -1 x19 >= -2
END

\\\\\\\\\\\\\\\\\\\\\\\\\\\\\\\\\\\\\\\\ file 2

MAXIMIZE
Subject To
  eq0: +1 x14 -1 x16 = 1
  eq1: +1 x7 +1 x10 -1 x19 = 1
  eq2: -1 x3 +1 x5 +1 x7 = 2
  eq3: -1 x7 +1 x14 -1 x19 = 0
  eq4: +1 x7 +1 x12 -1 x15 = 1
  eq5: -1 x7 +1 x14 -1 x15 = 0
  eq6: -1 x21 = 3
  eq7: -1 x11 +1 x20 -1 x21 = 2
  eq8: -1 x4 -1 x17 +1 x20 = 1
  eq9: -1 x1 +1 x17 -1 x21 = 2
  eq10: -1 x2 +1 x13 -1 x21 = 2
  eq11: -1 x9 +1 x16 -1 x21 = 2
  eq12: +1 x8 -1 x14 = 1
  eq13: -1 x6 +1 x18 -1 x21 = 2
  eq14: -1 x3 -1 x13 +1 x16 = 1
  eq15: +1 x7 +1 x19 -1 x20 = 1
  eq16: -1 x3 -1 x17 +1 x18 = 1
  eq17: -1 x18 = 2
  ie0: +1 x1 +1 x3 -1 x17 >= -1
  ie1: -1 x3 >= 1
  ie2: +1 x5 -1 x7 +1 x13 -1 x15 >= -2
  ie3: +1 x2 -1 x6 >= 0
  ie4: +1 x3 -1 x4 -1 x17 >= -1
  ie5: -1 x14 +1 x18 >= -2
  ie6: -1 x3 +1 x12 >= 1
  ie7: -1 x7 +1 x9 -1 x12 >= -3
  ie8: -1 x3 +1 x15 >= 1
  ie9: +1 x2 -1 x3 +1 x5 >= 0
  ie10: +1 x6 -1 x7 -1 x10 >= -2
  ie11: -1 x7 +1 x21 >= -3
  ie12: -1 x6 +1 x8 >= 0
  ie13: -1 x3 +1 x7 -1 x17 +1 x19 >= 2
  ie14: +1 x5 -1 x7 +1 x17 -1 x19 >= -2
END

\\\\\\\\\\\\\\\\\\\\\\\\\\\\\\\\\\\\\\\\ file 3

MAXIMIZE
Subject To
  eq0: +1 x12 -1 x15 = 1
  eq1: -1 x3 +1 x5 +1 x7 = 2
  eq2: -1 x11 +1 x20 -1 x21 = 2
  eq3: -1 x21 = 3
  eq4: -1 x4 -1 x17 +1 x20 = 1
  eq5: -1 x1 +1 x17 -1 x21 = 2
  eq6: -1 x2 +1 x13 -1 x21 = 2
  eq7: -1 x3 -1 x13 +1 x14 = 2
  eq8: -1 x9 +1 x16 -1 x21 = 2
  eq9: +1 x15 -1 x16 = 1
  eq10: +1 x8 -1 x14 = 1
  eq11: -1 x6 +1 x18 -1 x21 = 2
  eq12: -1 x10 +1 x19 -1 x21 = 2
  eq13: -1 x3 -1 x13 +1 x16 = 1
  eq14: +1 x7 -1 x18 +1 x19 = 2
  eq15: -1 x3 -1 x17 +1 x18 = 1
  eq16: -1 x18 = 2
  ie0: +1 x14 -1 x18 >= 2
  ie1: -1 x3 +1 x5 +1 x17 >= 0
  ie2: +1 x2 +1 x4 -1 x13 >= -1
  ie3: +1 x2 +1 x4 -1 x16 >= -1
  ie4: +1 x2 -1 x3 +1 x5 >= 0
  ie5: -1 x6 +1 x8 >= 0
  ie6: -1 x4 -1 x17 +1 x18 >= -1
  ie7: -1 x3 +1 x5 >= 0
  ie8: +1 x1 +1 x3 -1 x17 >= -1
  ie9: -1 x18 +1 x20 >= 1
  ie10: -1 x3 >= 1
  ie11: +1 x3 -1 x4 -1 x17 >= -1
  ie12: +1 x2 -1 x6 >= 0
  ie13: -1 x4 +1 x16 -1 x17 >= 1
  ie14: +1 x19 >= -3
  ie15: +1 x7 >= 0
  ie16: +1 x20 >= -2
  ie17: +1 x10 -1 x17 >= 0
END

\\\\\\\\\\\\\\\\\\\\\\\\\\\\\\\\\\\\\\\\ file 4

MAXIMIZE
Subject To
  eq0: +1 x12 -1 x15 = 1
  eq1: -1 x3 +1 x5 +1 x7 = 2
  eq2: -1 x7 +1 x14 -1 x19 = 0
  eq3: -1 x21 = 3
  eq4: -1 x11 +1 x20 -1 x21 = 2
  eq5: -1 x4 -1 x17 +1 x20 = 1
  eq6: -1 x1 +1 x17 -1 x21 = 2
  eq7: -1 x2 +1 x13 -1 x21 = 2
  eq8: -1 x3 -1 x13 +1 x14 = 2
  eq9: -1 x9 +1 x16 -1 x21 = 2
  eq10: +1 x15 -1 x16 = 1
  eq11: +1 x8 -1 x14 = 1
  eq12: -1 x6 +1 x18 -1 x21 = 2
  eq13: -1 x10 +1 x19 -1 x21 = 2
  eq14: -1 x3 -1 x13 +1 x16 = 1
  eq15: +1 x7 +1 x19 -1 x20 = 1
  eq16: -1 x3 -1 x17 +1 x18 = 1
  eq17: -1 x18 = 2
  ie0: +1 x1 +1 x3 -1 x17 >= -1
  ie1: -1 x3 +1 x5 +1 x17 >= 0
  ie2: -1 x3 >= 1
  ie3: +1 x2 -1 x6 >= 0
  ie4: -1 x6 +1 x10 >= 0
  ie5: -1 x14 +1 x18 >= -2
  ie6: -1 x3 +1 x19 >= 1
  ie7: -1 x3 +1 x15 >= 1
  ie8: +1 x2 -1 x3 +1 x5 >= 0
  ie9: +1 x7 >= 0
  ie10: -1 x6 +1 x8 >= 0
  ie11: -1 x3 +1 x7 -1 x17 +1 x19 >= 2
  ie12: +1 x10 -1 x17 >= 0
  ie13: +1 x5 -1 x7 +1 x17 -1 x19 >= -2
END

\\\\\\\\\\\\\\\\\\\\\\\\\\\\\\\\\\\\\\\\ file 5

MAXIMIZE
Subject To
  eq0: -1 x5 -1 x17 +1 x19 = 1
  eq1: +1 x12 -1 x15 = 1
  eq2: -1 x11 +1 x20 -1 x21 = 2
  eq3: -1 x21 = 3
  eq4: -1 x4 -1 x17 +1 x20 = 1
  eq5: -1 x1 +1 x17 -1 x21 = 2
  eq6: -1 x2 +1 x13 -1 x21 = 2
  eq7: -1 x3 -1 x13 +1 x14 = 2
  eq8: -1 x9 +1 x16 -1 x21 = 2
  eq9: +1 x15 -1 x16 = 1
  eq10: +1 x8 -1 x14 = 1
  eq11: -1 x6 +1 x18 -1 x21 = 2
  eq12: -1 x10 +1 x19 -1 x21 = 2
  eq13: -1 x3 -1 x13 +1 x16 = 1
  eq14: +1 x7 -1 x18 +1 x19 = 2
  eq15: -1 x3 -1 x17 +1 x18 = 1
  eq16: -1 x18 = 2
  ie0: +1 x14 -1 x18 >= 2
  ie1: +1 x2 +1 x4 -1 x13 >= -1
  ie2: +1 x2 +1 x4 -1 x16 >= -1
  ie3: -1 x6 +1 x8 >= 0
  ie4: +1 x7 -1 x17 >= 2
  ie5: -1 x4 -1 x17 +1 x18 >= -1
  ie6: -1 x3 +1 x5 >= 0
  ie7: +1 x1 +1 x3 -1 x17 >= -1
  ie8: -1 x18 +1 x20 >= 1
  ie9: -1 x3 >= 1
  ie10: +1 x3 -1 x4 -1 x17 >= -1
  ie11: +1 x2 -1 x6 >= 0
  ie12: -1 x4 +1 x16 -1 x17 >= 1
  ie13: -1 x7 >= -1
  ie14: -1 x5 +1 x15 -1 x17 >= 1
  ie15: +1 x19 >= -3
  ie16: +1 x7 >= 0
  ie17: +1 x20 >= -2
  ie18: +1 x10 -1 x17 >= 0
END

\\\\\\\\\\\\\\\\\\\\\\\\\\\\\\\\\\\\\\\\ file 6

MAXIMIZE
Subject To
  eq0: +1 x12 -1 x15 = 1
  eq1: -1 x7 +1 x14 -1 x19 = 0
  eq2: -1 x21 = 3
  eq3: -1 x11 +1 x20 -1 x21 = 2
  eq4: +1 x5 +1 x7 -1 x19 = 1
  eq5: -1 x4 -1 x17 +1 x20 = 1
  eq6: -1 x1 +1 x17 -1 x21 = 2
  eq7: -1 x2 +1 x13 -1 x21 = 2
  eq8: -1 x3 -1 x13 +1 x14 = 2
  eq9: -1 x9 +1 x16 -1 x21 = 2
  eq10: +1 x15 -1 x16 = 1
  eq11: +1 x8 -1 x14 = 1
  eq12: -1 x6 +1 x18 -1 x21 = 2
  eq13: -1 x10 +1 x19 -1 x21 = 2
  eq14: -1 x3 -1 x13 +1 x16 = 1
  eq15: +1 x7 +1 x19 -1 x20 = 1
  eq16: -1 x3 -1 x17 +1 x18 = 1
  eq17: -1 x18 = 2
  ie0: -1 x7 +1 x17 >= -2
  ie1: +1 x1 +1 x3 -1 x17 >= -1
  ie2: +1 x3 -1 x5 -1 x7 >= -2
  ie3: -1 x3 >= 1
  ie4: +1 x3 -1 x4 -1 x17 >= -1
  ie5: +1 x2 -1 x6 >= 0
  ie6: -1 x14 +1 x18 >= -2
  ie7: -1 x7 +1 x13 >= -2
  ie8: +1 x7 >= 0
  ie9: -1 x6 +1 x8 >= 0
  ie10: -1 x3 +1 x7 -1 x17 +1 x19 >= 2
  ie11: +1 x1 -1 x7 >= -2
  ie12: +1 x5 -1 x7 +1 x17 -1 x19 >= -2
  ie13: -1 x7 >= -3
END

\\\\\\\\\\\\\\\\\\\\\\\\\\\\\\\\\\\\\\\\ file 7

MAXIMIZE
Subject To
  eq0: +1 x14 -1 x16 = 1
  eq1: -1 x16 = 2
  eq2: -1 x6 +1 x7 +1 x10 = 2
  eq3: -1 x3 +1 x5 +1 x7 = 2
  eq4: -1 x7 +1 x14 -1 x15 = 0
  eq5: +1 x7 +1 x12 -1 x15 = 1
  eq6: -1 x4 -1 x13 +1 x16 = 1
  eq7: -1 x21 = 3
  eq8: -1 x11 +1 x20 -1 x21 = 2
  eq9: -1 x4 -1 x17 +1 x20 = 1
  eq10: -1 x1 +1 x17 -1 x21 = 2
  eq11: -1 x2 +1 x13 -1 x21 = 2
  eq12: -1 x3 -1 x13 +1 x14 = 1
  eq13: -1 x9 +1 x16 -1 x21 = 2
  eq14: +1 x8 -1 x14 = 1
  eq15: -1 x7 = 2
  eq16: +1 x7 +1 x19 -1 x20 = 1
  eq17: +1 x7 -1 x18 +1 x19 = 1
  eq18: -1 x6 +1 x18 -1 x21 = 2
  ie0: +1 x9 -1 x20 >= -2
  ie1: -1 x4 +1 x5 -1 x13 >= -1
  ie2: -1 x9 +1 x10 >= 0
  ie3: +1 x1 +1 x3 -1 x17 >= -1
  ie4: +1 x2 -1 x9 >= 0
  ie5: -1 x16 +1 x20 >= 0
  ie6: +1 x2 +1 x4 -1 x13 >= -1
  ie7: -1 x3 -1 x13 +1 x18 >= 1
  ie8: -1 x4 +1 x16 -1 x17 >= -1
END

\\\\\\\\\\\\\\\\\\\\\\\\\\\\\\\\\\\\\\\\ file 8

MAXIMIZE
Subject To
  eq0: +1 x14 -1 x16 = 1
  eq1: -1 x6 +1 x7 +1 x10 = 2
  eq2: -1 x3 +1 x5 +1 x7 = 2
  eq3: -1 x7 +1 x14 -1 x19 = 0
  eq4: +1 x7 +1 x12 -1 x15 = 1
  eq5: -1 x7 +1 x14 -1 x15 = 0
  eq6: -1 x21 = 3
  eq7: -1 x11 +1 x20 -1 x21 = 2
  eq8: -1 x4 -1 x17 +1 x20 = 1
  eq9: -1 x1 +1 x17 -1 x21 = 2
  eq10: -1 x2 +1 x13 -1 x21 = 2
  eq11: -1 x9 +1 x16 -1 x21 = 2
  eq12: +1 x8 -1 x14 = 1
  eq13: -1 x6 +1 x18 -1 x21 = 2
  eq14: -1 x3 -1 x13 +1 x16 = 1
  eq15: +1 x7 +1 x19 -1 x20 = 1
  eq16: -1 x3 -1 x17 +1 x18 = 1
  eq17: -1 x18 = 2
  ie0: +1 x1 +1 x3 -1 x17 >= -1
  ie1: -1 x3 >= 1
  ie2: +1 x5 -1 x7 +1 x13 -1 x15 >= -2
  ie3: +1 x2 -1 x6 >= 0
  ie4: +1 x3 -1 x4 -1 x17 >= -1
  ie5: -1 x14 +1 x18 >= -2
  ie6: -1 x3 +1 x12 >= 1
  ie7: -1 x7 +1 x9 -1 x12 >= -3
  ie8: +1 x2 -1 x3 +1 x5 >= 0
  ie9: -1 x6 +1 x19 >= 1
  ie10: -1 x6 +1 x8 >= 0
  ie11: -1 x3 +1 x7 -1 x17 +1 x19 >= 2
  ie12: +1 x5 -1 x7 +1 x17 -1 x19 >= -2
END

\\\\\\\\\\\\\\\\\\\\\\\\\\\\\\\\\\\\\\\\ file 9

MAXIMIZE
Subject To
  eq0: +1 x14 -1 x16 = 1
  eq1: -1 x6 +1 x7 +1 x10 = 2
  eq2: -1 x3 +1 x5 +1 x7 = 2
  eq3: -1 x7 +1 x14 -1 x15 = 0
  eq4: +1 x7 +1 x12 -1 x15 = 1
  eq5: -1 x11 +1 x20 -1 x21 = 2
  eq6: -1 x21 = 3
  eq7: -1 x4 -1 x17 +1 x20 = 1
  eq8: -1 x1 +1 x17 -1 x21 = 2
  eq9: -1 x2 +1 x13 -1 x21 = 2
  eq10: -1 x9 +1 x16 -1 x21 = 2
  eq11: +1 x8 -1 x14 = 1
  eq12: -1 x6 +1 x18 -1 x21 = 2
  eq13: -1 x3 -1 x13 +1 x16 = 1
  eq14: +1 x7 -1 x18 +1 x19 = 2
  eq15: -1 x3 -1 x17 +1 x18 = 1
  eq16: -1 x18 = 2
  ie0: +1 x14 -1 x18 >= 2
  ie1: +1 x2 +1 x4 -1 x13 >= -1
  ie2: +1 x2 +1 x4 -1 x16 >= -1
  ie3: +1 x2 -1 x3 +1 x5 >= 0
  ie4: -1 x6 +1 x8 >= 0
  ie5: -1 x4 -1 x17 +1 x18 >= -1
  ie6: +1 x1 +1 x3 -1 x17 >= -1
  ie7: -1 x18 +1 x20 >= 1
  ie8: -1 x3 >= 1
  ie9: +1 x5 -1 x7 +1 x13 -1 x15 >= -2
  ie10: +1 x2 -1 x6 >= 0
  ie11: +1 x3 -1 x4 -1 x17 >= -1
  ie12: -1 x4 +1 x16 -1 x17 >= 1
  ie13: -1 x3 +1 x12 >= 1
  ie14: -1 x7 +1 x9 -1 x12 >= -3
  ie15: -1 x6 +1 x19 >= 1
  ie16: +1 x20 >= -2
END

\\\\\\\\\\\\\\\\\\\\\\\\\\\\\\\\\\\\\\\\ file 10

MAXIMIZE
Subject To
  eq0: +1 x14 -1 x16 = 1
  eq1: -1 x16 = 2
  eq2: -1 x6 +1 x7 +1 x10 = 2
  eq3: -1 x3 +1 x5 +1 x7 = 2
  eq4: -1 x7 +1 x14 -1 x15 = 0
  eq5: +1 x7 +1 x12 -1 x15 = 1
  eq6: -1 x3 -1 x13 +1 x18 = 1
  eq7: -1 x4 -1 x13 +1 x16 = 1
  eq8: -1 x21 = 3
  eq9: -1 x11 +1 x20 -1 x21 = 2
  eq10: -1 x4 -1 x17 +1 x20 = 1
  eq11: -1 x1 +1 x17 -1 x21 = 2
  eq12: -1 x2 +1 x13 -1 x21 = 2
  eq13: -1 x9 +1 x16 -1 x21 = 2
  eq14: +1 x8 -1 x14 = 1
  eq15: -1 x7 = 2
  eq16: +1 x7 +1 x19 -1 x20 = 1
  eq17: +1 x7 -1 x18 +1 x19 = 1
  eq18: -1 x6 +1 x18 -1 x21 = 2
  ie0: +1 x9 -1 x20 >= -2
  ie1: -1 x4 +1 x5 -1 x13 >= -1
  ie2: -1 x9 +1 x10 >= 0
  ie3: +1 x1 +1 x3 -1 x17 >= -1
  ie4: +1 x1 +1 x3 -1 x18 >= -1
  ie5: -1 x3 +1 x4 >= -1
  ie6: +1 x2 -1 x9 >= 0
  ie7: +1 x2 +1 x4 -1 x13 >= -1
  ie8: -1 x3 +1 x15 >= 1
  ie9: -1 x4 +1 x16 -1 x17 >= -1
  ie10: +1 x3 -1 x4 >= 0
END

\\\\\\\\\\\\\\\\\\\\\\\\\\\\\\\\\\\\\\\\ file 11

MAXIMIZE
Subject To
  eq0: -1 x5 -1 x17 +1 x19 = 1
  eq1: +1 x12 -1 x15 = 1
  eq2: -1 x11 +1 x20 -1 x21 = 2
  eq3: -1 x21 = 3
  eq4: -1 x4 -1 x17 +1 x20 = 1
  eq5: -1 x1 +1 x17 -1 x21 = 2
  eq6: -1 x2 +1 x13 -1 x21 = 2
  eq7: -1 x3 -1 x13 +1 x14 = 2
  eq8: -1 x9 +1 x16 -1 x21 = 2
  eq9: +1 x15 -1 x16 = 1
  eq10: +1 x8 -1 x14 = 1
  eq11: -1 x6 +1 x18 -1 x21 = 2
  eq12: -1 x10 +1 x19 -1 x21 = 2
  eq13: -1 x3 -1 x13 +1 x16 = 1
  eq14: +1 x7 -1 x18 +1 x19 = 2
  eq15: -1 x3 -1 x17 +1 x18 = 1
  eq16: -1 x18 = 2
  ie0: +1 x14 -1 x18 >= 2
  ie1: -1 x5 -1 x17 +1 x20 >= 1
  ie2: +1 x2 +1 x4 -1 x13 >= -1
  ie3: +1 x2 +1 x4 -1 x16 >= -1
  ie4: -1 x6 +1 x8 >= 0
  ie5: -1 x4 -1 x17 +1 x18 >= -1
  ie6: -1 x3 +1 x5 >= 0
  ie7: +1 x1 +1 x3 -1 x17 >= -1
  ie8: -1 x5 -1 x17 +1 x18 >= 0
  ie9: -1 x3 >= 1
  ie10: +1 x3 -1 x4 -1 x17 >= -1
  ie11: +1 x2 -1 x6 >= 0
  ie12: -1 x4 +1 x16 -1 x17 >= 1
  ie13: -1 x5 +1 x15 -1 x17 >= 1
  ie14: +1 x19 >= -3
  ie15: +1 x20 >= -2
  ie16: +1 x10 -1 x17 >= 0
END

\\\\\\\\\\\\\\\\\\\\\\\\\\\\\\\\\\\\\\\\ file 12

MAXIMIZE
Subject To
  eq0: +1 x14 -1 x16 = 1
  eq1: +1 x7 +1 x10 -1 x19 = 1
  eq2: -1 x7 +1 x14 -1 x15 = 0
  eq3: -1 x7 +1 x14 -1 x19 = 0
  eq4: +1 x7 +1 x12 -1 x15 = 1
  eq5: -1 x21 = 3
  eq6: -1 x11 +1 x20 -1 x21 = 2
  eq7: +1 x5 +1 x7 -1 x19 = 1
  eq8: -1 x4 -1 x17 +1 x20 = 1
  eq9: -1 x1 +1 x17 -1 x21 = 2
  eq10: -1 x2 +1 x13 -1 x21 = 2
  eq11: -1 x9 +1 x16 -1 x21 = 2
  eq12: +1 x8 -1 x14 = 1
  eq13: -1 x6 +1 x18 -1 x21 = 2
  eq14: -1 x3 -1 x13 +1 x16 = 1
  eq15: +1 x7 +1 x19 -1 x20 = 1
  eq16: -1 x3 -1 x17 +1 x18 = 1
  eq17: -1 x18 = 2
  ie0: +1 x3 -1 x5 -1 x7 >= -2
  ie1: -1 x7 +1 x13 >= -2
  ie2: -1 x7 +1 x21 >= -3
  ie3: -1 x6 +1 x8 >= 0
  ie4: -1 x7 >= -3
  ie5: -1 x7 +1 x17 >= -2
  ie6: +1 x1 +1 x3 -1 x17 >= -1
  ie7: -1 x3 >= 1
  ie8: +1 x5 -1 x7 +1 x13 -1 x15 >= -2
  ie9: +1 x2 -1 x6 >= 0
  ie10: +1 x3 -1 x4 -1 x17 >= -1
  ie11: -1 x14 +1 x18 >= -2
  ie12: -1 x6 +1 x10 >= 0
  ie13: -1 x7 +1 x9 -1 x12 >= -3
  ie14: +1 x1 -1 x7 >= -2
  ie15: -1 x3 +1 x7 -1 x17 +1 x19 >= 2
  ie16: +1 x10 -1 x17 >= 0
  ie17: +1 x5 -1 x7 +1 x17 -1 x19 >= -2
END

\\\\\\\\\\\\\\\\\\\\\\\\\\\\\\\\\\\\\\\\ end



13 polyhedra, 37 rounds, smt 1.215 sec, isect 1.034 sec, insert 0.063 sec, total 2.624 sec
Preprocessing 0.000 sec, super total 2.624 sec
Comparing... 0.936 sec.  Solution matches input.
