k1 = 16/5
k2 = 1344
k3 = 132/125
k4 = 1/1000
k5 = 7/25000000
k6 = 7/125000
k7 = 633/31250000
k8 = 1/10000
k9 = 917/31250000
k10 = 1/10000
k11 = 1033/31250000
k12 = 1/10000
k13 = 967/31250000
k14 = 1/10000
k15 = 7/125000
k16 = 147/6250
k17 = 7/125000
k18 = 7/125000
k19 = 7/125000
k20 = 7/125000
k21 = 7/125000
k22 = 7/125000
k23 = 7/125000
k24 = 7/125000
k25 = 953471/100000000
k26 = 660377/10000000000
k27 = 427827/100000000
k28 = 488281/5000000
k29 = 227/200000
k30 = 227/200000
k31 = 59267/5000000
k32 = 227/2000
k33 = 5/16
k34 = 5/16
k35 = 1/32
k36 = 1/32
k37 = 9/20
k38 = 5/16
k39 = 5/16
k40 = 3/10
k41 = 488281/50000000
k42 = 1/32
k43 = 1/15625
k44 = 1/10000
k45 = 1/625000
k46 = 1/10000
k47 = 112451/50000000000
k48 = 1/10000
k49 = 24133/31250000
k50 = 1/10000
k51 = 3/312500
k52 = 1/10000
k53 = 1/10000
k54 = 1/10000
k55 = 1/10000
k56 = 394201/1000000000
k57 = 77011/50000000
k58 = 1/10000
k59 = 1/10000
k60 = 115517/10000000
k61 = 235249/500000000
k62 = 104931/1000000000
k63 = 10359/62500000
k64 = 375/4
k65 = 1/10
k66 = 1/160
k67 = 5/4
k68 = 104167/1000000
k69 = 1/80
k70 = 30303/1000000000
k71 = 606061/10000000
k72 = 1/200
k73 = 32197/12500000
k74 = 3587/2500
k75 = 30303/2000000
k76 = 94697/2500000000
k77 = 30303/2000000
k78 = 333333/10000000000
k79 = 506061/10000000
k80 = 333333/10000000000
k81 = 687273/100000000
k82 = 197531/1000000000
k83 = 154321/2500000000
k84 = 493827/10000000000
k85 = 154321/2500000000
k86 = 197531/50000000000
k87 = 154321/2500000000
k88 = 36169/625000000
k89 = 36169/625000000
k90 = 36169/625000000
k91 = 36169/625000000
k92 = 166603/100000000000
k93 = 36169/6250000000
k94 = 36169/625000000
k95 = 36169/6250000000
k96 = 482253/50000000000
k97 = 36169/6250000000
k98 = 1/64
k99 = 3/320
k100 = 1/640
k101 = 5/8
k102 = 1/1000
k103 = 15/8
k104 = 1/20000
k105 = 5/32
k106 = 5/32
k107 = 3/16
k108 = 520833/1000000
k109 = 1/1000
