k1 = 1/100
k2 = 0
k3 = 0
k4 = 0
k5 = 0
k6 = 0
k7 = 0
k8 = 0
k9 = 0
k10 = 0
k11 = 1
k12 = 1
k13 = 123/2500
k14 = 40
k15 = 117/50
k16 = 8/5
k17 = 8/5
k18 = 29/125
k19 = 63767/250
k20 = 53/100
k21 = 351/100
k22 = 1/5
k23 = 29/10
k24 = 1/5
k25 = 189/20
k26 = 3333/100000
k27 = 3333/100000
k28 = 1
k29 = 1/10
k30 = 1000
k31 = 159/5000
k32 = 351/100
k33 = 53/100
k34 = 83/5
k35 = 1000
k36 = 39/250
k37 = 39/250
k38 = 4/25
k39 = 1/10
k40 = 1/100
k41 = 1
k42 = 1/100
k43 = 1900
k44 = 869/100
k45 = 1/100
k46 = 73/50000
k47 = 1/10000
k48 = 31/1000
k49 = 1/10000
k50 = 1/10
k51 = 57/250000
k52 = 57/2000
k53 = 1/50000
k54 = 11/20000
k55 = 1/80
k56 = 1
k57 = 661/12500
k58 = 39/250
k59 = 42/125
k60 = 13889/500000
k61 = 13889/500000
k62 = 13889/500000
k63 = 3333/100000
k64 = 39/2500
k65 = 1183/100000
k66 = 633/5000
k67 = 13/200
k68 = 351/100
k69 = 53/100
k70 = 29/125
k71 = 2333/10000
k72 = 2257/1250
k73 = 1/5
k74 = 1/10
k75 = 1/5
k76 = 283/6250
k77 = 1/5
k78 = 351/100
k79 = 53/100
k80 = 40
k81 = 117/50
k82 = 53/100
k83 = 351/100
k84 = 1000
k85 = 159/5000
k86 = 351/100
k87 = 53/100
k88 = 1/5
k89 = 39/250
k90 = 42/125
k91 = 1
k92 = 1/10
k93 = 123/2500
k94 = 83/5
k95 = 1000
k96 = 63767/250
k97 = 8/5
k98 = 8/5
k99 = 4/25
k100 = 29/125
k101 = 1/10
k102 = 29/125
k103 = 1/10
k104 = 1/5
k105 = 1/50000
k106 = 11/20000
k107 = 1/20
k108 = 1
k109 = 661/12500
k110 = 1/10
k111 = 1/10
k112 = 29/10
k113 = 1/5
k114 = 1/10000
k115 = 11/5000
k116 = 8/5
k117 = 8/5
k118 = 1900
k119 = 1
k120 = 1/100
k121 = 1/2
k122 = 1/20
k123 = 3
k124 = 463/1000
k125 = 51/500
k126 = 463/1000
k127 = 51/500
k128 = 1/5
k129 = 1/5
k130 = 1/5
k131 = 1/5
k132 = 1/5
k133 = 1/5
k134 = 8/5
k135 = 8/5
k136 = 1/5
k137 = 1/5
k138 = 1/10
k139 = 1/10
k140 = 1/10
k141 = 1/10
k142 = 1
k143 = 1
k144 = 1
k145 = 1
k146 = 1/200
k147 = 1/200
k148 = 1/50000
k149 = 1/10
k150 = 1/10
k151 = 1/10
k152 = 1/10
k153 = 1/10
k154 = 1599999922951/16000000000000
