k1 = 60
k2 = 1
k3 = 1/20
k4 = 200
k5 = 300
k6 = 60
k7 = 3/2500000
k8 = 1/200
k9 = 11/100000
k10 = 32000009511569/400000000000
k11 = 39964517478911/400000000000
k12 = 1
k13 = 5
k14 = 321/100000
k15 = 1/25
k16 = 5/2
k17 = 3/2000
k18 = 69/1250000
k19 = 3/500
k20 = 10
k21 = 3/1000
k22 = 1/312500
k23 = 3/1000
k24 = 999/50
k25 = 1/1000
k26 = 171/200000
k27 = 8/125
k28 = 60
k29 = 600
k30 = 1/1000
k31 = 60
k32 = 600000
k33 = 3/2000
k34 = 83/1000
k35 = 15000
k36 = 15000
k37 = 23000
k38 = 2/125
k39 = 2/125
k40 = 3/250
k41 = 1/2
k42 = 1000
k43 = 1000
k44 = 60
k45 = 600000
k46 = 3/2000
k47 = 60
k48 = 60
k49 = 1/1000
k50 = 60
k51 = 60000
k52 = 3/2000
k53 = 17/4000
k54 = 23000
k55 = 15000
k56 = 15000
k57 = 100
k58 = 100
k59 = 60
k60 = 270
k61 = 60
k62 = 900000
k63 = 1000
k64 = 100000029723653/100000000000000
k65 = 100000029723653/100000000000000
k66 = 0
k67 = 0
k68 = 240000071336767/10000000000000
k69 = 0
k70 = 0
k71 = 0
k72 = 300000089170959/1000000000
k73 = 137500040870023/50000000000
k74 = 1000010537239573702067/10000000000000000000
k75 = 4150001233531603/5000000000000000
k76 = 8300242467134544437/10000000000000000000
k77 = 10375003083829/12500000000000
k78 = 1660000493412641/2000000000000000
