k1 = 0
k2 = 28/5
k3 = 1
k4 = 1
k5 = 1
k6 = 36
k7 = 1
k8 = 1
k9 = 31/50000
k10 = 1/500
k11 = 1079/5000
k12 = 31/50000
k13 = 3/2
k14 = 11/100
k15 = 1079/5000
k16 = 11/100
k17 = 1079/5000
k18 = 3308
k19 = 2042
k20 = 0
k21 = 1/1000
k22 = 0
k23 = 1/1000
k24 = 0
k25 = 1/1000
k26 = 0
k27 = 1/1000
k28 = 461111111111111/100000000000000000
k29 = 1/10
k30 = 461111111111111/100000000000000000
k31 = 1/10
k32 = 461111111111111/100000000000000000
k33 = 1/10
k34 = 461111111111111/100000000000000000
k35 = 1/10
k36 = 461111111111111/100000000000000000
k37 = 1/10
k38 = 461111111111111/100000000000000000
k39 = 1/10
k40 = 13/10000
k41 = 13/10000
k42 = 13/10000
k43 = 0
k44 = 0
k45 = 520918367346939/1000000000000
k46 = 0
k47 = 0
k48 = 31/50000
k49 = 31/50000
k50 = 3/2
k51 = 1/100
k52 = 31/50000
k53 = 98/25
k54 = 2042
k55 = 2042
k56 = 3308
